NAME: L 696475
ID: YXPQASAXLVDDEP
IsSpectrumSearch: False
INCHIKEY: YXPQASAXLVDDEP-BBXOWAOSNA-N
SMILES: O=C(OC1C=CC(C)CC(C)CC=CC2C=C(C)C(C)C3C(NC(=O)C123)CC4=CC=CC=C4)C
RESOURCES: KNApSAcK=C00017263
SubstructureInChIKeys: VNWKTOKETHGBQD;VGGSQFUCUMXWEO;WSFSSNUMVMOOMR;QQONPFPTGQHPMA;IKHGUXGNUITLKF;ATUOYWHBWRKTHZ;ROSDSFDQCJNGOL;LCGLNKUTAGEVQW;IAQRGUVFOMOMEM;VQTUBCCKSQIDNK;VXNZUUAINFGPBY;NBBJYMSMWIIQGU;XXROGKLTLUQVRX;IJDNQMDRQITEOD;NNPPMTNAJDCUHE;ATHHXGZTWNVVOU;JJWLVOIRVHMVIS;LIWAQLJGPBVORC;QTBSBXVTEAMEQO;TZIHFWKZFHZASV;BDERNNFJNOPAEC;XOBKSJJDNFUZPF;BKOOMYPCSUNDGP;QMMOXUPEWRXHJS;YWAKXRMUMFPDSH;RWRDLPDLKQPQOW;ZTQSAGDEMFDKMZ;OFBQJSOFQDEBGM;QWTDNUCVQCZILF;GVWISOJSERXQBM;HPNMFZURTQLUMO;HQABUPZFAYXKJW;KDSNLYIMUZNERS;XHFGWHUWQXTGAT;AKXKFZDCRYJKTF;KXKVLQRXCPHEJC;WBJINCZRORDGAQ;LRHPLDYGYMQRHN;VNKYTQGIUYNRMY;ZXEKIIBDNHEJCQ;WUGQZFFCHPXWKQ;UHOVQNZJYSORNB;PRBHEGAFLDMLAL;BEQGRRJLJLVQAQ;LDTAOIUHUHHCMU;LIKMAJRDDDTEIG;RYPKRALMXUUNKS;ZQDPJFUHLCOCRG;GJYMQFMQRRNLCY;HGBOYTHUEUWSSQ;AFABGHUZZDYHJO;HNRMPXKDFBEGFZ;PFEOZHBOMNWTJB;VLKZOEOYAKHREP;DZQLQEYLEYWJIB;SUUDTPGCUKBECW;BMFVGAAISNGQNM;DPBLXKKOBLCELK;QCOGKXLOEWLIDC;VJROPLWGFCORRM;XEKOWRVHYACXOJ;AMQJEAYHLZJPGS;FVNIMHIOIXPIQT;JYVLIDXNZAXMDK;MXLMTQWGSQIYOW;PHTQWCKDNZKARW;YXFVVABEGXRONW;FMAMSYPJXSEYSW;USLRUYZDOLMIRJ;WZHKDGJSXCTSCK;ZGEGCLOFRBLKSE;BVOSSZSHBZQJOI;JARKCYVAAOWBJS;BZHMBWZPUJHVEE;IMNFDUFMRHMDMM;VLJXXKKOSFGPHI;VLSTXUUYLIALPB;ZSIAUFGUXNUGDI;YNQLUTRBYVCPMQ;GDDAJHJRAKOILH;UDOAKURRCZMWOJ;KWKAKUADMBZCLK;PZKFYTOLVRCMOA;JVSWJIKNEAIKJW;TVMXDCGIABBOFY;CETWDUZRCINIHU;OVOVDHYEOQJKMD;ODLMAHJVESYWTB;BHHGXPLMPWCGHP;NMFOAHIHPAPYJJ;ZUSUVEKHEZURSD;IICQZTQZQSBHBY;KPADFPAILITQBG;LZHHQGKEJNRBAZ;OHEFFKYYKJVVOX;VSMOENVRRABVKN;PFBUXLQVTTXUQM;SASNBVQSOZSTPD;BQOAKIRTXKZTKD;ZIWXVGHUDKNNSH
SubstructureOntologies: CHEMONTID:0002500;CHEMONTID:0004476;CHEMONTID:0001831;CHEMONTID:0002230;CHEMONTID:0002228;CHEMONTID:0001167;CHEMONTID:0004622;CHEMONTID:0002434;CHEMONTID:0000286;CHEMONTID:0004620;CHEMONTID:0002484;CHEMONTID:0000469;CHEMONTID:0001205;CHEMONTID:0001238;CHEMONTID:0000218;CHEMONTID:0003416;CHEMONTID:0001852;CHEMONTID:0002279;CHEMONTID:0001019;CHEMONTID:0001661;CHEMONTID:0001663;CHEMONTID:0001091;CHEMONTID:0002229;CHEMONTID:0001334;CHEMONTID:0002811;CHEMONTID:0000186;CHEMONTID:0000331
Ontology: Isoindoles
OntologyID: CHEMONTID:0000127
RETENTIONTIME: -1
RETENTIONINDEX: -1
TotalBondEnergy: 31090
TotalScore: 6.2797
TotalHrRulesScore: 1
TotalBondCleavageScore: 0.6438
TotalMassAccuracyScore: 0.8565
TotalFragmentLinkageScore: 1
TotalBondDissociationEnergyScore: 0.8508
DatabaseScore: 0.5238
SubstructureAssignmentScore: 0.0357
RtSimilarityScore: -1
RiSimilarityScore: 0
Num Fragment VS2 (M/Z Intensity MatchedExactMass SaturatedExactMass Formula RearrangedHydrogen PPM MassDiff_mDa IsEvenElectronRule IsHrRule IsSolventAdductFragment AssignedAdductMass AdductString BondDissociationEnergy TreeDepth SMILES TotalScore HrLikelihood BcLikelihood MaLikelihood FlLikelihood BeLikelihood): 3
171.164932	35025.64969	171.137952724631	170.130676269531	C10H18O2	1	157.62	26.98	True	True	False	0		692	1	O=C(OCC=CC(C)CCC)C	3.89069781361113	1	0.202499985694885	0.864523947238922	1	0.823673880677321
281.149159	14878.196449	281.190001538069	286.229675292969	C20H30O	-5	145.27	40.84	True	True	False	0		1009	2	O=CC12(CC=CC(C)CC(C)CC=CC2(C=C(C)C(C)C1))	4.17411329354385	1	0.7289999127388	0.716324090957642	1	0.728789289847403
462.292741	50322.12165	462.300275722678	461.292999267578	C30H39NO3	1	16.3	7.54	True	True	False	0		0	0	O=C(OC1C=CC(C)CC(C)CC=CC2C=C(C)C(C)C3C(NC(=O)C123)CC4=CC=CC=C4)C	4.98870980739594	1	1	0.988709807395935	1	1

