NAME: TMC-1C
ID: WDPVYGCEBGDANZ
IsSpectrumSearch: False
INCHIKEY: WDPVYGCEBGDANZ-CBJLNXOMNA-N
SMILES: O=C(C=CC=CC=CC1(O)(C=C(NC(=O)C=CC(=CC(C)CCCC)C)C(=O)CC1(O)))NC=2C(=O)CCC=2(O)
RESOURCES: ChEBI=CHEBI:66236,LipidMAPS=LMFA08020205,UNPD=UNPD139487
SubstructureInChIKeys: VNWKTOKETHGBQD;XLYOFNOQVPJJNP;VGGSQFUCUMXWEO;WSFSSNUMVMOOMR;OTMSDBZUPAUEDD;OKKJLVBELUTLKV;QQONPFPTGQHPMA;IKHGUXGNUITLKF;IMROMDMJAWUWLK;ATUOYWHBWRKTHZ;ROSDSFDQCJNGOL;LFQSCWFLJHTTHZ;HGINCPLSRVDWNT;IAQRGUVFOMOMEM;VQTUBCCKSQIDNK;VXNZUUAINFGPBY;CSCPPACGZOOCGX;NBBJYMSMWIIQGU;XXROGKLTLUQVRX;IJDNQMDRQITEOD;NNPPMTNAJDCUHE;ATHHXGZTWNVVOU;LYIIBVSRGJSHAV;LIWAQLJGPBVORC;BDERNNFJNOPAEC;KFZMGEQAYNKOFK;LYCAIKOWRPUZTN;MLUCVPSAIODCQM;BKOOMYPCSUNDGP;QMMOXUPEWRXHJS;YWAKXRMUMFPDSH;GMSHJLUJOABYOM;MKUWVMRNQOOSAT;ZSPTYLOMNJNZNG;ZTQSAGDEMFDKMZ;OFBQJSOFQDEBGM;QWTDNUCVQCZILF;GVWISOJSERXQBM;HPNMFZURTQLUMO;HQABUPZFAYXKJW;AKXKFZDCRYJKTF;BTANRVKWQNVYAZ;LRHPLDYGYMQRHN;ZXEKIIBDNHEJCQ;DNIAPMSPPWPWGF;VIBDJEWPNNCFQO;PRBHEGAFLDMLAL;ACZNIBVNGPLHAC;LDTAOIUHUHHCMU;LIKMAJRDDDTEIG;RYPKRALMXUUNKS;ZQDPJFUHLCOCRG;FSUXYWPILZJGCC;GJYMQFMQRRNLCY;HGBOYTHUEUWSSQ;AFABGHUZZDYHJO;VLKZOEOYAKHREP;SUUDTPGCUKBECW;DPBLXKKOBLCELK;QCOGKXLOEWLIDC;AMQJEAYHLZJPGS;AQIXEPGDORPWBJ;JYVLIDXNZAXMDK;MXLMTQWGSQIYOW;BMRWNKZVCUKKSR;FWFSEYBSWVRWGL;FMAMSYPJXSEYSW;USLRUYZDOLMIRJ;VAOJQRMYAXTUQI;WZHKDGJSXCTSCK;ZGEGCLOFRBLKSE;BVOSSZSHBZQJOI;UFLHIIWVXFIJGU;WCVRQHFDJLLWFE;XLMFDCKSFJWJTP;PKHBEGZTQNOZLP;RKSNPTXBQXBXDJ;YGDXNKVVWAQSEN;GDDAJHJRAKOILH;UDOAKURRCZMWOJ;PZKFYTOLVRCMOA;PMQMMDVXYSSGCD;NMFOAHIHPAPYJJ;KPADFPAILITQBG
SubstructureOntologies: CHEMONTID:0002500;NonID:H2O;CHEMONTID:0004476;CHEMONTID:0001831;CHEMONTID:0000286;CHEMONTID:0002230;CHEMONTID:0000132;CHEMONTID:0002228;CHEMONTID:0002436;CHEMONTID:0004622;CHEMONTID:0000118;CHEMONTID:0002434;CHEMONTID:0004620;CHEMONTID:0002484;CHEMONTID:0000469;CHEMONTID:0001661;CHEMONTID:0002467;CHEMONTID:0002286;CHEMONTID:0001019;CHEMONTID:0001663;CHEMONTID:0004325;CHEMONTID:0002229;CHEMONTID:0001334;CHEMONTID:0002841
Ontology: Cyclohexenones
OntologyID: CHEMONTID:0004325
RETENTIONTIME: -1
RETENTIONINDEX: -1
TotalBondEnergy: 32828
TotalScore: 6.5339
TotalHrRulesScore: 1
TotalBondCleavageScore: 1
TotalMassAccuracyScore: 0.9944
TotalFragmentLinkageScore: 1
TotalBondDissociationEnergyScore: 1
DatabaseScore: 0.5714
SubstructureAssignmentScore: 0
RtSimilarityScore: -1
RiSimilarityScore: 0
Num Fragment VS2 (M/Z Intensity MatchedExactMass SaturatedExactMass Formula RearrangedHydrogen PPM MassDiff_mDa IsEvenElectronRule IsHrRule IsSolventAdductFragment AssignedAdductMass AdductString BondDissociationEnergy TreeDepth SMILES TotalScore HrLikelihood BcLikelihood MaLikelihood FlLikelihood BeLikelihood): 1
539.280462	3622057.347573	539.275159755881	538.267883300781	C30H38N2O7	1	9.83	5.3	True	True	False	0		0	0	O=C(C=CC=CC=CC1(O)(C=C(NC(=O)C=CC(=CC(C)CCCC)C)C(=O)CC1(O)))NC=2C(=O)CCC=2(O)	4.99439299106598	1	1	0.994392991065979	1	1

