NAME: Tetracosanal;1-Tetracosanal;n-Tetracosanal
ID: HGINZVDZNQJVLQ
IsSpectrumSearch: False
INCHIKEY: HGINZVDZNQJVLQ-UHFFFAOYSA-N
SMILES: O=CCCCCCCCCCCCCCCCCCCCCCCC
RESOURCES: KNApSAcK=C00032306,LipidMAPS=LMFA06000103,UNPD=UNPD101319
SubstructureInChIKeys: VNWKTOKETHGBQD;WSFSSNUMVMOOMR;OTMSDBZUPAUEDD;IKHGUXGNUITLKF;ATUOYWHBWRKTHZ;NBBJYMSMWIIQGU;IJDNQMDRQITEOD;ZTQSAGDEMFDKMZ;OFBQJSOFQDEBGM;HGBOYTHUEUWSSQ;VLKZOEOYAKHREP;JARKCYVAAOWBJS;IMNFDUFMRHMDMM;FXHGMKSSBGDXIY;TVMXDCGIABBOFY;NUJGJRNETVAIRJ;GYHFUZHODSMOHU;KSMVZQYAVGTKIV;KMPQYAYAQWNLME;HFJRKMMYBMWEAD;BGEHHAVMRVXCGR;UHUFTBALEZWWIH;XGQJZNCFDLXSIJ;NIOYUNMRJMEDGI;PIYDVAYKYBWPPY;FWWQKRXKHIRPJY;SXIYYZWCMUFWBW;FWBUWJHWAKTPHI;FJZCFGKQFDPNHS;ULCXRAFXRZTNRO;IALIDHPAWNTXOK;HGINZVDZNQJVLQ
SubstructureOntologies: CHEMONTID:0002500;CHEMONTID:0001831;CHEMONTID:0002230;CHEMONTID:0002434;CHEMONTID:0002229;CHEMONTID:0000298
Ontology: Fatty aldehydes
OntologyID: CHEMONTID:0000298
RETENTIONTIME: -1
RETENTIONINDEX: -1
TotalBondEnergy: 28435
TotalScore: 5.8117
TotalHrRulesScore: 0.6
TotalBondCleavageScore: 0.29
TotalMassAccuracyScore: 0.5422
TotalFragmentLinkageScore: 0.6
TotalBondDissociationEnergyScore: 0.4828
DatabaseScore: 0.5714
SubstructureAssignmentScore: 0
RtSimilarityScore: -1
RiSimilarityScore: 0
Num Fragment VS2 (M/Z Intensity MatchedExactMass SaturatedExactMass Formula RearrangedHydrogen PPM MassDiff_mDa IsEvenElectronRule IsHrRule IsSolventAdductFragment AssignedAdductMass AdductString BondDissociationEnergy TreeDepth SMILES TotalScore HrLikelihood BcLikelihood MaLikelihood FlLikelihood BeLikelihood): 3
115.079059	324281.918352	115.111738125022	114.104461669922	C7H14O	1	283.97	32.68	True	True	False	0		346	1	O=CCCCCCC	3.73979024309107	1	0.224999994039536	0.80768346786499	1	0.707106781186548
211.184952	302502.001079	211.205646160491	212.214019775391	C14H28O	-1	97.99	20.69	True	True	False	0		346	1	O=CCCCCCCCCCCCCC	3.85002253669688	1	0.224999994039536	0.917915761470795	1	0.707106781186548
391.341648	356911.742844	391.333123436216	352.370513916016	C24H48O	0	21.78	8.52	True	True	True	38.9631581001	+K	0	0	O=CCCCCCCCCCCCCCCCCCCCCCCC	4.98557144403458	1	1	0.985571444034576	1	1

NAME: UNPD123527
ID: OIFFIGASLZKVBQ
IsSpectrumSearch: False
INCHIKEY: OIFFIGASLZKVBQ-KHPPLWFESA-N
SMILES: OCCCCCCCCCCCCCC=CCCCCCCCCC
RESOURCES: UNPD=UNPD123527
SubstructureInChIKeys: VNWKTOKETHGBQD;XLYOFNOQVPJJNP;VGGSQFUCUMXWEO;OTMSDBZUPAUEDD;OKKJLVBELUTLKV;ATUOYWHBWRKTHZ;LFQSCWFLJHTTHZ;IAQRGUVFOMOMEM;VXNZUUAINFGPBY;IJDNQMDRQITEOD;BDERNNFJNOPAEC;QMMOXUPEWRXHJS;YWAKXRMUMFPDSH;OFBQJSOFQDEBGM;LRHPLDYGYMQRHN;LIKMAJRDDDTEIG;RYPKRALMXUUNKS;ZQDPJFUHLCOCRG;VLKZOEOYAKHREP;AMQJEAYHLZJPGS;WZHKDGJSXCTSCK;ZGEGCLOFRBLKSE;IMNFDUFMRHMDMM;ZSIAUFGUXNUGDI;KWKAKUADMBZCLK;TVMXDCGIABBOFY;IICQZTQZQSBHBY;KPADFPAILITQBG
SubstructureOntologies: CHEMONTID:0002500;NonID:H2O;CHEMONTID:0004476;CHEMONTID:0000286;CHEMONTID:0001334
Ontology: Fatty alcohols
OntologyID: CHEMONTID:0001334
RETENTIONTIME: -1
RETENTIONINDEX: -1
TotalBondEnergy: 28348
TotalScore: 5.3114
TotalHrRulesScore: 0.8
TotalBondCleavageScore: 0.335
TotalMassAccuracyScore: 0.687
TotalFragmentLinkageScore: 0.8
TotalBondDissociationEnergyScore: 0.6798
DatabaseScore: 0.2238
SubstructureAssignmentScore: 0.1111
RtSimilarityScore: -1
RiSimilarityScore: 0
Num Fragment VS2 (M/Z Intensity MatchedExactMass SaturatedExactMass Formula RearrangedHydrogen PPM MassDiff_mDa IsEvenElectronRule IsHrRule IsSolventAdductFragment AssignedAdductMass AdductString BondDissociationEnergy TreeDepth SMILES TotalScore HrLikelihood BcLikelihood MaLikelihood FlLikelihood BeLikelihood): 4
115.079059	324281.918352	115.1117435726	116.1201171875	C7H16O	-1	284.02	32.68	True	True	False	0		346	1	OCCCCCCC	3.83236548435632	1	0.224999994039536	0.807625949382782	1	0.799739540934005
201.19974	328974.315024	201.221296230491	200.214019775391	C13H28O	1	107.14	21.56	True	True	False	0		346	1	OCCCCCCCCCCCCC	3.93599298727457	1	0.224999994039536	0.911253452301025	1	0.799739540934005
211.184952	302502.001079	211.145318260434	172.182708740234	C11H24O	0	187.67	39.63	True	True	True	38.9631581001	+K	346	1	OCCCCCCCCCCC	3.75513681900446	1	0.224999994039536	0.730397284030914	1	0.799739540934005
391.341648	356911.742844	391.333123436216	352.370513916016	C24H48O	0	21.78	8.52	True	True	True	38.9631581001	+K	0	0	OCCCCCCCCCCCCCC=CCCCCCCCCC	4.98557144403458	1	1	0.985571444034576	1	1

