NAME: UNPD15692
ID: UCROSHPNLXUYKT
IsSpectrumSearch: False
INCHIKEY: UCROSHPNLXUYKT-KTKRTIGZSA-N
SMILES: N=C(N)NCCCCN1C(=NCCC1)CCCCCCCC=CC#CCCCCCC
RESOURCES: UNPD=UNPD15692
SubstructureInChIKeys: VNWKTOKETHGBQD;QGZKDVFQNNGYKY;VGGSQFUCUMXWEO;WDWDWGRYHDPSDS;OTMSDBZUPAUEDD;PNKUSGQVOMIXLU;ATUOYWHBWRKTHZ;ROSDSFDQCJNGOL;IAQRGUVFOMOMEM;VXNZUUAINFGPBY;IJDNQMDRQITEOD;ZRALSGWEFCBTJO;GETQZCLCWQTVFV;LIWAQLJGPBVORC;XOTDURGROKNGTI;QMMOXUPEWRXHJS;YWAKXRMUMFPDSH;MCGDEFQPHREUNF;OFBQJSOFQDEBGM;DAZXVJBJRMWXJP;GVWISOJSERXQBM;HPNMFZURTQLUMO;HQABUPZFAYXKJW;LIKMAJRDDDTEIG;RYPKRALMXUUNKS;VLKZOEOYAKHREP;DPBLXKKOBLCELK;GNVRJGIVDSQCOP;QCOGKXLOEWLIDC;ZUHZZVMEUAUWHY;ZGEGCLOFRBLKSE;IMNFDUFMRHMDMM;DJEQZVQFEPKLOY;SMBYUOXUISCLCF;ZMANZCXQSJIPKH;KWKAKUADMBZCLK;TVMXDCGIABBOFY;IICQZTQZQSBHBY
SubstructureOntologies: CHEMONTID:0002500;NonID:NH2;CHEMONTID:0004476;CHEMONTID:0000117;CHEMONTID:0001045;CHEMONTID:0002228;CHEMONTID:0000375;CHEMONTID:0002239;CHEMONTID:0000497;CHEMONTID:0000469
Ontology: Hydropyrimidines
OntologyID: CHEMONTID:0002202
RETENTIONTIME: -1
RETENTIONINDEX: -1
TotalBondEnergy: 30939
TotalScore: 4.0967
TotalHrRulesScore: 0.5
TotalBondCleavageScore: 0.5
TotalMassAccuracyScore: 0.4924
TotalFragmentLinkageScore: 0.5
TotalBondDissociationEnergyScore: 0.5
DatabaseScore: 0.2238
SubstructureAssignmentScore: 0
RtSimilarityScore: -1
RiSimilarityScore: 0
Num Fragment VS2 (M/Z Intensity MatchedExactMass SaturatedExactMass Formula RearrangedHydrogen PPM MassDiff_mDa IsEvenElectronRule IsHrRule IsSolventAdductFragment AssignedAdductMass AdductString BondDissociationEnergy TreeDepth SMILES TotalScore HrLikelihood BcLikelihood MaLikelihood FlLikelihood BeLikelihood): 1
430.381696	741631.372022	430.390424648459	429.383148193359	C26H47N5	1	20.28	8.73	True	True	False	0		0	0	N=C(N)NCCCCN1C(=NCCC1)CCCCCCCC=CC#CCCCCCC	4.98487764596939	1	1	0.984877645969391	1	1

