NAME: Makaluvamine H
ID: CAGLNRILNZHCEL
IsSpectrumSearch: False
INCHIKEY: CAGLNRILNZHCEL-UHFFFAOYSA-N
SMILES: O=C1C(=N)C=C3C2=C1N(C=C2CCN3C)C
RESOURCES: KNApSAcK=C00028550,UNPD=UNPD156482
SubstructureInChIKeys: VNWKTOKETHGBQD;WDWDWGRYHDPSDS;WSFSSNUMVMOOMR;OTMSDBZUPAUEDD;ATUOYWHBWRKTHZ;ROSDSFDQCJNGOL;GETQZCLCWQTVFV;LIWAQLJGPBVORC;DAZXVJBJRMWXJP;GVWISOJSERXQBM;UHOVQNZJYSORNB;NQRYJNQNLNOLGT;ZUHZZVMEUAUWHY;PAMIQIKDUOTOBW;IWDCLRJOBJJRNH;FUGYGGDSWSUORM;HXDOZKJGKXYMEW
SubstructureOntologies: CHEMONTID:0002500;CHEMONTID:0000117;CHEMONTID:0001831;CHEMONTID:0002228;CHEMONTID:0002239;CHEMONTID:0002279;CHEMONTID:0000195;CHEMONTID:0001275;CHEMONTID:0000037;CHEMONTID:0004646
Ontology: Pyrrolo[4,3,2-de]quinolines
OntologyID: CHEMONTID:0002829
RETENTIONTIME: -1
RETENTIONINDEX: -1
TotalBondEnergy: 12740
TotalScore: 6.7045
TotalHrRulesScore: 1
TotalBondCleavageScore: 1
TotalMassAccuracyScore: 0.9947
TotalFragmentLinkageScore: 1
TotalBondDissociationEnergyScore: 1
DatabaseScore: 0.5476
SubstructureAssignmentScore: 0
RtSimilarityScore: -1
RiSimilarityScore: 0
Num Fragment VS2 (M/Z Intensity MatchedExactMass SaturatedExactMass Formula RearrangedHydrogen PPM MassDiff_mDa IsEvenElectronRule IsHrRule IsSolventAdductFragment AssignedAdductMass AdductString BondDissociationEnergy TreeDepth SMILES TotalScore HrLikelihood BcLikelihood MaLikelihood FlLikelihood BeLikelihood): 1
216.118287	23044.766603	216.113141933616	215.105865478516	C12H13N3O	1	23.81	5.14	True	True	False	0		0	0	O=C1C(=N)C=C3C2=C1N(C=C2CCN3C)C	4.99471962451935	1	1	0.994719624519348	1	1

NAME: 2-(1-pyrrolidinyl)-1H-quinazolin-4-one
ID: KSDABWGBZQUTRR
IsSpectrumSearch: False
INCHIKEY: KSDABWGBZQUTRR-UHFFFAOYSA-N
SMILES: O=C1N=C(NC2=CC=CC=C12)N3CCCC3
RESOURCES: ChEBI=CHEBI:94195
SubstructureInChIKeys: WSFSSNUMVMOOMR;OTMSDBZUPAUEDD;ATUOYWHBWRKTHZ;ROSDSFDQCJNGOL;IJDNQMDRQITEOD;GETQZCLCWQTVFV;LIWAQLJGPBVORC;RWRDLPDLKQPQOW;DAZXVJBJRMWXJP;GVWISOJSERXQBM;HPNMFZURTQLUMO;HQABUPZFAYXKJW;UHOVQNZJYSORNB;AVFZOVWCLRSYKC;GNVRJGIVDSQCOP;QCOGKXLOEWLIDC;ZUHZZVMEUAUWHY;DJEQZVQFEPKLOY
SubstructureOntologies: CHEMONTID:0001831;CHEMONTID:0002500;CHEMONTID:0002228;CHEMONTID:0002239;CHEMONTID:0000218;CHEMONTID:0000469;CHEMONTID:0002279;CHEMONTID:0003449
Ontology: Quinazolinamines
OntologyID: CHEMONTID:0002314
RETENTIONTIME: -1
RETENTIONINDEX: -1
TotalBondEnergy: 12740
TotalScore: 6.645
TotalHrRulesScore: 1
TotalBondCleavageScore: 1
TotalMassAccuracyScore: 0.9947
TotalFragmentLinkageScore: 1
TotalBondDissociationEnergyScore: 1
DatabaseScore: 0.5238
SubstructureAssignmentScore: 0
RtSimilarityScore: -1
RiSimilarityScore: 0
Num Fragment VS2 (M/Z Intensity MatchedExactMass SaturatedExactMass Formula RearrangedHydrogen PPM MassDiff_mDa IsEvenElectronRule IsHrRule IsSolventAdductFragment AssignedAdductMass AdductString BondDissociationEnergy TreeDepth SMILES TotalScore HrLikelihood BcLikelihood MaLikelihood FlLikelihood BeLikelihood): 1
216.118287	23044.766603	216.113141933616	215.105865478516	C12H13N3O	1	23.81	5.14	True	True	False	0		0	0	O=C1N=C(NC2=CC=CC=C12)N3CCCC3	4.99471962451935	1	1	0.994719624519348	1	1

NAME: 3-(1,2,3,6-tetrahydropyridin-4-yl)-1,4-dihydropyrrolo[3,2-b]pyridin-5-one
ID: PJYVGMRFPFNZCT
IsSpectrumSearch: False
INCHIKEY: PJYVGMRFPFNZCT-UHFFFAOYSA-N
SMILES: O=C2C=CC=3NC=C(C1=CCNCC1)C=3(N2)
RESOURCES: ChEBI=CHEBI:93436
SubstructureInChIKeys: VGGSQFUCUMXWEO;WSFSSNUMVMOOMR;OTMSDBZUPAUEDD;ATUOYWHBWRKTHZ;ROSDSFDQCJNGOL;IAQRGUVFOMOMEM;VQTUBCCKSQIDNK;VXNZUUAINFGPBY;IJDNQMDRQITEOD;LIWAQLJGPBVORC;BKOOMYPCSUNDGP;QMMOXUPEWRXHJS;GVWISOJSERXQBM;HPNMFZURTQLUMO;HQABUPZFAYXKJW;JUJWROOIHBZHMG;BEQGRRJLJLVQAQ;QCOGKXLOEWLIDC;UBQKCCHYAOITMY;AQSRRZGQRFFFGS
SubstructureOntologies: CHEMONTID:0004476;CHEMONTID:0001831;CHEMONTID:0002500;CHEMONTID:0002228;CHEMONTID:0004622;CHEMONTID:0000469;CHEMONTID:0000089;CHEMONTID:0001160;CHEMONTID:0004152
Ontology: Pyrrolopyridines
OntologyID: CHEMONTID:0000213
RETENTIONTIME: -1
RETENTIONINDEX: -1
TotalBondEnergy: 12677
TotalScore: 6.645
TotalHrRulesScore: 1
TotalBondCleavageScore: 1
TotalMassAccuracyScore: 0.9947
TotalFragmentLinkageScore: 1
TotalBondDissociationEnergyScore: 1
DatabaseScore: 0.5238
SubstructureAssignmentScore: 0
RtSimilarityScore: -1
RiSimilarityScore: 0
Num Fragment VS2 (M/Z Intensity MatchedExactMass SaturatedExactMass Formula RearrangedHydrogen PPM MassDiff_mDa IsEvenElectronRule IsHrRule IsSolventAdductFragment AssignedAdductMass AdductString BondDissociationEnergy TreeDepth SMILES TotalScore HrLikelihood BcLikelihood MaLikelihood FlLikelihood BeLikelihood): 1
216.118287	23044.766603	216.113141933616	215.105865478516	C12H13N3O	1	23.81	5.14	True	True	False	0		0	0	O=C2C=CC=3NC=C(C1=CCNCC1)C=3(N2)	4.99471962451935	1	1	0.994719624519348	1	1

