NAME: 1-[1-[oxo(1-pyrrolidinyl)methyl]cyclohexyl]-3-(phenylmethyl)urea
ID: MAOPJHOUQJUPDK
IsSpectrumSearch: False
INCHIKEY: MAOPJHOUQJUPDK-UHFFFAOYSA-N
SMILES: O=C(NCC1=CC=CC=C1)NC3(C(=O)N2CCCC2)(CCCCC3)
RESOURCES: ChEBI=CHEBI:111346
SubstructureInChIKeys: WSFSSNUMVMOOMR;OTMSDBZUPAUEDD;IKHGUXGNUITLKF;ATUOYWHBWRKTHZ;ROSDSFDQCJNGOL;NBBJYMSMWIIQGU;IJDNQMDRQITEOD;NNPPMTNAJDCUHE;ATHHXGZTWNVVOU;LYIIBVSRGJSHAV;GETQZCLCWQTVFV;JJWLVOIRVHMVIS;LIWAQLJGPBVORC;XOTDURGROKNGTI;RWRDLPDLKQPQOW;ZTQSAGDEMFDKMZ;OFBQJSOFQDEBGM;QWTDNUCVQCZILF;DAZXVJBJRMWXJP;GVWISOJSERXQBM;HPNMFZURTQLUMO;HQABUPZFAYXKJW;KDSNLYIMUZNERS;XHFGWHUWQXTGAT;UHOVQNZJYSORNB;XDTMQSROBMDMFD;AVFZOVWCLRSYKC;HGBOYTHUEUWSSQ;AFABGHUZZDYHJO;PFEOZHBOMNWTJB;VLKZOEOYAKHREP;FGEPRNXUNITOCW;SUUDTPGCUKBECW;DPBLXKKOBLCELK;GNVRJGIVDSQCOP;QCOGKXLOEWLIDC;VJROPLWGFCORRM;ZUHZZVMEUAUWHY;YXFVVABEGXRONW;UAEPNZWRGJTJPN;JARKCYVAAOWBJS;IMNFDUFMRHMDMM;VLJXXKKOSFGPHI;DJEQZVQFEPKLOY;SMBYUOXUISCLCF;ZMANZCXQSJIPKH;FXHGMKSSBGDXIY;JVSWJIKNEAIKJW;TVMXDCGIABBOFY;SKPCTMWFLGENTL;RIWRFSMVIUAEBX;NUJGJRNETVAIRJ
SubstructureOntologies: CHEMONTID:0001831;CHEMONTID:0002500;CHEMONTID:0002230;CHEMONTID:0002228;CHEMONTID:0002434;CHEMONTID:0004620;CHEMONTID:0002484;CHEMONTID:0000469;CHEMONTID:0002239;CHEMONTID:0000497;CHEMONTID:0000218;CHEMONTID:0002279;CHEMONTID:0001016;CHEMONTID:0003449;CHEMONTID:0001663;CHEMONTID:0001091;CHEMONTID:0002229;CHEMONTID:0002309;CHEMONTID:0000185
Ontology: N-carbamoyl-alpha amino acids and derivatives
OntologyID: CHEMONTID:0001224
RETENTIONTIME: -1
RETENTIONINDEX: -1
TotalBondEnergy: 21330
TotalScore: 6.3116
TotalHrRulesScore: 0.75
TotalBondCleavageScore: 0.6165
TotalMassAccuracyScore: 0.6614
TotalFragmentLinkageScore: 0.75
TotalBondDissociationEnergyScore: 0.475
DatabaseScore: 0.5238
SubstructureAssignmentScore: 0.1304
RtSimilarityScore: -1
RiSimilarityScore: 0
Num Fragment VS2 (M/Z Intensity MatchedExactMass SaturatedExactMass Formula RearrangedHydrogen PPM MassDiff_mDa IsEvenElectronRule IsHrRule IsSolventAdductFragment AssignedAdductMass AdductString BondDissociationEnergy TreeDepth SMILES TotalScore HrLikelihood BcLikelihood MaLikelihood FlLikelihood BeLikelihood): 3
278.188393	27613.432881	278.186292568381	277.179016113281	C15H23N3O2	1	7.55	2.1	True	True	False	0		1343	2	O=C(NCC1=CC=CC=C1)NC(C(=O)NC)CCCC	3.82733499138073	1	0.656099915504456	0.999118030071259	1	0.17211704580502
312.212998	20574.76149	312.167688234381	289.179016113281	C16H23N3O2	0	145.12	45.31	True	True	True	22.989220701	+Na	651	1	O=C(NCC1=CC=CC=C1)NC2(C(=O)NC)(CCCCC2)	4.20100835137044	1	0.809999942779541	0.663255512714386	1	0.727752895876511
352.208173	20584.931973	352.198999269538	329.210327148438	C19H27N3O2	0	26.05	9.17	True	True	True	22.989220701	+Na	0	0	O=C(NCC1=CC=CC=C1)NC3(C(=O)N2CCCC2)(CCCCC3)	4.98330938816071	1	1	0.983309388160706	1	1

NAME: 4-[3-(dimethylamino)propylamino]-7,8-dimethyl-3-quinolinecarboxylic acid ethyl ester
ID: LMUYWIWNNMDOGM
IsSpectrumSearch: False
INCHIKEY: LMUYWIWNNMDOGM-UHFFFAOYSA-N
SMILES: O=C(OCC)C2=CN=C1C(C=CC(=C1C)C)=C2(NCCCN(C)C)
RESOURCES: ChEBI=CHEBI:124960
SubstructureInChIKeys: VNWKTOKETHGBQD;WSFSSNUMVMOOMR;OTMSDBZUPAUEDD;IKHGUXGNUITLKF;ATUOYWHBWRKTHZ;ROSDSFDQCJNGOL;LCGLNKUTAGEVQW;GETQZCLCWQTVFV;LIWAQLJGPBVORC;QTBSBXVTEAMEQO;TZIHFWKZFHZASV;XOBKSJJDNFUZPF;DAZXVJBJRMWXJP;GVWISOJSERXQBM;KXKVLQRXCPHEJC;WBJINCZRORDGAQ;UHOVQNZJYSORNB;JUJWROOIHBZHMG;ZUHZZVMEUAUWHY;XEKOWRVHYACXOJ;YXFVVABEGXRONW;ITQTTZVARXURQS;RNVCVTLRINQCPJ;SMWDFEZZVXVKRB
SubstructureOntologies: CHEMONTID:0002500;CHEMONTID:0001831;CHEMONTID:0002230;CHEMONTID:0002228;CHEMONTID:0001167;CHEMONTID:0002239;CHEMONTID:0001205;CHEMONTID:0001238;CHEMONTID:0003416;CHEMONTID:0002279;CHEMONTID:0000089;CHEMONTID:0001091;CHEMONTID:0004152;CHEMONTID:0003964;CHEMONTID:0001253
Ontology: 4-aminoquinolines
OntologyID: CHEMONTID:0004537
RETENTIONTIME: -1
RETENTIONINDEX: -1
TotalBondEnergy: 21196
TotalScore: 6.0411
TotalHrRulesScore: 0.5
TotalBondCleavageScore: 0.475
TotalMassAccuracyScore: 0.4638
TotalFragmentLinkageScore: 0.5
TotalBondDissociationEnergyScore: 0.4283
DatabaseScore: 0.5238
SubstructureAssignmentScore: 0.1
RtSimilarityScore: -1
RiSimilarityScore: 0
Num Fragment VS2 (M/Z Intensity MatchedExactMass SaturatedExactMass Formula RearrangedHydrogen PPM MassDiff_mDa IsEvenElectronRule IsHrRule IsSolventAdductFragment AssignedAdductMass AdductString BondDissociationEnergy TreeDepth SMILES TotalScore HrLikelihood BcLikelihood MaLikelihood FlLikelihood BeLikelihood): 2
278.188393	27613.432881	278.162231035475	257.189208984375	C16H23N3	-2	94.04	26.16	True	True	True	22.989220701	+Na	346	1	N=1C=CC(NCCCN(C)C)=C2C=CC(=C(C=12)C)C	4.48517420934429	1	0.899999976158142	0.87206643819809	1	0.713107794988056
352.208173	20584.931973	352.198999269538	329.210327148438	C19H27N3O2	0	26.05	9.17	True	True	True	22.989220701	+Na	0	0	O=C(OCC)C2=CN=C1C(C=CC(=C1C)C)=C2(NCCCN(C)C)	4.98330938816071	1	1	0.983309388160706	1	1

