NAME: 1,24-Tetracosanediol
ID: SPUHPCYLASTIGZ
IsSpectrumSearch: False
INCHIKEY: SPUHPCYLASTIGZ-UHFFFAOYSA-N
SMILES: OCCCCCCCCCCCCCCCCCCCCCCCCO
RESOURCES: HMDB=HMDB0030885,FooDB=FDB002848,LipidMAPS=LMFA05000580,UNPD=UNPD133209
SubstructureInChIKeys: XLYOFNOQVPJJNP;OTMSDBZUPAUEDD;OKKJLVBELUTLKV;ATUOYWHBWRKTHZ;LFQSCWFLJHTTHZ;IJDNQMDRQITEOD;BDERNNFJNOPAEC;OFBQJSOFQDEBGM;LRHPLDYGYMQRHN;VLKZOEOYAKHREP;AMQJEAYHLZJPGS;IMNFDUFMRHMDMM;ZSIAUFGUXNUGDI;TVMXDCGIABBOFY
SubstructureOntologies: NonID:H2O;CHEMONTID:0002500;CHEMONTID:0000286;CHEMONTID:0001334
Ontology: Fatty alcohols
OntologyID: CHEMONTID:0001334
RETENTIONTIME: -1
RETENTIONINDEX: -1
TotalBondEnergy: 29320
TotalScore: 6.7727
TotalHrRulesScore: 1
TotalBondCleavageScore: 1
TotalMassAccuracyScore: 0.9999
TotalFragmentLinkageScore: 1
TotalBondDissociationEnergyScore: 1
DatabaseScore: 0.5952
SubstructureAssignmentScore: 0
RtSimilarityScore: -1
RiSimilarityScore: 0
Num Fragment VS2 (M/Z Intensity MatchedExactMass SaturatedExactMass Formula RearrangedHydrogen PPM MassDiff_mDa IsEvenElectronRule IsHrRule IsSolventAdductFragment AssignedAdductMass AdductString BondDissociationEnergy TreeDepth SMILES TotalScore HrLikelihood BcLikelihood MaLikelihood FlLikelihood BeLikelihood): 1
371.387838	780290.707055	371.388349453147	370.381072998047	C24H50O2	1	1.38	0.51	True	True	False	0		0	0	OCCCCCCCCCCCCCCCCCCCCCCCCO	4.99994766712189	1	1	0.999947667121887	1	1

NAME: 1,2-tetracosanediol
ID: PTSXVUICYWATQI
IsSpectrumSearch: False
INCHIKEY: PTSXVUICYWATQI-UHFFFAOYNA-N
SMILES: OCC(O)CCCCCCCCCCCCCCCCCCCCCC
RESOURCES: ChEBI=CHEBI:84959,LipidMAPS=LMFA05000083,UNPD=UNPD157035
SubstructureInChIKeys: VNWKTOKETHGBQD;XLYOFNOQVPJJNP;OTMSDBZUPAUEDD;OKKJLVBELUTLKV;ATUOYWHBWRKTHZ;LFQSCWFLJHTTHZ;IJDNQMDRQITEOD;BDERNNFJNOPAEC;KFZMGEQAYNKOFK;LYCAIKOWRPUZTN;OFBQJSOFQDEBGM;BTANRVKWQNVYAZ;LRHPLDYGYMQRHN;DNIAPMSPPWPWGF;VIBDJEWPNNCFQO;VLKZOEOYAKHREP;AMQJEAYHLZJPGS;JYVLIDXNZAXMDK;BMRWNKZVCUKKSR;IMNFDUFMRHMDMM;ZSIAUFGUXNUGDI;WCVRQHFDJLLWFE;TVMXDCGIABBOFY;CETWDUZRCINIHU
SubstructureOntologies: CHEMONTID:0002500;NonID:H2O;CHEMONTID:0000286;CHEMONTID:0001661;CHEMONTID:0002467;CHEMONTID:0002286;CHEMONTID:0001334
Ontology: Fatty alcohols
OntologyID: CHEMONTID:0001334
RETENTIONTIME: -1
RETENTIONINDEX: -1
TotalBondEnergy: 29320
TotalScore: 6.7132
TotalHrRulesScore: 1
TotalBondCleavageScore: 1
TotalMassAccuracyScore: 0.9999
TotalFragmentLinkageScore: 1
TotalBondDissociationEnergyScore: 1
DatabaseScore: 0.5714
SubstructureAssignmentScore: 0
RtSimilarityScore: -1
RiSimilarityScore: 0
Num Fragment VS2 (M/Z Intensity MatchedExactMass SaturatedExactMass Formula RearrangedHydrogen PPM MassDiff_mDa IsEvenElectronRule IsHrRule IsSolventAdductFragment AssignedAdductMass AdductString BondDissociationEnergy TreeDepth SMILES TotalScore HrLikelihood BcLikelihood MaLikelihood FlLikelihood BeLikelihood): 1
371.387838	780290.707055	371.388349453147	370.381072998047	C24H50O2	1	1.38	0.51	True	True	False	0		0	0	OCC(O)CCCCCCCCCCCCCCCCCCCCCC	4.99994766712189	1	1	0.999947667121887	1	1

NAME: tetracosane-1,3-diol
ID: RWVSXDXGEPXFDB
IsSpectrumSearch: False
INCHIKEY: RWVSXDXGEPXFDB-UHFFFAOYNA-N
SMILES: OCCC(O)CCCCCCCCCCCCCCCCCCCCC
RESOURCES: ChEBI=CHEBI:52346,LipidMAPS=LMFA05000699,UNPD=UNPD141880
SubstructureInChIKeys: VNWKTOKETHGBQD;XLYOFNOQVPJJNP;OTMSDBZUPAUEDD;OKKJLVBELUTLKV;ATUOYWHBWRKTHZ;LFQSCWFLJHTTHZ;IJDNQMDRQITEOD;BDERNNFJNOPAEC;KFZMGEQAYNKOFK;OFBQJSOFQDEBGM;BTANRVKWQNVYAZ;LRHPLDYGYMQRHN;YPFDHNVEDLHUCE;VLKZOEOYAKHREP;AMQJEAYHLZJPGS;AQIXEPGDORPWBJ;JYVLIDXNZAXMDK;PUPZLCDOIYMWBV;IMNFDUFMRHMDMM;ZSIAUFGUXNUGDI;TVMXDCGIABBOFY;CETWDUZRCINIHU
SubstructureOntologies: CHEMONTID:0002500;NonID:H2O;CHEMONTID:0000286;CHEMONTID:0001661;CHEMONTID:0001334
Ontology: Fatty alcohols
OntologyID: CHEMONTID:0001334
RETENTIONTIME: -1
RETENTIONINDEX: -1
TotalBondEnergy: 29320
TotalScore: 6.7132
TotalHrRulesScore: 1
TotalBondCleavageScore: 1
TotalMassAccuracyScore: 0.9999
TotalFragmentLinkageScore: 1
TotalBondDissociationEnergyScore: 1
DatabaseScore: 0.5714
SubstructureAssignmentScore: 0
RtSimilarityScore: -1
RiSimilarityScore: 0
Num Fragment VS2 (M/Z Intensity MatchedExactMass SaturatedExactMass Formula RearrangedHydrogen PPM MassDiff_mDa IsEvenElectronRule IsHrRule IsSolventAdductFragment AssignedAdductMass AdductString BondDissociationEnergy TreeDepth SMILES TotalScore HrLikelihood BcLikelihood MaLikelihood FlLikelihood BeLikelihood): 1
371.387838	780290.707055	371.388349453147	370.381072998047	C24H50O2	1	1.38	0.51	True	True	False	0		0	0	OCCC(O)CCCCCCCCCCCCCCCCCCCCC	4.99994766712189	1	1	0.999947667121887	1	1

NAME: UNPD31287
ID: FOHAOMYPWYIZKI
IsSpectrumSearch: False
INCHIKEY: FOHAOMYPWYIZKI-FQKVKQEKNA-N
SMILES: OCCCCC(O)CCCCCCCCCCCCCCCCCCC
RESOURCES: UNPD=UNPD31287
SubstructureInChIKeys: VNWKTOKETHGBQD;XLYOFNOQVPJJNP;OTMSDBZUPAUEDD;OKKJLVBELUTLKV;ATUOYWHBWRKTHZ;LFQSCWFLJHTTHZ;IJDNQMDRQITEOD;BDERNNFJNOPAEC;KFZMGEQAYNKOFK;OFBQJSOFQDEBGM;BTANRVKWQNVYAZ;LRHPLDYGYMQRHN;VLKZOEOYAKHREP;AMQJEAYHLZJPGS;AQIXEPGDORPWBJ;JYVLIDXNZAXMDK;IMNFDUFMRHMDMM;ZSIAUFGUXNUGDI;TVMXDCGIABBOFY;CETWDUZRCINIHU
SubstructureOntologies: CHEMONTID:0002500;NonID:H2O;CHEMONTID:0000286;CHEMONTID:0001661;CHEMONTID:0001334
Ontology: Fatty alcohols
OntologyID: CHEMONTID:0001334
RETENTIONTIME: -1
RETENTIONINDEX: -1
TotalBondEnergy: 29320
TotalScore: 5.8442
TotalHrRulesScore: 1
TotalBondCleavageScore: 1
TotalMassAccuracyScore: 0.9999
TotalFragmentLinkageScore: 1
TotalBondDissociationEnergyScore: 1
DatabaseScore: 0.2238
SubstructureAssignmentScore: 0
RtSimilarityScore: -1
RiSimilarityScore: 0
Num Fragment VS2 (M/Z Intensity MatchedExactMass SaturatedExactMass Formula RearrangedHydrogen PPM MassDiff_mDa IsEvenElectronRule IsHrRule IsSolventAdductFragment AssignedAdductMass AdductString BondDissociationEnergy TreeDepth SMILES TotalScore HrLikelihood BcLikelihood MaLikelihood FlLikelihood BeLikelihood): 1
371.387838	780290.707055	371.388349453147	370.381072998047	C24H50O2	1	1.38	0.51	True	True	False	0		0	0	OCCCCC(O)CCCCCCCCCCCCCCCCCCC	4.99994766712189	1	1	0.999947667121887	1	1

NAME: UNPD24748
ID: GBFUJWSPEXCLMP
IsSpectrumSearch: False
INCHIKEY: GBFUJWSPEXCLMP-FQKVKQEKNA-N
SMILES: OCC(O)CCCCCCCCCCCCCCCCCCCC(C)C
RESOURCES: UNPD=UNPD24748
SubstructureInChIKeys: VNWKTOKETHGBQD;XLYOFNOQVPJJNP;OTMSDBZUPAUEDD;OKKJLVBELUTLKV;ATUOYWHBWRKTHZ;LFQSCWFLJHTTHZ;IJDNQMDRQITEOD;NNPPMTNAJDCUHE;BDERNNFJNOPAEC;KFZMGEQAYNKOFK;LYCAIKOWRPUZTN;OFBQJSOFQDEBGM;QWTDNUCVQCZILF;BTANRVKWQNVYAZ;LRHPLDYGYMQRHN;DNIAPMSPPWPWGF;VIBDJEWPNNCFQO;AFABGHUZZDYHJO;VLKZOEOYAKHREP;AMQJEAYHLZJPGS;JYVLIDXNZAXMDK;BMRWNKZVCUKKSR;IMNFDUFMRHMDMM;ZSIAUFGUXNUGDI;WCVRQHFDJLLWFE;JVSWJIKNEAIKJW;TVMXDCGIABBOFY;CETWDUZRCINIHU
SubstructureOntologies: CHEMONTID:0002500;NonID:H2O;CHEMONTID:0000286;CHEMONTID:0004620;CHEMONTID:0001661;CHEMONTID:0002467;CHEMONTID:0002286;CHEMONTID:0001334
Ontology: Fatty alcohols
OntologyID: CHEMONTID:0001334
RETENTIONTIME: -1
RETENTIONINDEX: -1
TotalBondEnergy: 29320
TotalScore: 5.8442
TotalHrRulesScore: 1
TotalBondCleavageScore: 1
TotalMassAccuracyScore: 0.9999
TotalFragmentLinkageScore: 1
TotalBondDissociationEnergyScore: 1
DatabaseScore: 0.2238
SubstructureAssignmentScore: 0
RtSimilarityScore: -1
RiSimilarityScore: 0
Num Fragment VS2 (M/Z Intensity MatchedExactMass SaturatedExactMass Formula RearrangedHydrogen PPM MassDiff_mDa IsEvenElectronRule IsHrRule IsSolventAdductFragment AssignedAdductMass AdductString BondDissociationEnergy TreeDepth SMILES TotalScore HrLikelihood BcLikelihood MaLikelihood FlLikelihood BeLikelihood): 1
371.387838	780290.707055	371.388349453147	370.381072998047	C24H50O2	1	1.38	0.51	True	True	False	0		0	0	OCC(O)CCCCCCCCCCCCCCCCCCCC(C)C	4.99994766712189	1	1	0.999947667121887	1	1

NAME: UNPD129649
ID: YEOSOICZEMHKCB
IsSpectrumSearch: False
INCHIKEY: YEOSOICZEMHKCB-ZBXWWWQKNA-N
SMILES: OC(C)C(O)CCCCCCCCCCCCCCCCCCCCC
RESOURCES: UNPD=UNPD129649
SubstructureInChIKeys: VNWKTOKETHGBQD;XLYOFNOQVPJJNP;OTMSDBZUPAUEDD;OKKJLVBELUTLKV;ATUOYWHBWRKTHZ;LFQSCWFLJHTTHZ;IJDNQMDRQITEOD;BDERNNFJNOPAEC;KFZMGEQAYNKOFK;LYCAIKOWRPUZTN;OFBQJSOFQDEBGM;BTANRVKWQNVYAZ;LRHPLDYGYMQRHN;DNIAPMSPPWPWGF;VIBDJEWPNNCFQO;VLKZOEOYAKHREP;AMQJEAYHLZJPGS;AQIXEPGDORPWBJ;JYVLIDXNZAXMDK;BMRWNKZVCUKKSR;IMNFDUFMRHMDMM;ZSIAUFGUXNUGDI;WCVRQHFDJLLWFE;XLMFDCKSFJWJTP;TVMXDCGIABBOFY;CETWDUZRCINIHU
SubstructureOntologies: CHEMONTID:0002500;NonID:H2O;CHEMONTID:0000286;CHEMONTID:0001661;CHEMONTID:0002467;CHEMONTID:0002286;CHEMONTID:0001334
Ontology: Fatty alcohols
OntologyID: CHEMONTID:0001334
RETENTIONTIME: -1
RETENTIONINDEX: -1
TotalBondEnergy: 29320
TotalScore: 5.8442
TotalHrRulesScore: 1
TotalBondCleavageScore: 1
TotalMassAccuracyScore: 0.9999
TotalFragmentLinkageScore: 1
TotalBondDissociationEnergyScore: 1
DatabaseScore: 0.2238
SubstructureAssignmentScore: 0
RtSimilarityScore: -1
RiSimilarityScore: 0
Num Fragment VS2 (M/Z Intensity MatchedExactMass SaturatedExactMass Formula RearrangedHydrogen PPM MassDiff_mDa IsEvenElectronRule IsHrRule IsSolventAdductFragment AssignedAdductMass AdductString BondDissociationEnergy TreeDepth SMILES TotalScore HrLikelihood BcLikelihood MaLikelihood FlLikelihood BeLikelihood): 1
371.387838	780290.707055	371.388349453147	370.381072998047	C24H50O2	1	1.38	0.51	True	True	False	0		0	0	OC(C)C(O)CCCCCCCCCCCCCCCCCCCCC	4.99994766712189	1	1	0.999947667121887	1	1

