NAME: UNPD177376
ID: OWCIHWWFLRMJBF
IsSpectrumSearch: False
INCHIKEY: OWCIHWWFLRMJBF-NTMPUZFNNA-N
SMILES: O=C(O)CCC(O)(C)CCCCCCCCCCCCCC1OC(O)C(N)C(O)C1(O)
RESOURCES: UNPD=UNPD177376
SubstructureInChIKeys: VNWKTOKETHGBQD;QGZKDVFQNNGYKY;XLYOFNOQVPJJNP;WSFSSNUMVMOOMR;OTMSDBZUPAUEDD;BAVYZALUXZFZLV;OKKJLVBELUTLKV;IKHGUXGNUITLKF;ATUOYWHBWRKTHZ;QUSNBJAOOMFDIB;BDAGIHXWWSANSR;LCGLNKUTAGEVQW;LFQSCWFLJHTTHZ;CKFGINPQOCXMAZ;NBBJYMSMWIIQGU;IJDNQMDRQITEOD;NNPPMTNAJDCUHE;JJWLVOIRVHMVIS;WGYKZJWCGVVSQN;QTBSBXVTEAMEQO;BDERNNFJNOPAEC;KFZMGEQAYNKOFK;XOBKSJJDNFUZPF;HZAXFHJVJLSVMW;LYCAIKOWRPUZTN;ZTQSAGDEMFDKMZ;OFBQJSOFQDEBGM;QWTDNUCVQCZILF;HQABUPZFAYXKJW;XBDQKXXYIPTUBI;BEBCJVAWIBVWNZ;BTANRVKWQNVYAZ;LRHPLDYGYMQRHN;VNKYTQGIUYNRMY;HXKKHQJGJAFBHI;WUGQZFFCHPXWKQ;DNIAPMSPPWPWGF;RRLWYLINGKISHN;XNWFRZJHXBZDAG;YPFDHNVEDLHUCE;VIBDJEWPNNCFQO;HGBOYTHUEUWSSQ;AFABGHUZZDYHJO;PFEOZHBOMNWTJB;VLKZOEOYAKHREP;DPBLXKKOBLCELK;FERIUCNNQQJTOY;PIAOXUVIBAKVSP;AMQJEAYHLZJPGS;AQIXEPGDORPWBJ;FVNIMHIOIXPIQT;JYVLIDXNZAXMDK;BMRWNKZVCUKKSR;JDFDHBSESGTDAL;PUPZLCDOIYMWBV;YTTFFPATQICAQN;ZNQVEEAIQZEUHB;PEDCQBHIVMGVHV;JARKCYVAAOWBJS;IMNFDUFMRHMDMM;VLJXXKKOSFGPHI;CNRGMQRNYAIBTN;ZSIAUFGUXNUGDI;SJZRECIVHVDYJC;WCVRQHFDJLLWFE;XLMFDCKSFJWJTP;ARXKVVRQIIOZGF;YAXKTBLXMTYWDQ;MQVRLONNONYDJP;FXHGMKSSBGDXIY;JVSWJIKNEAIKJW;TVMXDCGIABBOFY;YRMUTQRWVGDUBW;CETWDUZRCINIHU;MMQYUDBFDDEJBP;PHOJOSOUIAQEDH;AALKGALVYCZETF;GZXFYIDYTCWDDN;LOSWWGJGSSQDKH;NUJGJRNETVAIRJ;UKFNNBXGHVJQMJ;UXUFMKFUJJLWKM;YDCRNMJQROAWFT;QXAMTEJJAZOINB;ZDAWZDFBPUUDAY;QVGWQEOFNGJAOO;ICKVZOWXZYBERI;BJBURJZEESAQPG;PBZLKHXTZLJSSO;LAWNVEFFZXVKAN;TVTGZVYLUHVBAJ;AASQBYVPOFXFGU;XYXANQCOUCDVRX;IOKPZOGAWQXXLF;LMHJFKYQYDSOQO;NGBPDDMTRGHYFM;KTPMCFLPGSCUKH;NAMFFBYYOKLDOM;LXNOENXQFNYMGT;ZTKXZDLAHNDYCJ;DEXVEASLUGBXDF;PXBOJWNZUUEBDU;RIOQEURNPLKGHG;GBOCFSKPHBCOCX;ZNZLXMVSALEVHW;XZNLDDNERIACTN;GIEJMPHHFWMLHG;SUESMKJJGAOOGC
SubstructureOntologies: CHEMONTID:0002500;NonID:NH2;NonID:H2O;CHEMONTID:0001831;CHEMONTID:0000469;CHEMONTID:0000286;CHEMONTID:0002230;CHEMONTID:0001205;CHEMONTID:0001167;CHEMONTID:0001605;CHEMONTID:0002434;CHEMONTID:0004620;CHEMONTID:0001661;CHEMONTID:0001897;CHEMONTID:0002467;CHEMONTID:0002484;CHEMONTID:0001852;CHEMONTID:0001092;CHEMONTID:0002286;CHEMONTID:0000333;CHEMONTID:0002210;CHEMONTID:0002229;CHEMONTID:0001334;CHEMONTID:0000341;CHEMONTID:0002012;CHEMONTID:0003263;CHEMONTID:0003086;CHEMONTID:0001498;CHEMONTID:0000298;CHEMONTID:0002949;CHEMONTID:0002951
Ontology: Long-chain fatty acids
OntologyID: CHEMONTID:0002949
RETENTIONTIME: -1
RETENTIONINDEX: -1
TotalBondEnergy: 29857
TotalScore: 5.4054
TotalHrRulesScore: 1
TotalBondCleavageScore: 1
TotalMassAccuracyScore: 0.9836
TotalFragmentLinkageScore: 1
TotalBondDissociationEnergyScore: 1
DatabaseScore: 0.2238
SubstructureAssignmentScore: 0
RtSimilarityScore: -1
RiSimilarityScore: 0
Num Fragment VS2 (M/Z Intensity MatchedExactMass SaturatedExactMass Formula RearrangedHydrogen PPM MassDiff_mDa IsEvenElectronRule IsHrRule IsSolventAdductFragment AssignedAdductMass AdductString BondDissociationEnergy TreeDepth SMILES TotalScore HrLikelihood BcLikelihood MaLikelihood FlLikelihood BeLikelihood): 1
448.335967	186321.887278	448.326887050803	447.319610595703	C23H45NO7	1	20.25	9.08	True	True	False	0		0	0	O=C(O)CCC(O)(C)CCCCCCCCCCCCCC1OC(O)C(N)C(O)C1(O)	4.98364609479904	1	1	0.983646094799042	1	1

