NAME: Motuporamine A
ID: AXRQFIIUYLOARV
IsSpectrumSearch: False
INCHIKEY: AXRQFIIUYLOARV-UHFFFAOYSA-N
SMILES: NCCCNCCCN1CCCCCCCCCCCC1
RESOURCES: KNApSAcK=C00028603,UNPD=UNPD116170
SubstructureInChIKeys: QGZKDVFQNNGYKY;OTMSDBZUPAUEDD;BAVYZALUXZFZLV;ATUOYWHBWRKTHZ;QUSNBJAOOMFDIB;ROSDSFDQCJNGOL;IJDNQMDRQITEOD;GETQZCLCWQTVFV;LIWAQLJGPBVORC;WGYKZJWCGVVSQN;OFBQJSOFQDEBGM;DAZXVJBJRMWXJP;GVWISOJSERXQBM;HPNMFZURTQLUMO;HQABUPZFAYXKJW;VLKZOEOYAKHREP;DPBLXKKOBLCELK;GNVRJGIVDSQCOP;QCOGKXLOEWLIDC;ZUHZZVMEUAUWHY;IMNFDUFMRHMDMM;DJEQZVQFEPKLOY;SMBYUOXUISCLCF;ZMANZCXQSJIPKH;TVMXDCGIABBOFY
SubstructureOntologies: NonID:NH2;CHEMONTID:0002500;CHEMONTID:0000469;CHEMONTID:0002228;CHEMONTID:0002239
Ontology: Trialkylamines
OntologyID: CHEMONTID:0002239
RETENTIONTIME: -1
RETENTIONINDEX: -1
TotalBondEnergy: 22974
TotalScore: 6.5329
TotalHrRulesScore: 1
TotalBondCleavageScore: 1
TotalMassAccuracyScore: 0.9979
TotalFragmentLinkageScore: 1
TotalBondDissociationEnergyScore: 1
DatabaseScore: 0.5476
SubstructureAssignmentScore: 0
RtSimilarityScore: -1
RiSimilarityScore: 0
Num Fragment VS2 (M/Z Intensity MatchedExactMass SaturatedExactMass Formula RearrangedHydrogen PPM MassDiff_mDa IsEvenElectronRule IsHrRule IsSolventAdductFragment AssignedAdductMass AdductString BondDissociationEnergy TreeDepth SMILES TotalScore HrLikelihood BcLikelihood MaLikelihood FlLikelihood BeLikelihood): 1
298.318461	429665.207604	298.321668544944	297.314392089844	C18H39N3	1	10.75	3.21	True	True	False	0		0	0	NCCCNCCCN1CCCCCCCCCCCC1	4.99794447422028	1	1	0.997944474220276	1	1

