NAME: 15-Deoxylactucin-8-sulfate
ID: KAPRLOJNVRVRAT
IsSpectrumSearch: False
INCHIKEY: KAPRLOJNVRVRAT-CCPZOLEANA-N
SMILES: O=C2OC3C1C(C(=O)C=C1(C))=C(C)CC(OS(=O)(=O)O)C3(C2(=C))
RESOURCES: KNApSAcK=C00033530
SubstructureInChIKeys: VNWKTOKETHGBQD;XLYOFNOQVPJJNP;VGGSQFUCUMXWEO;WSFSSNUMVMOOMR;QQONPFPTGQHPMA;IKHGUXGNUITLKF;ATUOYWHBWRKTHZ;LCGLNKUTAGEVQW;HGINCPLSRVDWNT;IAQRGUVFOMOMEM;VQTUBCCKSQIDNK;VXNZUUAINFGPBY;CSCPPACGZOOCGX;NBBJYMSMWIIQGU;XXROGKLTLUQVRX;IJDNQMDRQITEOD;NNPPMTNAJDCUHE;QTBSBXVTEAMEQO;TZIHFWKZFHZASV;BDERNNFJNOPAEC;XOBKSJJDNFUZPF;RAHZWNYVWXNFOC;MLUCVPSAIODCQM;BKOOMYPCSUNDGP;QMMOXUPEWRXHJS;YWAKXRMUMFPDSH;NIXOWILDQLNWCW;ZSPTYLOMNJNZNG;ZTQSAGDEMFDKMZ;OFBQJSOFQDEBGM;QWTDNUCVQCZILF;KXKVLQRXCPHEJC;WBJINCZRORDGAQ;XBDQKXXYIPTUBI;LRHPLDYGYMQRHN;VNKYTQGIUYNRMY;ZXEKIIBDNHEJCQ;YPFDHNVEDLHUCE;BDHFUVZGWQCTTF;PRBHEGAFLDMLAL;BEQGRRJLJLVQAQ;LDTAOIUHUHHCMU;LIKMAJRDDDTEIG;RYPKRALMXUUNKS;ZQDPJFUHLCOCRG;BAPJBEWLBFYGME;CERQOIWHTDAKMF;YEJRWHAVMIAJKC;FSUXYWPILZJGCC;HGBOYTHUEUWSSQ;AFABGHUZZDYHJO;PFEOZHBOMNWTJB;VLKZOEOYAKHREP;FERIUCNNQQJTOY;XEKOWRVHYACXOJ;AMQJEAYHLZJPGS;AQIXEPGDORPWBJ;FVNIMHIOIXPIQT;JYVLIDXNZAXMDK;MXLMTQWGSQIYOW;PHTQWCKDNZKARW;JDFDHBSESGTDAL;PUPZLCDOIYMWBV;QWGRWMMWNDWRQN;FMAMSYPJXSEYSW;QAOWNCQODCNURD;ADHCYQWFCLQBFG;WZHKDGJSXCTSCK;ZGEGCLOFRBLKSE;JARKCYVAAOWBJS;UFLHIIWVXFIJGU;BZHMBWZPUJHVEE;IMNFDUFMRHMDMM;VLJXXKKOSFGPHI;ZSIAUFGUXNUGDI;GDDAJHJRAKOILH;KWKAKUADMBZCLK;YXLCVBVDFKWWRW;SUPCQIBBMFXVTL;CATSNJVOTSVZJV;FXHGMKSSBGDXIY;JVSWJIKNEAIKJW;TVMXDCGIABBOFY;OQAGVSWESNCJJT;CETWDUZRCINIHU;OVOVDHYEOQJKMD;NMFOAHIHPAPYJJ;IICQZTQZQSBHBY;KPADFPAILITQBG;NUJGJRNETVAIRJ;VWLITJGXNSANSN;BSTCHFGEIXFVRN;MHPUGCYGQWGLJL;NZQMQVJXSRMTCJ
SubstructureOntologies: CHEMONTID:0002500;NonID:H2O;CHEMONTID:0004476;CHEMONTID:0001831;CHEMONTID:0002230;CHEMONTID:0001167;CHEMONTID:0002436;CHEMONTID:0004622;CHEMONTID:0000118;CHEMONTID:0002434;CHEMONTID:0000286;CHEMONTID:0004620;CHEMONTID:0001205;CHEMONTID:0001238;NonID:SO2;CHEMONTID:0004451;CHEMONTID:0003416;NonID:SO3;CHEMONTID:0001019;CHEMONTID:0004452;CHEMONTID:0001245;CHEMONTID:0000333;CHEMONTID:0001661;NonID:SO4;CHEMONTID:0002229;CHEMONTID:0001334;CHEMONTID:0003626;CHEMONTID:0003417;CHEMONTID:0003086
Ontology: Gamma butyrolactones
OntologyID: CHEMONTID:0001245
RETENTIONTIME: -1
RETENTIONINDEX: -1
TotalBondEnergy: 17256
TotalScore: 7.6562
TotalHrRulesScore: 1
TotalBondCleavageScore: 0.8645
TotalMassAccuracyScore: 0.989
TotalFragmentLinkageScore: 1
TotalBondDissociationEnergyScore: 0.8646
DatabaseScore: 0.5238
SubstructureAssignmentScore: 0.069
RtSimilarityScore: -1
RiSimilarityScore: 0
Num Fragment VS2 (M/Z Intensity MatchedExactMass SaturatedExactMass Formula RearrangedHydrogen PPM MassDiff_mDa IsEvenElectronRule IsHrRule IsSolventAdductFragment AssignedAdductMass AdductString BondDissociationEnergy TreeDepth SMILES TotalScore HrLikelihood BcLikelihood MaLikelihood FlLikelihood BeLikelihood): 2
267.042391	6280584.378265	267.032164624006	272.071838378906	C12H16O5S	-5	38.3	10.23	True	True	False	0		1050	2	O=C1C=C(C)C2C1=C(C)CC(OS(=O)=O)CC2(O)	4.43745714669693	1	0.7289999127388	0.979301452636719	1	0.729155781321408
341.071469	8597465.198997	341.068952480491	340.061676025391	C15H16O7S	1	7.38	2.52	True	True	False	0		0	0	O=C2OC3C1C(C(=O)C=C1(C))=C(C)CC(OS(=O)(=O)O)C3(C2(=C))	4.99873423576355	1	1	0.99873423576355	1	1

NAME: {[1-(7-methoxy-2-oxo-2H-chromen-8-yl)-3-methylbut-3-en-2-yl]oxy}sulfonic acid
ID: DSLOVUIZZAHEDB
IsSpectrumSearch: False
INCHIKEY: DSLOVUIZZAHEDB-UHFFFAOYNA-N
SMILES: O=C1OC2=C(C=C1)C=CC(OC)=C2CC(OS(=O)(=O)O)C(=C)C
RESOURCES: HMDB=HMDB0132706
SubstructureInChIKeys: VNWKTOKETHGBQD;XLYOFNOQVPJJNP;VGGSQFUCUMXWEO;WSFSSNUMVMOOMR;QQONPFPTGQHPMA;ATUOYWHBWRKTHZ;LCGLNKUTAGEVQW;VQTUBCCKSQIDNK;VXNZUUAINFGPBY;XXROGKLTLUQVRX;IJDNQMDRQITEOD;BDERNNFJNOPAEC;RAHZWNYVWXNFOC;YWAKXRMUMFPDSH;OFBQJSOFQDEBGM;UHOVQNZJYSORNB;BDHFUVZGWQCTTF;AQIXEPGDORPWBJ;YXFVVABEGXRONW;ISWSIDIOOBJBQZ;QAOWNCQODCNURD;YNQLUTRBYVCPMQ;IWDCLRJOBJJRNH;RDOXTESZEPMUJZ;GHMLBKRAJCXXBS;FUGYGGDSWSUORM;ODLMAHJVESYWTB;CHLICZRVGGXEOD;HMNKTRSOROOSPP;HXDOZKJGKXYMEW;WRMNZCZEMHIOCP;LHGVFZTZFXWLCP;OIPPWFOQEKKFEE;ZBCATMYQYDCTIZ;UAJRSHJHFRVGMG;FBTSUTGMWBDAAC;DWLZULQNIPIABE;HDNRAPAFJLXKBV;MPWGZBWDLMDIHO;ABDKAPXRBAPSQN;DPZNOMCNRMUKPS;HFLGBNBLMBSXEM;NOTCZLKDULMKBR;PETRWTHZSKVLRE;VGMJYYDKPUPTID;YCCILVSKPBXVIP;ZYGHJZDHTFUPRJ;YOMSJEATGXXYPX;MQSXUKPGWMJYBT;CAWZFQGJUGEKFU;GYPMBQZAVBFUIZ;RIZBLVRXRWHLFA;JUUBCHWRXWPFFH;ORHBXUUXSCNDEV;NJXYTXADXSRFTJ;NEBQMYHKOREVAL;DWGPKVSAWGQTPQ
SubstructureOntologies: CHEMONTID:0002500;NonID:H2O;CHEMONTID:0004476;CHEMONTID:0001831;CHEMONTID:0001167;CHEMONTID:0004622;CHEMONTID:0000286;NonID:SO2;CHEMONTID:0002279;NonID:SO3;CHEMONTID:0001661;CHEMONTID:0001091;CHEMONTID:0004647;NonID:SO4;CHEMONTID:0001275;CHEMONTID:0000138;CHEMONTID:0000137;CHEMONTID:0000037;CHEMONTID:0002811;CHEMONTID:0004646;CHEMONTID:0000190;CHEMONTID:0000135;CHEMONTID:0004111;CHEMONTID:0003698;CHEMONTID:0000145;CHEMONTID:0002909
Ontology: Coumarins and derivatives
OntologyID: CHEMONTID:0000145
RETENTIONTIME: -1
RETENTIONINDEX: -1
TotalBondEnergy: 17043
TotalScore: 7.5093
TotalHrRulesScore: 1
TotalBondCleavageScore: 0.5228
TotalMassAccuracyScore: 0.989
TotalFragmentLinkageScore: 1
TotalBondDissociationEnergyScore: 0.8353
DatabaseScore: 0.5238
SubstructureAssignmentScore: 0
RtSimilarityScore: -1
RiSimilarityScore: 0
Num Fragment VS2 (M/Z Intensity MatchedExactMass SaturatedExactMass Formula RearrangedHydrogen PPM MassDiff_mDa IsEvenElectronRule IsHrRule IsSolventAdductFragment AssignedAdductMass AdductString BondDissociationEnergy TreeDepth SMILES TotalScore HrLikelihood BcLikelihood MaLikelihood FlLikelihood BeLikelihood): 2
267.042391	6280584.378265	267.032164624006	272.071838378906	C12H16O5S	-5	38.3	10.23	True	True	False	0		1050	2	O=S(=O)OC(C(=C)C)CC=1C(O)=CC=CC=1(OC)	3.69544991079322	1	0.045562494546175	0.979301452636719	1	0.67058596361033
341.071469	8597465.198997	341.068952480491	340.061676025391	C15H16O7S	1	7.38	2.52	True	True	False	0		0	0	O=C1OC2=C(C=C1)C=CC(OC)=C2CC(OS(=O)(=O)O)C(=C)C	4.99873423576355	1	1	0.99873423576355	1	1

NAME: {2-hydroxy-4-[2-(2-hydroxyphenyl)ethyl]-6-methoxyphenyl}oxidanesulfonic acid
ID: AYELHVRIFMXDBA
IsSpectrumSearch: False
INCHIKEY: AYELHVRIFMXDBA-UHFFFAOYSA-N
SMILES: O=S(=O)(O)OC1=C(O)C=C(C=C1(OC))CCC2=CC=CC=C2(O)
RESOURCES: HMDB=HMDB0135767
SubstructureInChIKeys: VNWKTOKETHGBQD;XLYOFNOQVPJJNP;OTMSDBZUPAUEDD;ATUOYWHBWRKTHZ;LCGLNKUTAGEVQW;IJDNQMDRQITEOD;RAHZWNYVWXNFOC;UHOVQNZJYSORNB;BDHFUVZGWQCTTF;YXFVVABEGXRONW;ISWSIDIOOBJBQZ;QAOWNCQODCNURD;YNQLUTRBYVCPMQ;IWDCLRJOBJJRNH;RDOXTESZEPMUJZ;GHMLBKRAJCXXBS;ODLMAHJVESYWTB;CHLICZRVGGXEOD;HMNKTRSOROOSPP;HXDOZKJGKXYMEW;LHGVFZTZFXWLCP;OIPPWFOQEKKFEE;ZBCATMYQYDCTIZ;QCDYQQDYXPDABM;DWLZULQNIPIABE;HDNRAPAFJLXKBV;MPWGZBWDLMDIHO;HFLGBNBLMBSXEM;NOTCZLKDULMKBR;PETRWTHZSKVLRE;VGMJYYDKPUPTID;BPHYZRNTQNPLFI;HDVRLUFGYQYLFJ;CAWZFQGJUGEKFU;FALWUVSXNUUXQA
SubstructureOntologies: CHEMONTID:0002500;NonID:H2O;CHEMONTID:0001167;NonID:SO2;CHEMONTID:0002279;NonID:SO3;CHEMONTID:0001091;CHEMONTID:0004647;NonID:SO4;CHEMONTID:0001275;CHEMONTID:0000138;CHEMONTID:0000137;CHEMONTID:0002811;CHEMONTID:0004646;CHEMONTID:0000190;CHEMONTID:0000135;CHEMONTID:0000382
Ontology: Stilbenes
OntologyID: CHEMONTID:0000253
RETENTIONTIME: -1
RETENTIONINDEX: -1
TotalBondEnergy: 16992
TotalScore: 6.8826
TotalHrRulesScore: 0.5
TotalBondCleavageScore: 0.5
TotalMassAccuracyScore: 0.4994
TotalFragmentLinkageScore: 0.5
TotalBondDissociationEnergyScore: 0.5
DatabaseScore: 0.5238
SubstructureAssignmentScore: 0
RtSimilarityScore: -1
RiSimilarityScore: 0
Num Fragment VS2 (M/Z Intensity MatchedExactMass SaturatedExactMass Formula RearrangedHydrogen PPM MassDiff_mDa IsEvenElectronRule IsHrRule IsSolventAdductFragment AssignedAdductMass AdductString BondDissociationEnergy TreeDepth SMILES TotalScore HrLikelihood BcLikelihood MaLikelihood FlLikelihood BeLikelihood): 1
341.071469	8597465.198997	341.068952480491	340.061676025391	C15H16O7S	1	7.38	2.52	True	True	False	0		0	0	O=S(=O)(O)OC1=C(O)C=C(C=C1(OC))CCC2=CC=CC=C2(O)	4.99873423576355	1	1	0.99873423576355	1	1

NAME: {3-[2-(2,5-dihydroxy-3-methoxyphenyl)ethyl]phenyl}oxidanesulfonic acid
ID: FOQJYBVUBMKTMK
IsSpectrumSearch: False
INCHIKEY: FOQJYBVUBMKTMK-UHFFFAOYSA-N
SMILES: O=S(=O)(O)OC1=CC=CC(=C1)CCC2=CC(O)=CC(OC)=C2(O)
RESOURCES: HMDB=HMDB0129955
SubstructureInChIKeys: VNWKTOKETHGBQD;XLYOFNOQVPJJNP;OTMSDBZUPAUEDD;ATUOYWHBWRKTHZ;LCGLNKUTAGEVQW;IJDNQMDRQITEOD;RAHZWNYVWXNFOC;UHOVQNZJYSORNB;BDHFUVZGWQCTTF;YXFVVABEGXRONW;ISWSIDIOOBJBQZ;QAOWNCQODCNURD;YNQLUTRBYVCPMQ;IWDCLRJOBJJRNH;RDOXTESZEPMUJZ;GHMLBKRAJCXXBS;ODLMAHJVESYWTB;CHLICZRVGGXEOD;HMNKTRSOROOSPP;HXDOZKJGKXYMEW;LHGVFZTZFXWLCP;OIPPWFOQEKKFEE;ZBCATMYQYDCTIZ;QCDYQQDYXPDABM;DWLZULQNIPIABE;HDNRAPAFJLXKBV;MPWGZBWDLMDIHO;HFLGBNBLMBSXEM;NOTCZLKDULMKBR;PETRWTHZSKVLRE;VGMJYYDKPUPTID;BPHYZRNTQNPLFI;HDVRLUFGYQYLFJ;CAWZFQGJUGEKFU;FALWUVSXNUUXQA
SubstructureOntologies: CHEMONTID:0002500;NonID:H2O;CHEMONTID:0001167;NonID:SO2;CHEMONTID:0002279;NonID:SO3;CHEMONTID:0001091;CHEMONTID:0004647;NonID:SO4;CHEMONTID:0001275;CHEMONTID:0000138;CHEMONTID:0000137;CHEMONTID:0002811;CHEMONTID:0004646;CHEMONTID:0000190;CHEMONTID:0000135;CHEMONTID:0000382
Ontology: Stilbenes
OntologyID: CHEMONTID:0000253
RETENTIONTIME: -1
RETENTIONINDEX: -1
TotalBondEnergy: 16992
TotalScore: 6.8826
TotalHrRulesScore: 0.5
TotalBondCleavageScore: 0.5
TotalMassAccuracyScore: 0.4994
TotalFragmentLinkageScore: 0.5
TotalBondDissociationEnergyScore: 0.5
DatabaseScore: 0.5238
SubstructureAssignmentScore: 0
RtSimilarityScore: -1
RiSimilarityScore: 0
Num Fragment VS2 (M/Z Intensity MatchedExactMass SaturatedExactMass Formula RearrangedHydrogen PPM MassDiff_mDa IsEvenElectronRule IsHrRule IsSolventAdductFragment AssignedAdductMass AdductString BondDissociationEnergy TreeDepth SMILES TotalScore HrLikelihood BcLikelihood MaLikelihood FlLikelihood BeLikelihood): 1
341.071469	8597465.198997	341.068952480491	340.061676025391	C15H16O7S	1	7.38	2.52	True	True	False	0		0	0	O=S(=O)(O)OC1=CC=CC(=C1)CCC2=CC(O)=CC(OC)=C2(O)	4.99873423576355	1	1	0.99873423576355	1	1

NAME: [2-(3-hydroxy-5-methoxyphenyl)-1-(2-hydroxyphenyl)ethoxy]sulfonic acid
ID: GLKNSNOPHWTOTF
IsSpectrumSearch: False
INCHIKEY: GLKNSNOPHWTOTF-UHFFFAOYNA-N
SMILES: O=S(=O)(O)OC(C1=CC=CC=C1(O))CC2=CC(O)=CC(OC)=C2
RESOURCES: HMDB=HMDB0135784
SubstructureInChIKeys: VNWKTOKETHGBQD;XLYOFNOQVPJJNP;ATUOYWHBWRKTHZ;LCGLNKUTAGEVQW;IJDNQMDRQITEOD;BDERNNFJNOPAEC;RAHZWNYVWXNFOC;UHOVQNZJYSORNB;BDHFUVZGWQCTTF;YXFVVABEGXRONW;ISWSIDIOOBJBQZ;QAOWNCQODCNURD;YNQLUTRBYVCPMQ;IWDCLRJOBJJRNH;RDOXTESZEPMUJZ;WVDDGKGOMKODPV;GHMLBKRAJCXXBS;ODLMAHJVESYWTB;CHLICZRVGGXEOD;HMNKTRSOROOSPP;HXDOZKJGKXYMEW;WRMNZCZEMHIOCP;BVJSUAQZOZWCKN;LHGVFZTZFXWLCP;OIPPWFOQEKKFEE;ZBCATMYQYDCTIZ;DWLZULQNIPIABE;HDNRAPAFJLXKBV;MPWGZBWDLMDIHO;HFLGBNBLMBSXEM;NOTCZLKDULMKBR;PETRWTHZSKVLRE;PMRFBLQVGJNGLU;VGMJYYDKPUPTID;YCCILVSKPBXVIP;CAWZFQGJUGEKFU;JUUBCHWRXWPFFH;DWGPKVSAWGQTPQ
SubstructureOntologies: CHEMONTID:0002500;NonID:H2O;CHEMONTID:0001167;CHEMONTID:0000286;NonID:SO2;CHEMONTID:0002279;NonID:SO3;CHEMONTID:0001091;CHEMONTID:0004647;NonID:SO4;CHEMONTID:0001275;CHEMONTID:0000138;CHEMONTID:0000033;CHEMONTID:0000137;CHEMONTID:0002811;CHEMONTID:0004646;CHEMONTID:0000190;CHEMONTID:0000135;CHEMONTID:0003698
Ontology: Stilbenes
OntologyID: CHEMONTID:0000253
RETENTIONTIME: -1
RETENTIONINDEX: -1
TotalBondEnergy: 16992
TotalScore: 6.8826
TotalHrRulesScore: 0.5
TotalBondCleavageScore: 0.5
TotalMassAccuracyScore: 0.4994
TotalFragmentLinkageScore: 0.5
TotalBondDissociationEnergyScore: 0.5
DatabaseScore: 0.5238
SubstructureAssignmentScore: 0
RtSimilarityScore: -1
RiSimilarityScore: 0
Num Fragment VS2 (M/Z Intensity MatchedExactMass SaturatedExactMass Formula RearrangedHydrogen PPM MassDiff_mDa IsEvenElectronRule IsHrRule IsSolventAdductFragment AssignedAdductMass AdductString BondDissociationEnergy TreeDepth SMILES TotalScore HrLikelihood BcLikelihood MaLikelihood FlLikelihood BeLikelihood): 1
341.071469	8597465.198997	341.068952480491	340.061676025391	C15H16O7S	1	7.38	2.52	True	True	False	0		0	0	O=S(=O)(O)OC(C1=CC=CC=C1(O))CC2=CC(O)=CC(OC)=C2	4.99873423576355	1	1	0.99873423576355	1	1

NAME: {3-[2-(3,4-dihydroxy-5-methoxyphenyl)ethyl]phenyl}oxidanesulfonic acid
ID: KSSIAKIESAGRJM
IsSpectrumSearch: False
INCHIKEY: KSSIAKIESAGRJM-UHFFFAOYSA-N
SMILES: O=S(=O)(O)OC1=CC=CC(=C1)CCC2=CC(O)=C(O)C(OC)=C2
RESOURCES: HMDB=HMDB0129929
SubstructureInChIKeys: VNWKTOKETHGBQD;XLYOFNOQVPJJNP;OTMSDBZUPAUEDD;ATUOYWHBWRKTHZ;LCGLNKUTAGEVQW;IJDNQMDRQITEOD;RAHZWNYVWXNFOC;UHOVQNZJYSORNB;BDHFUVZGWQCTTF;YXFVVABEGXRONW;ISWSIDIOOBJBQZ;QAOWNCQODCNURD;YNQLUTRBYVCPMQ;IWDCLRJOBJJRNH;RDOXTESZEPMUJZ;GHMLBKRAJCXXBS;ODLMAHJVESYWTB;CHLICZRVGGXEOD;HMNKTRSOROOSPP;HXDOZKJGKXYMEW;LHGVFZTZFXWLCP;OIPPWFOQEKKFEE;ZBCATMYQYDCTIZ;QCDYQQDYXPDABM;DWLZULQNIPIABE;HDNRAPAFJLXKBV;MPWGZBWDLMDIHO;HFLGBNBLMBSXEM;NOTCZLKDULMKBR;PETRWTHZSKVLRE;VGMJYYDKPUPTID;BPHYZRNTQNPLFI;HDVRLUFGYQYLFJ;CAWZFQGJUGEKFU;FALWUVSXNUUXQA
SubstructureOntologies: CHEMONTID:0002500;NonID:H2O;CHEMONTID:0001167;NonID:SO2;CHEMONTID:0002279;NonID:SO3;CHEMONTID:0001091;CHEMONTID:0004647;NonID:SO4;CHEMONTID:0001275;CHEMONTID:0000138;CHEMONTID:0000137;CHEMONTID:0002811;CHEMONTID:0004646;CHEMONTID:0000190;CHEMONTID:0000135;CHEMONTID:0000382
Ontology: Stilbenes
OntologyID: CHEMONTID:0000253
RETENTIONTIME: -1
RETENTIONINDEX: -1
TotalBondEnergy: 16992
TotalScore: 6.8826
TotalHrRulesScore: 0.5
TotalBondCleavageScore: 0.5
TotalMassAccuracyScore: 0.4994
TotalFragmentLinkageScore: 0.5
TotalBondDissociationEnergyScore: 0.5
DatabaseScore: 0.5238
SubstructureAssignmentScore: 0
RtSimilarityScore: -1
RiSimilarityScore: 0
Num Fragment VS2 (M/Z Intensity MatchedExactMass SaturatedExactMass Formula RearrangedHydrogen PPM MassDiff_mDa IsEvenElectronRule IsHrRule IsSolventAdductFragment AssignedAdductMass AdductString BondDissociationEnergy TreeDepth SMILES TotalScore HrLikelihood BcLikelihood MaLikelihood FlLikelihood BeLikelihood): 1
341.071469	8597465.198997	341.068952480491	340.061676025391	C15H16O7S	1	7.38	2.52	True	True	False	0		0	0	O=S(=O)(O)OC1=CC=CC(=C1)CCC2=CC(O)=C(O)C(OC)=C2	4.99873423576355	1	1	0.99873423576355	1	1

NAME: [1-(3-hydroxy-5-methoxyphenyl)-2-(2-hydroxyphenyl)ethoxy]sulfonic acid
ID: OIABPNLZMNGBTG
IsSpectrumSearch: False
INCHIKEY: OIABPNLZMNGBTG-UHFFFAOYNA-N
SMILES: O=S(=O)(O)OC(C1=CC(O)=CC(OC)=C1)CC2=CC=CC=C2(O)
RESOURCES: HMDB=HMDB0135781
SubstructureInChIKeys: VNWKTOKETHGBQD;XLYOFNOQVPJJNP;ATUOYWHBWRKTHZ;LCGLNKUTAGEVQW;IJDNQMDRQITEOD;BDERNNFJNOPAEC;RAHZWNYVWXNFOC;UHOVQNZJYSORNB;BDHFUVZGWQCTTF;YXFVVABEGXRONW;ISWSIDIOOBJBQZ;QAOWNCQODCNURD;YNQLUTRBYVCPMQ;IWDCLRJOBJJRNH;RDOXTESZEPMUJZ;WVDDGKGOMKODPV;GHMLBKRAJCXXBS;ODLMAHJVESYWTB;CHLICZRVGGXEOD;HMNKTRSOROOSPP;HXDOZKJGKXYMEW;WRMNZCZEMHIOCP;BVJSUAQZOZWCKN;LHGVFZTZFXWLCP;OIPPWFOQEKKFEE;ZBCATMYQYDCTIZ;DWLZULQNIPIABE;HDNRAPAFJLXKBV;MPWGZBWDLMDIHO;HFLGBNBLMBSXEM;IIGNZLVHOZEOPV;NOTCZLKDULMKBR;PETRWTHZSKVLRE;PMRFBLQVGJNGLU;VGMJYYDKPUPTID;YCCILVSKPBXVIP;PCYGLFXKCBFGPC;CAWZFQGJUGEKFU;ZENOXNGFMSCLLL
SubstructureOntologies: CHEMONTID:0002500;NonID:H2O;CHEMONTID:0001167;CHEMONTID:0000286;NonID:SO2;CHEMONTID:0002279;NonID:SO3;CHEMONTID:0001091;CHEMONTID:0004647;NonID:SO4;CHEMONTID:0001275;CHEMONTID:0000138;CHEMONTID:0000033;CHEMONTID:0000137;CHEMONTID:0002811;CHEMONTID:0004646;CHEMONTID:0000190;CHEMONTID:0000135;CHEMONTID:0003698
Ontology: Stilbenes
OntologyID: CHEMONTID:0000253
RETENTIONTIME: -1
RETENTIONINDEX: -1
TotalBondEnergy: 16992
TotalScore: 6.8826
TotalHrRulesScore: 0.5
TotalBondCleavageScore: 0.5
TotalMassAccuracyScore: 0.4994
TotalFragmentLinkageScore: 0.5
TotalBondDissociationEnergyScore: 0.5
DatabaseScore: 0.5238
SubstructureAssignmentScore: 0
RtSimilarityScore: -1
RiSimilarityScore: 0
Num Fragment VS2 (M/Z Intensity MatchedExactMass SaturatedExactMass Formula RearrangedHydrogen PPM MassDiff_mDa IsEvenElectronRule IsHrRule IsSolventAdductFragment AssignedAdductMass AdductString BondDissociationEnergy TreeDepth SMILES TotalScore HrLikelihood BcLikelihood MaLikelihood FlLikelihood BeLikelihood): 1
341.071469	8597465.198997	341.068952480491	340.061676025391	C15H16O7S	1	7.38	2.52	True	True	False	0		0	0	O=S(=O)(O)OC(C1=CC(O)=CC(OC)=C1)CC2=CC=CC=C2(O)	4.99873423576355	1	1	0.99873423576355	1	1

NAME: {2-hydroxy-5-[2-(3-hydroxy-5-methoxyphenyl)ethyl]phenyl}oxidanesulfonic acid
ID: PDPLKXXSZOVVAV
IsSpectrumSearch: False
INCHIKEY: PDPLKXXSZOVVAV-UHFFFAOYSA-N
SMILES: O=S(=O)(O)OC=1C=C(C=CC=1(O))CCC2=CC(O)=CC(OC)=C2
RESOURCES: HMDB=HMDB0129939
SubstructureInChIKeys: VNWKTOKETHGBQD;XLYOFNOQVPJJNP;OTMSDBZUPAUEDD;ATUOYWHBWRKTHZ;LCGLNKUTAGEVQW;IJDNQMDRQITEOD;RAHZWNYVWXNFOC;UHOVQNZJYSORNB;BDHFUVZGWQCTTF;YXFVVABEGXRONW;ISWSIDIOOBJBQZ;QAOWNCQODCNURD;YNQLUTRBYVCPMQ;IWDCLRJOBJJRNH;RDOXTESZEPMUJZ;GHMLBKRAJCXXBS;ODLMAHJVESYWTB;CHLICZRVGGXEOD;HMNKTRSOROOSPP;HXDOZKJGKXYMEW;LHGVFZTZFXWLCP;OIPPWFOQEKKFEE;ZBCATMYQYDCTIZ;DWLZULQNIPIABE;HDNRAPAFJLXKBV;MPWGZBWDLMDIHO;HFLGBNBLMBSXEM;NOTCZLKDULMKBR;PETRWTHZSKVLRE;VGMJYYDKPUPTID;CAWZFQGJUGEKFU
SubstructureOntologies: CHEMONTID:0002500;NonID:H2O;CHEMONTID:0001167;NonID:SO2;CHEMONTID:0002279;NonID:SO3;CHEMONTID:0001091;CHEMONTID:0004647;NonID:SO4;CHEMONTID:0001275;CHEMONTID:0000138;CHEMONTID:0000137;CHEMONTID:0002811;CHEMONTID:0004646;CHEMONTID:0000190;CHEMONTID:0000135
Ontology: Stilbenes
OntologyID: CHEMONTID:0000253
RETENTIONTIME: -1
RETENTIONINDEX: -1
TotalBondEnergy: 16992
TotalScore: 6.8826
TotalHrRulesScore: 0.5
TotalBondCleavageScore: 0.5
TotalMassAccuracyScore: 0.4994
TotalFragmentLinkageScore: 0.5
TotalBondDissociationEnergyScore: 0.5
DatabaseScore: 0.5238
SubstructureAssignmentScore: 0
RtSimilarityScore: -1
RiSimilarityScore: 0
Num Fragment VS2 (M/Z Intensity MatchedExactMass SaturatedExactMass Formula RearrangedHydrogen PPM MassDiff_mDa IsEvenElectronRule IsHrRule IsSolventAdductFragment AssignedAdductMass AdductString BondDissociationEnergy TreeDepth SMILES TotalScore HrLikelihood BcLikelihood MaLikelihood FlLikelihood BeLikelihood): 1
341.071469	8597465.198997	341.068952480491	340.061676025391	C15H16O7S	1	7.38	2.52	True	True	False	0		0	0	O=S(=O)(O)OC=1C=C(C=CC=1(O))CCC2=CC(O)=CC(OC)=C2	4.99873423576355	1	1	0.99873423576355	1	1

NAME: {3-[2-(2,3-dihydroxy-5-methoxyphenyl)ethyl]phenyl}oxidanesulfonic acid
ID: VHDVLYLPIHCNCI
IsSpectrumSearch: False
INCHIKEY: VHDVLYLPIHCNCI-UHFFFAOYSA-N
SMILES: O=S(=O)(O)OC1=CC=CC(=C1)CCC2=CC(OC)=CC(O)=C2(O)
RESOURCES: HMDB=HMDB0129934
SubstructureInChIKeys: VNWKTOKETHGBQD;XLYOFNOQVPJJNP;OTMSDBZUPAUEDD;ATUOYWHBWRKTHZ;LCGLNKUTAGEVQW;IJDNQMDRQITEOD;RAHZWNYVWXNFOC;UHOVQNZJYSORNB;BDHFUVZGWQCTTF;YXFVVABEGXRONW;ISWSIDIOOBJBQZ;QAOWNCQODCNURD;YNQLUTRBYVCPMQ;IWDCLRJOBJJRNH;RDOXTESZEPMUJZ;GHMLBKRAJCXXBS;ODLMAHJVESYWTB;CHLICZRVGGXEOD;HMNKTRSOROOSPP;HXDOZKJGKXYMEW;LHGVFZTZFXWLCP;OIPPWFOQEKKFEE;ZBCATMYQYDCTIZ;QCDYQQDYXPDABM;DWLZULQNIPIABE;HDNRAPAFJLXKBV;MPWGZBWDLMDIHO;HFLGBNBLMBSXEM;NOTCZLKDULMKBR;PETRWTHZSKVLRE;VGMJYYDKPUPTID;BPHYZRNTQNPLFI;HDVRLUFGYQYLFJ;CAWZFQGJUGEKFU;FALWUVSXNUUXQA
SubstructureOntologies: CHEMONTID:0002500;NonID:H2O;CHEMONTID:0001167;NonID:SO2;CHEMONTID:0002279;NonID:SO3;CHEMONTID:0001091;CHEMONTID:0004647;NonID:SO4;CHEMONTID:0001275;CHEMONTID:0000138;CHEMONTID:0000137;CHEMONTID:0002811;CHEMONTID:0004646;CHEMONTID:0000190;CHEMONTID:0000135;CHEMONTID:0000382
Ontology: Stilbenes
OntologyID: CHEMONTID:0000253
RETENTIONTIME: -1
RETENTIONINDEX: -1
TotalBondEnergy: 16992
TotalScore: 6.8826
TotalHrRulesScore: 0.5
TotalBondCleavageScore: 0.5
TotalMassAccuracyScore: 0.4994
TotalFragmentLinkageScore: 0.5
TotalBondDissociationEnergyScore: 0.5
DatabaseScore: 0.5238
SubstructureAssignmentScore: 0
RtSimilarityScore: -1
RiSimilarityScore: 0
Num Fragment VS2 (M/Z Intensity MatchedExactMass SaturatedExactMass Formula RearrangedHydrogen PPM MassDiff_mDa IsEvenElectronRule IsHrRule IsSolventAdductFragment AssignedAdductMass AdductString BondDissociationEnergy TreeDepth SMILES TotalScore HrLikelihood BcLikelihood MaLikelihood FlLikelihood BeLikelihood): 1
341.071469	8597465.198997	341.068952480491	340.061676025391	C15H16O7S	1	7.38	2.52	True	True	False	0		0	0	O=S(=O)(O)OC1=CC=CC(=C1)CCC2=CC(OC)=CC(O)=C2(O)	4.99873423576355	1	1	0.99873423576355	1	1

NAME: {2-hydroxy-3-[2-(3-hydroxy-5-methoxyphenyl)ethyl]phenyl}oxidanesulfonic acid
ID: XMRSCEULZQLBIV
IsSpectrumSearch: False
INCHIKEY: XMRSCEULZQLBIV-UHFFFAOYSA-N
SMILES: O=S(=O)(O)OC1=CC=CC(=C1(O))CCC2=CC(O)=CC(OC)=C2
RESOURCES: HMDB=HMDB0129944
SubstructureInChIKeys: VNWKTOKETHGBQD;XLYOFNOQVPJJNP;OTMSDBZUPAUEDD;ATUOYWHBWRKTHZ;LCGLNKUTAGEVQW;IJDNQMDRQITEOD;RAHZWNYVWXNFOC;UHOVQNZJYSORNB;BDHFUVZGWQCTTF;YXFVVABEGXRONW;ISWSIDIOOBJBQZ;QAOWNCQODCNURD;YNQLUTRBYVCPMQ;IWDCLRJOBJJRNH;RDOXTESZEPMUJZ;GHMLBKRAJCXXBS;ODLMAHJVESYWTB;CHLICZRVGGXEOD;HMNKTRSOROOSPP;HXDOZKJGKXYMEW;LHGVFZTZFXWLCP;OIPPWFOQEKKFEE;ZBCATMYQYDCTIZ;DWLZULQNIPIABE;HDNRAPAFJLXKBV;MPWGZBWDLMDIHO;HFLGBNBLMBSXEM;NOTCZLKDULMKBR;PETRWTHZSKVLRE;VGMJYYDKPUPTID;CAWZFQGJUGEKFU
SubstructureOntologies: CHEMONTID:0002500;NonID:H2O;CHEMONTID:0001167;NonID:SO2;CHEMONTID:0002279;NonID:SO3;CHEMONTID:0001091;CHEMONTID:0004647;NonID:SO4;CHEMONTID:0001275;CHEMONTID:0000138;CHEMONTID:0000137;CHEMONTID:0002811;CHEMONTID:0004646;CHEMONTID:0000190;CHEMONTID:0000135
Ontology: Stilbenes
OntologyID: CHEMONTID:0000253
RETENTIONTIME: -1
RETENTIONINDEX: -1
TotalBondEnergy: 16992
TotalScore: 6.8826
TotalHrRulesScore: 0.5
TotalBondCleavageScore: 0.5
TotalMassAccuracyScore: 0.4994
TotalFragmentLinkageScore: 0.5
TotalBondDissociationEnergyScore: 0.5
DatabaseScore: 0.5238
SubstructureAssignmentScore: 0
RtSimilarityScore: -1
RiSimilarityScore: 0
Num Fragment VS2 (M/Z Intensity MatchedExactMass SaturatedExactMass Formula RearrangedHydrogen PPM MassDiff_mDa IsEvenElectronRule IsHrRule IsSolventAdductFragment AssignedAdductMass AdductString BondDissociationEnergy TreeDepth SMILES TotalScore HrLikelihood BcLikelihood MaLikelihood FlLikelihood BeLikelihood): 1
341.071469	8597465.198997	341.068952480491	340.061676025391	C15H16O7S	1	7.38	2.52	True	True	False	0		0	0	O=S(=O)(O)OC1=CC=CC(=C1(O))CCC2=CC(O)=CC(OC)=C2	4.99873423576355	1	1	0.99873423576355	1	1

