NAME: (3-Aminopropoxy)guanidine
ID: JGMONYLSKFKAJN
IsSpectrumSearch: False
INCHIKEY: JGMONYLSKFKAJN-UHFFFAOYSA-N
SMILES: N=C(N)NOCCCN
RESOURCES: HMDB=HMDB0039228,FooDB=FDB018761,UNPD=UNPD122662
SubstructureInChIKeys: QGZKDVFQNNGYKY;WDWDWGRYHDPSDS;OTMSDBZUPAUEDD;BAVYZALUXZFZLV;PNKUSGQVOMIXLU;ATUOYWHBWRKTHZ;QUSNBJAOOMFDIB;ZRALSGWEFCBTJO;WGYKZJWCGVVSQN;BDERNNFJNOPAEC;WUGQZFFCHPXWKQ
SubstructureOntologies: NonID:NH2;CHEMONTID:0000117;CHEMONTID:0002500;CHEMONTID:0000469;CHEMONTID:0001045;CHEMONTID:0000375;CHEMONTID:0000286;CHEMONTID:0001852
Ontology: Guanidines
OntologyID: CHEMONTID:0000375
RETENTIONTIME: -1
RETENTIONINDEX: -1
TotalBondEnergy: 7563
TotalScore: 6.8552
TotalHrRulesScore: 1
TotalBondCleavageScore: 1
TotalMassAccuracyScore: 0.9976
TotalFragmentLinkageScore: 1
TotalBondDissociationEnergyScore: 1
DatabaseScore: 0.5714
SubstructureAssignmentScore: 0
RtSimilarityScore: -1
RiSimilarityScore: 0
Num Fragment VS2 (M/Z Intensity MatchedExactMass SaturatedExactMass Formula RearrangedHydrogen PPM MassDiff_mDa IsEvenElectronRule IsHrRule IsSolventAdductFragment AssignedAdductMass AdductString BondDissociationEnergy TreeDepth SMILES TotalScore HrLikelihood BcLikelihood MaLikelihood FlLikelihood BeLikelihood): 1
133.111847	303644.63298	133.108381191428	132.101104736328	C4H12N4O	1	26.04	3.47	True	True	False	0		0	0	N=C(N)NOCCCN	4.99760049581528	1	1	0.997600495815277	1	1

NAME: Descarboxy-nor-N(Omega)-Hydroxy-L-Arginine
ID: HYBLXYGPQAIGPY
IsSpectrumSearch: False
INCHIKEY: HYBLXYGPQAIGPY-UHFFFAOYSA-O
SMILES: ONC(=NCCCN)N
RESOURCES: DrugBank=DB04197
SubstructureInChIKeys: QGZKDVFQNNGYKY;XLYOFNOQVPJJNP;WDWDWGRYHDPSDS;OTMSDBZUPAUEDD;BAVYZALUXZFZLV;PNKUSGQVOMIXLU;ATUOYWHBWRKTHZ;QUSNBJAOOMFDIB;ZRALSGWEFCBTJO;WGYKZJWCGVVSQN;MCGDEFQPHREUNF
SubstructureOntologies: NonID:NH2;NonID:H2O;CHEMONTID:0000117;CHEMONTID:0002500;CHEMONTID:0000469;CHEMONTID:0001045;CHEMONTID:0000375
Ontology: N-hydroxyguanidines
OntologyID: CHEMONTID:0003280
RETENTIONTIME: -1
RETENTIONINDEX: -1
TotalBondEnergy: 7583
TotalScore: 6.7362
TotalHrRulesScore: 1
TotalBondCleavageScore: 1
TotalMassAccuracyScore: 0.9976
TotalFragmentLinkageScore: 1
TotalBondDissociationEnergyScore: 1
DatabaseScore: 0.5238
SubstructureAssignmentScore: 0
RtSimilarityScore: -1
RiSimilarityScore: 0
Num Fragment VS2 (M/Z Intensity MatchedExactMass SaturatedExactMass Formula RearrangedHydrogen PPM MassDiff_mDa IsEvenElectronRule IsHrRule IsSolventAdductFragment AssignedAdductMass AdductString BondDissociationEnergy TreeDepth SMILES TotalScore HrLikelihood BcLikelihood MaLikelihood FlLikelihood BeLikelihood): 1
133.111847	303644.63298	133.108381191428	132.101104736328	C4H12N4O	1	26.04	3.47	True	True	False	0		0	0	ONC(=NCCCN)N	4.99760049581528	1	1	0.997600495815277	1	1

