NAME: Mintsulfide
ID: HVLGGQYBXOJMLO
IsSpectrumSearch: False
INCHIKEY: HVLGGQYBXOJMLO-UHFFFAOYNA-N
SMILES: C=C1CCC2C3(C)(CCC(C(C)C)C3(C1S2))
RESOURCES: HMDB=HMDB0038151,KNApSAcK=C00021429,FooDB=FDB017379,UNPD=UNPD162195
SubstructureInChIKeys: VNWKTOKETHGBQD;VGGSQFUCUMXWEO;OTMSDBZUPAUEDD;ATUOYWHBWRKTHZ;VQTUBCCKSQIDNK;VXNZUUAINFGPBY;IJDNQMDRQITEOD;NNPPMTNAJDCUHE;DNJIEGIFACGWOD;QMMFVYPAHWMCMS;RGSFGYAAUTVSQA;YWAKXRMUMFPDSH;OFBQJSOFQDEBGM;QWTDNUCVQCZILF;GDOPTJXRTPNYNR;LIKMAJRDDDTEIG;AFABGHUZZDYHJO;HNRMPXKDFBEGFZ;PFEOZHBOMNWTJB;VLKZOEOYAKHREP;QWHNJUXXYKPLQM;ZGEGCLOFRBLKSE;BZHMBWZPUJHVEE;IMNFDUFMRHMDMM;VLJXXKKOSFGPHI;KWKAKUADMBZCLK;LETYIFNDQBJGPJ;JVSWJIKNEAIKJW;TVMXDCGIABBOFY
SubstructureOntologies: CHEMONTID:0002500;CHEMONTID:0004476;CHEMONTID:0004622;CHEMONTID:0004620;CHEMONTID:0001212;CHEMONTID:0003862;CHEMONTID:0001016
Ontology: Sesquiterpenoids
OntologyID: CHEMONTID:0001550
RETENTIONTIME: -1
RETENTIONINDEX: -1
TotalBondEnergy: 16200
TotalScore: 6.4961
TotalHrRulesScore: 0.5
TotalBondCleavageScore: 0.5
TotalMassAccuracyScore: 0.4966
TotalFragmentLinkageScore: 0.5
TotalBondDissociationEnergyScore: 0.5
DatabaseScore: 0.5952
SubstructureAssignmentScore: 0.2857
RtSimilarityScore: -1
RiSimilarityScore: 0
Num Fragment VS2 (M/Z Intensity MatchedExactMass SaturatedExactMass Formula RearrangedHydrogen PPM MassDiff_mDa IsEvenElectronRule IsHrRule IsSolventAdductFragment AssignedAdductMass AdductString BondDissociationEnergy TreeDepth SMILES TotalScore HrLikelihood BcLikelihood MaLikelihood FlLikelihood BeLikelihood): 1
237.173002	25926.063136	237.167142788108	236.159866333008	C15H24S	1	24.7	5.86	True	True	False	0		0	0	C=C1CCC2C3(C)(CCC(C(C)C)C3(C1S2))	4.99315744638443	1	1	0.99315744638443	1	1

NAME: 1,5,5,8-Tetramethyl-12-thiabicyclo[9.1.0]dodeca-3,7-diene
ID: RNAZTWUZAUOIKC
IsSpectrumSearch: False
INCHIKEY: RNAZTWUZAUOIKC-QZFXXANLNA-N
SMILES: C1=CC(C)(C)CC=C(C)CCC2C(C)(C1)S2
RESOURCES: HMDB=HMDB0036468,FooDB=FDB015361
SubstructureInChIKeys: VNWKTOKETHGBQD;VGGSQFUCUMXWEO;OTMSDBZUPAUEDD;QQONPFPTGQHPMA;ATUOYWHBWRKTHZ;IAQRGUVFOMOMEM;VQTUBCCKSQIDNK;VXNZUUAINFGPBY;IJDNQMDRQITEOD;NNPPMTNAJDCUHE;DNJIEGIFACGWOD;QMMFVYPAHWMCMS;BKOOMYPCSUNDGP;QMMOXUPEWRXHJS;YWAKXRMUMFPDSH;OFBQJSOFQDEBGM;QWTDNUCVQCZILF;BEQGRRJLJLVQAQ;LDTAOIUHUHHCMU;LIKMAJRDDDTEIG;RYPKRALMXUUNKS;ZQDPJFUHLCOCRG;AFABGHUZZDYHJO;HNRMPXKDFBEGFZ;PFEOZHBOMNWTJB;VLKZOEOYAKHREP;WZHKDGJSXCTSCK;ZGEGCLOFRBLKSE;IMNFDUFMRHMDMM;VLJXXKKOSFGPHI;KWKAKUADMBZCLK;JVSWJIKNEAIKJW;TVMXDCGIABBOFY;IICQZTQZQSBHBY;KPADFPAILITQBG
SubstructureOntologies: CHEMONTID:0002500;CHEMONTID:0004476;CHEMONTID:0004622;CHEMONTID:0004620;CHEMONTID:0001212;CHEMONTID:0003862
Ontology: Thiiranes
OntologyID: CHEMONTID:0000377
RETENTIONTIME: -1
RETENTIONINDEX: -1
TotalBondEnergy: 16110
TotalScore: 6.4167
TotalHrRulesScore: 0.5
TotalBondCleavageScore: 0.5
TotalMassAccuracyScore: 0.4966
TotalFragmentLinkageScore: 0.5
TotalBondDissociationEnergyScore: 0.5
DatabaseScore: 0.5476
SubstructureAssignmentScore: 0.3333
RtSimilarityScore: -1
RiSimilarityScore: 0
Num Fragment VS2 (M/Z Intensity MatchedExactMass SaturatedExactMass Formula RearrangedHydrogen PPM MassDiff_mDa IsEvenElectronRule IsHrRule IsSolventAdductFragment AssignedAdductMass AdductString BondDissociationEnergy TreeDepth SMILES TotalScore HrLikelihood BcLikelihood MaLikelihood FlLikelihood BeLikelihood): 1
237.173002	25926.063136	237.167142788108	236.159866333008	C15H24S	1	24.7	5.86	True	True	False	0		0	0	C1=CC(C)(C)CC=C(C)CCC2C(C)(C1)S2	4.99315744638443	1	1	0.99315744638443	1	1

NAME: 3,7,7,10-Tetramethyl-12-thiabicyclo[9.1.0]dodeca-3,7-diene
ID: SVXFQANDXQPHJI
IsSpectrumSearch: False
INCHIKEY: SVXFQANDXQPHJI-HONFXZPPNA-N
SMILES: C1=C(C)CC2C(C(C)(C)CC=C(C)CC1)S2
RESOURCES: HMDB=HMDB0036469,FooDB=FDB015362
SubstructureInChIKeys: VNWKTOKETHGBQD;VGGSQFUCUMXWEO;OTMSDBZUPAUEDD;QQONPFPTGQHPMA;ATUOYWHBWRKTHZ;IAQRGUVFOMOMEM;VQTUBCCKSQIDNK;VXNZUUAINFGPBY;IJDNQMDRQITEOD;NNPPMTNAJDCUHE;DNJIEGIFACGWOD;QMMFVYPAHWMCMS;BKOOMYPCSUNDGP;QMMOXUPEWRXHJS;YWAKXRMUMFPDSH;OFBQJSOFQDEBGM;QWTDNUCVQCZILF;BEQGRRJLJLVQAQ;LIKMAJRDDDTEIG;RYPKRALMXUUNKS;ZQDPJFUHLCOCRG;AFABGHUZZDYHJO;HNRMPXKDFBEGFZ;PFEOZHBOMNWTJB;VLKZOEOYAKHREP;WZHKDGJSXCTSCK;ZGEGCLOFRBLKSE;IMNFDUFMRHMDMM;VLJXXKKOSFGPHI;KWKAKUADMBZCLK;JVSWJIKNEAIKJW;TVMXDCGIABBOFY;IICQZTQZQSBHBY;KPADFPAILITQBG
SubstructureOntologies: CHEMONTID:0002500;CHEMONTID:0004476;CHEMONTID:0004622;CHEMONTID:0004620;CHEMONTID:0001212;CHEMONTID:0003862
Ontology: Thiiranes
OntologyID: CHEMONTID:0000377
RETENTIONTIME: -1
RETENTIONINDEX: -1
TotalBondEnergy: 16110
TotalScore: 6.4167
TotalHrRulesScore: 0.5
TotalBondCleavageScore: 0.5
TotalMassAccuracyScore: 0.4966
TotalFragmentLinkageScore: 0.5
TotalBondDissociationEnergyScore: 0.5
DatabaseScore: 0.5476
SubstructureAssignmentScore: 0.3333
RtSimilarityScore: -1
RiSimilarityScore: 0
Num Fragment VS2 (M/Z Intensity MatchedExactMass SaturatedExactMass Formula RearrangedHydrogen PPM MassDiff_mDa IsEvenElectronRule IsHrRule IsSolventAdductFragment AssignedAdductMass AdductString BondDissociationEnergy TreeDepth SMILES TotalScore HrLikelihood BcLikelihood MaLikelihood FlLikelihood BeLikelihood): 1
237.173002	25926.063136	237.167142788108	236.159866333008	C15H24S	1	24.7	5.86	True	True	False	0		0	0	C1=C(C)CC2C(C(C)(C)CC=C(C)CC1)S2	4.99315744638443	1	1	0.99315744638443	1	1

NAME: UNPD215393
ID: MOLPJMOYBINZPO
IsSpectrumSearch: False
INCHIKEY: MOLPJMOYBINZPO-WEVZDULTSA-N
SMILES: C(=C2C1C(C)CCC1C3(C)(CCC23))(C)CS
RESOURCES: UNPD=UNPD215393
SubstructureInChIKeys: VNWKTOKETHGBQD;VGGSQFUCUMXWEO;OTMSDBZUPAUEDD;RWSOTUBLDIXVET;QQONPFPTGQHPMA;ATUOYWHBWRKTHZ;IAQRGUVFOMOMEM;VQTUBCCKSQIDNK;VXNZUUAINFGPBY;IJDNQMDRQITEOD;NNPPMTNAJDCUHE;DNJIEGIFACGWOD;BKOOMYPCSUNDGP;QMMOXUPEWRXHJS;RGSFGYAAUTVSQA;YWAKXRMUMFPDSH;OFBQJSOFQDEBGM;QWTDNUCVQCZILF;BEQGRRJLJLVQAQ;GDOPTJXRTPNYNR;LDTAOIUHUHHCMU;LIKMAJRDDDTEIG;RYPKRALMXUUNKS;AFABGHUZZDYHJO;HNRMPXKDFBEGFZ;PFEOZHBOMNWTJB;VLKZOEOYAKHREP;ADHCYQWFCLQBFG;QWHNJUXXYKPLQM;ZGEGCLOFRBLKSE;BZHMBWZPUJHVEE;IMNFDUFMRHMDMM;VLJXXKKOSFGPHI;KWKAKUADMBZCLK;LETYIFNDQBJGPJ;YXLCVBVDFKWWRW;JVSWJIKNEAIKJW;TVMXDCGIABBOFY;IICQZTQZQSBHBY
SubstructureOntologies: CHEMONTID:0002500;CHEMONTID:0004476;NonID:SH;CHEMONTID:0004622;CHEMONTID:0004620;CHEMONTID:0001212;CHEMONTID:0001016
Ontology: Iridoids and derivatives
OntologyID: CHEMONTID:0001565
RETENTIONTIME: -1
RETENTIONINDEX: -1
TotalBondEnergy: 16226
TotalScore: 5.5675
TotalHrRulesScore: 0.5
TotalBondCleavageScore: 0.5
TotalMassAccuracyScore: 0.4966
TotalFragmentLinkageScore: 0.5
TotalBondDissociationEnergyScore: 0.5
DatabaseScore: 0.2238
SubstructureAssignmentScore: 0.2857
RtSimilarityScore: -1
RiSimilarityScore: 0
Num Fragment VS2 (M/Z Intensity MatchedExactMass SaturatedExactMass Formula RearrangedHydrogen PPM MassDiff_mDa IsEvenElectronRule IsHrRule IsSolventAdductFragment AssignedAdductMass AdductString BondDissociationEnergy TreeDepth SMILES TotalScore HrLikelihood BcLikelihood MaLikelihood FlLikelihood BeLikelihood): 1
237.173002	25926.063136	237.167142788108	236.159866333008	C15H24S	1	24.7	5.86	True	True	False	0		0	0	C(=C2C1C(C)CCC1C3(C)(CCC23))(C)CS	4.99315744638443	1	1	0.99315744638443	1	1

NAME: UNPD40338
ID: NMFLUDGCWGFKBV
IsSpectrumSearch: False
INCHIKEY: NMFLUDGCWGFKBV-CLDXQSMPSA-N
SMILES: C1=CC(C)(C)CC=C(C)CCC(=C(C)C1)S
RESOURCES: UNPD=UNPD40338
SubstructureInChIKeys: VNWKTOKETHGBQD;VGGSQFUCUMXWEO;OTMSDBZUPAUEDD;RWSOTUBLDIXVET;QQONPFPTGQHPMA;ATUOYWHBWRKTHZ;IAQRGUVFOMOMEM;VQTUBCCKSQIDNK;VXNZUUAINFGPBY;IJDNQMDRQITEOD;NNPPMTNAJDCUHE;DNJIEGIFACGWOD;BKOOMYPCSUNDGP;QMMOXUPEWRXHJS;YWAKXRMUMFPDSH;OFBQJSOFQDEBGM;QWTDNUCVQCZILF;PRBHEGAFLDMLAL;BEQGRRJLJLVQAQ;LDTAOIUHUHHCMU;LIKMAJRDDDTEIG;RYPKRALMXUUNKS;ZQDPJFUHLCOCRG;HNRMPXKDFBEGFZ;FMAMSYPJXSEYSW;WZHKDGJSXCTSCK;GDDAJHJRAKOILH;NMFOAHIHPAPYJJ;KPADFPAILITQBG
SubstructureOntologies: CHEMONTID:0002500;CHEMONTID:0004476;NonID:SH;CHEMONTID:0004622;CHEMONTID:0004620;CHEMONTID:0001212;CHEMONTID:0001019
Ontology: Sesquiterpenoids
OntologyID: CHEMONTID:0001550
RETENTIONTIME: -1
RETENTIONINDEX: -1
TotalBondEnergy: 16046
TotalScore: 5.5675
TotalHrRulesScore: 0.5
TotalBondCleavageScore: 0.5
TotalMassAccuracyScore: 0.4966
TotalFragmentLinkageScore: 0.5
TotalBondDissociationEnergyScore: 0.5
DatabaseScore: 0.2238
SubstructureAssignmentScore: 0.2857
RtSimilarityScore: -1
RiSimilarityScore: 0
Num Fragment VS2 (M/Z Intensity MatchedExactMass SaturatedExactMass Formula RearrangedHydrogen PPM MassDiff_mDa IsEvenElectronRule IsHrRule IsSolventAdductFragment AssignedAdductMass AdductString BondDissociationEnergy TreeDepth SMILES TotalScore HrLikelihood BcLikelihood MaLikelihood FlLikelihood BeLikelihood): 1
237.173002	25926.063136	237.167142788108	236.159866333008	C15H24S	1	24.7	5.86	True	True	False	0		0	0	C1=CC(C)(C)CC=C(C)CCC(=C(C)C1)S	4.99315744638443	1	1	0.99315744638443	1	1

NAME: UNPD107479
ID: RJISBTRGFYEHQC
IsSpectrumSearch: False
INCHIKEY: RJISBTRGFYEHQC-ZHUGDPAQSA-N
SMILES: C1=C(C)CC(=CC(C)(C)CC=C(C)CC1)S
RESOURCES: UNPD=UNPD107479
SubstructureInChIKeys: VNWKTOKETHGBQD;VGGSQFUCUMXWEO;OTMSDBZUPAUEDD;RWSOTUBLDIXVET;QQONPFPTGQHPMA;ATUOYWHBWRKTHZ;IAQRGUVFOMOMEM;VQTUBCCKSQIDNK;VXNZUUAINFGPBY;IJDNQMDRQITEOD;NNPPMTNAJDCUHE;DNJIEGIFACGWOD;BKOOMYPCSUNDGP;QMMOXUPEWRXHJS;YWAKXRMUMFPDSH;OFBQJSOFQDEBGM;QWTDNUCVQCZILF;PRBHEGAFLDMLAL;BEQGRRJLJLVQAQ;LDTAOIUHUHHCMU;LIKMAJRDDDTEIG;RYPKRALMXUUNKS;ZQDPJFUHLCOCRG;HNRMPXKDFBEGFZ;FMAMSYPJXSEYSW;WZHKDGJSXCTSCK;GDDAJHJRAKOILH;NMFOAHIHPAPYJJ;KPADFPAILITQBG
SubstructureOntologies: CHEMONTID:0002500;CHEMONTID:0004476;NonID:SH;CHEMONTID:0004622;CHEMONTID:0004620;CHEMONTID:0001212;CHEMONTID:0001019
Ontology: Sesquiterpenoids
OntologyID: CHEMONTID:0001550
RETENTIONTIME: -1
RETENTIONINDEX: -1
TotalBondEnergy: 16046
TotalScore: 5.5675
TotalHrRulesScore: 0.5
TotalBondCleavageScore: 0.5
TotalMassAccuracyScore: 0.4966
TotalFragmentLinkageScore: 0.5
TotalBondDissociationEnergyScore: 0.5
DatabaseScore: 0.2238
SubstructureAssignmentScore: 0.2857
RtSimilarityScore: -1
RiSimilarityScore: 0
Num Fragment VS2 (M/Z Intensity MatchedExactMass SaturatedExactMass Formula RearrangedHydrogen PPM MassDiff_mDa IsEvenElectronRule IsHrRule IsSolventAdductFragment AssignedAdductMass AdductString BondDissociationEnergy TreeDepth SMILES TotalScore HrLikelihood BcLikelihood MaLikelihood FlLikelihood BeLikelihood): 1
237.173002	25926.063136	237.167142788108	236.159866333008	C15H24S	1	24.7	5.86	True	True	False	0		0	0	C1=C(C)CC(=CC(C)(C)CC=C(C)CC1)S	4.99315744638443	1	1	0.99315744638443	1	1

