NAME: PE(P-16:0e/0:0)
ID: QYTPGOPLNFESQC
IsSpectrumSearch: False
INCHIKEY: QYTPGOPLNFESQC-NUTQULCTSA-N
SMILES: O=P(O)(OCCN)OCC(O)COC=CCCCCCCCCCCCCCC
RESOURCES: HMDB=HMDB0011152,ChEBI=CHEBI:133139;CHEBI:133140,FooDB=FDB027927,BMDB=BMDB11152,LipidMAPS=LMGP02070001,Feces=HMDB0011152,Serum=HMDB0011152
SubstructureInChIKeys: VNWKTOKETHGBQD;QGZKDVFQNNGYKY;XLYOFNOQVPJJNP;VGGSQFUCUMXWEO;OTMSDBZUPAUEDD;BAVYZALUXZFZLV;OKKJLVBELUTLKV;IMROMDMJAWUWLK;ATUOYWHBWRKTHZ;QUSNBJAOOMFDIB;LCGLNKUTAGEVQW;LFQSCWFLJHTTHZ;VXNZUUAINFGPBY;XJRBAMWJDBPFIM;IJDNQMDRQITEOD;BDERNNFJNOPAEC;KFZMGEQAYNKOFK;XOBKSJJDNFUZPF;HZAXFHJVJLSVMW;LYCAIKOWRPUZTN;YWAKXRMUMFPDSH;OFBQJSOFQDEBGM;BEBCJVAWIBVWNZ;VNKYTQGIUYNRMY;DNIAPMSPPWPWGF;XNWFRZJHXBZDAG;YPFDHNVEDLHUCE;VIBDJEWPNNCFQO;ABLZXFCXXLZCGV;LIKMAJRDDDTEIG;VLKZOEOYAKHREP;JDFDHBSESGTDAL;PEDCQBHIVMGVHV;NBIIXXVUZAFLBC;ZGEGCLOFRBLKSE;IMNFDUFMRHMDMM;MQVRLONNONYDJP;KWKAKUADMBZCLK;TVMXDCGIABBOFY;ACXJKDUFAXMPOM;SUHOOTKUPISOBE;PCIBVZXUNDZWRL;HYCSHFLKPSMPGO;VSFDKTSQZYFUOP;WHRQRNQSZWMIMU;ACOJOKPGGCIXCN;OHLUOZVYBDODSP;JZNWSCPGTDBMEW
SubstructureOntologies: CHEMONTID:0002500;NonID:NH2;NonID:H2O;CHEMONTID:0004476;CHEMONTID:0000469;CHEMONTID:0000286;CHEMONTID:0000132;CHEMONTID:0001167;CHEMONTID:0000323;CHEMONTID:0001661;CHEMONTID:0001897;CHEMONTID:0002467;CHEMONTID:0002484;CHEMONTID:0002286;NonID:PO3;CHEMONTID:0002210;NonID:PO4;NonID:PE-lipid head;CHEMONTID:0003458;CHEMONTID:0003459
Ontology: 1-(1Z-alkenyl)-glycero-3-phosphoethanolamines
OntologyID: CHEMONTID:0003834
RETENTIONTIME: -1
RETENTIONINDEX: -1
TotalBondEnergy: 28258
TotalScore: 6.9457
TotalHrRulesScore: 0.6
TotalBondCleavageScore: 0.6012
TotalMassAccuracyScore: 0.9871
TotalFragmentLinkageScore: 1
TotalBondDissociationEnergyScore: 0.8674
DatabaseScore: 0.6667
SubstructureAssignmentScore: 0
RtSimilarityScore: -1
RiSimilarityScore: 0
Num Fragment VS2 (M/Z Intensity MatchedExactMass SaturatedExactMass Formula RearrangedHydrogen PPM MassDiff_mDa IsEvenElectronRule IsHrRule IsSolventAdductFragment AssignedAdductMass AdductString BondDissociationEnergy TreeDepth SMILES TotalScore HrLikelihood BcLikelihood MaLikelihood FlLikelihood BeLikelihood): 2
222.186579	72324.776896	222.19781131428	226.22966003418	C15H30O	-4	50.55	11.23	False	False	False	0		692	2	O(C=CCCCCCCCCCCCC)C	3.11235721898018	0.200000002980232	0.202499985694885	0.975082695484161	1	0.734774534820904
438.300065	216449.893258	438.297895351584	437.290618896484	C21H44NO6P	1	4.95	2.17	True	True	False	0		0	0	O=P(O)(OCCN)OCC(O)COC=CCCCCCCCCCCCCCC	4.99905896186829	1	1	0.999058961868286	1	1

