NAME: N(2)-carboxyethylguanosine
ID: JYXKXKDWVWQIOH
IsSpectrumSearch: False
INCHIKEY: JYXKXKDWVWQIOH-WEQFEWOPSA-N
SMILES: O=C(O)C(NC3=NC1=C(N=CN1C2OC(CO)C(O)C2(O))C(=O)N3)C
RESOURCES: ChEBI=CHEBI:62030;CHEBI:62038;CHEBI:62039,UNPD=UNPD194381
SubstructureInChIKeys: VNWKTOKETHGBQD;XLYOFNOQVPJJNP;WSFSSNUMVMOOMR;OKKJLVBELUTLKV;IKHGUXGNUITLKF;ATUOYWHBWRKTHZ;ROSDSFDQCJNGOL;BDAGIHXWWSANSR;LCGLNKUTAGEVQW;LFQSCWFLJHTTHZ;NBBJYMSMWIIQGU;IJDNQMDRQITEOD;LYIIBVSRGJSHAV;JJWLVOIRVHMVIS;LIWAQLJGPBVORC;QTBSBXVTEAMEQO;BDERNNFJNOPAEC;KFZMGEQAYNKOFK;XOBKSJJDNFUZPF;HZAXFHJVJLSVMW;LYCAIKOWRPUZTN;RAXXELZNTBOGNW;OFBQJSOFQDEBGM;HQABUPZFAYXKJW;XHFGWHUWQXTGAT;XBDQKXXYIPTUBI;BEBCJVAWIBVWNZ;BTANRVKWQNVYAZ;LRHPLDYGYMQRHN;VNKYTQGIUYNRMY;DHMQDGOQFOQNFH;HXKKHQJGJAFBHI;WUGQZFFCHPXWKQ;DNIAPMSPPWPWGF;XNWFRZJHXBZDAG;YPFDHNVEDLHUCE;VIBDJEWPNNCFQO;JWUJQDFVADABEY;DPBLXKKOBLCELK;AMQJEAYHLZJPGS;AQIXEPGDORPWBJ;FVNIMHIOIXPIQT;JYVLIDXNZAXMDK;QNAYBMKLOCPYGJ;BMRWNKZVCUKKSR;JDFDHBSESGTDAL;PUPZLCDOIYMWBV;YTTFFPATQICAQN;ZNQVEEAIQZEUHB;PEDCQBHIVMGVHV;HQNBJNDMPLEUDS;KSTOUTVBGBEWOS;WCVRQHFDJLLWFE;XLMFDCKSFJWJTP;ARXKVVRQIIOZGF;MTHSVFCYNBDYFN;RKOGJKGQMPZCGG;YAXKTBLXMTYWDQ;MQVRLONNONYDJP;MISVBCMQSJUHMH;NSMOSDAEGJTOIQ;VVDIZWFSGJERMA;XIRBXKMCQNAYAT;KDCGOANMDULRCW;AALKGALVYCZETF;GZXFYIDYTCWDDN;LOSWWGJGSSQDKH;UNXHWFMMPAWVPI;KZVAAIRBJJYZOW;GFFGJBXGBJISGV;FDGQSTZJBFJUBT;FJGNTEKSQVNVTJ;ZDAWZDFBPUUDAY;JJMZVBNCCUWEDF;CKOMXBHMKXXTNW;HEBKCHPVOIAQTA;FFHPXOJTVQDVMO;BGYISLAFYPDORJ;CPSONQHMTCQJJX;OFEZSBMBBKLLBJ;RWRBHYBHSXNVPD;XGYIMTFOTBMPFP;IPJDTNIZLKTLEU;FBLYADUDJIDSCH;YKBGVTZYEHREMT;UGQMRVRMYYASKQ;NYHBQMYGNKIUIF
SubstructureOntologies: CHEMONTID:0002500;NonID:H2O;CHEMONTID:0001831;CHEMONTID:0000286;CHEMONTID:0002230;CHEMONTID:0002228;CHEMONTID:0001205;CHEMONTID:0001167;CHEMONTID:0002434;CHEMONTID:0000469;CHEMONTID:0001661;CHEMONTID:0001897;CHEMONTID:0002467;CHEMONTID:0000078;CHEMONTID:0002484;CHEMONTID:0002404;CHEMONTID:0001852;CHEMONTID:0002286;CHEMONTID:0002648;CHEMONTID:0004314;CHEMONTID:0002210;CHEMONTID:0002311;CHEMONTID:0002391;CHEMONTID:0001262;CHEMONTID:0001967;CHEMONTID:0001497;CHEMONTID:0000245;CHEMONTID:0003263;CHEMONTID:0002987;CHEMONTID:0000246;CHEMONTID:0003454;CHEMONTID:0004799;CHEMONTID:0002178;CHEMONTID:0004502;CHEMONTID:0002177;CHEMONTID:0000479
Ontology: Purine nucleosides
OntologyID: CHEMONTID:0000479
RETENTIONTIME: -1
RETENTIONINDEX: -1
TotalBondEnergy: 17774
TotalScore: 6.5542
TotalHrRulesScore: 1
TotalBondCleavageScore: 1
TotalMassAccuracyScore: 0.9988
TotalFragmentLinkageScore: 1
TotalBondDissociationEnergyScore: 1
DatabaseScore: 0.5476
SubstructureAssignmentScore: 0
RtSimilarityScore: -1
RiSimilarityScore: 0
Num Fragment VS2 (M/Z Intensity MatchedExactMass SaturatedExactMass Formula RearrangedHydrogen PPM MassDiff_mDa IsEvenElectronRule IsHrRule IsSolventAdductFragment AssignedAdductMass AdductString BondDissociationEnergy TreeDepth SMILES TotalScore HrLikelihood BcLikelihood MaLikelihood FlLikelihood BeLikelihood): 1
356.122488	5962397.806745	356.12006942385	355.11279296875	C13H17N5O7	1	6.79	2.42	True	True	False	0		0	0	O=C(O)C(NC3=NC1=C(N=CN1C2OC(CO)C(O)C2(O))C(=O)N3)C	4.99883079528809	1	1	0.998830795288086	1	1

NAME: UNPD111154
ID: MRBUYDSOIPUZCN
IsSpectrumSearch: False
INCHIKEY: MRBUYDSOIPUZCN-XZURYUGANA-N
SMILES: O=C3NC(=NC1=C3(N=C(C(=O)N1C)COC2OC(CO)C(O)C2(O)))N
RESOURCES: UNPD=UNPD111154
SubstructureInChIKeys: VNWKTOKETHGBQD;QGZKDVFQNNGYKY;XLYOFNOQVPJJNP;WSFSSNUMVMOOMR;OKKJLVBELUTLKV;ATUOYWHBWRKTHZ;LCGLNKUTAGEVQW;LFQSCWFLJHTTHZ;CKFGINPQOCXMAZ;IJDNQMDRQITEOD;BDERNNFJNOPAEC;KFZMGEQAYNKOFK;XOBKSJJDNFUZPF;LYCAIKOWRPUZTN;OFBQJSOFQDEBGM;BTANRVKWQNVYAZ;LRHPLDYGYMQRHN;VNKYTQGIUYNRMY;DNIAPMSPPWPWGF;RRLWYLINGKISHN;XNWFRZJHXBZDAG;YPFDHNVEDLHUCE;VIBDJEWPNNCFQO;JWUJQDFVADABEY;AMQJEAYHLZJPGS;AQIXEPGDORPWBJ;FVNIMHIOIXPIQT;JYVLIDXNZAXMDK;BMRWNKZVCUKKSR;CHCLGECDSSWNCP;JDFDHBSESGTDAL;PUPZLCDOIYMWBV;YTTFFPATQICAQN;ZNQVEEAIQZEUHB;PEDCQBHIVMGVHV;KSTOUTVBGBEWOS;KLKFAASOGCDTDT;WCVRQHFDJLLWFE;XLMFDCKSFJWJTP;ARXKVVRQIIOZGF;MTHSVFCYNBDYFN;RKOGJKGQMPZCGG;YAXKTBLXMTYWDQ;MQVRLONNONYDJP;MISVBCMQSJUHMH;NSMOSDAEGJTOIQ;VVDIZWFSGJERMA;XIRBXKMCQNAYAT;AALKGALVYCZETF;BXXXHBWYZKLUGM;GZXFYIDYTCWDDN;LOSWWGJGSSQDKH;UNXHWFMMPAWVPI;KZVAAIRBJJYZOW;MKMRBXQLEMYZOY;FJGNTEKSQVNVTJ;ZDAWZDFBPUUDAY;JJMZVBNCCUWEDF;QYZAWZFNVOMDEF;HEBKCHPVOIAQTA
SubstructureOntologies: CHEMONTID:0002500;NonID:NH2;NonID:H2O;CHEMONTID:0001831;CHEMONTID:0000286;CHEMONTID:0001167;CHEMONTID:0001605;CHEMONTID:0001661;CHEMONTID:0002467;CHEMONTID:0001092;CHEMONTID:0002286;CHEMONTID:0002648;CHEMONTID:0001656;CHEMONTID:0002210;CHEMONTID:0002391;CHEMONTID:0001262;CHEMONTID:0001967;CHEMONTID:0001497;CHEMONTID:0003263;CHEMONTID:0000175
Ontology: Pterins and derivatives
OntologyID: CHEMONTID:0000110
RETENTIONTIME: -1
RETENTIONINDEX: -1
TotalBondEnergy: 17754
TotalScore: 5.7447
TotalHrRulesScore: 1
TotalBondCleavageScore: 1
TotalMassAccuracyScore: 0.9988
TotalFragmentLinkageScore: 1
TotalBondDissociationEnergyScore: 1
DatabaseScore: 0.2238
SubstructureAssignmentScore: 0
RtSimilarityScore: -1
RiSimilarityScore: 0
Num Fragment VS2 (M/Z Intensity MatchedExactMass SaturatedExactMass Formula RearrangedHydrogen PPM MassDiff_mDa IsEvenElectronRule IsHrRule IsSolventAdductFragment AssignedAdductMass AdductString BondDissociationEnergy TreeDepth SMILES TotalScore HrLikelihood BcLikelihood MaLikelihood FlLikelihood BeLikelihood): 1
356.122488	5962397.806745	356.12006942385	355.11279296875	C13H17N5O7	1	6.79	2.42	True	True	False	0		0	0	O=C3NC(=NC1=C3(N=C(C(=O)N1C)COC2OC(CO)C(O)C2(O)))N	4.99883079528809	1	1	0.998830795288086	1	1

