NAME: AL-321
ID: FZKKPKRWTSYXLF
IsSpectrumSearch: False
INCHIKEY: FZKKPKRWTSYXLF-UHFFFAOYNA-N
SMILES: O=C1NC(=O)SC1CC3=CC=C(OCC(C2=CC=CC=C2)(C)C)C=C3
RESOURCES: ChEBI=CHEBI:81004
SubstructureInChIKeys: VNWKTOKETHGBQD;WSFSSNUMVMOOMR;IKHGUXGNUITLKF;ATUOYWHBWRKTHZ;ROSDSFDQCJNGOL;LCGLNKUTAGEVQW;NBBJYMSMWIIQGU;IJDNQMDRQITEOD;NNPPMTNAJDCUHE;ATHHXGZTWNVVOU;LIWAQLJGPBVORC;BDERNNFJNOPAEC;XOBKSJJDNFUZPF;DNJIEGIFACGWOD;QMMFVYPAHWMCMS;ZTQSAGDEMFDKMZ;GVWISOJSERXQBM;HQABUPZFAYXKJW;VNKYTQGIUYNRMY;ZXEKIIBDNHEJCQ;UFULAYFCSOUIOV;UHOVQNZJYSORNB;SUUDTPGCUKBECW;QCOGKXLOEWLIDC;YXFVVABEGXRONW;ISWSIDIOOBJBQZ;YNQLUTRBYVCPMQ;IWDCLRJOBJJRNH;RDOXTESZEPMUJZ;ODLMAHJVESYWTB;CHLICZRVGGXEOD;DLRJIFUOBPOJNS;HMNKTRSOROOSPP;HXDOZKJGKXYMEW;WRMNZCZEMHIOCP;YGCZTXZTJXYWCO;DWLZULQNIPIABE;HDNRAPAFJLXKBV;MPWGZBWDLMDIHO;NOTCZLKDULMKBR;AMQRNDIFPLIQBP;REEQXZCFSBLNDH;ZOXCMZXXNOSBHU
SubstructureOntologies: CHEMONTID:0002500;CHEMONTID:0001831;CHEMONTID:0002230;CHEMONTID:0002228;CHEMONTID:0001167;CHEMONTID:0002434;CHEMONTID:0004620;CHEMONTID:0002484;CHEMONTID:0000286;CHEMONTID:0001212;CHEMONTID:0003862;CHEMONTID:0000469;CHEMONTID:0002279;CHEMONTID:0001663;CHEMONTID:0001091;CHEMONTID:0004647;CHEMONTID:0001275;CHEMONTID:0000138;CHEMONTID:0002811;CHEMONTID:0002341;CHEMONTID:0004646;CHEMONTID:0000190
Ontology: Phenylpropanes
OntologyID: CHEMONTID:0002811
RETENTIONTIME: -1
RETENTIONINDEX: -1
TotalBondEnergy: 20084
TotalScore: 6.3845
TotalHrRulesScore: 1
TotalBondCleavageScore: 1
TotalMassAccuracyScore: 0.9839
TotalFragmentLinkageScore: 1
TotalBondDissociationEnergyScore: 1
DatabaseScore: 0.5238
SubstructureAssignmentScore: 0
RtSimilarityScore: -1
RiSimilarityScore: 0
Num Fragment VS2 (M/Z Intensity MatchedExactMass SaturatedExactMass Formula RearrangedHydrogen PPM MassDiff_mDa IsEvenElectronRule IsHrRule IsSolventAdductFragment AssignedAdductMass AdductString BondDissociationEnergy TreeDepth SMILES TotalScore HrLikelihood BcLikelihood MaLikelihood FlLikelihood BeLikelihood): 1
356.122488	5962397.806745	356.131482998069	355.124206542969	C20H21NO3S	1	25.26	8.99	True	True	False	0		0	0	O=C1NC(=O)SC1CC3=CC=C(OCC(C2=CC=CC=C2)(C)C)C=C3	4.98394823074341	1	1	0.983948230743408	1	1

NAME: N-[3-(2-furanyl)-3-phenylpropyl]-4-methylbenzenesulfonamide
ID: JAOSEIAJTQKXPZ
IsSpectrumSearch: False
INCHIKEY: JAOSEIAJTQKXPZ-UHFFFAOYNA-N
SMILES: O=S(=O)(NCCC(C=1OC=CC=1)C2=CC=CC=C2)C3=CC=C(C=C3)C
RESOURCES: ChEBI=CHEBI:105350
SubstructureInChIKeys: VNWKTOKETHGBQD;OTMSDBZUPAUEDD;ATUOYWHBWRKTHZ;IJDNQMDRQITEOD;NNPPMTNAJDCUHE;RAHZWNYVWXNFOC;BOTYRLOGQKSOAE;QWTDNUCVQCZILF;HQABUPZFAYXKJW;UHOVQNZJYSORNB;KEIVLHIFSZBKGU;AHZVGADFMXTGBU;BMFVGAAISNGQNM;YXFVVABEGXRONW;YNQLUTRBYVCPMQ;ODLMAHJVESYWTB
SubstructureOntologies: CHEMONTID:0002500;CHEMONTID:0004620;NonID:SO2;CHEMONTID:0001212;CHEMONTID:0000469;CHEMONTID:0002279;NonID:Sulfonamide;CHEMONTID:0001091;CHEMONTID:0002811
Ontology: P-toluenesulfonamides
OntologyID: CHEMONTID:0004517
RETENTIONTIME: -1
RETENTIONINDEX: -1
TotalBondEnergy: 20277
TotalScore: 6.3845
TotalHrRulesScore: 1
TotalBondCleavageScore: 1
TotalMassAccuracyScore: 0.9839
TotalFragmentLinkageScore: 1
TotalBondDissociationEnergyScore: 1
DatabaseScore: 0.5238
SubstructureAssignmentScore: 0
RtSimilarityScore: -1
RiSimilarityScore: 0
Num Fragment VS2 (M/Z Intensity MatchedExactMass SaturatedExactMass Formula RearrangedHydrogen PPM MassDiff_mDa IsEvenElectronRule IsHrRule IsSolventAdductFragment AssignedAdductMass AdductString BondDissociationEnergy TreeDepth SMILES TotalScore HrLikelihood BcLikelihood MaLikelihood FlLikelihood BeLikelihood): 1
356.122488	5962397.806745	356.131482998069	355.124206542969	C20H21NO3S	1	25.26	8.99	True	True	False	0		0	0	O=S(=O)(NCCC(C=1OC=CC=1)C2=CC=CC=C2)C3=CC=C(C=C3)C	4.98394823074341	1	1	0.983948230743408	1	1

