NAME: UNPD55971
ID: WEUZJJDCWFFQKO
IsSpectrumSearch: False
INCHIKEY: WEUZJJDCWFFQKO-DYJMQDNINA-N
SMILES: O=C2NC(COC)CC3=CNC1=C3(C(=CC=C1C(C=C)(C)CCC(O)(C)C(C)C)N(C)C2C(C)C)
RESOURCES: UNPD=UNPD55971
SubstructureInChIKeys: VNWKTOKETHGBQD;XLYOFNOQVPJJNP;VGGSQFUCUMXWEO;WSFSSNUMVMOOMR;OTMSDBZUPAUEDD;OKKJLVBELUTLKV;IKHGUXGNUITLKF;ATUOYWHBWRKTHZ;ROSDSFDQCJNGOL;LCGLNKUTAGEVQW;LFQSCWFLJHTTHZ;VXNZUUAINFGPBY;NBBJYMSMWIIQGU;IJDNQMDRQITEOD;NNPPMTNAJDCUHE;ATHHXGZTWNVVOU;LYIIBVSRGJSHAV;GETQZCLCWQTVFV;JJWLVOIRVHMVIS;LIWAQLJGPBVORC;BDERNNFJNOPAEC;KFZMGEQAYNKOFK;XOBKSJJDNFUZPF;HZAXFHJVJLSVMW;YWAKXRMUMFPDSH;ZTQSAGDEMFDKMZ;OFBQJSOFQDEBGM;QWTDNUCVQCZILF;DAZXVJBJRMWXJP;GVWISOJSERXQBM;HPNMFZURTQLUMO;HQABUPZFAYXKJW;KDSNLYIMUZNERS;XHFGWHUWQXTGAT;BEBCJVAWIBVWNZ;BTANRVKWQNVYAZ;LRHPLDYGYMQRHN;VNKYTQGIUYNRMY;ZXEKIIBDNHEJCQ;UHOVQNZJYSORNB;LDTAOIUHUHHCMU;LIKMAJRDDDTEIG;AFABGHUZZDYHJO;HNRMPXKDFBEGFZ;PFEOZHBOMNWTJB;VLKZOEOYAKHREP;FGEPRNXUNITOCW;SUUDTPGCUKBECW;BMFVGAAISNGQNM;QCOGKXLOEWLIDC;ZUHZZVMEUAUWHY;AMQJEAYHLZJPGS;AQIXEPGDORPWBJ;JYVLIDXNZAXMDK;MXLMTQWGSQIYOW;YXFVVABEGXRONW;ZGEGCLOFRBLKSE;IMNFDUFMRHMDMM;VLJXXKKOSFGPHI;DVOFEOSDXAVUJD;VLSTXUUYLIALPB;YNQLUTRBYVCPMQ;RNVCVTLRINQCPJ;KWKAKUADMBZCLK;JVSWJIKNEAIKJW;TVMXDCGIABBOFY;SKPCTMWFLGENTL;ODLMAHJVESYWTB
SubstructureOntologies: CHEMONTID:0002500;NonID:H2O;CHEMONTID:0004476;CHEMONTID:0001831;CHEMONTID:0000286;CHEMONTID:0002230;CHEMONTID:0002228;CHEMONTID:0001167;CHEMONTID:0002434;CHEMONTID:0004620;CHEMONTID:0002484;CHEMONTID:0000469;CHEMONTID:0002239;CHEMONTID:0001661;CHEMONTID:0001897;CHEMONTID:0002279;CHEMONTID:0001663;CHEMONTID:0001091;CHEMONTID:0003964;CHEMONTID:0002309;CHEMONTID:0002811
Ontology: 3-alkylindoles
OntologyID: CHEMONTID:0004196
RETENTIONTIME: -1
RETENTIONINDEX: -1
TotalBondEnergy: 32727
TotalScore: 5.388
TotalHrRulesScore: 1
TotalBondCleavageScore: 1
TotalMassAccuracyScore: 0.9827
TotalFragmentLinkageScore: 1
TotalBondDissociationEnergyScore: 1
DatabaseScore: 0.2238
SubstructureAssignmentScore: 0
RtSimilarityScore: -1
RiSimilarityScore: 0
Num Fragment VS2 (M/Z Intensity MatchedExactMass SaturatedExactMass Formula RearrangedHydrogen PPM MassDiff_mDa IsEvenElectronRule IsHrRule IsSolventAdductFragment AssignedAdductMass AdductString BondDissociationEnergy TreeDepth SMILES TotalScore HrLikelihood BcLikelihood MaLikelihood FlLikelihood BeLikelihood): 1
484.36273	480820.158286	484.353376308616	483.346099853516	C29H45N3O3	1	19.31	9.35	True	True	False	0		0	0	O=C2NC(COC)CC3=CNC1=C3(C(=CC=C1C(C=C)(C)CCC(O)(C)C(C)C)N(C)C2C(C)C)	4.98265391588211	1	1	0.982653915882111	1	1

