NAME: 3-cyclohexyl-1-[[(2R,3R)-10-(dimethylamino)-5-[(2R)-1-hydroxypropan-2-yl]-3-methyl-6-oxo-3,4-dihydro-2H-1,5-benzoxazocin-2-yl]methyl]-1-methylurea
ID: LUEDFXFVYWVEMN
IsSpectrumSearch: False
INCHIKEY: LUEDFXFVYWVEMN-RVHCWCNUNA-N
SMILES: O=C(NC1CCCCC1)N(C)CC3OC2=C(C=CC=C2N(C)C)C(=O)N(CC3(C))C(C)CO
RESOURCES: ChEBI=CHEBI:126222;CHEBI:127217;CHEBI:128076;CHEBI:128885;CHEBI:129519;CHEBI:130637;CHEBI:130692
SubstructureInChIKeys: VNWKTOKETHGBQD;XLYOFNOQVPJJNP;WSFSSNUMVMOOMR;OTMSDBZUPAUEDD;OKKJLVBELUTLKV;IKHGUXGNUITLKF;ATUOYWHBWRKTHZ;ROSDSFDQCJNGOL;LCGLNKUTAGEVQW;LFQSCWFLJHTTHZ;IJDNQMDRQITEOD;NNPPMTNAJDCUHE;ATHHXGZTWNVVOU;GETQZCLCWQTVFV;JJWLVOIRVHMVIS;LIWAQLJGPBVORC;BDERNNFJNOPAEC;XOBKSJJDNFUZPF;XOTDURGROKNGTI;HZAXFHJVJLSVMW;OFBQJSOFQDEBGM;QWTDNUCVQCZILF;DAZXVJBJRMWXJP;GVWISOJSERXQBM;HPNMFZURTQLUMO;HQABUPZFAYXKJW;KDSNLYIMUZNERS;XHFGWHUWQXTGAT;BEBCJVAWIBVWNZ;VNKYTQGIUYNRMY;ZXEKIIBDNHEJCQ;WUGQZFFCHPXWKQ;UHOVQNZJYSORNB;XDTMQSROBMDMFD;VLKZOEOYAKHREP;SUUDTPGCUKBECW;BMFVGAAISNGQNM;DPBLXKKOBLCELK;GNVRJGIVDSQCOP;QCOGKXLOEWLIDC;VJROPLWGFCORRM;ZUHZZVMEUAUWHY;FVNIMHIOIXPIQT;MXLMTQWGSQIYOW;UEEJHVSXFDXPFK;PAYRUJLWNCNPSJ;ISWSIDIOOBJBQZ;DJEQZVQFEPKLOY;SMBYUOXUISCLCF;VLSTXUUYLIALPB;ZMANZCXQSJIPKH;AFBPFSWMIHJQDM;IWDCLRJOBJJRNH;RDOXTESZEPMUJZ;JAEJQOUXXMFTJU;BFSVOASYOCHEOV;RIWRFSMVIUAEBX;SMQUZDBALVYZAC;CHLICZRVGGXEOD;DLRJIFUOBPOJNS;NOTCZLKDULMKBR
SubstructureOntologies: CHEMONTID:0002500;NonID:H2O;CHEMONTID:0001831;CHEMONTID:0000286;CHEMONTID:0002230;CHEMONTID:0002228;CHEMONTID:0001167;CHEMONTID:0004620;CHEMONTID:0002484;CHEMONTID:0002239;CHEMONTID:0000469;CHEMONTID:0000497;CHEMONTID:0001897;CHEMONTID:0001852;CHEMONTID:0002279;CHEMONTID:0001016;CHEMONTID:0001663;CHEMONTID:0001661;CHEMONTID:0000284;CHEMONTID:0004647;CHEMONTID:0003924;CHEMONTID:0001275;CHEMONTID:0000138;CHEMONTID:0000185;CHEMONTID:0003978;CHEMONTID:0002341;CHEMONTID:0000190
Ontology: Dialkylarylamines
OntologyID: CHEMONTID:0003901
RETENTIONTIME: -1
RETENTIONINDEX: -1
TotalBondEnergy: 29732
TotalScore: 7.3665
TotalHrRulesScore: 1
TotalBondCleavageScore: 0.8645
TotalMassAccuracyScore: 0.9854
TotalFragmentLinkageScore: 1
TotalBondDissociationEnergyScore: 0.8458
DatabaseScore: 0.5238
SubstructureAssignmentScore: 0
RtSimilarityScore: -1
RiSimilarityScore: 0
Num Fragment VS2 (M/Z Intensity MatchedExactMass SaturatedExactMass Formula RearrangedHydrogen PPM MassDiff_mDa IsEvenElectronRule IsHrRule IsSolventAdductFragment AssignedAdductMass AdductString BondDissociationEnergy TreeDepth SMILES TotalScore HrLikelihood BcLikelihood MaLikelihood FlLikelihood BeLikelihood): 2
271.156266	14648.385685	271.144103100569	276.183776855469	C16H24N2O2	-5	44.86	12.16	True	True	False	0		968	3	O=C1C=2C=CC=CC=2(OC(CNC)C(C)CN1C(C)C)	4.39154564495238	1	0.7289999127388	0.970846176147461	1	0.691699556066121
461.312996	43050.020258	461.312238613303	460.304962158203	C25H40N4O4	1	1.64	0.76	True	True	False	0		0	0	O=C(NC1CCCCC1)N(C)CC3OC2=C(C=CC=C2N(C)C)C(=O)N(CC3(C))C(C)CO	4.99988526105881	1	1	0.999885261058807	1	1

NAME: 1-[(2S,3S)-2-[[cyclopropylmethyl(methyl)amino]methyl]-5-[(2S)-1-hydroxypropan-2-yl]-3-methyl-6-oxo-2,3,4,7-tetrahydro-1,5-benzoxazonin-9-yl]-3-propan-2-ylurea
ID: UCKREMIJSDYNRS
IsSpectrumSearch: False
INCHIKEY: UCKREMIJSDYNRS-UGLQWENANA-N
SMILES: O=C(NC=2C=CC=3OC(CN(C)CC1CC1)C(C)CN(C(=O)CC=3(C=2))C(C)CO)NC(C)C
RESOURCES: ChEBI=CHEBI:126525;CHEBI:127522;CHEBI:129229;CHEBI:129652;CHEBI:129951;CHEBI:130590;CHEBI:130612;CHEBI:130893
SubstructureInChIKeys: VNWKTOKETHGBQD;XLYOFNOQVPJJNP;WSFSSNUMVMOOMR;OTMSDBZUPAUEDD;OKKJLVBELUTLKV;LVZWSLJZHVFIQJ;IKHGUXGNUITLKF;ATUOYWHBWRKTHZ;ROSDSFDQCJNGOL;LCGLNKUTAGEVQW;LFQSCWFLJHTTHZ;NBBJYMSMWIIQGU;IJDNQMDRQITEOD;NNPPMTNAJDCUHE;ATHHXGZTWNVVOU;GETQZCLCWQTVFV;JJWLVOIRVHMVIS;LIWAQLJGPBVORC;BDERNNFJNOPAEC;XOBKSJJDNFUZPF;XOTDURGROKNGTI;HZAXFHJVJLSVMW;QWTDNUCVQCZILF;DAZXVJBJRMWXJP;GVWISOJSERXQBM;HPNMFZURTQLUMO;HQABUPZFAYXKJW;KDSNLYIMUZNERS;XHFGWHUWQXTGAT;BEBCJVAWIBVWNZ;VNKYTQGIUYNRMY;ZXEKIIBDNHEJCQ;WUGQZFFCHPXWKQ;UHOVQNZJYSORNB;SUUDTPGCUKBECW;BMFVGAAISNGQNM;GNVRJGIVDSQCOP;QCOGKXLOEWLIDC;VJROPLWGFCORRM;ZUHZZVMEUAUWHY;FVNIMHIOIXPIQT;MXLMTQWGSQIYOW;UEEJHVSXFDXPFK;PAYRUJLWNCNPSJ;ISWSIDIOOBJBQZ;DJEQZVQFEPKLOY;SMBYUOXUISCLCF;VLSTXUUYLIALPB;ZMANZCXQSJIPKH;YNQLUTRBYVCPMQ;AFBPFSWMIHJQDM;IWDCLRJOBJJRNH;RDOXTESZEPMUJZ;JAEJQOUXXMFTJU;BFSVOASYOCHEOV;DYDNPESBYVVLBO;BHHGXPLMPWCGHP;CHLICZRVGGXEOD;DLRJIFUOBPOJNS;HMNKTRSOROOSPP;HXDOZKJGKXYMEW;SASNBVQSOZSTPD;DWLZULQNIPIABE;HDNRAPAFJLXKBV;DZGWFCGJZKJUFP;NOTCZLKDULMKBR
SubstructureOntologies: CHEMONTID:0002500;NonID:H2O;CHEMONTID:0001831;CHEMONTID:0000286;CHEMONTID:0001016;CHEMONTID:0002230;CHEMONTID:0002228;CHEMONTID:0001167;CHEMONTID:0002434;CHEMONTID:0004620;CHEMONTID:0002484;CHEMONTID:0002239;CHEMONTID:0000469;CHEMONTID:0000497;CHEMONTID:0001897;CHEMONTID:0001852;CHEMONTID:0002279;CHEMONTID:0001663;CHEMONTID:0001661;CHEMONTID:0000284;CHEMONTID:0004647;CHEMONTID:0003924;CHEMONTID:0001275;CHEMONTID:0000138;CHEMONTID:0000285;CHEMONTID:0000186;CHEMONTID:0002341;CHEMONTID:0004646;CHEMONTID:0000190
Ontology: Alkyl aryl ethers
OntologyID: CHEMONTID:0000128
RETENTIONTIME: -1
RETENTIONINDEX: -1
TotalBondEnergy: 29748
TotalScore: 7.3665
TotalHrRulesScore: 1
TotalBondCleavageScore: 0.8645
TotalMassAccuracyScore: 0.9854
TotalFragmentLinkageScore: 1
TotalBondDissociationEnergyScore: 0.8458
DatabaseScore: 0.5238
SubstructureAssignmentScore: 0
RtSimilarityScore: -1
RiSimilarityScore: 0
Num Fragment VS2 (M/Z Intensity MatchedExactMass SaturatedExactMass Formula RearrangedHydrogen PPM MassDiff_mDa IsEvenElectronRule IsHrRule IsSolventAdductFragment AssignedAdductMass AdductString BondDissociationEnergy TreeDepth SMILES TotalScore HrLikelihood BcLikelihood MaLikelihood FlLikelihood BeLikelihood): 2
271.156266	14648.385685	271.144103100569	276.183776855469	C16H24N2O2	-5	44.86	12.16	True	True	False	0		968	3	O=C2N(CC(C)C(OC=1C=CC(N)=CC=1C2)C)C(C)C	4.39154564495238	1	0.7289999127388	0.970846176147461	1	0.691699556066121
461.312996	43050.020258	461.312238613303	460.304962158203	C25H40N4O4	1	1.64	0.76	True	True	False	0		0	0	O=C(NC=2C=CC=3OC(CN(C)CC1CC1)C(C)CN(C(=O)CC=3(C=2))C(C)CO)NC(C)C	4.99988526105881	1	1	0.999885261058807	1	1

NAME: 3-cyclohexyl-1-[[(2S,3R)-8-(dimethylamino)-5-[(2S)-1-hydroxypropan-2-yl]-3-methyl-6-oxo-3,4-dihydro-2H-1,5-benzoxazocin-2-yl]methyl]-1-methylurea
ID: AMJJCKBOWHOXQT
IsSpectrumSearch: False
INCHIKEY: AMJJCKBOWHOXQT-HPNHSWNWNA-N
SMILES: O=C(NC1CCCCC1)N(C)CC2OC=3C=CC(=CC=3(C(=O)N(CC2(C))C(C)CO))N(C)C
RESOURCES: ChEBI=CHEBI:126515;CHEBI:127206;CHEBI:128261;CHEBI:128279;CHEBI:129653;CHEBI:129922;CHEBI:130556;CHEBI:130992
SubstructureInChIKeys: VNWKTOKETHGBQD;XLYOFNOQVPJJNP;WSFSSNUMVMOOMR;OTMSDBZUPAUEDD;OKKJLVBELUTLKV;IKHGUXGNUITLKF;ATUOYWHBWRKTHZ;ROSDSFDQCJNGOL;LCGLNKUTAGEVQW;LFQSCWFLJHTTHZ;IJDNQMDRQITEOD;NNPPMTNAJDCUHE;ATHHXGZTWNVVOU;GETQZCLCWQTVFV;JJWLVOIRVHMVIS;LIWAQLJGPBVORC;BDERNNFJNOPAEC;XOBKSJJDNFUZPF;XOTDURGROKNGTI;HZAXFHJVJLSVMW;OFBQJSOFQDEBGM;QWTDNUCVQCZILF;DAZXVJBJRMWXJP;GVWISOJSERXQBM;HPNMFZURTQLUMO;HQABUPZFAYXKJW;KDSNLYIMUZNERS;XHFGWHUWQXTGAT;BEBCJVAWIBVWNZ;VNKYTQGIUYNRMY;ZXEKIIBDNHEJCQ;WUGQZFFCHPXWKQ;UHOVQNZJYSORNB;XDTMQSROBMDMFD;VLKZOEOYAKHREP;SUUDTPGCUKBECW;BMFVGAAISNGQNM;DPBLXKKOBLCELK;GNVRJGIVDSQCOP;QCOGKXLOEWLIDC;VJROPLWGFCORRM;ZUHZZVMEUAUWHY;FVNIMHIOIXPIQT;MXLMTQWGSQIYOW;UEEJHVSXFDXPFK;PAYRUJLWNCNPSJ;ISWSIDIOOBJBQZ;DJEQZVQFEPKLOY;SMBYUOXUISCLCF;VLSTXUUYLIALPB;ZMANZCXQSJIPKH;AFBPFSWMIHJQDM;IWDCLRJOBJJRNH;RDOXTESZEPMUJZ;JAEJQOUXXMFTJU;BFSVOASYOCHEOV;RIWRFSMVIUAEBX;SMQUZDBALVYZAC;CHLICZRVGGXEOD;DLRJIFUOBPOJNS;NOTCZLKDULMKBR
SubstructureOntologies: CHEMONTID:0002500;NonID:H2O;CHEMONTID:0001831;CHEMONTID:0000286;CHEMONTID:0002230;CHEMONTID:0002228;CHEMONTID:0001167;CHEMONTID:0004620;CHEMONTID:0002484;CHEMONTID:0002239;CHEMONTID:0000469;CHEMONTID:0000497;CHEMONTID:0001897;CHEMONTID:0001852;CHEMONTID:0002279;CHEMONTID:0001016;CHEMONTID:0001663;CHEMONTID:0001661;CHEMONTID:0000284;CHEMONTID:0004647;CHEMONTID:0003924;CHEMONTID:0001275;CHEMONTID:0000138;CHEMONTID:0000185;CHEMONTID:0003978;CHEMONTID:0002341;CHEMONTID:0000190
Ontology: Dialkylarylamines
OntologyID: CHEMONTID:0003901
RETENTIONTIME: -1
RETENTIONINDEX: -1
TotalBondEnergy: 29732
TotalScore: 7.3615
TotalHrRulesScore: 1
TotalBondCleavageScore: 0.8645
TotalMassAccuracyScore: 0.9854
TotalFragmentLinkageScore: 1
TotalBondDissociationEnergyScore: 0.8378
DatabaseScore: 0.5238
SubstructureAssignmentScore: 0
RtSimilarityScore: -1
RiSimilarityScore: 0
Num Fragment VS2 (M/Z Intensity MatchedExactMass SaturatedExactMass Formula RearrangedHydrogen PPM MassDiff_mDa IsEvenElectronRule IsHrRule IsSolventAdductFragment AssignedAdductMass AdductString BondDissociationEnergy TreeDepth SMILES TotalScore HrLikelihood BcLikelihood MaLikelihood FlLikelihood BeLikelihood): 2
271.156266	14648.385685	271.144103100569	276.183776855469	C16H24N2O2	-5	44.86	12.16	True	True	False	0		1009	3	O=C1C=2C=C(C=CC=2(OC(C)C(C)CN1CC))N(C)C	4.37538865499197	1	0.7289999127388	0.970846176147461	1	0.675542566105712
461.312996	43050.020258	461.312238613303	460.304962158203	C25H40N4O4	1	1.64	0.76	True	True	False	0		0	0	O=C(NC1CCCCC1)N(C)CC2OC=3C=CC(=CC=3(C(=O)N(CC2(C))C(C)CO))N(C)C	4.99988526105881	1	1	0.999885261058807	1	1

NAME: 1-[(4R,7S,8S)-5-(cyclopropylmethyl)-8-methoxy-4,7,10-trimethyl-11-oxo-2-oxa-5,10-diazabicyclo[10.4.0]hexadeca-1(12),13,15-trien-14-yl]-3-propan-2-ylurea
ID: OBNHYLURRDQSSE
IsSpectrumSearch: False
INCHIKEY: OBNHYLURRDQSSE-FMKFCMHCNA-N
SMILES: O=C(NC=2C=CC=3OCC(N(CC1CC1)CC(C)C(OC)CN(C(=O)C=3(C=2))C)C)NC(C)C
RESOURCES: ChEBI=CHEBI:122579;CHEBI:122592;CHEBI:122709;CHEBI:122712;CHEBI:122723;CHEBI:122779;CHEBI:122785;CHEBI:122807
SubstructureInChIKeys: VNWKTOKETHGBQD;WSFSSNUMVMOOMR;OTMSDBZUPAUEDD;LVZWSLJZHVFIQJ;IKHGUXGNUITLKF;ATUOYWHBWRKTHZ;ROSDSFDQCJNGOL;LCGLNKUTAGEVQW;IJDNQMDRQITEOD;NNPPMTNAJDCUHE;ATHHXGZTWNVVOU;GETQZCLCWQTVFV;JJWLVOIRVHMVIS;LIWAQLJGPBVORC;BDERNNFJNOPAEC;XOBKSJJDNFUZPF;XOTDURGROKNGTI;HZAXFHJVJLSVMW;QWTDNUCVQCZILF;DAZXVJBJRMWXJP;GVWISOJSERXQBM;HPNMFZURTQLUMO;HQABUPZFAYXKJW;KDSNLYIMUZNERS;XHFGWHUWQXTGAT;BEBCJVAWIBVWNZ;VNKYTQGIUYNRMY;ZXEKIIBDNHEJCQ;WUGQZFFCHPXWKQ;UHOVQNZJYSORNB;SUUDTPGCUKBECW;BMFVGAAISNGQNM;GNVRJGIVDSQCOP;QCOGKXLOEWLIDC;VJROPLWGFCORRM;ZUHZZVMEUAUWHY;FVNIMHIOIXPIQT;MXLMTQWGSQIYOW;UEEJHVSXFDXPFK;PAYRUJLWNCNPSJ;ISWSIDIOOBJBQZ;DJEQZVQFEPKLOY;SMBYUOXUISCLCF;VLSTXUUYLIALPB;ZMANZCXQSJIPKH;AFBPFSWMIHJQDM;IWDCLRJOBJJRNH;RDOXTESZEPMUJZ;JAEJQOUXXMFTJU;BFSVOASYOCHEOV;DYDNPESBYVVLBO;RIWRFSMVIUAEBX;SMQUZDBALVYZAC;CHLICZRVGGXEOD;DLRJIFUOBPOJNS;NOTCZLKDULMKBR;KBUULMSISDOTQC
SubstructureOntologies: CHEMONTID:0002500;CHEMONTID:0001831;CHEMONTID:0001016;CHEMONTID:0002230;CHEMONTID:0002228;CHEMONTID:0001167;CHEMONTID:0004620;CHEMONTID:0002484;CHEMONTID:0002239;CHEMONTID:0000469;CHEMONTID:0000286;CHEMONTID:0000497;CHEMONTID:0001897;CHEMONTID:0001852;CHEMONTID:0002279;CHEMONTID:0001663;CHEMONTID:0001661;CHEMONTID:0000284;CHEMONTID:0004647;CHEMONTID:0003924;CHEMONTID:0001275;CHEMONTID:0000138;CHEMONTID:0000285;CHEMONTID:0000185;CHEMONTID:0003978;CHEMONTID:0002341;CHEMONTID:0000190;CHEMONTID:0001238
Ontology: Macrolactams
OntologyID: CHEMONTID:0000064
RETENTIONTIME: -1
RETENTIONINDEX: -1
TotalBondEnergy: 29712
TotalScore: 7.3383
TotalHrRulesScore: 1
TotalBondCleavageScore: 0.8645
TotalMassAccuracyScore: 0.9854
TotalFragmentLinkageScore: 1
TotalBondDissociationEnergyScore: 0.8008
DatabaseScore: 0.5238
SubstructureAssignmentScore: 0
RtSimilarityScore: -1
RiSimilarityScore: 0
Num Fragment VS2 (M/Z Intensity MatchedExactMass SaturatedExactMass Formula RearrangedHydrogen PPM MassDiff_mDa IsEvenElectronRule IsHrRule IsSolventAdductFragment AssignedAdductMass AdductString BondDissociationEnergy TreeDepth SMILES TotalScore HrLikelihood BcLikelihood MaLikelihood FlLikelihood BeLikelihood): 2
271.156266	14648.385685	271.144103100569	276.183776855469	C16H24N2O2	-5	44.86	12.16	True	True	False	0		956	2	O=C(NC)C=2C=CC=CC=2(OCC(N(C)CC1CC1)C)	4.30135731433357	1	0.7289999127388	0.970846176147461	1	0.601511225447305
461.312996	43050.020258	461.312238613303	460.304962158203	C25H40N4O4	1	1.64	0.76	True	True	False	0		0	0	O=C(NC=2C=CC=3OCC(N(CC1CC1)CC(C)C(OC)CN(C(=O)C=3(C=2))C)C)NC(C)C	4.99988526105881	1	1	0.999885261058807	1	1

NAME: 1-cyclohexyl-3-[(4R,7S,8R)-8-methoxy-4,5,7,10-tetramethyl-11-oxo-2-oxa-5,10-diazabicyclo[10.4.0]hexadeca-1(12),13,15-trien-14-yl]urea
ID: ZWOJFBYNCHARNU
IsSpectrumSearch: False
INCHIKEY: ZWOJFBYNCHARNU-HPNHSWNWNA-N
SMILES: O=C(NC=1C=CC=2OCC(N(C)CC(C)C(OC)CN(C(=O)C=2(C=1))C)C)NC3CCCCC3
RESOURCES: ChEBI=CHEBI:111843;CHEBI:111888;CHEBI:111901;CHEBI:111982;CHEBI:112007;CHEBI:112038;CHEBI:112057;CHEBI:112132
SubstructureInChIKeys: VNWKTOKETHGBQD;WSFSSNUMVMOOMR;OTMSDBZUPAUEDD;IKHGUXGNUITLKF;ATUOYWHBWRKTHZ;ROSDSFDQCJNGOL;LCGLNKUTAGEVQW;IJDNQMDRQITEOD;NNPPMTNAJDCUHE;ATHHXGZTWNVVOU;GETQZCLCWQTVFV;JJWLVOIRVHMVIS;LIWAQLJGPBVORC;BDERNNFJNOPAEC;XOBKSJJDNFUZPF;XOTDURGROKNGTI;HZAXFHJVJLSVMW;OFBQJSOFQDEBGM;QWTDNUCVQCZILF;DAZXVJBJRMWXJP;GVWISOJSERXQBM;HPNMFZURTQLUMO;HQABUPZFAYXKJW;KDSNLYIMUZNERS;XHFGWHUWQXTGAT;BEBCJVAWIBVWNZ;VNKYTQGIUYNRMY;ZXEKIIBDNHEJCQ;WUGQZFFCHPXWKQ;UHOVQNZJYSORNB;XDTMQSROBMDMFD;VLKZOEOYAKHREP;SUUDTPGCUKBECW;BMFVGAAISNGQNM;DPBLXKKOBLCELK;GNVRJGIVDSQCOP;QCOGKXLOEWLIDC;VJROPLWGFCORRM;ZUHZZVMEUAUWHY;FVNIMHIOIXPIQT;MXLMTQWGSQIYOW;UEEJHVSXFDXPFK;PAYRUJLWNCNPSJ;ISWSIDIOOBJBQZ;DJEQZVQFEPKLOY;SMBYUOXUISCLCF;VLSTXUUYLIALPB;AFBPFSWMIHJQDM;IWDCLRJOBJJRNH;RDOXTESZEPMUJZ;JAEJQOUXXMFTJU;DYDNPESBYVVLBO;RIWRFSMVIUAEBX;SMQUZDBALVYZAC;CHLICZRVGGXEOD;DLRJIFUOBPOJNS;NOTCZLKDULMKBR
SubstructureOntologies: CHEMONTID:0002500;CHEMONTID:0001831;CHEMONTID:0002230;CHEMONTID:0002228;CHEMONTID:0001167;CHEMONTID:0004620;CHEMONTID:0002484;CHEMONTID:0002239;CHEMONTID:0000469;CHEMONTID:0000286;CHEMONTID:0000497;CHEMONTID:0001897;CHEMONTID:0001852;CHEMONTID:0002279;CHEMONTID:0001016;CHEMONTID:0001663;CHEMONTID:0001661;CHEMONTID:0000284;CHEMONTID:0004647;CHEMONTID:0003924;CHEMONTID:0001275;CHEMONTID:0000138;CHEMONTID:0000285;CHEMONTID:0000185;CHEMONTID:0003978;CHEMONTID:0002341;CHEMONTID:0000190
Ontology: Macrolactams
OntologyID: CHEMONTID:0000064
RETENTIONTIME: -1
RETENTIONINDEX: -1
TotalBondEnergy: 29712
TotalScore: 7.1324
TotalHrRulesScore: 1
TotalBondCleavageScore: 0.582
TotalMassAccuracyScore: 0.8121
TotalFragmentLinkageScore: 1
TotalBondDissociationEnergyScore: 0.6809
DatabaseScore: 0.5238
SubstructureAssignmentScore: 0
RtSimilarityScore: -1
RiSimilarityScore: 0
Num Fragment VS2 (M/Z Intensity MatchedExactMass SaturatedExactMass Formula RearrangedHydrogen PPM MassDiff_mDa IsEvenElectronRule IsHrRule IsSolventAdductFragment AssignedAdductMass AdductString BondDissociationEnergy TreeDepth SMILES TotalScore HrLikelihood BcLikelihood MaLikelihood FlLikelihood BeLikelihood): 2
271.156266	14648.385685	271.107731595022	278.163055419922	C15H22N2O3	-7	178.99	48.53	True	True	False	0		1302	2	O=CC=1C=C(C=CC=1(OCCC))NC(=O)NCCCC	3.15004876717852	1	0.164024978876114	0.624304115772247	1	0.361719672530161
461.312996	43050.020258	461.312238613303	460.304962158203	C25H40N4O4	1	1.64	0.76	True	True	False	0		0	0	O=C(NC=1C=CC=2OCC(N(C)CC(C)C(OC)CN(C(=O)C=2(C=1))C)C)NC3CCCCC3	4.99988526105881	1	1	0.999885261058807	1	1

