NAME: Bornane
ID: BEWYHVAWEKZDPP
IsSpectrumSearch: False
INCHIKEY: BEWYHVAWEKZDPP-UHFFFAOYSA-N
SMILES: CC12(CCC(CC1)C2(C)(C))
RESOURCES: KNApSAcK=C00040901,ChEBI=CHEBI:41341;CHEBI:35783,DrugBank=DB04501,NANPDB=NANPDB_4608,LipidMAPS=LMPR0102120000,UNPD=UNPD69826
SubstructureInChIKeys: VNWKTOKETHGBQD;OTMSDBZUPAUEDD;ATUOYWHBWRKTHZ;IJDNQMDRQITEOD;NNPPMTNAJDCUHE;RGSFGYAAUTVSQA;OFBQJSOFQDEBGM;QWTDNUCVQCZILF;GDOPTJXRTPNYNR;AFABGHUZZDYHJO;HNRMPXKDFBEGFZ;PFEOZHBOMNWTJB;VLKZOEOYAKHREP;QWHNJUXXYKPLQM;BZHMBWZPUJHVEE;IMNFDUFMRHMDMM;VLJXXKKOSFGPHI;LETYIFNDQBJGPJ;JVSWJIKNEAIKJW;TVMXDCGIABBOFY
SubstructureOntologies: CHEMONTID:0002500;CHEMONTID:0004620;CHEMONTID:0001016
Ontology: Bicyclic monoterpenoids
OntologyID: CHEMONTID:0001564
RETENTIONTIME: -1
RETENTIONINDEX: -1
TotalBondEnergy: 11204
TotalScore: 7.7319
TotalHrRulesScore: 0.7333
TotalBondCleavageScore: 0.4252
TotalMassAccuracyScore: 0.9823
TotalFragmentLinkageScore: 1
TotalBondDissociationEnergyScore: 0.8577
DatabaseScore: 0.6429
SubstructureAssignmentScore: 0.5
RtSimilarityScore: -1
RiSimilarityScore: 0
Num Fragment VS2 (M/Z Intensity MatchedExactMass SaturatedExactMass Formula RearrangedHydrogen PPM MassDiff_mDa IsEvenElectronRule IsHrRule IsSolventAdductFragment AssignedAdductMass AdductString BondDissociationEnergy TreeDepth SMILES TotalScore HrLikelihood BcLikelihood MaLikelihood FlLikelihood BeLikelihood): 3
108.103739	83475.559812	108.093351826174	110.109550476074	C8H14	-2	96.09	10.39	False	False	False	0		692	2	CC12(CCC(CC1)C2)	2.93638425785491	0.200000002980232	0.0506249964237213	0.978652477264404	1	0.707106781186548
123.125157	66834.088086	123.116824749358	124.125198364258	C9H16	-1	67.67	8.33	True	True	False	0		346	1	CC2C1CCC2(C)(CC1)	4.07723610167377	1	0.224999994039536	0.986210703849792	1	0.866025403784439
139.157639	285028.976797	139.148130336936	138.140853881836	C10H18	1	68.33	9.51	True	True	False	0		0	0	CC12(CCC(CC1)C2(C)(C))	4.98207956552505	1	1	0.982079565525055	1	1

NAME: Butylidenecyclohexane
ID: DVJPAIYXIZTKPM
IsSpectrumSearch: False
INCHIKEY: DVJPAIYXIZTKPM-UHFFFAOYSA-N
SMILES: C(=C1CCCCC1)CCC
RESOURCES: LipidMAPS=LMFA11000658,UNPD=UNPD52909
SubstructureInChIKeys: VNWKTOKETHGBQD;VGGSQFUCUMXWEO;OTMSDBZUPAUEDD;ATUOYWHBWRKTHZ;IAQRGUVFOMOMEM;VQTUBCCKSQIDNK;VXNZUUAINFGPBY;IJDNQMDRQITEOD;BKOOMYPCSUNDGP;QMMOXUPEWRXHJS;YWAKXRMUMFPDSH;OFBQJSOFQDEBGM;BEQGRRJLJLVQAQ;LIKMAJRDDDTEIG;RYPKRALMXUUNKS;XDTMQSROBMDMFD;ZQDPJFUHLCOCRG;VLKZOEOYAKHREP;WZHKDGJSXCTSCK;ZGEGCLOFRBLKSE;IICQZTQZQSBHBY;KPADFPAILITQBG
SubstructureOntologies: CHEMONTID:0002500;CHEMONTID:0004476;CHEMONTID:0004622;CHEMONTID:0001016
Ontology: Branched unsaturated hydrocarbons
OntologyID: CHEMONTID:0004622
RETENTIONTIME: -1
RETENTIONINDEX: -1
TotalBondEnergy: 11114
TotalScore: 7.7267
TotalHrRulesScore: 0.7333
TotalBondCleavageScore: 0.4833
TotalMassAccuracyScore: 0.9823
TotalFragmentLinkageScore: 1
TotalBondDissociationEnergyScore: 0.8777
DatabaseScore: 0.5476
SubstructureAssignmentScore: 0.75
RtSimilarityScore: -1
RiSimilarityScore: 0
Num Fragment VS2 (M/Z Intensity MatchedExactMass SaturatedExactMass Formula RearrangedHydrogen PPM MassDiff_mDa IsEvenElectronRule IsHrRule IsSolventAdductFragment AssignedAdductMass AdductString BondDissociationEnergy TreeDepth SMILES TotalScore HrLikelihood BcLikelihood MaLikelihood FlLikelihood BeLikelihood): 3
108.103739	83475.559812	108.093351826174	110.109550476074	C8H14	-2	96.09	10.39	False	False	False	0		346	1	C(=C1CCCCC1)C	3.2201490552119	0.200000002980232	0.224999994039536	0.978652477264404	1	0.816496580927726
123.125157	66834.088086	123.116824749358	124.125198364258	C9H16	-1	67.67	8.33	True	True	False	0		346	1	C(=C1CCCCC1)CC	4.02770727881705	1	0.224999994039536	0.986210703849792	1	0.816496580927726
139.157639	285028.976797	139.148130336936	138.140853881836	C10H18	1	68.33	9.51	True	True	False	0		0	0	C(=C1CCCCC1)CCC	4.98207956552505	1	1	0.982079565525055	1	1

NAME: cis-Carane
ID: BWRHOYDPVJPXMF
IsSpectrumSearch: False
INCHIKEY: BWRHOYDPVJPXMF-UHFFFAOYNA-N
SMILES: CC1CCC2C(C1)C2(C)(C)
RESOURCES: HMDB=HMDB0061796,ChEBI=CHEBI:35663,LipidMAPS=LMPR0102120028,Saliva=HMDB0061796,UNPD=UNPD20588;UNPD43100
SubstructureInChIKeys: VNWKTOKETHGBQD;OTMSDBZUPAUEDD;LVZWSLJZHVFIQJ;ATUOYWHBWRKTHZ;IJDNQMDRQITEOD;NNPPMTNAJDCUHE;OFBQJSOFQDEBGM;QWTDNUCVQCZILF;XDTMQSROBMDMFD;AFABGHUZZDYHJO;HNRMPXKDFBEGFZ;PFEOZHBOMNWTJB;VLKZOEOYAKHREP;UAEPNZWRGJTJPN;BZHMBWZPUJHVEE;IMNFDUFMRHMDMM;VLJXXKKOSFGPHI;KVZJLSYJROEPSQ;SGVUHPSBDNVHKL;JVSWJIKNEAIKJW;TVMXDCGIABBOFY;XARGIVYWQPXRTC
SubstructureOntologies: CHEMONTID:0002500;CHEMONTID:0001016;CHEMONTID:0004620
Ontology: Bicyclic monoterpenoids
OntologyID: CHEMONTID:0001564
RETENTIONTIME: -1
RETENTIONINDEX: -1
TotalBondEnergy: 11204
TotalScore: 7.6723
TotalHrRulesScore: 0.7333
TotalBondCleavageScore: 0.4252
TotalMassAccuracyScore: 0.9823
TotalFragmentLinkageScore: 1
TotalBondDissociationEnergyScore: 0.8577
DatabaseScore: 0.619
SubstructureAssignmentScore: 0.5
RtSimilarityScore: -1
RiSimilarityScore: 0
Num Fragment VS2 (M/Z Intensity MatchedExactMass SaturatedExactMass Formula RearrangedHydrogen PPM MassDiff_mDa IsEvenElectronRule IsHrRule IsSolventAdductFragment AssignedAdductMass AdductString BondDissociationEnergy TreeDepth SMILES TotalScore HrLikelihood BcLikelihood MaLikelihood FlLikelihood BeLikelihood): 3
108.103739	83475.559812	108.093351826174	110.109550476074	C8H14	-2	96.09	10.39	False	False	False	0		692	2	CC1C2CCCCC12	2.93638425785491	0.200000002980232	0.0506249964237213	0.978652477264404	1	0.707106781186548
123.125157	66834.088086	123.116824749358	124.125198364258	C9H16	-1	67.67	8.33	True	True	False	0		346	1	CC2(C)(C1CCCCC12)	4.07723610167377	1	0.224999994039536	0.986210703849792	1	0.866025403784439
139.157639	285028.976797	139.148130336936	138.140853881836	C10H18	1	68.33	9.51	True	True	False	0		0	0	CC1CCC2C(C1)C2(C)(C)	4.98207956552505	1	1	0.982079565525055	1	1

NAME: (S)-3,7-Dimethyl-1,6-octadiene
ID: FUDNBFMOXDUIIE
IsSpectrumSearch: False
INCHIKEY: FUDNBFMOXDUIIE-SNVBAGLBSA-N
SMILES: C=CC(C)CCC=C(C)C
RESOURCES: HMDB=HMDB0061795,ChEBI=CHEBI:90020,STOFF=STOFF_5774,Saliva=HMDB0061795,Feces=HMDB0061795,UNPD=UNPD129146
SubstructureInChIKeys: VNWKTOKETHGBQD;VGGSQFUCUMXWEO;OTMSDBZUPAUEDD;QQONPFPTGQHPMA;ATUOYWHBWRKTHZ;IAQRGUVFOMOMEM;VQTUBCCKSQIDNK;VXNZUUAINFGPBY;IJDNQMDRQITEOD;NNPPMTNAJDCUHE;BKOOMYPCSUNDGP;QMMOXUPEWRXHJS;YWAKXRMUMFPDSH;OFBQJSOFQDEBGM;QWTDNUCVQCZILF;LDTAOIUHUHHCMU;LIKMAJRDDDTEIG;RYPKRALMXUUNKS;AFABGHUZZDYHJO
SubstructureOntologies: CHEMONTID:0002500;CHEMONTID:0004476;CHEMONTID:0004622;CHEMONTID:0004620
Ontology: Acyclic monoterpenoids
OntologyID: CHEMONTID:0001127
RETENTIONTIME: -1
RETENTIONINDEX: -1
TotalBondEnergy: 11024
TotalScore: 7.6325
TotalHrRulesScore: 0.7333
TotalBondCleavageScore: 0.4252
TotalMassAccuracyScore: 0.9823
TotalFragmentLinkageScore: 1
TotalBondDissociationEnergyScore: 0.8321
DatabaseScore: 0.6429
SubstructureAssignmentScore: 0.4
RtSimilarityScore: -1
RiSimilarityScore: 0
Num Fragment VS2 (M/Z Intensity MatchedExactMass SaturatedExactMass Formula RearrangedHydrogen PPM MassDiff_mDa IsEvenElectronRule IsHrRule IsSolventAdductFragment AssignedAdductMass AdductString BondDissociationEnergy TreeDepth SMILES TotalScore HrLikelihood BcLikelihood MaLikelihood FlLikelihood BeLikelihood): 3
108.103739	83475.559812	108.093351826174	110.109550476074	C8H14	-2	96.09	10.39	False	False	False	0		692	2	C=CCCCC=CC	2.88138879341974	0.200000002980232	0.0506249964237213	0.978652477264404	1	0.652111316751378
123.125157	66834.088086	123.116824749358	124.125198364258	C9H16	-1	67.67	8.33	True	True	False	0		346	1	C=CCCCC=C(C)C	4.05538164308799	1	0.224999994039536	0.986210703849792	1	0.844170945198665
139.157639	285028.976797	139.148130336936	138.140853881836	C10H18	1	68.33	9.51	True	True	False	0		0	0	C=CC(C)CCC=C(C)C	4.98207956552505	1	1	0.982079565525055	1	1

NAME: 1-Methyl-3-(2-methyl-2-propenyl)-cyclopentane
ID: LRXVCZRWTBKTGT
IsSpectrumSearch: False
INCHIKEY: LRXVCZRWTBKTGT-UHFFFAOYNA-N
SMILES: C=C(C)CC1CCC(C)C1
RESOURCES: HMDB=HMDB0061799,ChEBI=CHEBI:90012,Saliva=HMDB0061799
SubstructureInChIKeys: VNWKTOKETHGBQD;VGGSQFUCUMXWEO;OTMSDBZUPAUEDD;QQONPFPTGQHPMA;ATUOYWHBWRKTHZ;VQTUBCCKSQIDNK;VXNZUUAINFGPBY;IJDNQMDRQITEOD;NNPPMTNAJDCUHE;RGSFGYAAUTVSQA;YWAKXRMUMFPDSH;OFBQJSOFQDEBGM;QWTDNUCVQCZILF;GDOPTJXRTPNYNR;LIKMAJRDDDTEIG;AFABGHUZZDYHJO;PFEOZHBOMNWTJB;VLKZOEOYAKHREP;ZGEGCLOFRBLKSE;BZHMBWZPUJHVEE;IMNFDUFMRHMDMM;VLJXXKKOSFGPHI;KWKAKUADMBZCLK;JVSWJIKNEAIKJW;TVMXDCGIABBOFY
SubstructureOntologies: CHEMONTID:0002500;CHEMONTID:0004476;CHEMONTID:0004622;CHEMONTID:0004620;CHEMONTID:0001016
Ontology: Branched unsaturated hydrocarbons
OntologyID: CHEMONTID:0004622
RETENTIONTIME: -1
RETENTIONINDEX: -1
TotalBondEnergy: 11114
TotalScore: 7.6293
TotalHrRulesScore: 0.7333
TotalBondCleavageScore: 0.4252
TotalMassAccuracyScore: 0.9823
TotalFragmentLinkageScore: 1
TotalBondDissociationEnergyScore: 0.846
DatabaseScore: 0.5714
SubstructureAssignmentScore: 0.6
RtSimilarityScore: -1
RiSimilarityScore: 0
Num Fragment VS2 (M/Z Intensity MatchedExactMass SaturatedExactMass Formula RearrangedHydrogen PPM MassDiff_mDa IsEvenElectronRule IsHrRule IsSolventAdductFragment AssignedAdductMass AdductString BondDissociationEnergy TreeDepth SMILES TotalScore HrLikelihood BcLikelihood MaLikelihood FlLikelihood BeLikelihood): 3
108.103739	83475.559812	108.093351826174	110.109550476074	C8H14	-2	96.09	10.39	False	False	False	0		692	2	C=CCC1CCCC1	2.91135086808811	0.200000002980232	0.0506249964237213	0.978652477264404	1	0.682073391419753
123.125157	66834.088086	123.116824749358	124.125198364258	C9H16	-1	67.67	8.33	True	True	False	0		346	1	C=C(C)CC1CCCC1	4.0671382974218	1	0.224999994039536	0.986210703849792	1	0.855927599532473
139.157639	285028.976797	139.148130336936	138.140853881836	C10H18	1	68.33	9.51	True	True	False	0		0	0	C=C(C)CC1CCC(C)C1	4.98207956552505	1	1	0.982079565525055	1	1

NAME: 1-Methyl-3-(2-methyl-1-propenyl)cyclopentane
ID: ZNVLSGKSXSJTNY
IsSpectrumSearch: False
INCHIKEY: ZNVLSGKSXSJTNY-UHFFFAOYNA-N
SMILES: C(=C(C)C)C1CCC(C)C1
RESOURCES: HMDB=HMDB0061798,ChEBI=CHEBI:90013,Saliva=HMDB0061798
SubstructureInChIKeys: VNWKTOKETHGBQD;VGGSQFUCUMXWEO;OTMSDBZUPAUEDD;QQONPFPTGQHPMA;ATUOYWHBWRKTHZ;IAQRGUVFOMOMEM;VQTUBCCKSQIDNK;VXNZUUAINFGPBY;IJDNQMDRQITEOD;NNPPMTNAJDCUHE;BKOOMYPCSUNDGP;QMMOXUPEWRXHJS;RGSFGYAAUTVSQA;YWAKXRMUMFPDSH;OFBQJSOFQDEBGM;QWTDNUCVQCZILF;GDOPTJXRTPNYNR;LDTAOIUHUHHCMU;LIKMAJRDDDTEIG;RYPKRALMXUUNKS;AFABGHUZZDYHJO;PFEOZHBOMNWTJB;VLKZOEOYAKHREP;ZGEGCLOFRBLKSE;BZHMBWZPUJHVEE;VLJXXKKOSFGPHI;IICQZTQZQSBHBY
SubstructureOntologies: CHEMONTID:0002500;CHEMONTID:0004476;CHEMONTID:0004622;CHEMONTID:0004620;CHEMONTID:0001016
Ontology: Branched unsaturated hydrocarbons
OntologyID: CHEMONTID:0004622
RETENTIONTIME: -1
RETENTIONINDEX: -1
TotalBondEnergy: 11114
TotalScore: 7.6293
TotalHrRulesScore: 0.7333
TotalBondCleavageScore: 0.4252
TotalMassAccuracyScore: 0.9823
TotalFragmentLinkageScore: 1
TotalBondDissociationEnergyScore: 0.846
DatabaseScore: 0.5714
SubstructureAssignmentScore: 0.6
RtSimilarityScore: -1
RiSimilarityScore: 0
Num Fragment VS2 (M/Z Intensity MatchedExactMass SaturatedExactMass Formula RearrangedHydrogen PPM MassDiff_mDa IsEvenElectronRule IsHrRule IsSolventAdductFragment AssignedAdductMass AdductString BondDissociationEnergy TreeDepth SMILES TotalScore HrLikelihood BcLikelihood MaLikelihood FlLikelihood BeLikelihood): 3
108.103739	83475.559812	108.093351826174	110.109550476074	C8H14	-2	96.09	10.39	False	False	False	0		692	2	C(=CC1CCCC1)C	2.91135086808811	0.200000002980232	0.0506249964237213	0.978652477264404	1	0.682073391419753
123.125157	66834.088086	123.116824749358	124.125198364258	C9H16	-1	67.67	8.33	True	True	False	0		346	1	C(=C(C)C)C1CCCC1	4.0671382974218	1	0.224999994039536	0.986210703849792	1	0.855927599532473
139.157639	285028.976797	139.148130336936	138.140853881836	C10H18	1	68.33	9.51	True	True	False	0		0	0	C(=C(C)C)C1CCC(C)C1	4.98207956552505	1	1	0.982079565525055	1	1

NAME: xi-p-Menth-3-ene
ID: YYCPSEFQLGXPCO
IsSpectrumSearch: False
INCHIKEY: YYCPSEFQLGXPCO-UHFFFAOYNA-N
SMILES: C1=C(CCC(C)C1)C(C)C
RESOURCES: HMDB=HMDB0037213,ChEBI=CHEBI:88834,FooDB=FDB016220,Saliva=HMDB0037213,UNPD=UNPD157066;UNPD91387
SubstructureInChIKeys: VNWKTOKETHGBQD;VGGSQFUCUMXWEO;OTMSDBZUPAUEDD;ATUOYWHBWRKTHZ;IAQRGUVFOMOMEM;VQTUBCCKSQIDNK;VXNZUUAINFGPBY;IJDNQMDRQITEOD;NNPPMTNAJDCUHE;BKOOMYPCSUNDGP;QMMOXUPEWRXHJS;YWAKXRMUMFPDSH;OFBQJSOFQDEBGM;QWTDNUCVQCZILF;BEQGRRJLJLVQAQ;LIKMAJRDDDTEIG;RYPKRALMXUUNKS;ZQDPJFUHLCOCRG;AFABGHUZZDYHJO;PFEOZHBOMNWTJB;VLKZOEOYAKHREP;ADHCYQWFCLQBFG;WZHKDGJSXCTSCK;IMNFDUFMRHMDMM;VLJXXKKOSFGPHI;KWKAKUADMBZCLK;JVSWJIKNEAIKJW;TVMXDCGIABBOFY;KPADFPAILITQBG
SubstructureOntologies: CHEMONTID:0002500;CHEMONTID:0004476;CHEMONTID:0004622;CHEMONTID:0004620
Ontology: Menthane monoterpenoids
OntologyID: CHEMONTID:0001401
RETENTIONTIME: -1
RETENTIONINDEX: -1
TotalBondEnergy: 11114
TotalScore: 7.5817
TotalHrRulesScore: 0.7333
TotalBondCleavageScore: 0.4252
TotalMassAccuracyScore: 0.9823
TotalFragmentLinkageScore: 1
TotalBondDissociationEnergyScore: 0.846
DatabaseScore: 0.619
SubstructureAssignmentScore: 0.4
RtSimilarityScore: -1
RiSimilarityScore: 0
Num Fragment VS2 (M/Z Intensity MatchedExactMass SaturatedExactMass Formula RearrangedHydrogen PPM MassDiff_mDa IsEvenElectronRule IsHrRule IsSolventAdductFragment AssignedAdductMass AdductString BondDissociationEnergy TreeDepth SMILES TotalScore HrLikelihood BcLikelihood MaLikelihood FlLikelihood BeLikelihood): 3
108.103739	83475.559812	108.093351826174	110.109550476074	C8H14	-2	96.09	10.39	False	False	False	0		692	2	C1=C(C)CCC(C)C1	2.91135086808811	0.200000002980232	0.0506249964237213	0.978652477264404	1	0.682073391419753
123.125157	66834.088086	123.116824749358	124.125198364258	C9H16	-1	67.67	8.33	True	True	False	0		346	1	C1=C(CC)CCC(C)C1	4.0671382974218	1	0.224999994039536	0.986210703849792	1	0.855927599532473
139.157639	285028.976797	139.148130336936	138.140853881836	C10H18	1	68.33	9.51	True	True	False	0		0	0	C1=C(CCC(C)C1)C(C)C	4.98207956552505	1	1	0.982079565525055	1	1

NAME: p-Menth-4(8)-ene
ID: OLZFGHOLNXRJEC
IsSpectrumSearch: False
INCHIKEY: OLZFGHOLNXRJEC-UHFFFAOYSA-N
SMILES: C(=C1CCC(C)CC1)(C)C
RESOURCES: KNApSAcK=C00010914,UNPD=UNPD125547
SubstructureInChIKeys: VNWKTOKETHGBQD;VGGSQFUCUMXWEO;OTMSDBZUPAUEDD;QQONPFPTGQHPMA;ATUOYWHBWRKTHZ;IAQRGUVFOMOMEM;VQTUBCCKSQIDNK;VXNZUUAINFGPBY;IJDNQMDRQITEOD;NNPPMTNAJDCUHE;BKOOMYPCSUNDGP;QMMOXUPEWRXHJS;YWAKXRMUMFPDSH;OFBQJSOFQDEBGM;QWTDNUCVQCZILF;BEQGRRJLJLVQAQ;LIKMAJRDDDTEIG;RYPKRALMXUUNKS;XDTMQSROBMDMFD;AFABGHUZZDYHJO;PFEOZHBOMNWTJB;VLKZOEOYAKHREP;UAEPNZWRGJTJPN;ZGEGCLOFRBLKSE;IMNFDUFMRHMDMM;VLJXXKKOSFGPHI;QJXCDRBHYIAFTH;JVSWJIKNEAIKJW;TVMXDCGIABBOFY;NUHCEMOQRZEGAQ;IICQZTQZQSBHBY
SubstructureOntologies: CHEMONTID:0002500;CHEMONTID:0004476;CHEMONTID:0004622;CHEMONTID:0004620;CHEMONTID:0001016
Ontology: Menthane monoterpenoids
OntologyID: CHEMONTID:0001401
RETENTIONTIME: -1
RETENTIONINDEX: -1
TotalBondEnergy: 11114
TotalScore: 7.5698
TotalHrRulesScore: 0.7333
TotalBondCleavageScore: 0.4252
TotalMassAccuracyScore: 0.9823
TotalFragmentLinkageScore: 1
TotalBondDissociationEnergyScore: 0.846
DatabaseScore: 0.5476
SubstructureAssignmentScore: 0.6
RtSimilarityScore: -1
RiSimilarityScore: 0
Num Fragment VS2 (M/Z Intensity MatchedExactMass SaturatedExactMass Formula RearrangedHydrogen PPM MassDiff_mDa IsEvenElectronRule IsHrRule IsSolventAdductFragment AssignedAdductMass AdductString BondDissociationEnergy TreeDepth SMILES TotalScore HrLikelihood BcLikelihood MaLikelihood FlLikelihood BeLikelihood): 3
108.103739	83475.559812	108.093351826174	110.109550476074	C8H14	-2	96.09	10.39	False	False	False	0		692	2	C(=C1CCCCC1)C	2.91135086808811	0.200000002980232	0.0506249964237213	0.978652477264404	1	0.682073391419753
123.125157	66834.088086	123.116824749358	124.125198364258	C9H16	-1	67.67	8.33	True	True	False	0		346	1	C(=C1CCCCC1)(C)C	4.0671382974218	1	0.224999994039536	0.986210703849792	1	0.855927599532473
139.157639	285028.976797	139.148130336936	138.140853881836	C10H18	1	68.33	9.51	True	True	False	0		0	0	C(=C1CCC(C)CC1)(C)C	4.98207956552505	1	1	0.982079565525055	1	1

NAME: 4-isopropyl-1-methylenecyclohexane
ID: CEWQMRMCIKPUIK
IsSpectrumSearch: False
INCHIKEY: CEWQMRMCIKPUIK-UHFFFAOYSA-N
SMILES: C=C1CCC(CC1)C(C)C
RESOURCES: ChEBI=CHEBI:59156,UNPD=UNPD102766
SubstructureInChIKeys: VNWKTOKETHGBQD;VGGSQFUCUMXWEO;OTMSDBZUPAUEDD;ATUOYWHBWRKTHZ;VQTUBCCKSQIDNK;VXNZUUAINFGPBY;IJDNQMDRQITEOD;NNPPMTNAJDCUHE;YWAKXRMUMFPDSH;OFBQJSOFQDEBGM;QWTDNUCVQCZILF;LIKMAJRDDDTEIG;XDTMQSROBMDMFD;AFABGHUZZDYHJO;PFEOZHBOMNWTJB;VLKZOEOYAKHREP;UAEPNZWRGJTJPN;ZGEGCLOFRBLKSE;IMNFDUFMRHMDMM;VLJXXKKOSFGPHI;QJXCDRBHYIAFTH;JVSWJIKNEAIKJW;TVMXDCGIABBOFY
SubstructureOntologies: CHEMONTID:0002500;CHEMONTID:0004476;CHEMONTID:0004622;CHEMONTID:0004620;CHEMONTID:0001016
Ontology: Menthane monoterpenoids
OntologyID: CHEMONTID:0001401
RETENTIONTIME: -1
RETENTIONINDEX: -1
TotalBondEnergy: 11114
TotalScore: 7.5698
TotalHrRulesScore: 0.7333
TotalBondCleavageScore: 0.4252
TotalMassAccuracyScore: 0.9823
TotalFragmentLinkageScore: 1
TotalBondDissociationEnergyScore: 0.846
DatabaseScore: 0.5476
SubstructureAssignmentScore: 0.6
RtSimilarityScore: -1
RiSimilarityScore: 0
Num Fragment VS2 (M/Z Intensity MatchedExactMass SaturatedExactMass Formula RearrangedHydrogen PPM MassDiff_mDa IsEvenElectronRule IsHrRule IsSolventAdductFragment AssignedAdductMass AdductString BondDissociationEnergy TreeDepth SMILES TotalScore HrLikelihood BcLikelihood MaLikelihood FlLikelihood BeLikelihood): 3
108.103739	83475.559812	108.093351826174	110.109550476074	C8H14	-2	96.09	10.39	False	False	False	0		692	2	C=C1CCC(C)CC1	2.91135086808811	0.200000002980232	0.0506249964237213	0.978652477264404	1	0.682073391419753
123.125157	66834.088086	123.116824749358	124.125198364258	C9H16	-1	67.67	8.33	True	True	False	0		346	1	C=C1CCC(CC)CC1	4.0671382974218	1	0.224999994039536	0.986210703849792	1	0.855927599532473
139.157639	285028.976797	139.148130336936	138.140853881836	C10H18	1	68.33	9.51	True	True	False	0		0	0	C=C1CCC(CC1)C(C)C	4.98207956552505	1	1	0.982079565525055	1	1

NAME: 8-cis-Menthene
ID: WPMKLOWQWIDOJN
IsSpectrumSearch: False
INCHIKEY: WPMKLOWQWIDOJN-AOOOYVTPSA-N
SMILES: C=C(C)C1CCC(C)CC1
RESOURCES: FooDB=FDB004776,UNPD=UNPD106502;UNPD51424
SubstructureInChIKeys: VNWKTOKETHGBQD;VGGSQFUCUMXWEO;OTMSDBZUPAUEDD;QQONPFPTGQHPMA;ATUOYWHBWRKTHZ;VQTUBCCKSQIDNK;VXNZUUAINFGPBY;IJDNQMDRQITEOD;NNPPMTNAJDCUHE;YWAKXRMUMFPDSH;OFBQJSOFQDEBGM;QWTDNUCVQCZILF;LDTAOIUHUHHCMU;LIKMAJRDDDTEIG;XDTMQSROBMDMFD;AFABGHUZZDYHJO;PFEOZHBOMNWTJB;VLKZOEOYAKHREP;UAEPNZWRGJTJPN;ZGEGCLOFRBLKSE;IMNFDUFMRHMDMM;VLJXXKKOSFGPHI;KVZJLSYJROEPSQ;KWKAKUADMBZCLK;SGVUHPSBDNVHKL;JVSWJIKNEAIKJW;TVMXDCGIABBOFY;XARGIVYWQPXRTC
SubstructureOntologies: CHEMONTID:0002500;CHEMONTID:0004476;CHEMONTID:0004622;CHEMONTID:0004620;CHEMONTID:0001016
Ontology: Menthane monoterpenoids
OntologyID: CHEMONTID:0001401
RETENTIONTIME: -1
RETENTIONINDEX: -1
TotalBondEnergy: 11114
TotalScore: 7.5698
TotalHrRulesScore: 0.7333
TotalBondCleavageScore: 0.4252
TotalMassAccuracyScore: 0.9823
TotalFragmentLinkageScore: 1
TotalBondDissociationEnergyScore: 0.846
DatabaseScore: 0.5476
SubstructureAssignmentScore: 0.6
RtSimilarityScore: -1
RiSimilarityScore: 0
Num Fragment VS2 (M/Z Intensity MatchedExactMass SaturatedExactMass Formula RearrangedHydrogen PPM MassDiff_mDa IsEvenElectronRule IsHrRule IsSolventAdductFragment AssignedAdductMass AdductString BondDissociationEnergy TreeDepth SMILES TotalScore HrLikelihood BcLikelihood MaLikelihood FlLikelihood BeLikelihood): 3
108.103739	83475.559812	108.093351826174	110.109550476074	C8H14	-2	96.09	10.39	False	False	False	0		692	2	C=CC1CCCCC1	2.91135086808811	0.200000002980232	0.0506249964237213	0.978652477264404	1	0.682073391419753
123.125157	66834.088086	123.116824749358	124.125198364258	C9H16	-1	67.67	8.33	True	True	False	0		346	1	C=C(C)C1CCCCC1	4.0671382974218	1	0.224999994039536	0.986210703849792	1	0.855927599532473
139.157639	285028.976797	139.148130336936	138.140853881836	C10H18	1	68.33	9.51	True	True	False	0		0	0	C=C(C)C1CCC(C)CC1	4.98207956552505	1	1	0.982079565525055	1	1

NAME: thujane
ID: GCTNBVHDRFKLLK
IsSpectrumSearch: False
INCHIKEY: GCTNBVHDRFKLLK-UHFFFAOYNA-N
SMILES: CC(C)C12(CCC(C)C2(C1))
RESOURCES: ChEBI=CHEBI:35709,LipidMAPS=LMPR0102120029,UNPD=UNPD82152
SubstructureInChIKeys: VNWKTOKETHGBQD;OTMSDBZUPAUEDD;LVZWSLJZHVFIQJ;ATUOYWHBWRKTHZ;IJDNQMDRQITEOD;NNPPMTNAJDCUHE;RGSFGYAAUTVSQA;OFBQJSOFQDEBGM;QWTDNUCVQCZILF;GDOPTJXRTPNYNR;AFABGHUZZDYHJO;HNRMPXKDFBEGFZ;PFEOZHBOMNWTJB;VLKZOEOYAKHREP;QWHNJUXXYKPLQM;BZHMBWZPUJHVEE;IMNFDUFMRHMDMM;VLJXXKKOSFGPHI;LETYIFNDQBJGPJ;JVSWJIKNEAIKJW;TVMXDCGIABBOFY
SubstructureOntologies: CHEMONTID:0002500;CHEMONTID:0001016;CHEMONTID:0004620
Ontology: Bicyclic monoterpenoids
OntologyID: CHEMONTID:0001564
RETENTIONTIME: -1
RETENTIONINDEX: -1
TotalBondEnergy: 11204
TotalScore: 7.5533
TotalHrRulesScore: 0.7333
TotalBondCleavageScore: 0.4252
TotalMassAccuracyScore: 0.9823
TotalFragmentLinkageScore: 1
TotalBondDissociationEnergyScore: 0.8577
DatabaseScore: 0.5714
SubstructureAssignmentScore: 0.5
RtSimilarityScore: -1
RiSimilarityScore: 0
Num Fragment VS2 (M/Z Intensity MatchedExactMass SaturatedExactMass Formula RearrangedHydrogen PPM MassDiff_mDa IsEvenElectronRule IsHrRule IsSolventAdductFragment AssignedAdductMass AdductString BondDissociationEnergy TreeDepth SMILES TotalScore HrLikelihood BcLikelihood MaLikelihood FlLikelihood BeLikelihood): 3
108.103739	83475.559812	108.093351826174	110.109550476074	C8H14	-2	96.09	10.39	False	False	False	0		692	2	CC1CCC2(C)(CC12)	2.93638425785491	0.200000002980232	0.0506249964237213	0.978652477264404	1	0.707106781186548
123.125157	66834.088086	123.116824749358	124.125198364258	C9H16	-1	67.67	8.33	True	True	False	0		346	1	CCC12(CCC(C)C2(C1))	4.07723610167377	1	0.224999994039536	0.986210703849792	1	0.866025403784439
139.157639	285028.976797	139.148130336936	138.140853881836	C10H18	1	68.33	9.51	True	True	False	0		0	0	CC(C)C12(CCC(C)C2(C1))	4.98207956552505	1	1	0.982079565525055	1	1

NAME: fenchane
ID: HINAOCRDJFBYGD
IsSpectrumSearch: False
INCHIKEY: HINAOCRDJFBYGD-UHFFFAOYNA-N
SMILES: CC12(CCC(C1)C(C)(C)C2)
RESOURCES: ChEBI=CHEBI:36611,LipidMAPS=LMPR0102120027,UNPD=UNPD95076
SubstructureInChIKeys: VNWKTOKETHGBQD;OTMSDBZUPAUEDD;ATUOYWHBWRKTHZ;IJDNQMDRQITEOD;NNPPMTNAJDCUHE;RGSFGYAAUTVSQA;OFBQJSOFQDEBGM;QWTDNUCVQCZILF;GDOPTJXRTPNYNR;AFABGHUZZDYHJO;HNRMPXKDFBEGFZ;PFEOZHBOMNWTJB;VLKZOEOYAKHREP;QWHNJUXXYKPLQM;BZHMBWZPUJHVEE;IMNFDUFMRHMDMM;VLJXXKKOSFGPHI;LETYIFNDQBJGPJ;JVSWJIKNEAIKJW;TVMXDCGIABBOFY
SubstructureOntologies: CHEMONTID:0002500;CHEMONTID:0004620;CHEMONTID:0001016
Ontology: Bicyclic monoterpenoids
OntologyID: CHEMONTID:0001564
RETENTIONTIME: -1
RETENTIONINDEX: -1
TotalBondEnergy: 11204
TotalScore: 7.5533
TotalHrRulesScore: 0.7333
TotalBondCleavageScore: 0.4252
TotalMassAccuracyScore: 0.9823
TotalFragmentLinkageScore: 1
TotalBondDissociationEnergyScore: 0.8577
DatabaseScore: 0.5714
SubstructureAssignmentScore: 0.5
RtSimilarityScore: -1
RiSimilarityScore: 0
Num Fragment VS2 (M/Z Intensity MatchedExactMass SaturatedExactMass Formula RearrangedHydrogen PPM MassDiff_mDa IsEvenElectronRule IsHrRule IsSolventAdductFragment AssignedAdductMass AdductString BondDissociationEnergy TreeDepth SMILES TotalScore HrLikelihood BcLikelihood MaLikelihood FlLikelihood BeLikelihood): 3
108.103739	83475.559812	108.093351826174	110.109550476074	C8H14	-2	96.09	10.39	False	False	False	0		692	2	CC12(CCC(CC1)C2)	2.93638425785491	0.200000002980232	0.0506249964237213	0.978652477264404	1	0.707106781186548
123.125157	66834.088086	123.116824749358	124.125198364258	C9H16	-1	67.67	8.33	True	True	False	0		346	1	CC2CC1(C)(CCC2(C1))	4.07723610167377	1	0.224999994039536	0.986210703849792	1	0.866025403784439
139.157639	285028.976797	139.148130336936	138.140853881836	C10H18	1	68.33	9.51	True	True	False	0		0	0	CC12(CCC(C1)C(C)(C)C2)	4.98207956552505	1	1	0.982079565525055	1	1

NAME: 3-(2-Methylpropyl)-cyclohexene
ID: NVLNRIBMCIJLQD
IsSpectrumSearch: False
INCHIKEY: NVLNRIBMCIJLQD-UHFFFAOYNA-N
SMILES: C1=CC(CCC1)CC(C)C
RESOURCES: HMDB=HMDB0061801,ChEBI=CHEBI:88554,Saliva=HMDB0061801
SubstructureInChIKeys: VNWKTOKETHGBQD;VGGSQFUCUMXWEO;OTMSDBZUPAUEDD;ATUOYWHBWRKTHZ;IAQRGUVFOMOMEM;VXNZUUAINFGPBY;IJDNQMDRQITEOD;NNPPMTNAJDCUHE;QMMOXUPEWRXHJS;YWAKXRMUMFPDSH;OFBQJSOFQDEBGM;QWTDNUCVQCZILF;LDTAOIUHUHHCMU;LIKMAJRDDDTEIG;RYPKRALMXUUNKS;ZQDPJFUHLCOCRG;AFABGHUZZDYHJO;PFEOZHBOMNWTJB;VLKZOEOYAKHREP;WZHKDGJSXCTSCK;ZGEGCLOFRBLKSE;BZHMBWZPUJHVEE;IMNFDUFMRHMDMM;VLJXXKKOSFGPHI;KWKAKUADMBZCLK;JVSWJIKNEAIKJW;TVMXDCGIABBOFY;IICQZTQZQSBHBY;KPADFPAILITQBG
SubstructureOntologies: CHEMONTID:0002500;CHEMONTID:0004476;CHEMONTID:0004620
Ontology: Cycloalkenes
OntologyID: CHEMONTID:0000017
RETENTIONTIME: -1
RETENTIONINDEX: -1
TotalBondEnergy: 11114
TotalScore: 7.546
TotalHrRulesScore: 0.7333
TotalBondCleavageScore: 0.4252
TotalMassAccuracyScore: 0.9823
TotalFragmentLinkageScore: 1
TotalBondDissociationEnergyScore: 0.846
DatabaseScore: 0.5714
SubstructureAssignmentScore: 0.5
RtSimilarityScore: -1
RiSimilarityScore: 0
Num Fragment VS2 (M/Z Intensity MatchedExactMass SaturatedExactMass Formula RearrangedHydrogen PPM MassDiff_mDa IsEvenElectronRule IsHrRule IsSolventAdductFragment AssignedAdductMass AdductString BondDissociationEnergy TreeDepth SMILES TotalScore HrLikelihood BcLikelihood MaLikelihood FlLikelihood BeLikelihood): 3
108.103739	83475.559812	108.093351826174	110.109550476074	C8H14	-2	96.09	10.39	False	False	False	0		692	2	C1=CC(CC)CCC1	2.91135086808811	0.200000002980232	0.0506249964237213	0.978652477264404	1	0.682073391419753
123.125157	66834.088086	123.116824749358	124.125198364258	C9H16	-1	67.67	8.33	True	True	False	0		346	1	C1=CC(CCC)CCC1	4.0671382974218	1	0.224999994039536	0.986210703849792	1	0.855927599532473
139.157639	285028.976797	139.148130336936	138.140853881836	C10H18	1	68.33	9.51	True	True	False	0		0	0	C1=CC(CCC1)CC(C)C	4.98207956552505	1	1	0.982079565525055	1	1

NAME: 2-Menthene
ID: WHNGPXQYYRWQAS
IsSpectrumSearch: False
INCHIKEY: WHNGPXQYYRWQAS-VHSXEESVSA-N
SMILES: C1=CC(CCC1C)C(C)C
RESOURCES: HMDB=HMDB0061797,ChEBI=CHEBI:59157;CHEBI:90019,Saliva=HMDB0061797
SubstructureInChIKeys: VNWKTOKETHGBQD;VGGSQFUCUMXWEO;OTMSDBZUPAUEDD;ATUOYWHBWRKTHZ;IAQRGUVFOMOMEM;VXNZUUAINFGPBY;IJDNQMDRQITEOD;NNPPMTNAJDCUHE;QMMOXUPEWRXHJS;YWAKXRMUMFPDSH;OFBQJSOFQDEBGM;QWTDNUCVQCZILF;LDTAOIUHUHHCMU;LIKMAJRDDDTEIG;RYPKRALMXUUNKS;ZQDPJFUHLCOCRG;AFABGHUZZDYHJO;PFEOZHBOMNWTJB;VLKZOEOYAKHREP;WZHKDGJSXCTSCK;ZGEGCLOFRBLKSE;IMNFDUFMRHMDMM;VLJXXKKOSFGPHI;KWKAKUADMBZCLK;JVSWJIKNEAIKJW;IICQZTQZQSBHBY;KPADFPAILITQBG
SubstructureOntologies: CHEMONTID:0002500;CHEMONTID:0004476;CHEMONTID:0004620
Ontology: Menthane monoterpenoids
OntologyID: CHEMONTID:0001401
RETENTIONTIME: -1
RETENTIONINDEX: -1
TotalBondEnergy: 11114
TotalScore: 7.546
TotalHrRulesScore: 0.7333
TotalBondCleavageScore: 0.4252
TotalMassAccuracyScore: 0.9823
TotalFragmentLinkageScore: 1
TotalBondDissociationEnergyScore: 0.846
DatabaseScore: 0.5714
SubstructureAssignmentScore: 0.5
RtSimilarityScore: -1
RiSimilarityScore: 0
Num Fragment VS2 (M/Z Intensity MatchedExactMass SaturatedExactMass Formula RearrangedHydrogen PPM MassDiff_mDa IsEvenElectronRule IsHrRule IsSolventAdductFragment AssignedAdductMass AdductString BondDissociationEnergy TreeDepth SMILES TotalScore HrLikelihood BcLikelihood MaLikelihood FlLikelihood BeLikelihood): 3
108.103739	83475.559812	108.093351826174	110.109550476074	C8H14	-2	96.09	10.39	False	False	False	0		692	2	C1=CC(C)CCC1C	2.91135086808811	0.200000002980232	0.0506249964237213	0.978652477264404	1	0.682073391419753
123.125157	66834.088086	123.116824749358	124.125198364258	C9H16	-1	67.67	8.33	True	True	False	0		346	1	C1=CC(CC)CCC1C	4.0671382974218	1	0.224999994039536	0.986210703849792	1	0.855927599532473
139.157639	285028.976797	139.148130336936	138.140853881836	C10H18	1	68.33	9.51	True	True	False	0		0	0	C1=CC(CCC1C)C(C)C	4.98207956552505	1	1	0.982079565525055	1	1

NAME: (+)-Carvomenthene;(+)-p-Menth-1-ene
ID: FAMJUFMHYAFYNU
IsSpectrumSearch: False
INCHIKEY: FAMJUFMHYAFYNU-UEQNJFAPNA-N
SMILES: C1=C(C)CCC(C1)C(C)C
RESOURCES: KNApSAcK=C00010912;C00010913;C00048262,ChEBI=CHEBI:134312;CHEBI:134313,FooDB=FDB005387,UNPD=UNPD157314;UNPD160576
SubstructureInChIKeys: VNWKTOKETHGBQD;VGGSQFUCUMXWEO;OTMSDBZUPAUEDD;QQONPFPTGQHPMA;ATUOYWHBWRKTHZ;IAQRGUVFOMOMEM;VQTUBCCKSQIDNK;VXNZUUAINFGPBY;IJDNQMDRQITEOD;NNPPMTNAJDCUHE;BKOOMYPCSUNDGP;QMMOXUPEWRXHJS;YWAKXRMUMFPDSH;OFBQJSOFQDEBGM;QWTDNUCVQCZILF;BEQGRRJLJLVQAQ;LIKMAJRDDDTEIG;RYPKRALMXUUNKS;ZQDPJFUHLCOCRG;AFABGHUZZDYHJO;PFEOZHBOMNWTJB;VLKZOEOYAKHREP;WZHKDGJSXCTSCK;ZGEGCLOFRBLKSE;IMNFDUFMRHMDMM;VLJXXKKOSFGPHI;KWKAKUADMBZCLK;JVSWJIKNEAIKJW;KPADFPAILITQBG
SubstructureOntologies: CHEMONTID:0002500;CHEMONTID:0004476;CHEMONTID:0004622;CHEMONTID:0004620
Ontology: Menthane monoterpenoids
OntologyID: CHEMONTID:0001401
RETENTIONTIME: -1
RETENTIONINDEX: -1
TotalBondEnergy: 11114
TotalScore: 7.5222
TotalHrRulesScore: 0.7333
TotalBondCleavageScore: 0.4252
TotalMassAccuracyScore: 0.9823
TotalFragmentLinkageScore: 1
TotalBondDissociationEnergyScore: 0.846
DatabaseScore: 0.5952
SubstructureAssignmentScore: 0.4
RtSimilarityScore: -1
RiSimilarityScore: 0
Num Fragment VS2 (M/Z Intensity MatchedExactMass SaturatedExactMass Formula RearrangedHydrogen PPM MassDiff_mDa IsEvenElectronRule IsHrRule IsSolventAdductFragment AssignedAdductMass AdductString BondDissociationEnergy TreeDepth SMILES TotalScore HrLikelihood BcLikelihood MaLikelihood FlLikelihood BeLikelihood): 3
108.103739	83475.559812	108.093351826174	110.109550476074	C8H14	-2	96.09	10.39	False	False	False	0		692	2	C1=C(C)CCC(C)C1	2.91135086808811	0.200000002980232	0.0506249964237213	0.978652477264404	1	0.682073391419753
123.125157	66834.088086	123.116824749358	124.125198364258	C9H16	-1	67.67	8.33	True	True	False	0		346	1	C1=C(C)CCC(C1)CC	4.0671382974218	1	0.224999994039536	0.986210703849792	1	0.855927599532473
139.157639	285028.976797	139.148130336936	138.140853881836	C10H18	1	68.33	9.51	True	True	False	0		0	0	C1=C(C)CCC(C1)C(C)C	4.98207956552505	1	1	0.982079565525055	1	1

NAME: 1-methyl-1-(2-methyl-2-propenyl)-cyclopentane
ID: AGIVRYRAKLJNMU
IsSpectrumSearch: False
INCHIKEY: AGIVRYRAKLJNMU-RUDMXATFSA-N
SMILES: C(=C(C)C1(C)(CCCC1))C
RESOURCES: LipidMAPS=LMFA11000665
SubstructureInChIKeys: VNWKTOKETHGBQD;VGGSQFUCUMXWEO;OTMSDBZUPAUEDD;QQONPFPTGQHPMA;ATUOYWHBWRKTHZ;IAQRGUVFOMOMEM;VQTUBCCKSQIDNK;VXNZUUAINFGPBY;IJDNQMDRQITEOD;NNPPMTNAJDCUHE;BKOOMYPCSUNDGP;QMMOXUPEWRXHJS;RGSFGYAAUTVSQA;YWAKXRMUMFPDSH;OFBQJSOFQDEBGM;QWTDNUCVQCZILF;BEQGRRJLJLVQAQ;GDOPTJXRTPNYNR;LDTAOIUHUHHCMU;LIKMAJRDDDTEIG;RYPKRALMXUUNKS;AFABGHUZZDYHJO;HNRMPXKDFBEGFZ;PFEOZHBOMNWTJB;VLKZOEOYAKHREP;QWHNJUXXYKPLQM;ZGEGCLOFRBLKSE;IMNFDUFMRHMDMM;VLJXXKKOSFGPHI;LETYIFNDQBJGPJ;TVMXDCGIABBOFY;IICQZTQZQSBHBY
SubstructureOntologies: CHEMONTID:0002500;CHEMONTID:0004476;CHEMONTID:0004622;CHEMONTID:0004620;CHEMONTID:0001016
Ontology: Branched unsaturated hydrocarbons
OntologyID: CHEMONTID:0004622
RETENTIONTIME: -1
RETENTIONINDEX: -1
TotalBondEnergy: 11114
TotalScore: 7.5103
TotalHrRulesScore: 0.7333
TotalBondCleavageScore: 0.4252
TotalMassAccuracyScore: 0.9823
TotalFragmentLinkageScore: 1
TotalBondDissociationEnergyScore: 0.846
DatabaseScore: 0.5238
SubstructureAssignmentScore: 0.6
RtSimilarityScore: -1
RiSimilarityScore: 0
Num Fragment VS2 (M/Z Intensity MatchedExactMass SaturatedExactMass Formula RearrangedHydrogen PPM MassDiff_mDa IsEvenElectronRule IsHrRule IsSolventAdductFragment AssignedAdductMass AdductString BondDissociationEnergy TreeDepth SMILES TotalScore HrLikelihood BcLikelihood MaLikelihood FlLikelihood BeLikelihood): 3
108.103739	83475.559812	108.093351826174	110.109550476074	C8H14	-2	96.09	10.39	False	False	False	0		692	2	C=CC1(C)(CCCC1)	2.91135086808811	0.200000002980232	0.0506249964237213	0.978652477264404	1	0.682073391419753
123.125157	66834.088086	123.116824749358	124.125198364258	C9H16	-1	67.67	8.33	True	True	False	0		346	1	C=C(C)C1(C)(CCCC1)	4.0671382974218	1	0.224999994039536	0.986210703849792	1	0.855927599532473
139.157639	285028.976797	139.148130336936	138.140853881836	C10H18	1	68.33	9.51	True	True	False	0		0	0	C(=C(C)C1(C)(CCCC1))C	4.98207956552505	1	1	0.982079565525055	1	1

NAME: decalin
ID: NNBZCPXTIHJBJL
IsSpectrumSearch: False
INCHIKEY: NNBZCPXTIHJBJL-UHFFFAOYSA-N
SMILES: C1CCC2CCCCC2(C1)
RESOURCES: ChEBI=CHEBI:38853;CHEBI:38860;CHEBI:38863,STOFF=STOFF_941,UNPD=UNPD7566
SubstructureInChIKeys: OTMSDBZUPAUEDD;ATUOYWHBWRKTHZ;IJDNQMDRQITEOD;NNPPMTNAJDCUHE;OFBQJSOFQDEBGM;QWTDNUCVQCZILF;XDTMQSROBMDMFD;AFABGHUZZDYHJO;PFEOZHBOMNWTJB;VLKZOEOYAKHREP;IMNFDUFMRHMDMM;VLJXXKKOSFGPHI;KVZJLSYJROEPSQ;JVSWJIKNEAIKJW;TVMXDCGIABBOFY
SubstructureOntologies: CHEMONTID:0002500;CHEMONTID:0004620;CHEMONTID:0001016
Ontology: Polycyclic hydrocarbons
OntologyID: CHEMONTID:0004149
RETENTIONTIME: -1
RETENTIONINDEX: -1
TotalBondEnergy: 11204
TotalScore: 7.5081
TotalHrRulesScore: 0.7333
TotalBondCleavageScore: 0.3671
TotalMassAccuracyScore: 0.9823
TotalFragmentLinkageScore: 1
TotalBondDissociationEnergyScore: 0.8047
DatabaseScore: 0.5714
SubstructureAssignmentScore: 0.5
RtSimilarityScore: -1
RiSimilarityScore: 0
Num Fragment VS2 (M/Z Intensity MatchedExactMass SaturatedExactMass Formula RearrangedHydrogen PPM MassDiff_mDa IsEvenElectronRule IsHrRule IsSolventAdductFragment AssignedAdductMass AdductString BondDissociationEnergy TreeDepth SMILES TotalScore HrLikelihood BcLikelihood MaLikelihood FlLikelihood BeLikelihood): 3
108.103739	83475.559812	108.093349644358	112.125198364258	C8H16	-4	96.11	10.39	False	False	False	0		692	1	CCC1CCCCC1	2.93637537676283	0.200000002980232	0.0506249964237213	0.978643596172333	1	0.707106781186548
123.125157	66834.088086	123.116830196936	126.140853881836	C9H18	-3	67.63	8.33	True	True	False	0		692	1	CCC1CCCCC1(C)	3.74396036285349	1	0.0506249964237213	0.986228585243225	1	0.707106781186548
139.157639	285028.976797	139.148130336936	138.140853881836	C10H18	1	68.33	9.51	True	True	False	0		0	0	C1CCC2CCCCC2(C1)	4.98207956552505	1	1	0.982079565525055	1	1

NAME: 3-ethyl-1,5-octadiene
ID: DXYBMKOHVHUXNV
IsSpectrumSearch: False
INCHIKEY: DXYBMKOHVHUXNV-UHFFFAOYNA-N
SMILES: C=CC(CC=CCC)CC
RESOURCES: ChEBI=CHEBI:87288
SubstructureInChIKeys: VNWKTOKETHGBQD;VGGSQFUCUMXWEO;OTMSDBZUPAUEDD;ATUOYWHBWRKTHZ;IAQRGUVFOMOMEM;VXNZUUAINFGPBY;IJDNQMDRQITEOD;NNPPMTNAJDCUHE;QMMOXUPEWRXHJS;YWAKXRMUMFPDSH;OFBQJSOFQDEBGM;QWTDNUCVQCZILF;LDTAOIUHUHHCMU;LIKMAJRDDDTEIG;RYPKRALMXUUNKS;ZQDPJFUHLCOCRG;PFEOZHBOMNWTJB;WZHKDGJSXCTSCK;KPADFPAILITQBG
SubstructureOntologies: CHEMONTID:0002500;CHEMONTID:0004476;CHEMONTID:0004620
Ontology: Alkadienes
OntologyID: CHEMONTID:0001019
RETENTIONTIME: -1
RETENTIONINDEX: -1
TotalBondEnergy: 11024
TotalScore: 7.4704
TotalHrRulesScore: 0.7333
TotalBondCleavageScore: 0.4833
TotalMassAccuracyScore: 0.9823
TotalFragmentLinkageScore: 1
TotalBondDissociationEnergyScore: 0.8961
DatabaseScore: 0.5238
SubstructureAssignmentScore: 0.5
RtSimilarityScore: -1
RiSimilarityScore: 0
Num Fragment VS2 (M/Z Intensity MatchedExactMass SaturatedExactMass Formula RearrangedHydrogen PPM MassDiff_mDa IsEvenElectronRule IsHrRule IsSolventAdductFragment AssignedAdductMass AdductString BondDissociationEnergy TreeDepth SMILES TotalScore HrLikelihood BcLikelihood MaLikelihood FlLikelihood BeLikelihood): 3
108.103739	83475.559812	108.093351826174	110.109550476074	C8H14	-2	96.09	10.39	False	False	False	0		346	1	C=CCC(C=C)CC	3.24782341948284	0.200000002980232	0.224999994039536	0.978652477264404	1	0.844170945198665
123.125157	66834.088086	123.116824749358	124.125198364258	C9H16	-1	67.67	8.33	True	True	False	0		346	1	C=CC(CC=CC)CC	4.05538164308799	1	0.224999994039536	0.986210703849792	1	0.844170945198665
139.157639	285028.976797	139.148130336936	138.140853881836	C10H18	1	68.33	9.51	True	True	False	0		0	0	C=CC(CC=CCC)CC	4.98207956552505	1	1	0.982079565525055	1	1

NAME: 7-Methyl-3-methylene-1,6-octadiene
ID: URHLAZIFTACBJA
IsSpectrumSearch: False
INCHIKEY: URHLAZIFTACBJA-UHFFFAOYSA-N
SMILES: C=C(CC)CCC=C(C)C
RESOURCES: LipidMAPS=LMFA11000506
SubstructureInChIKeys: VNWKTOKETHGBQD;VGGSQFUCUMXWEO;OTMSDBZUPAUEDD;QQONPFPTGQHPMA;ATUOYWHBWRKTHZ;IAQRGUVFOMOMEM;VQTUBCCKSQIDNK;VXNZUUAINFGPBY;IJDNQMDRQITEOD;BKOOMYPCSUNDGP;QMMOXUPEWRXHJS;YWAKXRMUMFPDSH;OFBQJSOFQDEBGM;LIKMAJRDDDTEIG;RYPKRALMXUUNKS;VLKZOEOYAKHREP;ZGEGCLOFRBLKSE
SubstructureOntologies: CHEMONTID:0002500;CHEMONTID:0004476;CHEMONTID:0004622
Ontology: Acyclic monoterpenoids
OntologyID: CHEMONTID:0001127
RETENTIONTIME: -1
RETENTIONINDEX: -1
TotalBondEnergy: 11024
TotalScore: 7.4704
TotalHrRulesScore: 0.7333
TotalBondCleavageScore: 0.4833
TotalMassAccuracyScore: 0.9823
TotalFragmentLinkageScore: 1
TotalBondDissociationEnergyScore: 0.8961
DatabaseScore: 0.5238
SubstructureAssignmentScore: 0.5
RtSimilarityScore: -1
RiSimilarityScore: 0
Num Fragment VS2 (M/Z Intensity MatchedExactMass SaturatedExactMass Formula RearrangedHydrogen PPM MassDiff_mDa IsEvenElectronRule IsHrRule IsSolventAdductFragment AssignedAdductMass AdductString BondDissociationEnergy TreeDepth SMILES TotalScore HrLikelihood BcLikelihood MaLikelihood FlLikelihood BeLikelihood): 3
108.103739	83475.559812	108.093351826174	110.109550476074	C8H14	-2	96.09	10.39	False	False	False	0		346	1	C=CCCC=C(C)C	3.24782341948284	0.200000002980232	0.224999994039536	0.978652477264404	1	0.844170945198665
123.125157	66834.088086	123.116824749358	124.125198364258	C9H16	-1	67.67	8.33	True	True	False	0		346	1	C=C(C)CCC=C(C)C	4.05538164308799	1	0.224999994039536	0.986210703849792	1	0.844170945198665
139.157639	285028.976797	139.148130336936	138.140853881836	C10H18	1	68.33	9.51	True	True	False	0		0	0	C=C(CC)CCC=C(C)C	4.98207956552505	1	1	0.982079565525055	1	1

NAME: 1-(3-Methylbutyl)-cyclopentene
ID: LDBWEVZRYRUOOH
IsSpectrumSearch: False
INCHIKEY: LDBWEVZRYRUOOH-UHFFFAOYSA-N
SMILES: C1=C(CCC1)CCC(C)C
RESOURCES: HMDB=HMDB0061800,ChEBI=CHEBI:88555,Saliva=HMDB0061800
SubstructureInChIKeys: VNWKTOKETHGBQD;VGGSQFUCUMXWEO;OTMSDBZUPAUEDD;ATUOYWHBWRKTHZ;IAQRGUVFOMOMEM;VQTUBCCKSQIDNK;VXNZUUAINFGPBY;IJDNQMDRQITEOD;NNPPMTNAJDCUHE;BKOOMYPCSUNDGP;QMMOXUPEWRXHJS;YWAKXRMUMFPDSH;OFBQJSOFQDEBGM;QWTDNUCVQCZILF;BEQGRRJLJLVQAQ;LIKMAJRDDDTEIG;RYPKRALMXUUNKS;ZQDPJFUHLCOCRG;AFABGHUZZDYHJO;VLKZOEOYAKHREP;WZHKDGJSXCTSCK;IMNFDUFMRHMDMM;KWKAKUADMBZCLK;JVSWJIKNEAIKJW;TVMXDCGIABBOFY;KPADFPAILITQBG
SubstructureOntologies: CHEMONTID:0002500;CHEMONTID:0004476;CHEMONTID:0004622;CHEMONTID:0004620
Ontology: Branched unsaturated hydrocarbons
OntologyID: CHEMONTID:0004622
RETENTIONTIME: -1
RETENTIONINDEX: -1
TotalBondEnergy: 11114
TotalScore: 7.4626
TotalHrRulesScore: 0.7333
TotalBondCleavageScore: 0.4252
TotalMassAccuracyScore: 0.9823
TotalFragmentLinkageScore: 1
TotalBondDissociationEnergyScore: 0.846
DatabaseScore: 0.5714
SubstructureAssignmentScore: 0.4
RtSimilarityScore: -1
RiSimilarityScore: 0
Num Fragment VS2 (M/Z Intensity MatchedExactMass SaturatedExactMass Formula RearrangedHydrogen PPM MassDiff_mDa IsEvenElectronRule IsHrRule IsSolventAdductFragment AssignedAdductMass AdductString BondDissociationEnergy TreeDepth SMILES TotalScore HrLikelihood BcLikelihood MaLikelihood FlLikelihood BeLikelihood): 3
108.103739	83475.559812	108.093351826174	110.109550476074	C8H14	-2	96.09	10.39	False	False	False	0		692	2	C1=C(CCC)CCC1	2.91135086808811	0.200000002980232	0.0506249964237213	0.978652477264404	1	0.682073391419753
123.125157	66834.088086	123.116824749358	124.125198364258	C9H16	-1	67.67	8.33	True	True	False	0		346	1	C1=C(CCC1)CCCC	4.0671382974218	1	0.224999994039536	0.986210703849792	1	0.855927599532473
139.157639	285028.976797	139.148130336936	138.140853881836	C10H18	1	68.33	9.51	True	True	False	0		0	0	C1=C(CCC1)CCC(C)C	4.98207956552505	1	1	0.982079565525055	1	1

NAME: pinane
ID: XOKSLPVRUOBDEW
IsSpectrumSearch: False
INCHIKEY: XOKSLPVRUOBDEW-UHFFFAOYNA-N
SMILES: CC1CCC2CC1C2(C)(C)
RESOURCES: ChEBI=CHEBI:35710,FooDB=FDB006371,STOFF=STOFF_2024,LipidMAPS=LMPR0102120026,UNPD=UNPD150107
SubstructureInChIKeys: VNWKTOKETHGBQD;OTMSDBZUPAUEDD;ATUOYWHBWRKTHZ;IJDNQMDRQITEOD;NNPPMTNAJDCUHE;OFBQJSOFQDEBGM;QWTDNUCVQCZILF;AFABGHUZZDYHJO;HNRMPXKDFBEGFZ;PFEOZHBOMNWTJB;VLKZOEOYAKHREP;BZHMBWZPUJHVEE;IMNFDUFMRHMDMM;VLJXXKKOSFGPHI;JVSWJIKNEAIKJW;TVMXDCGIABBOFY
SubstructureOntologies: CHEMONTID:0002500;CHEMONTID:0004620
Ontology: Bicyclic monoterpenoids
OntologyID: CHEMONTID:0001564
RETENTIONTIME: -1
RETENTIONINDEX: -1
TotalBondEnergy: 11204
TotalScore: 7.4267
TotalHrRulesScore: 0.7333
TotalBondCleavageScore: 0.4252
TotalMassAccuracyScore: 0.9823
TotalFragmentLinkageScore: 1
TotalBondDissociationEnergyScore: 0.7979
DatabaseScore: 0.619
SubstructureAssignmentScore: 0.25
RtSimilarityScore: -1
RiSimilarityScore: 0
Num Fragment VS2 (M/Z Intensity MatchedExactMass SaturatedExactMass Formula RearrangedHydrogen PPM MassDiff_mDa IsEvenElectronRule IsHrRule IsSolventAdductFragment AssignedAdductMass AdductString BondDissociationEnergy TreeDepth SMILES TotalScore HrLikelihood BcLikelihood MaLikelihood FlLikelihood BeLikelihood): 3
108.103739	83475.559812	108.093351826174	110.109550476074	C8H14	-2	96.09	10.39	False	False	False	0		692	2	CC2C1CCCC2(C1)	2.80662774585798	0.200000002980232	0.0506249964237213	0.978652477264404	1	0.577350269189626
123.125157	66834.088086	123.116824749358	124.125198364258	C9H16	-1	67.67	8.33	True	True	False	0		346	1	CC2(C)(C1CCCC2(C1))	4.02770727881705	1	0.224999994039536	0.986210703849792	1	0.816496580927726
139.157639	285028.976797	139.148130336936	138.140853881836	C10H18	1	68.33	9.51	True	True	False	0		0	0	CC1CCC2CC1C2(C)(C)	4.98207956552505	1	1	0.982079565525055	1	1

NAME: dec-1-yne
ID: ILLHQJIJCRNRCJ
IsSpectrumSearch: False
INCHIKEY: ILLHQJIJCRNRCJ-UHFFFAOYSA-N
SMILES: C#CCCCCCCCC
RESOURCES: ChEBI=CHEBI:87322,UNPD=UNPD144413
SubstructureInChIKeys: VNWKTOKETHGBQD;OTMSDBZUPAUEDD;ATUOYWHBWRKTHZ;IJDNQMDRQITEOD;OFBQJSOFQDEBGM;VLKZOEOYAKHREP;IMNFDUFMRHMDMM;TVMXDCGIABBOFY
SubstructureOntologies: CHEMONTID:0002500
Ontology: Acetylides
OntologyID: CHEMONTID:0004478
RETENTIONTIME: -1
RETENTIONINDEX: -1
TotalBondEnergy: 11001
TotalScore: 7.3896
TotalHrRulesScore: 0.7333
TotalBondCleavageScore: 0.4833
TotalMassAccuracyScore: 0.9823
TotalFragmentLinkageScore: 1
TotalBondDissociationEnergyScore: 0.8939
DatabaseScore: 0.5476
SubstructureAssignmentScore: 0.3333
RtSimilarityScore: -1
RiSimilarityScore: 0
Num Fragment VS2 (M/Z Intensity MatchedExactMass SaturatedExactMass Formula RearrangedHydrogen PPM MassDiff_mDa IsEvenElectronRule IsHrRule IsSolventAdductFragment AssignedAdductMass AdductString BondDissociationEnergy TreeDepth SMILES TotalScore HrLikelihood BcLikelihood MaLikelihood FlLikelihood BeLikelihood): 3
108.103739	83475.559812	108.093351826174	110.109550476074	C8H14	-2	96.09	10.39	False	False	False	0		346	1	C#CCCCCCC	3.24450201042109	0.200000002980232	0.224999994039536	0.978652477264404	1	0.840849536136922
123.125157	66834.088086	123.116824749358	124.125198364258	C9H16	-1	67.67	8.33	True	True	False	0		346	1	C#CCCCCCCC	4.05206023402625	1	0.224999994039536	0.986210703849792	1	0.840849536136922
139.157639	285028.976797	139.148130336936	138.140853881836	C10H18	1	68.33	9.51	True	True	False	0		0	0	C#CCCCCCCCC	4.98207956552505	1	1	0.982079565525055	1	1

NAME: neryl cation
ID: ALJUYVPOTLLKHJ
IsSpectrumSearch: False
INCHIKEY: ALJUYVPOTLLKHJ-YHYXMXQVSA-N
SMILES: C(=C(C)CCC=C(C)C)C
RESOURCES: PlantCyc=CPD-12227
SubstructureInChIKeys: VNWKTOKETHGBQD;VGGSQFUCUMXWEO;OTMSDBZUPAUEDD;QQONPFPTGQHPMA;ATUOYWHBWRKTHZ;IAQRGUVFOMOMEM;VQTUBCCKSQIDNK;VXNZUUAINFGPBY;IJDNQMDRQITEOD;BKOOMYPCSUNDGP;QMMOXUPEWRXHJS;YWAKXRMUMFPDSH;OFBQJSOFQDEBGM;BEQGRRJLJLVQAQ;LIKMAJRDDDTEIG;RYPKRALMXUUNKS
SubstructureOntologies: CHEMONTID:0002500;CHEMONTID:0004476;CHEMONTID:0004622
Ontology: 
OntologyID: 
RETENTIONTIME: -1
RETENTIONINDEX: -1
TotalBondEnergy: 11024
TotalScore: 7.3808
TotalHrRulesScore: 0.7333
TotalBondCleavageScore: 0.4252
TotalMassAccuracyScore: 0.9823
TotalFragmentLinkageScore: 1
TotalBondDissociationEnergyScore: 0.7722
DatabaseScore: 0.5238
SubstructureAssignmentScore: 0.5
RtSimilarityScore: -1
RiSimilarityScore: 0
Num Fragment VS2 (M/Z Intensity MatchedExactMass SaturatedExactMass Formula RearrangedHydrogen PPM MassDiff_mDa IsEvenElectronRule IsHrRule IsSolventAdductFragment AssignedAdductMass AdductString BondDissociationEnergy TreeDepth SMILES TotalScore HrLikelihood BcLikelihood MaLikelihood FlLikelihood BeLikelihood): 3
108.103739	83475.559812	108.093351826174	110.109550476074	C8H14	-2	96.09	10.39	False	False	False	0		692	2	C=CCCC=C(C)C	2.74893331863766	0.200000002980232	0.0506249964237213	0.978652477264404	1	0.519655841969305
123.125157	66834.088086	123.116824749358	124.125198364258	C9H16	-1	67.67	8.33	True	True	False	0		346	1	C=C(C)CCC=C(C)C	4.00809280776908	1	0.224999994039536	0.986210703849792	1	0.796882109879757
139.157639	285028.976797	139.148130336936	138.140853881836	C10H18	1	68.33	9.51	True	True	False	0		0	0	C(=C(C)CCC=C(C)C)C	4.98207956552505	1	1	0.982079565525055	1	1

NAME: (Z)-2-methyl-6-methyleneoct-4-ene
ID: SSYBWXAZYSPBMF
IsSpectrumSearch: False
INCHIKEY: SSYBWXAZYSPBMF-VURMDHGXSA-N
SMILES: C=C(C=CCC(C)C)CC
RESOURCES: ChEBI=CHEBI:59161
SubstructureInChIKeys: VNWKTOKETHGBQD;VGGSQFUCUMXWEO;OTMSDBZUPAUEDD;ATUOYWHBWRKTHZ;IAQRGUVFOMOMEM;VQTUBCCKSQIDNK;VXNZUUAINFGPBY;IJDNQMDRQITEOD;NNPPMTNAJDCUHE;QMMOXUPEWRXHJS;YWAKXRMUMFPDSH;QWTDNUCVQCZILF;RYPKRALMXUUNKS;ZQDPJFUHLCOCRG;WZHKDGJSXCTSCK
SubstructureOntologies: CHEMONTID:0002500;CHEMONTID:0004476;CHEMONTID:0004622;CHEMONTID:0004620
Ontology: Branched unsaturated hydrocarbons
OntologyID: CHEMONTID:0004622
RETENTIONTIME: -1
RETENTIONINDEX: -1
TotalBondEnergy: 11024
TotalScore: 7.3673
TotalHrRulesScore: 0.7333
TotalBondCleavageScore: 0.4833
TotalMassAccuracyScore: 0.9823
TotalFragmentLinkageScore: 1
TotalBondDissociationEnergyScore: 0.8646
DatabaseScore: 0.5238
SubstructureAssignmentScore: 0.4
RtSimilarityScore: -1
RiSimilarityScore: 0
Num Fragment VS2 (M/Z Intensity MatchedExactMass SaturatedExactMass Formula RearrangedHydrogen PPM MassDiff_mDa IsEvenElectronRule IsHrRule IsSolventAdductFragment AssignedAdductMass AdductString BondDissociationEnergy TreeDepth SMILES TotalScore HrLikelihood BcLikelihood MaLikelihood FlLikelihood BeLikelihood): 3
108.103739	83475.559812	108.093351826174	110.109550476074	C8H14	-2	96.09	10.39	False	False	False	0		346	1	C=CC=CCC(C)C	3.20053458416393	0.200000002980232	0.224999994039536	0.978652477264404	1	0.796882109879757
123.125157	66834.088086	123.116824749358	124.125198364258	C9H16	-1	67.67	8.33	True	True	False	0		346	1	C=C(C=CCC(C)C)C	4.00809280776908	1	0.224999994039536	0.986210703849792	1	0.796882109879757
139.157639	285028.976797	139.148130336936	138.140853881836	C10H18	1	68.33	9.51	True	True	False	0		0	0	C=C(C=CCC(C)C)CC	4.98207956552505	1	1	0.982079565525055	1	1

NAME: 3E,7-Dimethyl-1,3,6-octatriene
ID: LQJJRPLOVQYMPJ
IsSpectrumSearch: False
INCHIKEY: LQJJRPLOVQYMPJ-CSKARUKUSA-N
SMILES: C(=C(C)C)CC=C(C)CC
RESOURCES: LipidMAPS=LMFA11000036;LMFA11000080
SubstructureInChIKeys: VNWKTOKETHGBQD;VGGSQFUCUMXWEO;OTMSDBZUPAUEDD;QQONPFPTGQHPMA;ATUOYWHBWRKTHZ;IAQRGUVFOMOMEM;VQTUBCCKSQIDNK;VXNZUUAINFGPBY;IJDNQMDRQITEOD;BKOOMYPCSUNDGP;QMMOXUPEWRXHJS;PRBHEGAFLDMLAL;BEQGRRJLJLVQAQ;ZQDPJFUHLCOCRG;FMAMSYPJXSEYSW;GDDAJHJRAKOILH
SubstructureOntologies: CHEMONTID:0002500;CHEMONTID:0004476;CHEMONTID:0004622;CHEMONTID:0001019
Ontology: Acyclic monoterpenoids
OntologyID: CHEMONTID:0001127
RETENTIONTIME: -1
RETENTIONINDEX: -1
TotalBondEnergy: 11024
TotalScore: 7.3673
TotalHrRulesScore: 0.7333
TotalBondCleavageScore: 0.4833
TotalMassAccuracyScore: 0.9823
TotalFragmentLinkageScore: 1
TotalBondDissociationEnergyScore: 0.8646
DatabaseScore: 0.5238
SubstructureAssignmentScore: 0.4
RtSimilarityScore: -1
RiSimilarityScore: 0
Num Fragment VS2 (M/Z Intensity MatchedExactMass SaturatedExactMass Formula RearrangedHydrogen PPM MassDiff_mDa IsEvenElectronRule IsHrRule IsSolventAdductFragment AssignedAdductMass AdductString BondDissociationEnergy TreeDepth SMILES TotalScore HrLikelihood BcLikelihood MaLikelihood FlLikelihood BeLikelihood): 3
108.103739	83475.559812	108.093351826174	110.109550476074	C8H14	-2	96.09	10.39	False	False	False	0		346	1	C(=CCC=C(C)C)C	3.20053458416393	0.200000002980232	0.224999994039536	0.978652477264404	1	0.796882109879757
123.125157	66834.088086	123.116824749358	124.125198364258	C9H16	-1	67.67	8.33	True	True	False	0		346	1	C(=C(C)C)CC=C(C)C	4.00809280776908	1	0.224999994039536	0.986210703849792	1	0.796882109879757
139.157639	285028.976797	139.148130336936	138.140853881836	C10H18	1	68.33	9.51	True	True	False	0		0	0	C(=C(C)C)CC=C(C)CC	4.98207956552505	1	1	0.982079565525055	1	1

NAME: 3,7-Dimethylocta-2E,4E-diene
ID: NXFMFYVNTLULFW
IsSpectrumSearch: False
INCHIKEY: NXFMFYVNTLULFW-SOYUKNQTSA-N
SMILES: C(=CCC(C)C)C(=CC)C
RESOURCES: LipidMAPS=LMFA11000046,UNPD=UNPD28051
SubstructureInChIKeys: VNWKTOKETHGBQD;VGGSQFUCUMXWEO;QQONPFPTGQHPMA;ATUOYWHBWRKTHZ;IAQRGUVFOMOMEM;VQTUBCCKSQIDNK;VXNZUUAINFGPBY;IJDNQMDRQITEOD;NNPPMTNAJDCUHE;BKOOMYPCSUNDGP;QMMOXUPEWRXHJS;YWAKXRMUMFPDSH;QWTDNUCVQCZILF;RYPKRALMXUUNKS;ZQDPJFUHLCOCRG;WZHKDGJSXCTSCK
SubstructureOntologies: CHEMONTID:0002500;CHEMONTID:0004476;CHEMONTID:0004622;CHEMONTID:0004620
Ontology: Branched unsaturated hydrocarbons
OntologyID: CHEMONTID:0004622
RETENTIONTIME: -1
RETENTIONINDEX: -1
TotalBondEnergy: 11024
TotalScore: 7.357
TotalHrRulesScore: 0.7333
TotalBondCleavageScore: 0.4252
TotalMassAccuracyScore: 0.9823
TotalFragmentLinkageScore: 1
TotalBondDissociationEnergyScore: 0.7722
DatabaseScore: 0.5476
SubstructureAssignmentScore: 0.4
RtSimilarityScore: -1
RiSimilarityScore: 0
Num Fragment VS2 (M/Z Intensity MatchedExactMass SaturatedExactMass Formula RearrangedHydrogen PPM MassDiff_mDa IsEvenElectronRule IsHrRule IsSolventAdductFragment AssignedAdductMass AdductString BondDissociationEnergy TreeDepth SMILES TotalScore HrLikelihood BcLikelihood MaLikelihood FlLikelihood BeLikelihood): 3
108.103739	83475.559812	108.093351826174	110.109550476074	C8H14	-2	96.09	10.39	False	False	False	0		692	2	C=CC=CCC(C)C	2.74893331863766	0.200000002980232	0.0506249964237213	0.978652477264404	1	0.519655841969305
123.125157	66834.088086	123.116824749358	124.125198364258	C9H16	-1	67.67	8.33	True	True	False	0		346	1	C=C(C=CCC(C)C)C	4.00809280776908	1	0.224999994039536	0.986210703849792	1	0.796882109879757
139.157639	285028.976797	139.148130336936	138.140853881836	C10H18	1	68.33	9.51	True	True	False	0		0	0	C(=CCC(C)C)C(=CC)C	4.98207956552505	1	1	0.982079565525055	1	1

NAME: (E)-Ocimene;trans-Ocimene
ID: WUIFRGYQELQKDN
IsSpectrumSearch: False
INCHIKEY: WUIFRGYQELQKDN-CSKARUKUSA-N
SMILES: C=CC(=CCCC(C)C)C
RESOURCES: KNApSAcK=C00034989
SubstructureInChIKeys: VNWKTOKETHGBQD;VGGSQFUCUMXWEO;OTMSDBZUPAUEDD;QQONPFPTGQHPMA;ATUOYWHBWRKTHZ;IAQRGUVFOMOMEM;VQTUBCCKSQIDNK;VXNZUUAINFGPBY;IJDNQMDRQITEOD;NNPPMTNAJDCUHE;BKOOMYPCSUNDGP;QMMOXUPEWRXHJS;YWAKXRMUMFPDSH;OFBQJSOFQDEBGM;QWTDNUCVQCZILF;LIKMAJRDDDTEIG;RYPKRALMXUUNKS;AFABGHUZZDYHJO
SubstructureOntologies: CHEMONTID:0002500;CHEMONTID:0004476;CHEMONTID:0004622;CHEMONTID:0004620
Ontology: Branched unsaturated hydrocarbons
OntologyID: CHEMONTID:0004622
RETENTIONTIME: -1
RETENTIONINDEX: -1
TotalBondEnergy: 11024
TotalScore: 7.2975
TotalHrRulesScore: 0.7333
TotalBondCleavageScore: 0.4252
TotalMassAccuracyScore: 0.9823
TotalFragmentLinkageScore: 1
TotalBondDissociationEnergyScore: 0.7722
DatabaseScore: 0.5238
SubstructureAssignmentScore: 0.4
RtSimilarityScore: -1
RiSimilarityScore: 0
Num Fragment VS2 (M/Z Intensity MatchedExactMass SaturatedExactMass Formula RearrangedHydrogen PPM MassDiff_mDa IsEvenElectronRule IsHrRule IsSolventAdductFragment AssignedAdductMass AdductString BondDissociationEnergy TreeDepth SMILES TotalScore HrLikelihood BcLikelihood MaLikelihood FlLikelihood BeLikelihood): 3
108.103739	83475.559812	108.093351826174	110.109550476074	C8H14	-2	96.09	10.39	False	False	False	0		692	2	C=CC(=CCCC)C	2.74893331863766	0.200000002980232	0.0506249964237213	0.978652477264404	1	0.519655841969305
123.125157	66834.088086	123.116824749358	124.125198364258	C9H16	-1	67.67	8.33	True	True	False	0		346	1	C=CC(=CCCCC)C	4.00809280776908	1	0.224999994039536	0.986210703849792	1	0.796882109879757
139.157639	285028.976797	139.148130336936	138.140853881836	C10H18	1	68.33	9.51	True	True	False	0		0	0	C=CC(=CCCC(C)C)C	4.98207956552505	1	1	0.982079565525055	1	1

NAME: UNPD49941
ID: YDFSNGYYRPSYIJ
IsSpectrumSearch: False
INCHIKEY: YDFSNGYYRPSYIJ-DTHFDLDCNA-N
SMILES: C(=CC1CCC(C)CC1)C
RESOURCES: UNPD=UNPD49941
SubstructureInChIKeys: VNWKTOKETHGBQD;VGGSQFUCUMXWEO;OTMSDBZUPAUEDD;QQONPFPTGQHPMA;ATUOYWHBWRKTHZ;IAQRGUVFOMOMEM;VXNZUUAINFGPBY;IJDNQMDRQITEOD;NNPPMTNAJDCUHE;QMMOXUPEWRXHJS;YWAKXRMUMFPDSH;OFBQJSOFQDEBGM;QWTDNUCVQCZILF;LDTAOIUHUHHCMU;LIKMAJRDDDTEIG;RYPKRALMXUUNKS;XDTMQSROBMDMFD;AFABGHUZZDYHJO;PFEOZHBOMNWTJB;VLKZOEOYAKHREP;UAEPNZWRGJTJPN;ZGEGCLOFRBLKSE;IMNFDUFMRHMDMM;VLJXXKKOSFGPHI;KVZJLSYJROEPSQ;KWKAKUADMBZCLK;SGVUHPSBDNVHKL;JVSWJIKNEAIKJW;TVMXDCGIABBOFY;IICQZTQZQSBHBY
SubstructureOntologies: CHEMONTID:0002500;CHEMONTID:0004476;CHEMONTID:0004620;CHEMONTID:0001016
Ontology: Cyclic olefins
OntologyID: CHEMONTID:0002840
RETENTIONTIME: -1
RETENTIONINDEX: -1
TotalBondEnergy: 11114
TotalScore: 6.8853
TotalHrRulesScore: 0.7333
TotalBondCleavageScore: 0.4252
TotalMassAccuracyScore: 0.9823
TotalFragmentLinkageScore: 1
TotalBondDissociationEnergyScore: 0.846
DatabaseScore: 0.2238
SubstructureAssignmentScore: 0.75
RtSimilarityScore: -1
RiSimilarityScore: 0
Num Fragment VS2 (M/Z Intensity MatchedExactMass SaturatedExactMass Formula RearrangedHydrogen PPM MassDiff_mDa IsEvenElectronRule IsHrRule IsSolventAdductFragment AssignedAdductMass AdductString BondDissociationEnergy TreeDepth SMILES TotalScore HrLikelihood BcLikelihood MaLikelihood FlLikelihood BeLikelihood): 3
108.103739	83475.559812	108.093351826174	110.109550476074	C8H14	-2	96.09	10.39	False	False	False	0		692	2	C=CC1CCCCC1	2.91135086808811	0.200000002980232	0.0506249964237213	0.978652477264404	1	0.682073391419753
123.125157	66834.088086	123.116824749358	124.125198364258	C9H16	-1	67.67	8.33	True	True	False	0		346	1	C=CC1CCC(C)CC1	4.0671382974218	1	0.224999994039536	0.986210703849792	1	0.855927599532473
139.157639	285028.976797	139.148130336936	138.140853881836	C10H18	1	68.33	9.51	True	True	False	0		0	0	C(=CC1CCC(C)CC1)C	4.98207956552505	1	1	0.982079565525055	1	1

NAME: UNPD90760
ID: RMWHYWJWLBDARH
IsSpectrumSearch: False
INCHIKEY: RMWHYWJWLBDARH-WJDMQLPWSA-N
SMILES: C(C=CCCCCC)=CC
RESOURCES: UNPD=UNPD90760
SubstructureInChIKeys: VNWKTOKETHGBQD;VGGSQFUCUMXWEO;OTMSDBZUPAUEDD;QQONPFPTGQHPMA;ATUOYWHBWRKTHZ;IAQRGUVFOMOMEM;VXNZUUAINFGPBY;IJDNQMDRQITEOD;QMMOXUPEWRXHJS;YWAKXRMUMFPDSH;OFBQJSOFQDEBGM;LIKMAJRDDDTEIG;RYPKRALMXUUNKS;VLKZOEOYAKHREP;ZGEGCLOFRBLKSE
SubstructureOntologies: CHEMONTID:0002500;CHEMONTID:0004476
Ontology: Alkadienes
OntologyID: CHEMONTID:0001019
RETENTIONTIME: -1
RETENTIONINDEX: -1
TotalBondEnergy: 11024
TotalScore: 6.8396
TotalHrRulesScore: 0.7333
TotalBondCleavageScore: 0.4833
TotalMassAccuracyScore: 0.9823
TotalFragmentLinkageScore: 1
TotalBondDissociationEnergyScore: 0.8646
DatabaseScore: 0.2238
SubstructureAssignmentScore: 0.6667
RtSimilarityScore: -1
RiSimilarityScore: 0
Num Fragment VS2 (M/Z Intensity MatchedExactMass SaturatedExactMass Formula RearrangedHydrogen PPM MassDiff_mDa IsEvenElectronRule IsHrRule IsSolventAdductFragment AssignedAdductMass AdductString BondDissociationEnergy TreeDepth SMILES TotalScore HrLikelihood BcLikelihood MaLikelihood FlLikelihood BeLikelihood): 3
108.103739	83475.559812	108.093351826174	110.109550476074	C8H14	-2	96.09	10.39	False	False	False	0		346	1	C(C=CCCC)=CC	3.20053458416393	0.200000002980232	0.224999994039536	0.978652477264404	1	0.796882109879757
123.125157	66834.088086	123.116824749358	124.125198364258	C9H16	-1	67.67	8.33	True	True	False	0		346	1	C(C=CCCCC)=CC	4.00809280776908	1	0.224999994039536	0.986210703849792	1	0.796882109879757
139.157639	285028.976797	139.148130336936	138.140853881836	C10H18	1	68.33	9.51	True	True	False	0		0	0	C(C=CCCCCC)=CC	4.98207956552505	1	1	0.982079565525055	1	1

NAME: UNPD85687
ID: XETQTCAMTVHYPO
IsSpectrumSearch: False
INCHIKEY: XETQTCAMTVHYPO-DSYSRCFZNA-N
SMILES: CC2C1CCC(C1)C2(C)(C)
RESOURCES: UNPD=UNPD85687
SubstructureInChIKeys: VNWKTOKETHGBQD;OTMSDBZUPAUEDD;ATUOYWHBWRKTHZ;IJDNQMDRQITEOD;NNPPMTNAJDCUHE;RGSFGYAAUTVSQA;OFBQJSOFQDEBGM;QWTDNUCVQCZILF;GDOPTJXRTPNYNR;AFABGHUZZDYHJO;HNRMPXKDFBEGFZ;PFEOZHBOMNWTJB;VLKZOEOYAKHREP;QWHNJUXXYKPLQM;BZHMBWZPUJHVEE;IMNFDUFMRHMDMM;VLJXXKKOSFGPHI;LETYIFNDQBJGPJ;JVSWJIKNEAIKJW;TVMXDCGIABBOFY
SubstructureOntologies: CHEMONTID:0002500;CHEMONTID:0004620;CHEMONTID:0001016
Ontology: Bicyclic monoterpenoids
OntologyID: CHEMONTID:0001564
RETENTIONTIME: -1
RETENTIONINDEX: -1
TotalBondEnergy: 11204
TotalScore: 6.6843
TotalHrRulesScore: 0.7333
TotalBondCleavageScore: 0.4252
TotalMassAccuracyScore: 0.9823
TotalFragmentLinkageScore: 1
TotalBondDissociationEnergyScore: 0.8577
DatabaseScore: 0.2238
SubstructureAssignmentScore: 0.5
RtSimilarityScore: -1
RiSimilarityScore: 0
Num Fragment VS2 (M/Z Intensity MatchedExactMass SaturatedExactMass Formula RearrangedHydrogen PPM MassDiff_mDa IsEvenElectronRule IsHrRule IsSolventAdductFragment AssignedAdductMass AdductString BondDissociationEnergy TreeDepth SMILES TotalScore HrLikelihood BcLikelihood MaLikelihood FlLikelihood BeLikelihood): 3
108.103739	83475.559812	108.093351826174	110.109550476074	C8H14	-2	96.09	10.39	False	False	False	0		692	2	CC2CC1CCC2(C1)	2.93638425785491	0.200000002980232	0.0506249964237213	0.978652477264404	1	0.707106781186548
123.125157	66834.088086	123.116824749358	124.125198364258	C9H16	-1	67.67	8.33	True	True	False	0		346	1	CC2(C)(CC1CCC2(C1))	4.07723610167377	1	0.224999994039536	0.986210703849792	1	0.866025403784439
139.157639	285028.976797	139.148130336936	138.140853881836	C10H18	1	68.33	9.51	True	True	False	0		0	0	CC2C1CCC(C1)C2(C)(C)	4.98207956552505	1	1	0.982079565525055	1	1

NAME: UNPD177167
ID: YDPXEIXLONTGCJ
IsSpectrumSearch: False
INCHIKEY: YDPXEIXLONTGCJ-PNBSFFEDNA-N
SMILES: C(C=C(C)C)=CC(C)CC
RESOURCES: UNPD=UNPD177167;UNPD97142
SubstructureInChIKeys: VNWKTOKETHGBQD;VGGSQFUCUMXWEO;OTMSDBZUPAUEDD;QQONPFPTGQHPMA;ATUOYWHBWRKTHZ;IAQRGUVFOMOMEM;VQTUBCCKSQIDNK;VXNZUUAINFGPBY;IJDNQMDRQITEOD;NNPPMTNAJDCUHE;BKOOMYPCSUNDGP;QMMOXUPEWRXHJS;YWAKXRMUMFPDSH;QWTDNUCVQCZILF;LDTAOIUHUHHCMU;RYPKRALMXUUNKS
SubstructureOntologies: CHEMONTID:0002500;CHEMONTID:0004476;CHEMONTID:0004622;CHEMONTID:0004620
Ontology: Branched unsaturated hydrocarbons
OntologyID: CHEMONTID:0004622
RETENTIONTIME: -1
RETENTIONINDEX: -1
TotalBondEnergy: 11024
TotalScore: 6.6173
TotalHrRulesScore: 0.7333
TotalBondCleavageScore: 0.4833
TotalMassAccuracyScore: 0.9823
TotalFragmentLinkageScore: 1
TotalBondDissociationEnergyScore: 0.8646
DatabaseScore: 0.2238
SubstructureAssignmentScore: 0.4
RtSimilarityScore: -1
RiSimilarityScore: 0
Num Fragment VS2 (M/Z Intensity MatchedExactMass SaturatedExactMass Formula RearrangedHydrogen PPM MassDiff_mDa IsEvenElectronRule IsHrRule IsSolventAdductFragment AssignedAdductMass AdductString BondDissociationEnergy TreeDepth SMILES TotalScore HrLikelihood BcLikelihood MaLikelihood FlLikelihood BeLikelihood): 3
108.103739	83475.559812	108.093351826174	110.109550476074	C8H14	-2	96.09	10.39	False	False	False	0		346	1	C(C=C(C)C)=CCC	3.20053458416393	0.200000002980232	0.224999994039536	0.978652477264404	1	0.796882109879757
123.125157	66834.088086	123.116824749358	124.125198364258	C9H16	-1	67.67	8.33	True	True	False	0		346	1	C(C=C(C)C)=CC(C)C	4.00809280776908	1	0.224999994039536	0.986210703849792	1	0.796882109879757
139.157639	285028.976797	139.148130336936	138.140853881836	C10H18	1	68.33	9.51	True	True	False	0		0	0	C(C=C(C)C)=CC(C)CC	4.98207956552505	1	1	0.982079565525055	1	1

NAME: UNPD61363
ID: YXRZFCBXBJIBAP
IsSpectrumSearch: False
INCHIKEY: YXRZFCBXBJIBAP-UEQNJFAPNA-N
SMILES: C=CC(C)CCCC(=C)C
RESOURCES: UNPD=UNPD61363
SubstructureInChIKeys: VNWKTOKETHGBQD;VGGSQFUCUMXWEO;OTMSDBZUPAUEDD;QQONPFPTGQHPMA;ATUOYWHBWRKTHZ;VQTUBCCKSQIDNK;VXNZUUAINFGPBY;IJDNQMDRQITEOD;NNPPMTNAJDCUHE;YWAKXRMUMFPDSH;OFBQJSOFQDEBGM;QWTDNUCVQCZILF;LDTAOIUHUHHCMU;LIKMAJRDDDTEIG;AFABGHUZZDYHJO;VLKZOEOYAKHREP;ZGEGCLOFRBLKSE;IMNFDUFMRHMDMM;KWKAKUADMBZCLK;JVSWJIKNEAIKJW
SubstructureOntologies: CHEMONTID:0002500;CHEMONTID:0004476;CHEMONTID:0004622;CHEMONTID:0004620
Ontology: Branched unsaturated hydrocarbons
OntologyID: CHEMONTID:0004622
RETENTIONTIME: -1
RETENTIONINDEX: -1
TotalBondEnergy: 11024
TotalScore: 6.5849
TotalHrRulesScore: 0.7333
TotalBondCleavageScore: 0.4252
TotalMassAccuracyScore: 0.9823
TotalFragmentLinkageScore: 1
TotalBondDissociationEnergyScore: 0.8321
DatabaseScore: 0.2238
SubstructureAssignmentScore: 0.4
RtSimilarityScore: -1
RiSimilarityScore: 0
Num Fragment VS2 (M/Z Intensity MatchedExactMass SaturatedExactMass Formula RearrangedHydrogen PPM MassDiff_mDa IsEvenElectronRule IsHrRule IsSolventAdductFragment AssignedAdductMass AdductString BondDissociationEnergy TreeDepth SMILES TotalScore HrLikelihood BcLikelihood MaLikelihood FlLikelihood BeLikelihood): 3
108.103739	83475.559812	108.093351826174	110.109550476074	C8H14	-2	96.09	10.39	False	False	False	0		692	2	C=CCCCCC=C	2.88138879341974	0.200000002980232	0.0506249964237213	0.978652477264404	1	0.652111316751378
123.125157	66834.088086	123.116824749358	124.125198364258	C9H16	-1	67.67	8.33	True	True	False	0		346	1	C=CCCCCC(=C)C	4.05538164308799	1	0.224999994039536	0.986210703849792	1	0.844170945198665
139.157639	285028.976797	139.148130336936	138.140853881836	C10H18	1	68.33	9.51	True	True	False	0		0	0	C=CC(C)CCCC(=C)C	4.98207956552505	1	1	0.982079565525055	1	1

