NAME: Tangeraxanthin
ID: KQBKJSVYIBRYNQ
IsSpectrumSearch: False
INCHIKEY: KQBKJSVYIBRYNQ-KKMFPEKANA-N
SMILES: O=C(C=CC=C(C=CC=C(C=CC=CC(=CC=CC(=CC=C1C(=CC(O)CC1(C)C)C)C)C)C)C)C
RESOURCES: HMDB=HMDB0039015,FooDB=FDB018510
SubstructureInChIKeys: VNWKTOKETHGBQD;XLYOFNOQVPJJNP;VGGSQFUCUMXWEO;WSFSSNUMVMOOMR;OKKJLVBELUTLKV;QQONPFPTGQHPMA;IKHGUXGNUITLKF;ATUOYWHBWRKTHZ;LFQSCWFLJHTTHZ;HGINCPLSRVDWNT;IAQRGUVFOMOMEM;VQTUBCCKSQIDNK;VXNZUUAINFGPBY;CSCPPACGZOOCGX;XXROGKLTLUQVRX;IJDNQMDRQITEOD;NNPPMTNAJDCUHE;BDERNNFJNOPAEC;KFZMGEQAYNKOFK;MLUCVPSAIODCQM;BKOOMYPCSUNDGP;QMMOXUPEWRXHJS;YWAKXRMUMFPDSH;MKUWVMRNQOOSAT;OFBQJSOFQDEBGM;QWTDNUCVQCZILF;BTANRVKWQNVYAZ;LRHPLDYGYMQRHN;ACZNIBVNGPLHAC;BEQGRRJLJLVQAQ;LDTAOIUHUHHCMU;LIKMAJRDDDTEIG;RYPKRALMXUUNKS;ZQDPJFUHLCOCRG;GJYMQFMQRRNLCY;AFABGHUZZDYHJO;HNRMPXKDFBEGFZ;PFEOZHBOMNWTJB;VLKZOEOYAKHREP;AMQJEAYHLZJPGS;JYVLIDXNZAXMDK;PHTQWCKDNZKARW;VAOJQRMYAXTUQI;ADHCYQWFCLQBFG;WZHKDGJSXCTSCK;BVOSSZSHBZQJOI;IMNFDUFMRHMDMM;VLJXXKKOSFGPHI;ZSIAUFGUXNUGDI;YGDXNKVVWAQSEN;KWKAKUADMBZCLK;YXLCVBVDFKWWRW;CETWDUZRCINIHU;VSMOENVRRABVKN
SubstructureOntologies: CHEMONTID:0002500;NonID:H2O;CHEMONTID:0004476;CHEMONTID:0001831;CHEMONTID:0000286;CHEMONTID:0002230;CHEMONTID:0002436;CHEMONTID:0004622;CHEMONTID:0000118;CHEMONTID:0004620;CHEMONTID:0001661;CHEMONTID:0001334
Ontology: Triterpenoids
OntologyID: CHEMONTID:0001553
RETENTIONTIME: -1
RETENTIONINDEX: -1
TotalBondEnergy: 33819
TotalScore: 6.6057
TotalHrRulesScore: 1
TotalBondCleavageScore: 1
TotalMassAccuracyScore: 1
TotalFragmentLinkageScore: 1
TotalBondDissociationEnergyScore: 1
DatabaseScore: 0.5476
SubstructureAssignmentScore: 0
RtSimilarityScore: -1
RiSimilarityScore: 0
Num Fragment VS2 (M/Z Intensity MatchedExactMass SaturatedExactMass Formula RearrangedHydrogen PPM MassDiff_mDa IsEvenElectronRule IsHrRule IsSolventAdductFragment AssignedAdductMass AdductString BondDissociationEnergy TreeDepth SMILES TotalScore HrLikelihood BcLikelihood MaLikelihood FlLikelihood BeLikelihood): 1
485.341058	618662.412456	485.341413417991	484.334136962891	C34H44O2	1	0.73	0.36	True	True	False	0		0	0	O=C(C=CC=C(C=CC=C(C=CC=CC(=CC=CC(=CC=C1C(=CC(O)CC1(C)C)C)C)C)C)C)C	4.99997472763062	1	1	0.999974727630615	1	1

NAME: UNPD180137
ID: VQWJECJWCAUFGP
IsSpectrumSearch: False
INCHIKEY: VQWJECJWCAUFGP-VTZPRUHQNA-N
SMILES: O=C(OC4CC3=CC=C1C(CCC2(C)(C1CCC2(C(C=CC=C(C)C)C)))C3(C)CC4)C5=CC=CC=C5
RESOURCES: UNPD=UNPD180137
SubstructureInChIKeys: VNWKTOKETHGBQD;VGGSQFUCUMXWEO;WSFSSNUMVMOOMR;OTMSDBZUPAUEDD;QQONPFPTGQHPMA;IKHGUXGNUITLKF;ATUOYWHBWRKTHZ;LCGLNKUTAGEVQW;IAQRGUVFOMOMEM;VQTUBCCKSQIDNK;VXNZUUAINFGPBY;IJDNQMDRQITEOD;NNPPMTNAJDCUHE;QTBSBXVTEAMEQO;TZIHFWKZFHZASV;BDERNNFJNOPAEC;XOBKSJJDNFUZPF;BKOOMYPCSUNDGP;QMMOXUPEWRXHJS;RGSFGYAAUTVSQA;YWAKXRMUMFPDSH;ZSPTYLOMNJNZNG;OFBQJSOFQDEBGM;QWTDNUCVQCZILF;KXKVLQRXCPHEJC;WBJINCZRORDGAQ;LRHPLDYGYMQRHN;VNKYTQGIUYNRMY;UHOVQNZJYSORNB;BEQGRRJLJLVQAQ;GDOPTJXRTPNYNR;LDTAOIUHUHHCMU;LIKMAJRDDDTEIG;RYPKRALMXUUNKS;XDTMQSROBMDMFD;FSUXYWPILZJGCC;AFABGHUZZDYHJO;HNRMPXKDFBEGFZ;PFEOZHBOMNWTJB;VLKZOEOYAKHREP;XEKOWRVHYACXOJ;AMQJEAYHLZJPGS;AQIXEPGDORPWBJ;FVNIMHIOIXPIQT;JYVLIDXNZAXMDK;YXFVVABEGXRONW;ADHCYQWFCLQBFG;QWHNJUXXYKPLQM;UAEPNZWRGJTJPN;ZGEGCLOFRBLKSE;HPXRVTGHNJAIIH;BZHMBWZPUJHVEE;IMNFDUFMRHMDMM;VLJXXKKOSFGPHI;ZSIAUFGUXNUGDI;HUMNYLRZRPPJDN;WVDDGKGOMKODPV;QJXCDRBHYIAFTH;KVZJLSYJROEPSQ;KWKAKUADMBZCLK;LETYIFNDQBJGPJ;QEGNUYASOUJEHD;SGVUHPSBDNVHKL;YXLCVBVDFKWWRW;MQWCXKGKQLNYQG;JVSWJIKNEAIKJW;TVMXDCGIABBOFY;CETWDUZRCINIHU;WPYMKLBDIGXBTP;ILIUIABCBOXIRX;NUHCEMOQRZEGAQ;IICQZTQZQSBHBY;XARGIVYWQPXRTC;ZBAXJUPCYVIBSP;QPJVMBTYPHYUOC;GGWBGCSGJCRVIQ;NYFHUVYMLLAQHH;HIVFIUIKABOGIO;SOUITUXPBGREAE;NXCPHYJTOJDSLE;IRXJZDLOCNJAHE;OTBOAOSTJYUVHP
SubstructureOntologies: CHEMONTID:0002500;CHEMONTID:0004476;CHEMONTID:0001831;CHEMONTID:0002230;CHEMONTID:0001167;CHEMONTID:0004622;CHEMONTID:0004620;CHEMONTID:0001205;CHEMONTID:0001238;CHEMONTID:0000286;CHEMONTID:0001016;CHEMONTID:0003416;CHEMONTID:0002279;CHEMONTID:0001661;CHEMONTID:0001091;CHEMONTID:0002647;CHEMONTID:0001334;CHEMONTID:0000321;CHEMONTID:0000033;CHEMONTID:0002565;CHEMONTID:0001350;CHEMONTID:0004149;CHEMONTID:0001401
Ontology: Cholestane steroids
OntologyID: CHEMONTID:0003566
RETENTIONTIME: -1
RETENTIONINDEX: -1
TotalBondEnergy: 34143
TotalScore: 5.7962
TotalHrRulesScore: 1
TotalBondCleavageScore: 1
TotalMassAccuracyScore: 1
TotalFragmentLinkageScore: 1
TotalBondDissociationEnergyScore: 1
DatabaseScore: 0.2238
SubstructureAssignmentScore: 0
RtSimilarityScore: -1
RiSimilarityScore: 0
Num Fragment VS2 (M/Z Intensity MatchedExactMass SaturatedExactMass Formula RearrangedHydrogen PPM MassDiff_mDa IsEvenElectronRule IsHrRule IsSolventAdductFragment AssignedAdductMass AdductString BondDissociationEnergy TreeDepth SMILES TotalScore HrLikelihood BcLikelihood MaLikelihood FlLikelihood BeLikelihood): 1
485.341058	618662.412456	485.341413417991	484.334136962891	C34H44O2	1	0.73	0.36	True	True	False	0		0	0	O=C(OC4CC3=CC=C1C(CCC2(C)(C1CCC2(C(C=CC=C(C)C)C)))C3(C)CC4)C5=CC=CC=C5	4.99997472763062	1	1	0.999974727630615	1	1

