NAME: narbomycin
ID: OXFYAOOMMKGGAI
IsSpectrumSearch: False
INCHIKEY: OXFYAOOMMKGGAI-NUHZWXSCNA-N
SMILES: O=C2OC(CC)C(C=CC(=O)C(C)CC(C)C(OC1OC(C)CC(N(C)C)C1(O))C(C(=O)C2C)C)C
RESOURCES: ChEBI=CHEBI:29649;CHEBI:76801,PubChem=72715793;5282036,UNPD=UNPD112721;UNPD145190;UNPD159838
SubstructureInChIKeys: VNWKTOKETHGBQD;XLYOFNOQVPJJNP;VGGSQFUCUMXWEO;WSFSSNUMVMOOMR;OTMSDBZUPAUEDD;OKKJLVBELUTLKV;IKHGUXGNUITLKF;ATUOYWHBWRKTHZ;ROSDSFDQCJNGOL;LCGLNKUTAGEVQW;LFQSCWFLJHTTHZ;CKFGINPQOCXMAZ;HGINCPLSRVDWNT;IAQRGUVFOMOMEM;VXNZUUAINFGPBY;CSCPPACGZOOCGX;NBBJYMSMWIIQGU;IJDNQMDRQITEOD;NNPPMTNAJDCUHE;GETQZCLCWQTVFV;JJWLVOIRVHMVIS;LIWAQLJGPBVORC;QTBSBXVTEAMEQO;TZIHFWKZFHZASV;BDERNNFJNOPAEC;KFZMGEQAYNKOFK;XOBKSJJDNFUZPF;HZAXFHJVJLSVMW;LYCAIKOWRPUZTN;MLUCVPSAIODCQM;QMMOXUPEWRXHJS;YWAKXRMUMFPDSH;ZSPTYLOMNJNZNG;ZTQSAGDEMFDKMZ;OFBQJSOFQDEBGM;QWTDNUCVQCZILF;DAZXVJBJRMWXJP;GVWISOJSERXQBM;HQABUPZFAYXKJW;XHFGWHUWQXTGAT;AKXKFZDCRYJKTF;KXKVLQRXCPHEJC;WBJINCZRORDGAQ;XBDQKXXYIPTUBI;BEBCJVAWIBVWNZ;BTANRVKWQNVYAZ;LRHPLDYGYMQRHN;VNKYTQGIUYNRMY;ZXEKIIBDNHEJCQ;HXKKHQJGJAFBHI;WUGQZFFCHPXWKQ;DNIAPMSPPWPWGF;RRLWYLINGKISHN;XNWFRZJHXBZDAG;VIBDJEWPNNCFQO;LDTAOIUHUHHCMU;LIKMAJRDDDTEIG;RYPKRALMXUUNKS;ZQDPJFUHLCOCRG;FSUXYWPILZJGCC;HGBOYTHUEUWSSQ;AFABGHUZZDYHJO;PFEOZHBOMNWTJB;VLKZOEOYAKHREP;QCOGKXLOEWLIDC;ZUHZZVMEUAUWHY;FERIUCNNQQJTOY;KQNPFQTWMSNSAP;XEKOWRVHYACXOJ;AMQJEAYHLZJPGS;AQIXEPGDORPWBJ;FVNIMHIOIXPIQT;JYVLIDXNZAXMDK;MXLMTQWGSQIYOW;UEEJHVSXFDXPFK;BMRWNKZVCUKKSR;CHCLGECDSSWNCP;ZNQVEEAIQZEUHB;WZHKDGJSXCTSCK;ZGEGCLOFRBLKSE;JARKCYVAAOWBJS;UFLHIIWVXFIJGU;BZHMBWZPUJHVEE;IMNFDUFMRHMDMM;VLJXXKKOSFGPHI;DJEQZVQFEPKLOY;WLAMNBDJUVNPJU;ZSIAUFGUXNUGDI;KLKFAASOGCDTDT;QONBKISCDWCHKF;WCVRQHFDJLLWFE;KWKAKUADMBZCLK;CATSNJVOTSVZJV;FXHGMKSSBGDXIY;JVSWJIKNEAIKJW;TVMXDCGIABBOFY;WDAXFOBOLVPGLV;CETWDUZRCINIHU;OVOVDHYEOQJKMD;MMQYUDBFDDEJBP;IICQZTQZQSBHBY;KPADFPAILITQBG;NUJGJRNETVAIRJ;UXUFMKFUJJLWKM;ZDAWZDFBPUUDAY
SubstructureOntologies: CHEMONTID:0002500;NonID:H2O;CHEMONTID:0004476;CHEMONTID:0001831;CHEMONTID:0000286;CHEMONTID:0002230;CHEMONTID:0002228;CHEMONTID:0001167;CHEMONTID:0001605;CHEMONTID:0002436;CHEMONTID:0000118;CHEMONTID:0002434;CHEMONTID:0004620;CHEMONTID:0002239;CHEMONTID:0000469;CHEMONTID:0001205;CHEMONTID:0001238;CHEMONTID:0001661;CHEMONTID:0001897;CHEMONTID:0002467;CHEMONTID:0003416;CHEMONTID:0002484;CHEMONTID:0001852;CHEMONTID:0001092;CHEMONTID:0002286;CHEMONTID:0000333;CHEMONTID:0001656;CHEMONTID:0002229;CHEMONTID:0001334;CHEMONTID:0003544;CHEMONTID:0002012
Ontology: Aminoglycosides
OntologyID: CHEMONTID:0000282
RETENTIONTIME: -1
RETENTIONINDEX: -1
TotalBondEnergy: 33593
TotalScore: 7.5576
TotalHrRulesScore: 1
TotalBondCleavageScore: 0.88
TotalMassAccuracyScore: 0.9636
TotalFragmentLinkageScore: 1
TotalBondDissociationEnergyScore: 0.8851
DatabaseScore: 0.5714
SubstructureAssignmentScore: 0.0556
RtSimilarityScore: -1
RiSimilarityScore: 0
Num Fragment VS2 (M/Z Intensity MatchedExactMass SaturatedExactMass Formula RearrangedHydrogen PPM MassDiff_mDa IsEvenElectronRule IsHrRule IsSolventAdductFragment AssignedAdductMass AdductString BondDissociationEnergy TreeDepth SMILES TotalScore HrLikelihood BcLikelihood MaLikelihood FlLikelihood BeLikelihood): 4
353.21337	30534.843737	353.232252041038	352.224975585938	C20H32O5	1	53.46	18.88	True	True	False	0		358	1	O=C1OC(CC)C(C=CC(=O)C(C)CC(C)C(O)C(C(=O)C1C)C)C	4.74046324286444	1	0.899999976158142	0.931176662445068	1	0.909286604261231
382.235009	21082.779368	382.219476564459	359.230804443359	C18H33NO6	0	40.64	15.53	True	True	True	22.989220701	+Na	692	1	O=C(OCCC)C(C(=O)C(C)COC1OC(C)CC(N(C)C)C1(O))C	4.57850152548709	1	0.809999942779541	0.952894270420074	1	0.815607312287474
440.309489	41162.220927	440.300677898772	441.309051513672	C24H43NO6	-1	20.01	8.81	True	True	False	0		692	1	O=C(OC(CC)C(C=C)C)C(C(=O)C(C)C(OC1OC(C)CC(N(C)C)C1(O))CC)C	4.61020005043902	1	0.809999942779541	0.984592795372009	1	0.815607312287474
532.332358	12526.851068	532.323938234381	509.335266113281	C28H47NO7	0	15.82	8.42	True	True	True	22.989220701	+Na	0	0	O=C2OC(CC)C(C=CC(=O)C(C)CC(C)C(OC1OC(C)CC(N(C)C)C1(O))C(C(=O)C2C)C)C	4.98592156171799	1	1	0.985921561717987	1	1

