NAME: Daphnioldhanin I
ID: GVRZVXAZUMNJAE
IsSpectrumSearch: False
INCHIKEY: GVRZVXAZUMNJAE-NSQJDVJJNA-N
SMILES: O=C(OC1CCC7(OC(=O)C1(C)C7(CCC26(C5=NC4C(CCC34(CCCC23))C6(C)(CCC5C(C)C))))(C))C
RESOURCES: KNApSAcK=C00038942,UNPD=UNPD10733
SubstructureInChIKeys: VNWKTOKETHGBQD;WDWDWGRYHDPSDS;WSFSSNUMVMOOMR;OTMSDBZUPAUEDD;IKHGUXGNUITLKF;ATUOYWHBWRKTHZ;LCGLNKUTAGEVQW;NBBJYMSMWIIQGU;IJDNQMDRQITEOD;NNPPMTNAJDCUHE;JJWLVOIRVHMVIS;QTBSBXVTEAMEQO;TZIHFWKZFHZASV;BDERNNFJNOPAEC;XOBKSJJDNFUZPF;RGSFGYAAUTVSQA;ZTQSAGDEMFDKMZ;OFBQJSOFQDEBGM;QWTDNUCVQCZILF;HQABUPZFAYXKJW;KDSNLYIMUZNERS;AKXKFZDCRYJKTF;KXKVLQRXCPHEJC;WBJINCZRORDGAQ;XBDQKXXYIPTUBI;LRHPLDYGYMQRHN;VNKYTQGIUYNRMY;ZXEKIIBDNHEJCQ;YPFDHNVEDLHUCE;GDOPTJXRTPNYNR;XDTMQSROBMDMFD;YEJRWHAVMIAJKC;HGBOYTHUEUWSSQ;AFABGHUZZDYHJO;HNRMPXKDFBEGFZ;PFEOZHBOMNWTJB;VLKZOEOYAKHREP;BMFVGAAISNGQNM;DPBLXKKOBLCELK;VJROPLWGFCORRM;FERIUCNNQQJTOY;KQNPFQTWMSNSAP;XEKOWRVHYACXOJ;AMQJEAYHLZJPGS;AQIXEPGDORPWBJ;FVNIMHIOIXPIQT;JYVLIDXNZAXMDK;MXLMTQWGSQIYOW;PHTQWCKDNZKARW;JVTAAEKCZFNVCJ;JDFDHBSESGTDAL;PUPZLCDOIYMWBV;QWGRWMMWNDWRQN;UAEPNZWRGJTJPN;HPXRVTGHNJAIIH;JARKCYVAAOWBJS;BZHMBWZPUJHVEE;IMNFDUFMRHMDMM;VLJXXKKOSFGPHI;WLAMNBDJUVNPJU;ZSIAUFGUXNUGDI;SLCVBVWXLSEKPL;KVZJLSYJROEPSQ;LETYIFNDQBJGPJ;QEGNUYASOUJEHD;SGVUHPSBDNVHKL;FXHGMKSSBGDXIY;MQWCXKGKQLNYQG;JVSWJIKNEAIKJW;TVMXDCGIABBOFY;OQAGVSWESNCJJT;WDAXFOBOLVPGLV;CETWDUZRCINIHU;OVOVDHYEOQJKMD;PYOLJOJPIPCRDP;XARGIVYWQPXRTC;NUJGJRNETVAIRJ;ZBAXJUPCYVIBSP;BSTCHFGEIXFVRN;NZQMQVJXSRMTCJ;BUOAKQCLRBVIOX;HIVFIUIKABOGIO;YLZKVXHQMPWDBJ;SOUITUXPBGREAE;XHFLOEDHTDPKPD;VTXRDCQMLXABHJ;IRXJZDLOCNJAHE;QPEHZWXCQFKJQO;OTBOAOSTJYUVHP
SubstructureOntologies: CHEMONTID:0002500;CHEMONTID:0000117;CHEMONTID:0001831;CHEMONTID:0002230;CHEMONTID:0001167;CHEMONTID:0002434;CHEMONTID:0004620;CHEMONTID:0000469;CHEMONTID:0001205;CHEMONTID:0001238;CHEMONTID:0000286;CHEMONTID:0001016;CHEMONTID:0003416;CHEMONTID:0001245;CHEMONTID:0000333;CHEMONTID:0001661;CHEMONTID:0001359;CHEMONTID:0002647;CHEMONTID:0002229;CHEMONTID:0003544;CHEMONTID:0001334;CHEMONTID:0003417;CHEMONTID:0003086;CHEMONTID:0001401
Ontology: Triterpenoids
OntologyID: CHEMONTID:0001553
RETENTIONTIME: -1
RETENTIONINDEX: -1
TotalBondEnergy: 35277
TotalScore: 7.2412
TotalHrRulesScore: 1
TotalBondCleavageScore: 0.6555
TotalMassAccuracyScore: 0.8568
TotalFragmentLinkageScore: 1
TotalBondDissociationEnergyScore: 0.5942
DatabaseScore: 0.5476
SubstructureAssignmentScore: 0.069
RtSimilarityScore: -1
RiSimilarityScore: 0
Num Fragment VS2 (M/Z Intensity MatchedExactMass SaturatedExactMass Formula RearrangedHydrogen PPM MassDiff_mDa IsEvenElectronRule IsHrRule IsSolventAdductFragment AssignedAdductMass AdductString BondDissociationEnergy TreeDepth SMILES TotalScore HrLikelihood BcLikelihood MaLikelihood FlLikelihood BeLikelihood): 4
353.21337	30534.843737	353.171793932584	336.230072021484	C20H32O4	-6	117.71	41.58	True	True	True	22.989220701	+Na	1384	2	O=C(OC1CCC3(OC(=O)C1(C)C3(CCCC2CCCC2(C)))(C))C	3.14760490010659	1	0.164024978876114	0.707714974880219	1	0.275864946350262
382.235009	21082.779368	382.274066570647	383.282440185547	C25H37NO2	-1	102.18	39.06	True	True	False	0		1038	2	O=C6OC(C)(C)C(CCC15(C4=NC3C(CCC23(CCCC12))C5(C)(CCC4)))C6C	4.02019498270942	1	0.7289999127388	0.737050592899323	1	0.5541444770713
440.309489	41162.220927	440.315906170256	441.324279785156	C28H43NO3	-1	14.57	6.42	True	True	False	0		1050	2	O=C(OC6CCC(O)(C)C(CCC15(C4=NC3C(CCC23(CCCC12))C5(C)(CCC4)))C6(C))C	4.26766645919099	1	0.7289999127388	0.991797804832459	1	0.546868741619731
532.332358	12526.851068	532.339166505866	509.350494384766	C32H47NO4	0	12.79	6.81	True	True	True	22.989220701	+Na	0	0	O=C(OC1CCC7(OC(=O)C1(C)C7(CCC26(C5=NC4C(CCC34(CCCC23))C6(C)(CCC5C(C)C))))(C))C	4.99077171087265	1	1	0.99077171087265	1	1

