NAME: Asn-Trp-Asp-Ser
ID: WSNSZZGIMVHDHF
IsSpectrumSearch: False
INCHIKEY: WSNSZZGIMVHDHF-TUUVXOQKSA-N
SMILES: O=C(O)CC(NC(=O)C(NC(=O)C(N)CC(=O)N)CC2=CNC=1C=CC=CC=12)C(=O)NC(C(=O)O)CO
RESOURCES: ChEBI=CHEBI:73414
SubstructureInChIKeys: QGZKDVFQNNGYKY;XLYOFNOQVPJJNP;WSFSSNUMVMOOMR;BAVYZALUXZFZLV;OKKJLVBELUTLKV;IKHGUXGNUITLKF;ATUOYWHBWRKTHZ;QUSNBJAOOMFDIB;ROSDSFDQCJNGOL;BDAGIHXWWSANSR;LFQSCWFLJHTTHZ;NBBJYMSMWIIQGU;IJDNQMDRQITEOD;ATHHXGZTWNVVOU;LYIIBVSRGJSHAV;JJWLVOIRVHMVIS;LIWAQLJGPBVORC;WGYKZJWCGVVSQN;QTBSBXVTEAMEQO;BDERNNFJNOPAEC;HZAXFHJVJLSVMW;ZTQSAGDEMFDKMZ;QPMCUNAXNMSGTK;GVWISOJSERXQBM;HPNMFZURTQLUMO;HQABUPZFAYXKJW;XHFGWHUWQXTGAT;AKXKFZDCRYJKTF;XBDQKXXYIPTUBI;BEBCJVAWIBVWNZ;LRHPLDYGYMQRHN;DHMQDGOQFOQNFH;WUGQZFFCHPXWKQ;YPFDHNVEDLHUCE;UHOVQNZJYSORNB;DZQLQEYLEYWJIB;FGEPRNXUNITOCW;SUUDTPGCUKBECW;QCOGKXLOEWLIDC;FERIUCNNQQJTOY;QNAYBMKLOCPYGJ;UCMIRNVEIXFBKS;UXPVGJOKPUABJV;JVTAAEKCZFNVCJ;VLSTXUUYLIALPB;UIUJIQZEACWQSV;BTCSSZJGUNDROE;OQEBBZSWEGYTPG;FVRHIJPPPSYMGI;SKPCTMWFLGENTL;CGJJPOYORMGCGE;SIKJAQJRHWYJAI;ZFRKQXVRDFCRJG;GOVXKUCVZUROAN;APJYDQYYACXCRM;OBNFCFYSFICKKX;NCIKQJBVUNUXLW;SOPHXQXKBAXPAL
SubstructureOntologies: NonID:NH2;NonID:H2O;CHEMONTID:0001831;CHEMONTID:0000469;CHEMONTID:0000286;CHEMONTID:0002230;CHEMONTID:0002500;CHEMONTID:0002228;CHEMONTID:0001205;CHEMONTID:0002434;CHEMONTID:0002484;CHEMONTID:0001897;CHEMONTID:0002404;CHEMONTID:0001852;CHEMONTID:0002279;CHEMONTID:0001663;CHEMONTID:0000333;CHEMONTID:0004314;CHEMONTID:0001878;CHEMONTID:0001359;CHEMONTID:0001880;CHEMONTID:0002309;CHEMONTID:0002497;CHEMONTID:0004529;CHEMONTID:0004196;CHEMONTID:0000183
Ontology: Oligopeptides
OntologyID: CHEMONTID:0004831
RETENTIONTIME: -1
RETENTIONINDEX: -1
TotalBondEnergy: 27668
TotalScore: 7.1487
TotalHrRulesScore: 1
TotalBondCleavageScore: 0.95
TotalMassAccuracyScore: 0.9805
TotalFragmentLinkageScore: 1
TotalBondDissociationEnergyScore: 0.9571
DatabaseScore: 0.5238
SubstructureAssignmentScore: 0.037
RtSimilarityScore: -1
RiSimilarityScore: 0
Num Fragment VS2 (M/Z Intensity MatchedExactMass SaturatedExactMass Formula RearrangedHydrogen PPM MassDiff_mDa IsEvenElectronRule IsHrRule IsSolventAdductFragment AssignedAdductMass AdductString BondDissociationEnergy TreeDepth SMILES TotalScore HrLikelihood BcLikelihood MaLikelihood FlLikelihood BeLikelihood): 2
506.177442	2198289.517127	506.188154140647	505.180877685547	C22H27N5O9	1	21.16	10.71	True	True	False	0		305	1	O=C(O)CC(NC(=O)C(NC(=O)CCC(=O)N)CC2=CNC=1C=CC=CC=12)C(=O)NC(C(=O)O)CO	4.79146018988591	1	0.899999976158142	0.977311372756958	1	0.91414884097081
521.208117	4761905.36798	521.199048916037	520.191772460938	C22H28N6O9	1	17.4	9.07	True	True	False	0		0	0	O=C(O)CC(NC(=O)C(NC(=O)C(N)CC(=O)N)CC2=CNC=1C=CC=CC=12)C(=O)NC(C(=O)O)CO	4.98368847370148	1	1	0.983688473701477	1	1

