NAME: (x)-2-Heptanol glucoside
ID: NZLSMMMVSHTELV
IsSpectrumSearch: False
INCHIKEY: NZLSMMMVSHTELV-UHFFFAOYNA-N
SMILES: OCC1OC(OC(C)CCCCC)C(O)C(O)C1(O)
RESOURCES: HMDB=HMDB0035028,FooDB=FDB013634,UNPD=UNPD102509;UNPD43731
SubstructureInChIKeys: VNWKTOKETHGBQD;XLYOFNOQVPJJNP;OTMSDBZUPAUEDD;OKKJLVBELUTLKV;ATUOYWHBWRKTHZ;LCGLNKUTAGEVQW;LFQSCWFLJHTTHZ;CKFGINPQOCXMAZ;IJDNQMDRQITEOD;BDERNNFJNOPAEC;KFZMGEQAYNKOFK;XOBKSJJDNFUZPF;LYCAIKOWRPUZTN;OFBQJSOFQDEBGM;BTANRVKWQNVYAZ;LRHPLDYGYMQRHN;VNKYTQGIUYNRMY;DNIAPMSPPWPWGF;RRLWYLINGKISHN;XNWFRZJHXBZDAG;YPFDHNVEDLHUCE;VIBDJEWPNNCFQO;VLKZOEOYAKHREP;AMQJEAYHLZJPGS;AQIXEPGDORPWBJ;FVNIMHIOIXPIQT;JYVLIDXNZAXMDK;BMRWNKZVCUKKSR;CHCLGECDSSWNCP;JDFDHBSESGTDAL;PUPZLCDOIYMWBV;YTTFFPATQICAQN;ZNQVEEAIQZEUHB;PEDCQBHIVMGVHV;IMNFDUFMRHMDMM;ZSIAUFGUXNUGDI;KLKFAASOGCDTDT;WCVRQHFDJLLWFE;XLMFDCKSFJWJTP;ARXKVVRQIIOZGF;MTHSVFCYNBDYFN;RKOGJKGQMPZCGG;YAXKTBLXMTYWDQ;MQVRLONNONYDJP;CETWDUZRCINIHU;MMQYUDBFDDEJBP;AALKGALVYCZETF;BXXXHBWYZKLUGM;GZXFYIDYTCWDDN;LOSWWGJGSSQDKH;UNXHWFMMPAWVPI;UXUFMKFUJJLWKM;QXAMTEJJAZOINB;FJGNTEKSQVNVTJ;ZDAWZDFBPUUDAY;JJMZVBNCCUWEDF;BJBURJZEESAQPG;QFHKFGOUFKUPNX;QVNPTEPOWBEITR;SRBFZHDQGSBBOR;QYZAWZFNVOMDEF;HEBKCHPVOIAQTA;QNKOVWCOVLYPKR;MPCAJMNYNOGXPB;PMMURAAUARKVCB;SHZGCJCMOBCMKK;ZBDGHWFPLXXWRD;LWWIYCLYWKAKRR;RUIACMUVCHMOMF;SKCKOFZKJLZSFA;OHWCAVRRXKJCRB;UBUITGRMYNAZAX;WQZGKKKJIJFFOK;HRWQYCOJZMKBGI;HOVAGTYPODGVJG;QTIFSOVGBSROEQ;WYUFTYLVLQZQNH;FRMCCLBYAFUKSG;BZQBQGKZJCGZCL;YHUSUSKGDGXWGS;ADKODQNXEFIOIC;NHJUPBDCSOGIKX;DUUKYOAVWFMSKJ
SubstructureOntologies: CHEMONTID:0002500;NonID:H2O;CHEMONTID:0000286;CHEMONTID:0001167;CHEMONTID:0001605;CHEMONTID:0001661;CHEMONTID:0002467;CHEMONTID:0001092;CHEMONTID:0002286;CHEMONTID:0001656;CHEMONTID:0002210;CHEMONTID:0001334;CHEMONTID:0002391;CHEMONTID:0002012;CHEMONTID:0003263;CHEMONTID:0001497;CHEMONTID:0000175;CHEMONTID:0002207;CHEMONTID:0001540;CHEMONTID:0001498;CHEMONTID:0000637
Ontology: Fatty acyl glycosides of mono- and disaccharides
OntologyID: CHEMONTID:0003861
RETENTIONTIME: -1
RETENTIONINDEX: -1
TotalBondEnergy: 17548
TotalScore: 6.6119
TotalHrRulesScore: 1
TotalBondCleavageScore: 1
TotalMassAccuracyScore: 0.9968
TotalFragmentLinkageScore: 1
TotalBondDissociationEnergyScore: 1
DatabaseScore: 0.5714
SubstructureAssignmentScore: 0
RtSimilarityScore: -1
RiSimilarityScore: 0
Num Fragment VS2 (M/Z Intensity MatchedExactMass SaturatedExactMass Formula RearrangedHydrogen PPM MassDiff_mDa IsEvenElectronRule IsHrRule IsSolventAdductFragment AssignedAdductMass AdductString BondDissociationEnergy TreeDepth SMILES TotalScore HrLikelihood BcLikelihood MaLikelihood FlLikelihood BeLikelihood): 1
279.176224	105270.789175	279.180219570334	278.172943115234	C13H26O6	1	14.31	4	True	True	False	0		0	0	OCC1OC(OC(C)CCCCC)C(O)C(O)C1(O)	4.99681216478348	1	1	0.996812164783478	1	1

NAME: Heptyl-Beta-D-Glucopyranoside
ID: NIDYWHLDTIVRJT
IsSpectrumSearch: False
INCHIKEY: NIDYWHLDTIVRJT-BNWABVEUNA-N
SMILES: OCC1OC(OCCCCCCC)C(O)C(O)C1(O)
RESOURCES: DrugBank=DB03338
SubstructureInChIKeys: VNWKTOKETHGBQD;XLYOFNOQVPJJNP;OTMSDBZUPAUEDD;OKKJLVBELUTLKV;ATUOYWHBWRKTHZ;LCGLNKUTAGEVQW;LFQSCWFLJHTTHZ;CKFGINPQOCXMAZ;IJDNQMDRQITEOD;BDERNNFJNOPAEC;KFZMGEQAYNKOFK;XOBKSJJDNFUZPF;LYCAIKOWRPUZTN;OFBQJSOFQDEBGM;BTANRVKWQNVYAZ;LRHPLDYGYMQRHN;VNKYTQGIUYNRMY;DNIAPMSPPWPWGF;RRLWYLINGKISHN;XNWFRZJHXBZDAG;YPFDHNVEDLHUCE;VIBDJEWPNNCFQO;VLKZOEOYAKHREP;AMQJEAYHLZJPGS;AQIXEPGDORPWBJ;FVNIMHIOIXPIQT;JYVLIDXNZAXMDK;BMRWNKZVCUKKSR;CHCLGECDSSWNCP;JDFDHBSESGTDAL;PUPZLCDOIYMWBV;YTTFFPATQICAQN;ZNQVEEAIQZEUHB;PEDCQBHIVMGVHV;IMNFDUFMRHMDMM;ZSIAUFGUXNUGDI;KLKFAASOGCDTDT;WCVRQHFDJLLWFE;XLMFDCKSFJWJTP;ARXKVVRQIIOZGF;MTHSVFCYNBDYFN;RKOGJKGQMPZCGG;YAXKTBLXMTYWDQ;MQVRLONNONYDJP;MMQYUDBFDDEJBP;AALKGALVYCZETF;BXXXHBWYZKLUGM;GZXFYIDYTCWDDN;LOSWWGJGSSQDKH;UNXHWFMMPAWVPI;UXUFMKFUJJLWKM;QXAMTEJJAZOINB;FJGNTEKSQVNVTJ;ZDAWZDFBPUUDAY;JJMZVBNCCUWEDF;BJBURJZEESAQPG;QFHKFGOUFKUPNX;QVNPTEPOWBEITR;SRBFZHDQGSBBOR;QYZAWZFNVOMDEF;HEBKCHPVOIAQTA;QNKOVWCOVLYPKR;MPCAJMNYNOGXPB;PMMURAAUARKVCB;SHZGCJCMOBCMKK;ZBDGHWFPLXXWRD;LWWIYCLYWKAKRR;RUIACMUVCHMOMF;SKCKOFZKJLZSFA;OHWCAVRRXKJCRB;UBUITGRMYNAZAX;WQZGKKKJIJFFOK;HRWQYCOJZMKBGI;HOVAGTYPODGVJG;QTIFSOVGBSROEQ;WYUFTYLVLQZQNH;FRMCCLBYAFUKSG;BZQBQGKZJCGZCL;YHUSUSKGDGXWGS;ADKODQNXEFIOIC;NHJUPBDCSOGIKX;DUUKYOAVWFMSKJ
SubstructureOntologies: CHEMONTID:0002500;NonID:H2O;CHEMONTID:0000286;CHEMONTID:0001167;CHEMONTID:0001605;CHEMONTID:0001661;CHEMONTID:0002467;CHEMONTID:0001092;CHEMONTID:0002286;CHEMONTID:0001656;CHEMONTID:0002210;CHEMONTID:0001334;CHEMONTID:0002391;CHEMONTID:0002012;CHEMONTID:0003263;CHEMONTID:0001497;CHEMONTID:0000175;CHEMONTID:0002207;CHEMONTID:0001540;CHEMONTID:0001498;CHEMONTID:0000637
Ontology: Fatty acyl glycosides of mono- and disaccharides
OntologyID: CHEMONTID:0003861
RETENTIONTIME: -1
RETENTIONINDEX: -1
TotalBondEnergy: 17548
TotalScore: 6.4929
TotalHrRulesScore: 1
TotalBondCleavageScore: 1
TotalMassAccuracyScore: 0.9968
TotalFragmentLinkageScore: 1
TotalBondDissociationEnergyScore: 1
DatabaseScore: 0.5238
SubstructureAssignmentScore: 0
RtSimilarityScore: -1
RiSimilarityScore: 0
Num Fragment VS2 (M/Z Intensity MatchedExactMass SaturatedExactMass Formula RearrangedHydrogen PPM MassDiff_mDa IsEvenElectronRule IsHrRule IsSolventAdductFragment AssignedAdductMass AdductString BondDissociationEnergy TreeDepth SMILES TotalScore HrLikelihood BcLikelihood MaLikelihood FlLikelihood BeLikelihood): 1
279.176224	105270.789175	279.180219570334	278.172943115234	C13H26O6	1	14.31	4	True	True	False	0		0	0	OCC1OC(OCCCCCCC)C(O)C(O)C1(O)	4.99681216478348	1	1	0.996812164783478	1	1

