NAME: Acremolide B;(-)-Acremolide B
ID: AOQQOEQINNPMNK
IsSpectrumSearch: False
INCHIKEY: AOQQOEQINNPMNK-PVVYSLRKNA-N
SMILES: O=C1OC(CC(O)C(C(=O)NC(C(=O)N2CCCC12)CC3=CC=CC=C3)C)C(C)CCCCC(=O)C
RESOURCES: KNApSAcK=C00038350,UNPD=UNPD4347
SubstructureInChIKeys: VNWKTOKETHGBQD;XLYOFNOQVPJJNP;WSFSSNUMVMOOMR;OTMSDBZUPAUEDD;OKKJLVBELUTLKV;IKHGUXGNUITLKF;ATUOYWHBWRKTHZ;ROSDSFDQCJNGOL;LCGLNKUTAGEVQW;LFQSCWFLJHTTHZ;CSCPPACGZOOCGX;NBBJYMSMWIIQGU;IJDNQMDRQITEOD;NNPPMTNAJDCUHE;ATHHXGZTWNVVOU;LYIIBVSRGJSHAV;GETQZCLCWQTVFV;JJWLVOIRVHMVIS;LIWAQLJGPBVORC;QTBSBXVTEAMEQO;TZIHFWKZFHZASV;BDERNNFJNOPAEC;KFZMGEQAYNKOFK;XOBKSJJDNFUZPF;HZAXFHJVJLSVMW;RWRDLPDLKQPQOW;ZTQSAGDEMFDKMZ;OFBQJSOFQDEBGM;QWTDNUCVQCZILF;DAZXVJBJRMWXJP;GVWISOJSERXQBM;HPNMFZURTQLUMO;HQABUPZFAYXKJW;KDSNLYIMUZNERS;XHFGWHUWQXTGAT;AKXKFZDCRYJKTF;KXKVLQRXCPHEJC;WBJINCZRORDGAQ;XBDQKXXYIPTUBI;BEBCJVAWIBVWNZ;BTANRVKWQNVYAZ;LRHPLDYGYMQRHN;VNKYTQGIUYNRMY;ZXEKIIBDNHEJCQ;DHMQDGOQFOQNFH;WUGQZFFCHPXWKQ;YPFDHNVEDLHUCE;UHOVQNZJYSORNB;AVFZOVWCLRSYKC;HGBOYTHUEUWSSQ;AFABGHUZZDYHJO;PFEOZHBOMNWTJB;VLKZOEOYAKHREP;FGEPRNXUNITOCW;SUUDTPGCUKBECW;DPBLXKKOBLCELK;GNVRJGIVDSQCOP;QCOGKXLOEWLIDC;VJROPLWGFCORRM;ZUHZZVMEUAUWHY;FERIUCNNQQJTOY;XEKOWRVHYACXOJ;AMQJEAYHLZJPGS;AQIXEPGDORPWBJ;FVNIMHIOIXPIQT;JYVLIDXNZAXMDK;MXLMTQWGSQIYOW;QNAYBMKLOCPYGJ;UEEJHVSXFDXPFK;JDFDHBSESGTDAL;PUPZLCDOIYMWBV;YXFVVABEGXRONW;PXHHIBMOFPCBJQ;JARKCYVAAOWBJS;IMNFDUFMRHMDMM;VLJXXKKOSFGPHI;DJEQZVQFEPKLOY;SMBYUOXUISCLCF;VLSTXUUYLIALPB;ZMANZCXQSJIPKH;ZSIAUFGUXNUGDI;QWCKQJZIFLGMSD;YNQLUTRBYVCPMQ;CATSNJVOTSVZJV;FXHGMKSSBGDXIY;JVSWJIKNEAIKJW;TVMXDCGIABBOFY;SKPCTMWFLGENTL;CETWDUZRCINIHU;SNDPXSYFESPGGJ;BFSVOASYOCHEOV;ODLMAHJVESYWTB;BHHGXPLMPWCGHP;NUJGJRNETVAIRJ;AHLPHDHHMVZTML;YGCZTXZTJXYWCO;SASNBVQSOZSTPD;DHDRGOURKDLAOT;KBUULMSISDOTQC;CQIUZHAQYHXKRY
SubstructureOntologies: CHEMONTID:0002500;NonID:H2O;CHEMONTID:0001831;CHEMONTID:0000286;CHEMONTID:0002230;CHEMONTID:0002228;CHEMONTID:0001167;CHEMONTID:0000118;CHEMONTID:0002434;CHEMONTID:0004620;CHEMONTID:0002484;CHEMONTID:0000469;CHEMONTID:0002239;CHEMONTID:0001205;CHEMONTID:0001238;CHEMONTID:0001661;CHEMONTID:0001897;CHEMONTID:0000218;CHEMONTID:0003416;CHEMONTID:0002404;CHEMONTID:0001852;CHEMONTID:0002279;CHEMONTID:0003449;CHEMONTID:0001663;CHEMONTID:0000333;CHEMONTID:0004314;CHEMONTID:0001091;CHEMONTID:0002229;CHEMONTID:0001334;CHEMONTID:0002309;CHEMONTID:0002811;CHEMONTID:0000186;CHEMONTID:0004322;CHEMONTID:0000188
Ontology: Cyclic depsipeptides
OntologyID: CHEMONTID:0001994
RETENTIONTIME: -1
RETENTIONINDEX: -1
TotalBondEnergy: 31822
TotalScore: 6.6142
TotalHrRulesScore: 1
TotalBondCleavageScore: 0.8645
TotalMassAccuracyScore: 0.9775
TotalFragmentLinkageScore: 1
TotalBondDissociationEnergyScore: 0.8402
DatabaseScore: 0.5476
SubstructureAssignmentScore: 0
RtSimilarityScore: -1
RiSimilarityScore: 0
Num Fragment VS2 (M/Z Intensity MatchedExactMass SaturatedExactMass Formula RearrangedHydrogen PPM MassDiff_mDa IsEvenElectronRule IsHrRule IsSolventAdductFragment AssignedAdductMass AdductString BondDissociationEnergy TreeDepth SMILES TotalScore HrLikelihood BcLikelihood MaLikelihood FlLikelihood BeLikelihood): 2
244.169127	31250.533817	244.154330852873	245.162704467773	C12H23NO4	-1	60.6	14.8	True	True	False	0		997	2	O=COC(CC(O)C(C(=O)N)C)C(C)CCC	4.36647059299382	1	0.7289999127388	0.957159519195557	1	0.680311161059459
501.299265	32939.6727	501.295911709006	500.288635253906	C28H40N2O6	1	6.69	3.35	True	True	False	0		0	0	O=C1OC(CC(O)C(C(=O)NC(C(=O)N2CCCC12)CC3=CC=CC=C3)C)C(C)CCCCC(=O)C	4.99775362014771	1	1	0.997753620147705	1	1

