NAME: UNPD79132
ID: HXLCWNWPRPDFMM
IsSpectrumSearch: False
INCHIKEY: HXLCWNWPRPDFMM-NUDXKSNDNA-N
SMILES: OC(COCCCCCCCCCCCCCCCCCC)COC1OC(C)C(O)C(O)C1(O)
RESOURCES: UNPD=UNPD79132;UNPD84355
SubstructureInChIKeys: VNWKTOKETHGBQD;XLYOFNOQVPJJNP;OTMSDBZUPAUEDD;OKKJLVBELUTLKV;ATUOYWHBWRKTHZ;LCGLNKUTAGEVQW;LFQSCWFLJHTTHZ;CKFGINPQOCXMAZ;IJDNQMDRQITEOD;BDERNNFJNOPAEC;KFZMGEQAYNKOFK;XOBKSJJDNFUZPF;LYCAIKOWRPUZTN;OFBQJSOFQDEBGM;BTANRVKWQNVYAZ;LRHPLDYGYMQRHN;VNKYTQGIUYNRMY;DNIAPMSPPWPWGF;RRLWYLINGKISHN;XNWFRZJHXBZDAG;YPFDHNVEDLHUCE;VIBDJEWPNNCFQO;VLKZOEOYAKHREP;AMQJEAYHLZJPGS;AQIXEPGDORPWBJ;FVNIMHIOIXPIQT;JYVLIDXNZAXMDK;BMRWNKZVCUKKSR;CHCLGECDSSWNCP;JDFDHBSESGTDAL;PUPZLCDOIYMWBV;YTTFFPATQICAQN;ZNQVEEAIQZEUHB;PEDCQBHIVMGVHV;IMNFDUFMRHMDMM;ZSIAUFGUXNUGDI;KLKFAASOGCDTDT;WCVRQHFDJLLWFE;XLMFDCKSFJWJTP;ARXKVVRQIIOZGF;MTHSVFCYNBDYFN;YAXKTBLXMTYWDQ;MQVRLONNONYDJP;TVMXDCGIABBOFY;MMQYUDBFDDEJBP;AALKGALVYCZETF;BXXXHBWYZKLUGM;GZXFYIDYTCWDDN;LOSWWGJGSSQDKH;UNXHWFMMPAWVPI;UXUFMKFUJJLWKM;QXAMTEJJAZOINB;FJGNTEKSQVNVTJ;ZDAWZDFBPUUDAY;JJMZVBNCCUWEDF;BJBURJZEESAQPG;QVNPTEPOWBEITR;SRBFZHDQGSBBOR;HEBKCHPVOIAQTA;QNKOVWCOVLYPKR;SHZGCJCMOBCMKK;ZBDGHWFPLXXWRD;SKCKOFZKJLZSFA;OHWCAVRRXKJCRB;UBUITGRMYNAZAX;HRWQYCOJZMKBGI;DCZHIIAMPOQNQY;QTIFSOVGBSROEQ;WEKZOSZDHREWIU;BZQBQGKZJCGZCL;YHUSUSKGDGXWGS;YFDGNWYGKKBZDJ
SubstructureOntologies: CHEMONTID:0002500;NonID:H2O;CHEMONTID:0000286;CHEMONTID:0001167;CHEMONTID:0001605;CHEMONTID:0001661;CHEMONTID:0002467;CHEMONTID:0001092;CHEMONTID:0002286;CHEMONTID:0001656;CHEMONTID:0002210;CHEMONTID:0001334;CHEMONTID:0002012;CHEMONTID:0003263;CHEMONTID:0001497;CHEMONTID:0002207;CHEMONTID:0001498
Ontology: O-glycosyl compounds
OntologyID: CHEMONTID:0002207
RETENTIONTIME: -1
RETENTIONINDEX: -1
TotalBondEnergy: 34270
TotalScore: 6.4286
TotalHrRulesScore: 1
TotalBondCleavageScore: 0.905
TotalMassAccuracyScore: 0.9542
TotalFragmentLinkageScore: 1
TotalBondDissociationEnergyScore: 0.8565
DatabaseScore: 0.2238
SubstructureAssignmentScore: 0
RtSimilarityScore: -1
RiSimilarityScore: 0
Num Fragment VS2 (M/Z Intensity MatchedExactMass SaturatedExactMass Formula RearrangedHydrogen PPM MassDiff_mDa IsEvenElectronRule IsHrRule IsSolventAdductFragment AssignedAdductMass AdductString BondDissociationEnergy TreeDepth SMILES TotalScore HrLikelihood BcLikelihood MaLikelihood FlLikelihood BeLikelihood): 2
385.352045	1429267.5097	385.331231442053	388.355255126953	C23H48O4	-3	54.01	20.81	True	True	False	0		704	1	OCCOCC(O)COCCCCCCCCCCCCCCCCCC	4.44001395167578	1	0.809999942779541	0.917006373405457	1	0.713007635490783
491.400786	1731106.344906	491.394239345725	490.386962890625	C27H54O7	1	13.32	6.55	True	True	False	0		0	0	OC(COCCCCCCCCCCCCCCCCCC)COC1OC(C)C(O)C(O)C1(O)	4.99146491289139	1	1	0.991464912891388	1	1

