NAME: UNPD91689
ID: WGLCKOSXBPJUJH
IsSpectrumSearch: False
INCHIKEY: WGLCKOSXBPJUJH-VKRSHTKGNA-N
SMILES: O=C(N2CCCC2(C1=CN=CC=C1))CC(O)CCCCCCCCC(C)CC
RESOURCES: UNPD=UNPD91689
SubstructureInChIKeys: VNWKTOKETHGBQD;XLYOFNOQVPJJNP;WSFSSNUMVMOOMR;OTMSDBZUPAUEDD;OKKJLVBELUTLKV;IKHGUXGNUITLKF;ATUOYWHBWRKTHZ;ROSDSFDQCJNGOL;LFQSCWFLJHTTHZ;NBBJYMSMWIIQGU;IJDNQMDRQITEOD;NNPPMTNAJDCUHE;ATHHXGZTWNVVOU;GETQZCLCWQTVFV;JJWLVOIRVHMVIS;LIWAQLJGPBVORC;BDERNNFJNOPAEC;KFZMGEQAYNKOFK;RWRDLPDLKQPQOW;ZTQSAGDEMFDKMZ;OFBQJSOFQDEBGM;QWTDNUCVQCZILF;DAZXVJBJRMWXJP;GVWISOJSERXQBM;HPNMFZURTQLUMO;HQABUPZFAYXKJW;XHFGWHUWQXTGAT;AKXKFZDCRYJKTF;BTANRVKWQNVYAZ;LRHPLDYGYMQRHN;WUGQZFFCHPXWKQ;JUJWROOIHBZHMG;AVFZOVWCLRSYKC;HGBOYTHUEUWSSQ;AFABGHUZZDYHJO;PFEOZHBOMNWTJB;VLKZOEOYAKHREP;SUUDTPGCUKBECW;DPBLXKKOBLCELK;GNVRJGIVDSQCOP;QCOGKXLOEWLIDC;ZUHZZVMEUAUWHY;PIAOXUVIBAKVSP;AMQJEAYHLZJPGS;AQIXEPGDORPWBJ;JYVLIDXNZAXMDK;ITQTTZVARXURQS;PXHHIBMOFPCBJQ;JARKCYVAAOWBJS;IMNFDUFMRHMDMM;VLJXXKKOSFGPHI;DJEQZVQFEPKLOY;SMBYUOXUISCLCF;VLSTXUUYLIALPB;ZMANZCXQSJIPKH;CNRGMQRNYAIBTN;ZSIAUFGUXNUGDI;FXHGMKSSBGDXIY;JVSWJIKNEAIKJW;TVMXDCGIABBOFY;YRMUTQRWVGDUBW;CETWDUZRCINIHU;MLAXEZHEGARMPE;NUJGJRNETVAIRJ;UKFNNBXGHVJQMJ;QVGWQEOFNGJAOO;PBZLKHXTZLJSSO;AASQBYVPOFXFGU;IOKPZOGAWQXXLF;NGBPDDMTRGHYFM;NAMFFBYYOKLDOM;ZTKXZDLAHNDYCJ
SubstructureOntologies: CHEMONTID:0002500;NonID:H2O;CHEMONTID:0001831;CHEMONTID:0000286;CHEMONTID:0002230;CHEMONTID:0002228;CHEMONTID:0002434;CHEMONTID:0004620;CHEMONTID:0002484;CHEMONTID:0002239;CHEMONTID:0000469;CHEMONTID:0001661;CHEMONTID:0000218;CHEMONTID:0001852;CHEMONTID:0000089;CHEMONTID:0003449;CHEMONTID:0001663;CHEMONTID:0004152;CHEMONTID:0002229;CHEMONTID:0001334;CHEMONTID:0000298
Ontology: Pyrrolidinylpyridines
OntologyID: CHEMONTID:0001975
RETENTIONTIME: -1
RETENTIONINDEX: -1
TotalBondEnergy: 27554
TotalScore: 6.3768
TotalHrRulesScore: 1
TotalBondCleavageScore: 0.5253
TotalMassAccuracyScore: 0.9798
TotalFragmentLinkageScore: 1
TotalBondDissociationEnergyScore: 0.852
DatabaseScore: 0.2238
SubstructureAssignmentScore: 0.0952
RtSimilarityScore: -1
RiSimilarityScore: 0
Num Fragment VS2 (M/Z Intensity MatchedExactMass SaturatedExactMass Formula RearrangedHydrogen PPM MassDiff_mDa IsEvenElectronRule IsHrRule IsSolventAdductFragment AssignedAdductMass AdductString BondDissociationEnergy TreeDepth SMILES TotalScore HrLikelihood BcLikelihood MaLikelihood FlLikelihood BeLikelihood): 2
317.270844	88394.148042	317.25874129885	316.25146484375	C20H32N2O	1	38.15	12.1	True	True	False	0		704	2	O=C(N2CCCC2(C1=CN=CC=C1))CCCCCCCCCC	3.72581597164606	1	0.0506249964237213	0.971129894256592	1	0.704061080965749
389.323898	233548.092063	389.316266933616	388.308990478516	C24H40N2O2	1	19.6	7.63	True	True	False	0		0	0	O=C(N2CCCC2(C1=CN=CC=C1))CC(O)CCCCCCCCC(C)CC	4.98842090368271	1	1	0.988420903682709	1	1

