NAME: Communesin E;(-)-Communesin E
ID: XJXBCJLZWKPOFG
IsSpectrumSearch: False
INCHIKEY: XJXBCJLZWKPOFG-LDBMYMGHNA-N
SMILES: O=C(N4CCC57(C=8C=CC=CC=8(NC6NC1=CC=CC2=C1C67(CCN(C2C3OC3(C)(C))C45))))C
RESOURCES: KNApSAcK=C00026690,UNPD=UNPD20050
SubstructureInChIKeys: VNWKTOKETHGBQD;WSFSSNUMVMOOMR;OTMSDBZUPAUEDD;IKHGUXGNUITLKF;ATUOYWHBWRKTHZ;ROSDSFDQCJNGOL;LCGLNKUTAGEVQW;GOOHAUXETOMSMM;IJDNQMDRQITEOD;NNPPMTNAJDCUHE;ATHHXGZTWNVVOU;GETQZCLCWQTVFV;JJWLVOIRVHMVIS;LIWAQLJGPBVORC;BDERNNFJNOPAEC;XOBKSJJDNFUZPF;XOTDURGROKNGTI;HZAXFHJVJLSVMW;RWRDLPDLKQPQOW;OFBQJSOFQDEBGM;QWTDNUCVQCZILF;DAZXVJBJRMWXJP;GVWISOJSERXQBM;HPNMFZURTQLUMO;HQABUPZFAYXKJW;KDSNLYIMUZNERS;XHFGWHUWQXTGAT;BEBCJVAWIBVWNZ;LRHPLDYGYMQRHN;VNKYTQGIUYNRMY;ZXEKIIBDNHEJCQ;WUGQZFFCHPXWKQ;UHOVQNZJYSORNB;AVFZOVWCLRSYKC;NQRYJNQNLNOLGT;AFABGHUZZDYHJO;HNRMPXKDFBEGFZ;PFEOZHBOMNWTJB;VLKZOEOYAKHREP;SUUDTPGCUKBECW;BMFVGAAISNGQNM;DPBLXKKOBLCELK;GNVRJGIVDSQCOP;QCOGKXLOEWLIDC;VJROPLWGFCORRM;ZUHZZVMEUAUWHY;AQIXEPGDORPWBJ;FVNIMHIOIXPIQT;JYVLIDXNZAXMDK;MXLMTQWGSQIYOW;UEEJHVSXFDXPFK;BMRWNKZVCUKKSR;YXFVVABEGXRONW;PAMIQIKDUOTOBW;PXHHIBMOFPCBJQ;VLJXXKKOSFGPHI;DJEQZVQFEPKLOY;SMBYUOXUISCLCF;VLSTXUUYLIALPB;ZMANZCXQSJIPKH;VHRGRCVQAFMJIZ;XLMFDCKSFJWJTP;YNQLUTRBYVCPMQ;RNVCVTLRINQCPJ;ONQLCPDIXPYJSS;JAEJQOUXXMFTJU;BFSVOASYOCHEOV;ODLMAHJVESYWTB;BHHGXPLMPWCGHP;RIWRFSMVIUAEBX;WRMNZCZEMHIOCP;KDISMIMTGUMORD;FMETWOPSCIOJSL;DCDFYDJCNWNFFZ;SASNBVQSOZSTPD;MZMHDMCGCUWTDS;KBUULMSISDOTQC
SubstructureOntologies: CHEMONTID:0002500;CHEMONTID:0001831;CHEMONTID:0002230;CHEMONTID:0002228;CHEMONTID:0001167;CHEMONTID:0000159;CHEMONTID:0004620;CHEMONTID:0002484;CHEMONTID:0002239;CHEMONTID:0000469;CHEMONTID:0000286;CHEMONTID:0000497;CHEMONTID:0001897;CHEMONTID:0000218;CHEMONTID:0001852;CHEMONTID:0002279;CHEMONTID:0003449;CHEMONTID:0000195;CHEMONTID:0001663;CHEMONTID:0001661;CHEMONTID:0002467;CHEMONTID:0001091;CHEMONTID:0003964;CHEMONTID:0002811;CHEMONTID:0000186;CHEMONTID:0000185;CHEMONTID:0000335;CHEMONTID:0001238
Ontology: Alpha carbolines
OntologyID: CHEMONTID:0001913
RETENTIONTIME: -1
RETENTIONINDEX: -1
TotalBondEnergy: 27673
TotalScore: 7.4502
TotalHrRulesScore: 1
TotalBondCleavageScore: 0.905
TotalMassAccuracyScore: 0.8657
TotalFragmentLinkageScore: 1
TotalBondDissociationEnergyScore: 0.882
DatabaseScore: 0.5476
SubstructureAssignmentScore: 0
RtSimilarityScore: -1
RiSimilarityScore: 0
Num Fragment VS2 (M/Z Intensity MatchedExactMass SaturatedExactMass Formula RearrangedHydrogen PPM MassDiff_mDa IsEvenElectronRule IsHrRule IsSolventAdductFragment AssignedAdductMass AdductString BondDissociationEnergy TreeDepth SMILES TotalScore HrLikelihood BcLikelihood MaLikelihood FlLikelihood BeLikelihood): 2
428.272792	60188.101884	428.233264568694	429.241638183594	C27H31N3O2	-1	92.3	39.53	True	True	False	0		610	1	O=C(N3CCC46(C=7C=CC=CC=7(NCC26(C=1C=CC=CC=1C(N(CC2)C34)C5OC5(C)(C)))))C	4.30557637176316	1	0.809999942779541	0.731627643108368	1	0.763948785875253
443.245299	155945.703084	443.244153896506	442.236877441406	C27H30N4O2	1	2.58	1.14	True	True	False	0		0	0	O=C(N4CCC57(C=8C=CC=CC=8(NC6NC1=CC=CC2=C1C67(CCN(C2C3OC3(C)(C))C45))))C	4.99973779916763	1	1	0.999737799167633	1	1

NAME: N-[2-[1-[2-(7-quinolinyloxy)ethyl]-2-benzimidazolyl]ethyl]cyclohexanecarboxamide
ID: OOAMKTKUUHRRBR
IsSpectrumSearch: False
INCHIKEY: OOAMKTKUUHRRBR-UHFFFAOYSA-N
SMILES: O=C(NCCC2=NC1=CC=CC=C1N2CCOC=3C=CC=4C=CC=NC=4(C=3))C5CCCCC5
RESOURCES: ChEBI=CHEBI:92384
SubstructureInChIKeys: WSFSSNUMVMOOMR;OTMSDBZUPAUEDD;IKHGUXGNUITLKF;ATUOYWHBWRKTHZ;ROSDSFDQCJNGOL;LCGLNKUTAGEVQW;NBBJYMSMWIIQGU;IJDNQMDRQITEOD;NNPPMTNAJDCUHE;ATHHXGZTWNVVOU;LIWAQLJGPBVORC;XOBKSJJDNFUZPF;HZAXFHJVJLSVMW;RAXXELZNTBOGNW;ZTQSAGDEMFDKMZ;OFBQJSOFQDEBGM;QWTDNUCVQCZILF;GVWISOJSERXQBM;HPNMFZURTQLUMO;HQABUPZFAYXKJW;KDSNLYIMUZNERS;BEBCJVAWIBVWNZ;UHOVQNZJYSORNB;JUJWROOIHBZHMG;XLSZMDLNRCVEIJ;XDTMQSROBMDMFD;HGBOYTHUEUWSSQ;AFABGHUZZDYHJO;PFEOZHBOMNWTJB;VLKZOEOYAKHREP;SUUDTPGCUKBECW;DPBLXKKOBLCELK;QCOGKXLOEWLIDC;VJROPLWGFCORRM;ISWSIDIOOBJBQZ;HQNBJNDMPLEUDS;NJQHZENQKNIRSY;UAEPNZWRGJTJPN;JARKCYVAAOWBJS;IMNFDUFMRHMDMM;VLJXXKKOSFGPHI;IWDCLRJOBJJRNH;RDOXTESZEPMUJZ;NTYJJOPFIAHURM;FXHGMKSSBGDXIY;JVSWJIKNEAIKJW;TVMXDCGIABBOFY;FUGYGGDSWSUORM;CHLICZRVGGXEOD;DLRJIFUOBPOJNS;NUJGJRNETVAIRJ;SMWDFEZZVXVKRB;UAJRSHJHFRVGMG;NOTCZLKDULMKBR
SubstructureOntologies: CHEMONTID:0001831;CHEMONTID:0002500;CHEMONTID:0002230;CHEMONTID:0002228;CHEMONTID:0001167;CHEMONTID:0002434;CHEMONTID:0004620;CHEMONTID:0002484;CHEMONTID:0001897;CHEMONTID:0000078;CHEMONTID:0000469;CHEMONTID:0002279;CHEMONTID:0000089;CHEMONTID:0001016;CHEMONTID:0001663;CHEMONTID:0004647;CHEMONTID:0002311;CHEMONTID:0002229;CHEMONTID:0001275;CHEMONTID:0000138;CHEMONTID:0004253;CHEMONTID:0000037;CHEMONTID:0002341;CHEMONTID:0001253;CHEMONTID:0000190
Ontology: Quinolines and derivatives
OntologyID: CHEMONTID:0001253
RETENTIONTIME: -1
RETENTIONINDEX: -1
TotalBondEnergy: 27577
TotalScore: 7.2795
TotalHrRulesScore: 1
TotalBondCleavageScore: 0.5127
TotalMassAccuracyScore: 0.8655
TotalFragmentLinkageScore: 1
TotalBondDissociationEnergyScore: 0.835
DatabaseScore: 0.5238
SubstructureAssignmentScore: 0
RtSimilarityScore: -1
RiSimilarityScore: 0
Num Fragment VS2 (M/Z Intensity MatchedExactMass SaturatedExactMass Formula RearrangedHydrogen PPM MassDiff_mDa IsEvenElectronRule IsHrRule IsSolventAdductFragment AssignedAdductMass AdductString BondDissociationEnergy TreeDepth SMILES TotalScore HrLikelihood BcLikelihood MaLikelihood FlLikelihood BeLikelihood): 2
428.272792	60188.101884	428.233239498694	431.257263183594	C27H33N3O2	-3	92.35	39.55	True	True	False	0		920	1	O=C(NCCCN(C1=CC=CC=C1)CCOC=2C=CC=3C=CC=NC=3(C=2))C4CCCCC4	3.42655436663122	1	0.0253124982118607	0.731337606906891	1	0.669904261512472
443.245299	155945.703084	443.244153896506	442.236877441406	C27H30N4O2	1	2.58	1.14	True	True	False	0		0	0	O=C(NCCC2=NC1=CC=CC=C1N2CCOC=3C=CC=4C=CC=NC=4(C=3))C5CCCCC5	4.99973779916763	1	1	0.999737799167633	1	1

