NAME: LSM-19428
ID: BGNIKVMFAFSPIL
IsSpectrumSearch: False
INCHIKEY: BGNIKVMFAFSPIL-UHFFFAOYNA-N
SMILES: O=C(OCC)C4C(=NC1=C(C(=O)CC(C)(C)C1)C4(C=2C=CC3=C(C=2)CCCN3C))C
RESOURCES: ChEBI=CHEBI:108051
SubstructureInChIKeys: VNWKTOKETHGBQD;VGGSQFUCUMXWEO;WDWDWGRYHDPSDS;WSFSSNUMVMOOMR;OTMSDBZUPAUEDD;IKHGUXGNUITLKF;ATUOYWHBWRKTHZ;ROSDSFDQCJNGOL;LCGLNKUTAGEVQW;HGINCPLSRVDWNT;IAQRGUVFOMOMEM;VQTUBCCKSQIDNK;VXNZUUAINFGPBY;CSCPPACGZOOCGX;NBBJYMSMWIIQGU;IJDNQMDRQITEOD;NNPPMTNAJDCUHE;GETQZCLCWQTVFV;LIWAQLJGPBVORC;QTBSBXVTEAMEQO;TZIHFWKZFHZASV;BDERNNFJNOPAEC;XOBKSJJDNFUZPF;MLUCVPSAIODCQM;BKOOMYPCSUNDGP;QMMOXUPEWRXHJS;YWAKXRMUMFPDSH;ZTQSAGDEMFDKMZ;OFBQJSOFQDEBGM;QWTDNUCVQCZILF;DAZXVJBJRMWXJP;GVWISOJSERXQBM;HQABUPZFAYXKJW;KXKVLQRXCPHEJC;WBJINCZRORDGAQ;XBDQKXXYIPTUBI;LRHPLDYGYMQRHN;VNKYTQGIUYNRMY;ZXEKIIBDNHEJCQ;UHOVQNZJYSORNB;BEQGRRJLJLVQAQ;LDTAOIUHUHHCMU;LIKMAJRDDDTEIG;RYPKRALMXUUNKS;ZQDPJFUHLCOCRG;HGBOYTHUEUWSSQ;AFABGHUZZDYHJO;HNRMPXKDFBEGFZ;PFEOZHBOMNWTJB;VLKZOEOYAKHREP;BMFVGAAISNGQNM;DPBLXKKOBLCELK;QCOGKXLOEWLIDC;ZUHZZVMEUAUWHY;FERIUCNNQQJTOY;KQNPFQTWMSNSAP;XEKOWRVHYACXOJ;AMQJEAYHLZJPGS;PHTQWCKDNZKARW;YXFVVABEGXRONW;FWFSEYBSWVRWGL;USLRUYZDOLMIRJ;ADHCYQWFCLQBFG;WZHKDGJSXCTSCK;JARKCYVAAOWBJS;IMNFDUFMRHMDMM;VLJXXKKOSFGPHI;DJEQZVQFEPKLOY;WLAMNBDJUVNPJU;ZSIAUFGUXNUGDI;YNQLUTRBYVCPMQ;RNVCVTLRINQCPJ;RKSNPTXBQXBXDJ;UDOAKURRCZMWOJ;KWKAKUADMBZCLK;YXLCVBVDFKWWRW;CATSNJVOTSVZJV;FXHGMKSSBGDXIY;JVSWJIKNEAIKJW;TVMXDCGIABBOFY;OQAGVSWESNCJJT;WDAXFOBOLVPGLV;ODLMAHJVESYWTB;NDFYWJZFESRLBQ;ZUSUVEKHEZURSD;KPADFPAILITQBG;NUJGJRNETVAIRJ;NZQMQVJXSRMTCJ;YGCZTXZTJXYWCO;KABCBIJVOXYNHG;BQOAKIRTXKZTKD;XMIIGOLPHOKFCH
SubstructureOntologies: CHEMONTID:0002500;CHEMONTID:0004476;CHEMONTID:0000117;CHEMONTID:0001831;CHEMONTID:0002230;CHEMONTID:0002228;CHEMONTID:0001167;CHEMONTID:0002436;CHEMONTID:0004622;CHEMONTID:0000118;CHEMONTID:0002434;CHEMONTID:0004620;CHEMONTID:0002239;CHEMONTID:0001205;CHEMONTID:0001238;CHEMONTID:0000286;CHEMONTID:0000469;CHEMONTID:0003416;CHEMONTID:0002279;CHEMONTID:0000333;CHEMONTID:0001091;CHEMONTID:0004325;CHEMONTID:0002229;CHEMONTID:0003544;CHEMONTID:0001334;CHEMONTID:0003964;CHEMONTID:0003417;CHEMONTID:0002811;CHEMONTID:0003086;CHEMONTID:0002551
Ontology: Hydroquinolines
OntologyID: CHEMONTID:0001715
RETENTIONTIME: -1
RETENTIONINDEX: -1
TotalBondEnergy: 26529
TotalScore: 7.3845
TotalHrRulesScore: 0.6
TotalBondCleavageScore: 0.95
TotalMassAccuracyScore: 0.8691
TotalFragmentLinkageScore: 1
TotalBondDissociationEnergyScore: 0.9466
DatabaseScore: 0.5238
SubstructureAssignmentScore: 0
RtSimilarityScore: -1
RiSimilarityScore: 0
Num Fragment VS2 (M/Z Intensity MatchedExactMass SaturatedExactMass Formula RearrangedHydrogen PPM MassDiff_mDa IsEvenElectronRule IsHrRule IsSolventAdductFragment AssignedAdductMass AdductString BondDissociationEnergy TreeDepth SMILES TotalScore HrLikelihood BcLikelihood MaLikelihood FlLikelihood BeLikelihood): 2
394.263449	143878.646677	394.225098392756	394.225646972656	C24H30N2O3	0	97.27	38.35	False	False	False	0		346	1	O=C(OC)C4C(=NC1=C(C(=O)CC(C)(C)C1)C4(C=2C=CC3=C(C=2)CCCN3C))C	3.738280461751	0.200000002980232	0.899999976158142	0.745161890983582	1	0.893118591629046
409.242706	155121.392296	409.248578945334	408.241302490234	C25H32N2O3	1	14.35	5.87	True	True	False	0		0	0	O=C(OCC)C4C(=NC1=C(C(=O)CC(C)(C)C1)C4(C=2C=CC3=C(C=2)CCCN3C))C	4.99312543869019	1	1	0.993125438690186	1	1

NAME: lofentanyl
ID: IMYHGORQCPYVBZ
IsSpectrumSearch: False
INCHIKEY: IMYHGORQCPYVBZ-UHFFFAOYNA-N
SMILES: O=C(OC)C3(N(C1=CC=CC=C1)C(=O)CC)(CCN(CCC2=CC=CC=C2)CC3(C))
RESOURCES: ChEBI=CHEBI:61095
SubstructureInChIKeys: VNWKTOKETHGBQD;WSFSSNUMVMOOMR;OTMSDBZUPAUEDD;IKHGUXGNUITLKF;ATUOYWHBWRKTHZ;ROSDSFDQCJNGOL;LCGLNKUTAGEVQW;NBBJYMSMWIIQGU;IJDNQMDRQITEOD;NNPPMTNAJDCUHE;ATHHXGZTWNVVOU;LYIIBVSRGJSHAV;GETQZCLCWQTVFV;JJWLVOIRVHMVIS;LIWAQLJGPBVORC;QTBSBXVTEAMEQO;TZIHFWKZFHZASV;BDERNNFJNOPAEC;XOBKSJJDNFUZPF;HZAXFHJVJLSVMW;ZTQSAGDEMFDKMZ;OFBQJSOFQDEBGM;QWTDNUCVQCZILF;DAZXVJBJRMWXJP;GVWISOJSERXQBM;HPNMFZURTQLUMO;HQABUPZFAYXKJW;KDSNLYIMUZNERS;XHFGWHUWQXTGAT;KXKVLQRXCPHEJC;XBDQKXXYIPTUBI;BEBCJVAWIBVWNZ;LRHPLDYGYMQRHN;VNKYTQGIUYNRMY;ZXEKIIBDNHEJCQ;DHMQDGOQFOQNFH;UHOVQNZJYSORNB;NQRYJNQNLNOLGT;AFABGHUZZDYHJO;PFEOZHBOMNWTJB;DZQLQEYLEYWJIB;FGEPRNXUNITOCW;SUUDTPGCUKBECW;BMFVGAAISNGQNM;DPBLXKKOBLCELK;GNVRJGIVDSQCOP;QCOGKXLOEWLIDC;VJROPLWGFCORRM;ZUHZZVMEUAUWHY;FERIUCNNQQJTOY;KQNPFQTWMSNSAP;PHTQWCKDNZKARW;QNAYBMKLOCPYGJ;UEEJHVSXFDXPFK;YXFVVABEGXRONW;PAYRUJLWNCNPSJ;PAMIQIKDUOTOBW;DVOFEOSDXAVUJD;DJEQZVQFEPKLOY;SMBYUOXUISCLCF;VLSTXUUYLIALPB;ZMANZCXQSJIPKH;WLAMNBDJUVNPJU;BTCSSZJGUNDROE;QWCKQJZIFLGMSD;YNQLUTRBYVCPMQ;AFBPFSWMIHJQDM;HRVXPXCISZSDCC;ONQLCPDIXPYJSS;OQAGVSWESNCJJT;BFSVOASYOCHEOV;DYDNPESBYVVLBO;BHHGXPLMPWCGHP;KDISMIMTGUMORD;SRJOCJYGOFTFLH;FZERHIULMFGESH;SASNBVQSOZSTPD;KBUULMSISDOTQC
SubstructureOntologies: CHEMONTID:0002500;CHEMONTID:0001831;CHEMONTID:0002230;CHEMONTID:0002228;CHEMONTID:0001167;CHEMONTID:0002434;CHEMONTID:0004620;CHEMONTID:0002484;CHEMONTID:0000469;CHEMONTID:0002239;CHEMONTID:0001205;CHEMONTID:0001238;CHEMONTID:0000286;CHEMONTID:0001897;CHEMONTID:0003416;CHEMONTID:0002404;CHEMONTID:0002279;CHEMONTID:0000195;CHEMONTID:0001663;CHEMONTID:0000333;CHEMONTID:0004314;CHEMONTID:0001091;CHEMONTID:0000284;CHEMONTID:0003544;CHEMONTID:0001880;CHEMONTID:0003924;CHEMONTID:0003417;CHEMONTID:0000285;CHEMONTID:0000186;CHEMONTID:0000335;CHEMONTID:0002411
Ontology: Fentanyls
OntologyID: CHEMONTID:0000372
RETENTIONTIME: -1
RETENTIONINDEX: -1
TotalBondEnergy: 26344
TotalScore: 7.3795
TotalHrRulesScore: 0.6
TotalBondCleavageScore: 0.95
TotalMassAccuracyScore: 0.8691
TotalFragmentLinkageScore: 1
TotalBondDissociationEnergyScore: 0.9385
DatabaseScore: 0.5238
SubstructureAssignmentScore: 0
RtSimilarityScore: -1
RiSimilarityScore: 0
Num Fragment VS2 (M/Z Intensity MatchedExactMass SaturatedExactMass Formula RearrangedHydrogen PPM MassDiff_mDa IsEvenElectronRule IsHrRule IsSolventAdductFragment AssignedAdductMass AdductString BondDissociationEnergy TreeDepth SMILES TotalScore HrLikelihood BcLikelihood MaLikelihood FlLikelihood BeLikelihood): 2
394.263449	143878.646677	394.225098392756	394.225646972656	C24H30N2O3	0	97.27	38.35	False	False	False	0		346	1	O=C(OC)C3(N(C1=CC=CC=C1)C(=O)C)(CCN(CCC2=CC=CC=C2)CC3(C))	3.7221027844122	0.200000002980232	0.899999976158142	0.745161890983582	1	0.876940914290244
409.242706	155121.392296	409.248578945334	408.241302490234	C25H32N2O3	1	14.35	5.87	True	True	False	0		0	0	O=C(OC)C3(N(C1=CC=CC=C1)C(=O)CC)(CCN(CCC2=CC=CC=C2)CC3(C))	4.99312543869019	1	1	0.993125438690186	1	1

