NAME: UNPD174308
ID: YAKFQIOGPZCTOY
IsSpectrumSearch: False
INCHIKEY: YAKFQIOGPZCTOY-UHFFFAOYSA-N
SMILES: O=C(NCCCCCNO)CCC(=O)N(O)CCCCCNC(=O)CCC(=O)N(O)CCCCCN
RESOURCES: UNPD=UNPD174308
SubstructureInChIKeys: QGZKDVFQNNGYKY;XLYOFNOQVPJJNP;WSFSSNUMVMOOMR;OTMSDBZUPAUEDD;BAVYZALUXZFZLV;IKHGUXGNUITLKF;ATUOYWHBWRKTHZ;QUSNBJAOOMFDIB;ROSDSFDQCJNGOL;NBBJYMSMWIIQGU;IJDNQMDRQITEOD;ATHHXGZTWNVVOU;LIWAQLJGPBVORC;WGYKZJWCGVVSQN;ZTQSAGDEMFDKMZ;OFBQJSOFQDEBGM;GVWISOJSERXQBM;HPNMFZURTQLUMO;HQABUPZFAYXKJW;DZQLQEYLEYWJIB;SUUDTPGCUKBECW;DPBLXKKOBLCELK;QCOGKXLOEWLIDC;VHRGRCVQAFMJIZ;DCDFYDJCNWNFFZ
SubstructureOntologies: NonID:NH2;NonID:H2O;CHEMONTID:0001831;CHEMONTID:0002500;CHEMONTID:0000469;CHEMONTID:0002230;CHEMONTID:0002228;CHEMONTID:0002434;CHEMONTID:0002484;CHEMONTID:0001663
Ontology: N-acyl amines
OntologyID: CHEMONTID:0001096
RETENTIONTIME: -1
RETENTIONINDEX: -1
TotalBondEnergy: 31802
TotalScore: 5.7919
TotalHrRulesScore: 1
TotalBondCleavageScore: 1
TotalMassAccuracyScore: 0.9922
TotalFragmentLinkageScore: 1
TotalBondDissociationEnergyScore: 1
DatabaseScore: 0.2238
SubstructureAssignmentScore: 0
RtSimilarityScore: -1
RiSimilarityScore: 0
Num Fragment VS2 (M/Z Intensity MatchedExactMass SaturatedExactMass Formula RearrangedHydrogen PPM MassDiff_mDa IsEvenElectronRule IsHrRule IsSolventAdductFragment AssignedAdductMass AdductString BondDissociationEnergy TreeDepth SMILES TotalScore HrLikelihood BcLikelihood MaLikelihood FlLikelihood BeLikelihood): 1
519.343792	38324.08442	519.3500498926	518.3427734375	C23H46N6O7	1	12.05	6.26	True	True	False	0		0	0	O=C(NCCCCCNO)CCC(=O)N(O)CCCCCNC(=O)CCC(=O)N(O)CCCCCN	4.99219834804535	1	1	0.992198348045349	1	1

