NAME: 2-(dimethylamino)-N-[[(2S,3R)-5-[(2R)-1-hydroxypropan-2-yl]-3-methyl-6-oxo-8-[2-(3-pyridinyl)ethynyl]-3,4-dihydro-2H-pyrido[2,3-b][1,5]oxazocin-2-yl]methyl]-N-methylacetamide
ID: ATGVLJGFQJXEPR
IsSpectrumSearch: False
INCHIKEY: ATGVLJGFQJXEPR-AJVOMJRLNA-N
SMILES: O=C2C=3C=C(C#CC1=CN=CC=C1)C=NC=3(OC(CN(C(=O)CN(C)C)C)C(C)CN2C(C)CO)
RESOURCES: ChEBI=CHEBI:106105;CHEBI:106159;CHEBI:106189;CHEBI:106203;CHEBI:106239;CHEBI:106317;CHEBI:106327;CHEBI:106379
SubstructureInChIKeys: VNWKTOKETHGBQD;XLYOFNOQVPJJNP;WSFSSNUMVMOOMR;OKKJLVBELUTLKV;IKHGUXGNUITLKF;ATUOYWHBWRKTHZ;ROSDSFDQCJNGOL;LCGLNKUTAGEVQW;LFQSCWFLJHTTHZ;IJDNQMDRQITEOD;NNPPMTNAJDCUHE;ATHHXGZTWNVVOU;LYIIBVSRGJSHAV;GETQZCLCWQTVFV;JJWLVOIRVHMVIS;LIWAQLJGPBVORC;BDERNNFJNOPAEC;XOBKSJJDNFUZPF;HZAXFHJVJLSVMW;QWTDNUCVQCZILF;DAZXVJBJRMWXJP;GVWISOJSERXQBM;HPNMFZURTQLUMO;HQABUPZFAYXKJW;KDSNLYIMUZNERS;XHFGWHUWQXTGAT;BEBCJVAWIBVWNZ;VNKYTQGIUYNRMY;ZXEKIIBDNHEJCQ;WUGQZFFCHPXWKQ;JUJWROOIHBZHMG;SUUDTPGCUKBECW;BMFVGAAISNGQNM;GNVRJGIVDSQCOP;QCOGKXLOEWLIDC;VJROPLWGFCORRM;ZUHZZVMEUAUWHY;FVNIMHIOIXPIQT;MXLMTQWGSQIYOW;UEEJHVSXFDXPFK;ITQTTZVARXURQS;DJEQZVQFEPKLOY;SMBYUOXUISCLCF;VLSTXUUYLIALPB;ZMANZCXQSJIPKH;AQSRRZGQRFFFGS;JAEJQOUXXMFTJU;BFSVOASYOCHEOV
SubstructureOntologies: CHEMONTID:0002500;NonID:H2O;CHEMONTID:0001831;CHEMONTID:0000286;CHEMONTID:0002230;CHEMONTID:0002228;CHEMONTID:0001167;CHEMONTID:0004620;CHEMONTID:0002484;CHEMONTID:0000469;CHEMONTID:0002239;CHEMONTID:0001897;CHEMONTID:0001852;CHEMONTID:0000089;CHEMONTID:0001663;CHEMONTID:0001661;CHEMONTID:0004152
Ontology: Alpha amino acids and derivatives
OntologyID: CHEMONTID:0000060
RETENTIONTIME: -1
RETENTIONINDEX: -1
TotalBondEnergy: 28855
TotalScore: 6.1318
TotalHrRulesScore: 1
TotalBondCleavageScore: 1
TotalMassAccuracyScore: 0.9823
TotalFragmentLinkageScore: 1
TotalBondDissociationEnergyScore: 1
DatabaseScore: 0.5238
SubstructureAssignmentScore: 0
RtSimilarityScore: -1
RiSimilarityScore: 0
Num Fragment VS2 (M/Z Intensity MatchedExactMass SaturatedExactMass Formula RearrangedHydrogen PPM MassDiff_mDa IsEvenElectronRule IsHrRule IsSolventAdductFragment AssignedAdductMass AdductString BondDissociationEnergy TreeDepth SMILES TotalScore HrLikelihood BcLikelihood MaLikelihood FlLikelihood BeLikelihood): 1
480.269993	54561.067836	480.260541835959	479.253265380859	C26H33N5O4	1	19.68	9.45	True	True	False	0		0	0	O=C2C=3C=C(C#CC1=CN=CC=C1)C=NC=3(OC(CN(C(=O)CN(C)C)C)C(C)CN2C(C)CO)	4.98229372501373	1	1	0.982293725013733	1	1

NAME: 2-(dimethylamino)-N-[[(2S,3S)-5-[(2S)-1-hydroxypropan-2-yl]-3-methyl-6-oxo-8-(2-pyridin-4-ylethynyl)-3,4-dihydro-2H-pyrido[2,3-b][1,5]oxazocin-2-yl]methyl]-N-methylacetamide
ID: KOCBSPCEOSIPBH
IsSpectrumSearch: False
INCHIKEY: KOCBSPCEOSIPBH-NOZLAFLVNA-N
SMILES: O=C2C=3C=C(C#CC1=CC=NC=C1)C=NC=3(OC(CN(C(=O)CN(C)C)C)C(C)CN2C(C)CO)
RESOURCES: ChEBI=CHEBI:125914;CHEBI:128665
SubstructureInChIKeys: VNWKTOKETHGBQD;XLYOFNOQVPJJNP;WSFSSNUMVMOOMR;OKKJLVBELUTLKV;IKHGUXGNUITLKF;ATUOYWHBWRKTHZ;ROSDSFDQCJNGOL;LCGLNKUTAGEVQW;LFQSCWFLJHTTHZ;IJDNQMDRQITEOD;NNPPMTNAJDCUHE;ATHHXGZTWNVVOU;LYIIBVSRGJSHAV;GETQZCLCWQTVFV;JJWLVOIRVHMVIS;LIWAQLJGPBVORC;BDERNNFJNOPAEC;XOBKSJJDNFUZPF;HZAXFHJVJLSVMW;QWTDNUCVQCZILF;DAZXVJBJRMWXJP;GVWISOJSERXQBM;HPNMFZURTQLUMO;HQABUPZFAYXKJW;KDSNLYIMUZNERS;XHFGWHUWQXTGAT;BEBCJVAWIBVWNZ;VNKYTQGIUYNRMY;ZXEKIIBDNHEJCQ;WUGQZFFCHPXWKQ;JUJWROOIHBZHMG;SUUDTPGCUKBECW;BMFVGAAISNGQNM;GNVRJGIVDSQCOP;QCOGKXLOEWLIDC;VJROPLWGFCORRM;ZUHZZVMEUAUWHY;FVNIMHIOIXPIQT;MXLMTQWGSQIYOW;UEEJHVSXFDXPFK;ITQTTZVARXURQS;DJEQZVQFEPKLOY;SMBYUOXUISCLCF;VLSTXUUYLIALPB;ZMANZCXQSJIPKH;AQSRRZGQRFFFGS;JAEJQOUXXMFTJU;BFSVOASYOCHEOV
SubstructureOntologies: CHEMONTID:0002500;NonID:H2O;CHEMONTID:0001831;CHEMONTID:0000286;CHEMONTID:0002230;CHEMONTID:0002228;CHEMONTID:0001167;CHEMONTID:0004620;CHEMONTID:0002484;CHEMONTID:0000469;CHEMONTID:0002239;CHEMONTID:0001897;CHEMONTID:0001852;CHEMONTID:0000089;CHEMONTID:0001663;CHEMONTID:0001661;CHEMONTID:0004152
Ontology: Alpha amino acids and derivatives
OntologyID: CHEMONTID:0000060
RETENTIONTIME: -1
RETENTIONINDEX: -1
TotalBondEnergy: 28855
TotalScore: 6.1318
TotalHrRulesScore: 1
TotalBondCleavageScore: 1
TotalMassAccuracyScore: 0.9823
TotalFragmentLinkageScore: 1
TotalBondDissociationEnergyScore: 1
DatabaseScore: 0.5238
SubstructureAssignmentScore: 0
RtSimilarityScore: -1
RiSimilarityScore: 0
Num Fragment VS2 (M/Z Intensity MatchedExactMass SaturatedExactMass Formula RearrangedHydrogen PPM MassDiff_mDa IsEvenElectronRule IsHrRule IsSolventAdductFragment AssignedAdductMass AdductString BondDissociationEnergy TreeDepth SMILES TotalScore HrLikelihood BcLikelihood MaLikelihood FlLikelihood BeLikelihood): 1
480.269993	54561.067836	480.260541835959	479.253265380859	C26H33N5O4	1	19.68	9.45	True	True	False	0		0	0	O=C2C=3C=C(C#CC1=CC=NC=C1)C=NC=3(OC(CN(C(=O)CN(C)C)C)C(C)CN2C(C)CO)	4.98229372501373	1	1	0.982293725013733	1	1

NAME: (1S)-1'-(cyclopropylmethyl)-N-(3,5-dimethyl-4-isoxazolyl)-1-(hydroxymethyl)-7-methoxy-9-methyl-2-spiro[1,3-dihydropyrido[3,4-b]indole-4,3'-azetidine]carboxamide
ID: XKSIWSGTCPACLT
IsSpectrumSearch: False
INCHIKEY: XKSIWSGTCPACLT-RNZRUAGMNA-N
SMILES: O=C(NC=1C(=NOC=1C)C)N4CC6(C=3C=2C=CC(OC)=CC=2N(C=3C4CO)C)(CN(CC5CC5)C6)
RESOURCES: ChEBI=CHEBI:126161;CHEBI:130705
SubstructureInChIKeys: VNWKTOKETHGBQD;XLYOFNOQVPJJNP;WSFSSNUMVMOOMR;OTMSDBZUPAUEDD;OKKJLVBELUTLKV;LVZWSLJZHVFIQJ;ATUOYWHBWRKTHZ;ROSDSFDQCJNGOL;LCGLNKUTAGEVQW;LFQSCWFLJHTTHZ;IJDNQMDRQITEOD;NNPPMTNAJDCUHE;ATHHXGZTWNVVOU;GETQZCLCWQTVFV;JJWLVOIRVHMVIS;LIWAQLJGPBVORC;BDERNNFJNOPAEC;XOTDURGROKNGTI;HZAXFHJVJLSVMW;QWTDNUCVQCZILF;DAZXVJBJRMWXJP;GVWISOJSERXQBM;HPNMFZURTQLUMO;HQABUPZFAYXKJW;KDSNLYIMUZNERS;XHFGWHUWQXTGAT;BEBCJVAWIBVWNZ;UHOVQNZJYSORNB;SUUDTPGCUKBECW;GNVRJGIVDSQCOP;QCOGKXLOEWLIDC;VJROPLWGFCORRM;ZUHZZVMEUAUWHY;UEEJHVSXFDXPFK;ISWSIDIOOBJBQZ;DJEQZVQFEPKLOY;SMBYUOXUISCLCF;VLSTXUUYLIALPB;ZMANZCXQSJIPKH;IWDCLRJOBJJRNH;RDOXTESZEPMUJZ;FUGYGGDSWSUORM;CHLICZRVGGXEOD;HXDOZKJGKXYMEW;UAJRSHJHFRVGMG;DWLZULQNIPIABE;HDNRAPAFJLXKBV;NOTCZLKDULMKBR;CFTOTSJVQRFXOF;FXCIEQJPMSJEII;JOFKCNJIUXPJAC;VENAANZHUCMOGD
SubstructureOntologies: CHEMONTID:0002500;NonID:H2O;CHEMONTID:0001831;CHEMONTID:0000286;CHEMONTID:0001016;CHEMONTID:0002228;CHEMONTID:0001167;CHEMONTID:0004620;CHEMONTID:0002484;CHEMONTID:0002239;CHEMONTID:0000469;CHEMONTID:0000497;CHEMONTID:0001897;CHEMONTID:0002279;CHEMONTID:0001663;CHEMONTID:0004647;CHEMONTID:0001275;CHEMONTID:0000138;CHEMONTID:0000037;CHEMONTID:0004646;CHEMONTID:0000190;CHEMONTID:0001914;CHEMONTID:0002955;CHEMONTID:0001140
Ontology: Harmala alkaloids
OntologyID: CHEMONTID:0001140
RETENTIONTIME: -1
RETENTIONINDEX: -1
TotalBondEnergy: 28830
TotalScore: 6.1318
TotalHrRulesScore: 1
TotalBondCleavageScore: 1
TotalMassAccuracyScore: 0.9823
TotalFragmentLinkageScore: 1
TotalBondDissociationEnergyScore: 1
DatabaseScore: 0.5238
SubstructureAssignmentScore: 0
RtSimilarityScore: -1
RiSimilarityScore: 0
Num Fragment VS2 (M/Z Intensity MatchedExactMass SaturatedExactMass Formula RearrangedHydrogen PPM MassDiff_mDa IsEvenElectronRule IsHrRule IsSolventAdductFragment AssignedAdductMass AdductString BondDissociationEnergy TreeDepth SMILES TotalScore HrLikelihood BcLikelihood MaLikelihood FlLikelihood BeLikelihood): 1
480.269993	54561.067836	480.260541835959	479.253265380859	C26H33N5O4	1	19.68	9.45	True	True	False	0		0	0	O=C(NC=1C(=NOC=1C)C)N4CC6(C=3C=2C=CC(OC)=CC=2N(C=3C4CO)C)(CN(CC5CC5)C6)	4.98229372501373	1	1	0.982293725013733	1	1

NAME: 1-[[(2R,3R)-8-(3-cyanophenyl)-5-[(2S)-1-hydroxypropan-2-yl]-3-methyl-6-oxo-3,4-dihydro-2H-pyrido[2,3-b][1,5]oxazocin-2-yl]methyl]-1-methyl-3-propylurea
ID: YVWHEBSLRQSAGP
IsSpectrumSearch: False
INCHIKEY: YVWHEBSLRQSAGP-FMKFCMHCNA-N
SMILES: N#CC=1C=CC=C(C=1)C=2C=NC=3OC(CN(C(=O)NCCC)C)C(C)CN(C(=O)C=3(C=2))C(C)CO
RESOURCES: ChEBI=CHEBI:109965;CHEBI:110000;CHEBI:110004;CHEBI:110046;CHEBI:110048;CHEBI:110078;CHEBI:110084;CHEBI:110150
SubstructureInChIKeys: VNWKTOKETHGBQD;XLYOFNOQVPJJNP;LELOWRISYMNNSU;WSFSSNUMVMOOMR;OTMSDBZUPAUEDD;OKKJLVBELUTLKV;IKHGUXGNUITLKF;ATUOYWHBWRKTHZ;ROSDSFDQCJNGOL;LCGLNKUTAGEVQW;LFQSCWFLJHTTHZ;IJDNQMDRQITEOD;NNPPMTNAJDCUHE;ATHHXGZTWNVVOU;GETQZCLCWQTVFV;JJWLVOIRVHMVIS;LIWAQLJGPBVORC;BDERNNFJNOPAEC;XOBKSJJDNFUZPF;XOTDURGROKNGTI;HZAXFHJVJLSVMW;QWTDNUCVQCZILF;DAZXVJBJRMWXJP;GVWISOJSERXQBM;HPNMFZURTQLUMO;HQABUPZFAYXKJW;KDSNLYIMUZNERS;XHFGWHUWQXTGAT;BEBCJVAWIBVWNZ;VNKYTQGIUYNRMY;ZXEKIIBDNHEJCQ;WUGQZFFCHPXWKQ;UHOVQNZJYSORNB;JUJWROOIHBZHMG;SUUDTPGCUKBECW;BMFVGAAISNGQNM;GNVRJGIVDSQCOP;QCOGKXLOEWLIDC;VJROPLWGFCORRM;ZUHZZVMEUAUWHY;FVNIMHIOIXPIQT;MXLMTQWGSQIYOW;UEEJHVSXFDXPFK;YXFVVABEGXRONW;ITQTTZVARXURQS;DJEQZVQFEPKLOY;SMBYUOXUISCLCF;VLSTXUUYLIALPB;ZMANZCXQSJIPKH;AQSRRZGQRFFFGS;JAEJQOUXXMFTJU;BFSVOASYOCHEOV
SubstructureOntologies: CHEMONTID:0002500;NonID:H2O;CHEMONTID:0000362;CHEMONTID:0001831;CHEMONTID:0000286;CHEMONTID:0002230;CHEMONTID:0002228;CHEMONTID:0001167;CHEMONTID:0004620;CHEMONTID:0002484;CHEMONTID:0002239;CHEMONTID:0000469;CHEMONTID:0000497;CHEMONTID:0001897;CHEMONTID:0001852;CHEMONTID:0002279;CHEMONTID:0000089;CHEMONTID:0001663;CHEMONTID:0001661;CHEMONTID:0001091;CHEMONTID:0004152
Ontology: Phenylpyridines
OntologyID: CHEMONTID:0002317
RETENTIONTIME: -1
RETENTIONINDEX: -1
TotalBondEnergy: 28951
TotalScore: 6.1318
TotalHrRulesScore: 1
TotalBondCleavageScore: 1
TotalMassAccuracyScore: 0.9823
TotalFragmentLinkageScore: 1
TotalBondDissociationEnergyScore: 1
DatabaseScore: 0.5238
SubstructureAssignmentScore: 0
RtSimilarityScore: -1
RiSimilarityScore: 0
Num Fragment VS2 (M/Z Intensity MatchedExactMass SaturatedExactMass Formula RearrangedHydrogen PPM MassDiff_mDa IsEvenElectronRule IsHrRule IsSolventAdductFragment AssignedAdductMass AdductString BondDissociationEnergy TreeDepth SMILES TotalScore HrLikelihood BcLikelihood MaLikelihood FlLikelihood BeLikelihood): 1
480.269993	54561.067836	480.260541835959	479.253265380859	C26H33N5O4	1	19.68	9.45	True	True	False	0		0	0	N#CC=1C=CC=C(C=1)C=2C=NC=3OC(CN(C(=O)NCCC)C)C(C)CN(C(=O)C=3(C=2))C(C)CO	4.98229372501373	1	1	0.982293725013733	1	1

NAME: LSM-14594
ID: UQZMKBRPQWZRBW
IsSpectrumSearch: False
INCHIKEY: UQZMKBRPQWZRBW-URIZWZIONA-N
SMILES: O=C1C(=CC=C2N1CC5C2N(C(=O)C3CCC3)C(C(=O)NCCC=4N=CN(C=4)C)C5(CO))C=CC
RESOURCES: ChEBI=CHEBI:103250;CHEBI:103287
SubstructureInChIKeys: VNWKTOKETHGBQD;XLYOFNOQVPJJNP;VGGSQFUCUMXWEO;WSFSSNUMVMOOMR;OTMSDBZUPAUEDD;OKKJLVBELUTLKV;QQONPFPTGQHPMA;IKHGUXGNUITLKF;ATUOYWHBWRKTHZ;ROSDSFDQCJNGOL;LFQSCWFLJHTTHZ;IAQRGUVFOMOMEM;NBBJYMSMWIIQGU;IJDNQMDRQITEOD;NNPPMTNAJDCUHE;ATHHXGZTWNVVOU;LYIIBVSRGJSHAV;GETQZCLCWQTVFV;JJWLVOIRVHMVIS;LIWAQLJGPBVORC;BDERNNFJNOPAEC;RAXXELZNTBOGNW;RWRDLPDLKQPQOW;ZTQSAGDEMFDKMZ;OFBQJSOFQDEBGM;QWTDNUCVQCZILF;DAZXVJBJRMWXJP;GVWISOJSERXQBM;HPNMFZURTQLUMO;HQABUPZFAYXKJW;KDSNLYIMUZNERS;XHFGWHUWQXTGAT;LRHPLDYGYMQRHN;ZXEKIIBDNHEJCQ;WUGQZFFCHPXWKQ;JUJWROOIHBZHMG;XLSZMDLNRCVEIJ;AVFZOVWCLRSYKC;HGBOYTHUEUWSSQ;AFABGHUZZDYHJO;PFEOZHBOMNWTJB;VLKZOEOYAKHREP;FGEPRNXUNITOCW;SUUDTPGCUKBECW;BMFVGAAISNGQNM;DPBLXKKOBLCELK;GNVRJGIVDSQCOP;QCOGKXLOEWLIDC;VJROPLWGFCORRM;ZUHZZVMEUAUWHY;AMQJEAYHLZJPGS;PHTQWCKDNZKARW;ITQTTZVARXURQS;UBQKCCHYAOITMY;HQNBJNDMPLEUDS;NJQHZENQKNIRSY;JIDDDPVQQUHACU;PXHHIBMOFPCBJQ;JARKCYVAAOWBJS;VLJXXKKOSFGPHI;DVOFEOSDXAVUJD;DJEQZVQFEPKLOY;SMBYUOXUISCLCF;VLSTXUUYLIALPB;ZMANZCXQSJIPKH;VHRGRCVQAFMJIZ;AQSRRZGQRFFFGS;NTYJJOPFIAHURM;QCAAXUQRSHUEHU;ZOFRRNUENOHELM;JAEJQOUXXMFTJU;SKPCTMWFLGENTL;PFBUXLQVTTXUQM;DCDFYDJCNWNFFZ;JDAMFKGXSUOWBV;CDEBRYPYJRWMDC
SubstructureOntologies: CHEMONTID:0002500;NonID:H2O;CHEMONTID:0004476;CHEMONTID:0001831;CHEMONTID:0000286;CHEMONTID:0002230;CHEMONTID:0002228;CHEMONTID:0002434;CHEMONTID:0004620;CHEMONTID:0002484;CHEMONTID:0000469;CHEMONTID:0002239;CHEMONTID:0000078;CHEMONTID:0000218;CHEMONTID:0001852;CHEMONTID:0000089;CHEMONTID:0003449;CHEMONTID:0001663;CHEMONTID:0004152;CHEMONTID:0001160;CHEMONTID:0002311;CHEMONTID:0002229;CHEMONTID:0004253;CHEMONTID:0002309;CHEMONTID:0000331;CHEMONTID:0004330
Ontology: Alpha amino acid amides
OntologyID: CHEMONTID:0002309
RETENTIONTIME: -1
RETENTIONINDEX: -1
TotalBondEnergy: 29102
TotalScore: 6.1318
TotalHrRulesScore: 1
TotalBondCleavageScore: 1
TotalMassAccuracyScore: 0.9823
TotalFragmentLinkageScore: 1
TotalBondDissociationEnergyScore: 1
DatabaseScore: 0.5238
SubstructureAssignmentScore: 0
RtSimilarityScore: -1
RiSimilarityScore: 0
Num Fragment VS2 (M/Z Intensity MatchedExactMass SaturatedExactMass Formula RearrangedHydrogen PPM MassDiff_mDa IsEvenElectronRule IsHrRule IsSolventAdductFragment AssignedAdductMass AdductString BondDissociationEnergy TreeDepth SMILES TotalScore HrLikelihood BcLikelihood MaLikelihood FlLikelihood BeLikelihood): 1
480.269993	54561.067836	480.260541835959	479.253265380859	C26H33N5O4	1	19.68	9.45	True	True	False	0		0	0	O=C1C(=CC=C2N1CC5C2N(C(=O)C3CCC3)C(C(=O)NCCC=4N=CN(C=4)C)C5(CO))C=CC	4.98229372501373	1	1	0.982293725013733	1	1

