NAME: 1-[1,3-dimethyl-2-oxo-5-[[oxo(propylamino)methyl]amino]-4-imidazolidinyl]-3-propylurea
ID: BJIJZMUZMSFHAB
IsSpectrumSearch: False
INCHIKEY: BJIJZMUZMSFHAB-UHFFFAOYNA-N
SMILES: O=C(NCCC)NC1N(C(=O)N(C)C1(NC(=O)NCCC))C
RESOURCES: ChEBI=CHEBI:120660
SubstructureInChIKeys: VNWKTOKETHGBQD;WSFSSNUMVMOOMR;OTMSDBZUPAUEDD;ATUOYWHBWRKTHZ;ROSDSFDQCJNGOL;ATHHXGZTWNVVOU;GETQZCLCWQTVFV;LIWAQLJGPBVORC;XOTDURGROKNGTI;DAZXVJBJRMWXJP;GVWISOJSERXQBM;SUUDTPGCUKBECW
SubstructureOntologies: CHEMONTID:0002500;CHEMONTID:0001831;CHEMONTID:0002228;CHEMONTID:0002484;CHEMONTID:0002239;CHEMONTID:0000497;CHEMONTID:0001663
Ontology: Imidazolidinones
OntologyID: CHEMONTID:0001149
RETENTIONTIME: -1
RETENTIONINDEX: -1
TotalBondEnergy: 18833
TotalScore: 6.18
TotalHrRulesScore: 1
TotalBondCleavageScore: 1
TotalMassAccuracyScore: 0.9851
TotalFragmentLinkageScore: 1
TotalBondDissociationEnergyScore: 1
DatabaseScore: 0.5238
SubstructureAssignmentScore: 0
RtSimilarityScore: -1
RiSimilarityScore: 0
Num Fragment VS2 (M/Z Intensity MatchedExactMass SaturatedExactMass Formula RearrangedHydrogen PPM MassDiff_mDa IsEvenElectronRule IsHrRule IsSolventAdductFragment AssignedAdductMass AdductString BondDissociationEnergy TreeDepth SMILES TotalScore HrLikelihood BcLikelihood MaLikelihood FlLikelihood BeLikelihood): 1
315.205241	54026.204914	315.213910976584	314.206634521484	C13H26N6O3	1	27.51	8.67	True	True	False	0		0	0	O=C(NCCC)NC1N(C(=O)N(C)C1(NC(=O)NCCC))C	4.98507875204086	1	1	0.985078752040863	1	1

