NAME: 10-(4-Dimethylamino-5-Hydroxy-6-Methyl-Tetrahydro-Pyran-2-Yloxy)-8-Ethyl-1,8,11-Trihydroxy-7,8,9,10-Tetrahydro-Naphthacene-5,12-Dione
ID: BLGDWFJQIHBUJY
IsSpectrumSearch: False
INCHIKEY: BLGDWFJQIHBUJY-KZCXHDHUSA-N
SMILES: O=C1C5=CC=CC(O)=C5(C(=O)C=2C(O)=C4C(=CC1=2)CC(O)(CC)CC4(OC3OC(C)C(O)C(N(C)C)C3))
RESOURCES: DrugBank=DB04131
SubstructureInChIKeys: VNWKTOKETHGBQD;XLYOFNOQVPJJNP;WSFSSNUMVMOOMR;OTMSDBZUPAUEDD;OKKJLVBELUTLKV;ATUOYWHBWRKTHZ;ROSDSFDQCJNGOL;LCGLNKUTAGEVQW;LFQSCWFLJHTTHZ;CKFGINPQOCXMAZ;IJDNQMDRQITEOD;NNPPMTNAJDCUHE;GETQZCLCWQTVFV;JJWLVOIRVHMVIS;LIWAQLJGPBVORC;BDERNNFJNOPAEC;KFZMGEQAYNKOFK;XOBKSJJDNFUZPF;HZAXFHJVJLSVMW;LYCAIKOWRPUZTN;OFBQJSOFQDEBGM;QWTDNUCVQCZILF;DAZXVJBJRMWXJP;GVWISOJSERXQBM;HQABUPZFAYXKJW;XHFGWHUWQXTGAT;BEBCJVAWIBVWNZ;BTANRVKWQNVYAZ;LRHPLDYGYMQRHN;VNKYTQGIUYNRMY;HXKKHQJGJAFBHI;WUGQZFFCHPXWKQ;DNIAPMSPPWPWGF;RRLWYLINGKISHN;XNWFRZJHXBZDAG;YPFDHNVEDLHUCE;VIBDJEWPNNCFQO;UHOVQNZJYSORNB;XDTMQSROBMDMFD;AFABGHUZZDYHJO;PFEOZHBOMNWTJB;VLKZOEOYAKHREP;QCOGKXLOEWLIDC;ZUHZZVMEUAUWHY;AMQJEAYHLZJPGS;AQIXEPGDORPWBJ;FVNIMHIOIXPIQT;JYVLIDXNZAXMDK;PHTQWCKDNZKARW;UEEJHVSXFDXPFK;BMRWNKZVCUKKSR;CHCLGECDSSWNCP;JDFDHBSESGTDAL;PUPZLCDOIYMWBV;YTTFFPATQICAQN;ZNQVEEAIQZEUHB;ISWSIDIOOBJBQZ;UAEPNZWRGJTJPN;HPXRVTGHNJAIIH;VLJXXKKOSFGPHI;DJEQZVQFEPKLOY;ZSIAUFGUXNUGDI;KLKFAASOGCDTDT;WCVRQHFDJLLWFE;XLMFDCKSFJWJTP;YNQLUTRBYVCPMQ;IWDCLRJOBJJRNH;GHMLBKRAJCXXBS;QJXCDRBHYIAFTH;MQWCXKGKQLNYQG;MMQYUDBFDDEJBP;FUGYGGDSWSUORM;BXXXHBWYZKLUGM;ODLMAHJVESYWTB;SMQUZDBALVYZAC;HMNKTRSOROOSPP;HXDOZKJGKXYMEW;WRMNZCZEMHIOCP;OIPPWFOQEKKFEE;ZBCATMYQYDCTIZ;UXUFMKFUJJLWKM;FBTSUTGMWBDAAC;ZDAWZDFBPUUDAY;MPWGZBWDLMDIHO;PMRFBLQVGJNGLU;YCCILVSKPBXVIP;PCYGLFXKCBFGPC;MQSXUKPGWMJYBT
SubstructureOntologies: CHEMONTID:0002500;NonID:H2O;CHEMONTID:0001831;CHEMONTID:0000286;CHEMONTID:0002228;CHEMONTID:0001167;CHEMONTID:0001605;CHEMONTID:0004620;CHEMONTID:0002239;CHEMONTID:0000469;CHEMONTID:0001661;CHEMONTID:0001897;CHEMONTID:0002467;CHEMONTID:0002484;CHEMONTID:0001852;CHEMONTID:0001092;CHEMONTID:0002286;CHEMONTID:0002279;CHEMONTID:0001016;CHEMONTID:0001656;CHEMONTID:0004647;CHEMONTID:0002647;CHEMONTID:0001334;CHEMONTID:0001275;CHEMONTID:0000137;CHEMONTID:0004622;CHEMONTID:0002012;CHEMONTID:0000037;CHEMONTID:0002811;CHEMONTID:0003978;CHEMONTID:0004646;CHEMONTID:0000135;CHEMONTID:0003698
Ontology: Anthracyclines
OntologyID: CHEMONTID:0002106
RETENTIONTIME: -1
RETENTIONINDEX: -1
TotalBondEnergy: 30256
TotalScore: 6.5653
TotalHrRulesScore: 0.6
TotalBondCleavageScore: 0.905
TotalMassAccuracyScore: 0.9982
TotalFragmentLinkageScore: 1
TotalBondDissociationEnergyScore: 0.896
DatabaseScore: 0.5238
SubstructureAssignmentScore: 0
RtSimilarityScore: -1
RiSimilarityScore: 0
Num Fragment VS2 (M/Z Intensity MatchedExactMass SaturatedExactMass Formula RearrangedHydrogen PPM MassDiff_mDa IsEvenElectronRule IsHrRule IsSolventAdductFragment AssignedAdductMass AdductString BondDissociationEnergy TreeDepth SMILES TotalScore HrLikelihood BcLikelihood MaLikelihood FlLikelihood BeLikelihood): 2
273.190186	41268.389676	273.193457111819	275.209655761719	C14H29NO4	-2	11.97	3.27	False	False	False	0		692	1	OC1C(OC(OCCC(O)(C)CC)CC1(N(C)C))C	3.79979351791045	0.200000002980232	0.809999942779541	0.997862279415131	1	0.791931292735546
512.230647	66825.868185	512.227888027366	511.220611572266	C28H33NO8	1	5.39	2.76	True	True	False	0		0	0	O=C1C5=CC=CC(O)=C5(C(=O)C=2C(O)=C4C(=CC1=2)CC(O)(CC)CC4(OC3OC(C)C(O)C(N(C)C)C3))	4.99847877025604	1	1	0.998478770256042	1	1

NAME: Pervilleine E;(+)-Pervilleine E
ID: IYHVGWKIDIDOTL
IsSpectrumSearch: False
INCHIKEY: IYHVGWKIDIDOTL-IZUOZNLFNA-N
SMILES: O=C(OC3CC2N(C)C3(CC(OC(=O)CC=1C=CC=C(O)C=1)C2))C=CC=4C=C(OC)C(OC)=C(OC)C=4
RESOURCES: KNApSAcK=C00041746,UNPD=UNPD1414
SubstructureInChIKeys: VNWKTOKETHGBQD;XLYOFNOQVPJJNP;VGGSQFUCUMXWEO;WSFSSNUMVMOOMR;IKHGUXGNUITLKF;ATUOYWHBWRKTHZ;ROSDSFDQCJNGOL;LCGLNKUTAGEVQW;HGINCPLSRVDWNT;IAQRGUVFOMOMEM;NBBJYMSMWIIQGU;XXROGKLTLUQVRX;IJDNQMDRQITEOD;GETQZCLCWQTVFV;JJWLVOIRVHMVIS;LIWAQLJGPBVORC;QTBSBXVTEAMEQO;TZIHFWKZFHZASV;BDERNNFJNOPAEC;XOBKSJJDNFUZPF;HZAXFHJVJLSVMW;MLUCVPSAIODCQM;RWRDLPDLKQPQOW;NIXOWILDQLNWCW;OFBQJSOFQDEBGM;DAZXVJBJRMWXJP;GVWISOJSERXQBM;HPNMFZURTQLUMO;HQABUPZFAYXKJW;XHFGWHUWQXTGAT;KXKVLQRXCPHEJC;WBJINCZRORDGAQ;XBDQKXXYIPTUBI;BEBCJVAWIBVWNZ;LRHPLDYGYMQRHN;VNKYTQGIUYNRMY;WUGQZFFCHPXWKQ;UHOVQNZJYSORNB;AVFZOVWCLRSYKC;NQRYJNQNLNOLGT;BAPJBEWLBFYGME;VLKZOEOYAKHREP;DPBLXKKOBLCELK;GNVRJGIVDSQCOP;QCOGKXLOEWLIDC;ZUHZZVMEUAUWHY;XEKOWRVHYACXOJ;AMQJEAYHLZJPGS;AQIXEPGDORPWBJ;FVNIMHIOIXPIQT;JYVLIDXNZAXMDK;UEEJHVSXFDXPFK;YXFVVABEGXRONW;ISWSIDIOOBJBQZ;PAMIQIKDUOTOBW;PXHHIBMOFPCBJQ;IMNFDUFMRHMDMM;DJEQZVQFEPKLOY;SMBYUOXUISCLCF;VLSTXUUYLIALPB;ZSIAUFGUXNUGDI;RILLZYSZSDGYGV;PPBRXRYQALVLMV;YNQLUTRBYVCPMQ;IWDCLRJOBJJRNH;RDOXTESZEPMUJZ;GHMLBKRAJCXXBS;ONQLCPDIXPYJSS;TVMXDCGIABBOFY;CETWDUZRCINIHU;RNFDZDMIFOFNMC;QROGIFZRVHSFLM;FUGYGGDSWSUORM;JESXATFQYMPTNL;CHLICZRVGGXEOD;HMNKTRSOROOSPP;HXDOZKJGKXYMEW;WRMNZCZEMHIOCP;LHGVFZTZFXWLCP;OIPPWFOQEKKFEE;ZBCATMYQYDCTIZ;XLRPYZSEQKXZAA;QCDYQQDYXPDABM;FMETWOPSCIOJSL;KJPRLNWUNMBNBZ;UAJRSHJHFRVGMG;FBTSUTGMWBDAAC;ABDKAPXRBAPSQN;DPZNOMCNRMUKPS;NOTCZLKDULMKBR;PETRWTHZSKVLRE;YCCILVSKPBXVIP;LJPZHJUSICYOIX;BPHYZRNTQNPLFI;HDVRLUFGYQYLFJ;CYHOMWAPJJPNMW;CJXMVKYNVIGQBS;MDXYNRAMDATLBT;YOMSJEATGXXYPX;ZZMFDMIBZYLXQE;GYPMBQZAVBFUIZ;RIZBLVRXRWHLFA;FALWUVSXNUUXQA;XQDNFAMOIPNVES;AXCXHFKZHDEKTP;XHYAQFCRAQUBTD;AXMVYSVVTMKQSL;NGSWKAQJJWESNS;NJXYTXADXSRFTJ;GEEXFDOMGJGVHC;AGIQIOSHSMJYJP;CRUILBNAQILVHZ;CHCUDBFRYVCNDF;QAIPRVGONGVQAS;KCIZTNZGSBSSRM;KNUFNLWDGZQKKJ;CDICDSOGTRCHMG;PCMORTLOPMLEFB
SubstructureOntologies: CHEMONTID:0002500;NonID:H2O;CHEMONTID:0004476;CHEMONTID:0001831;CHEMONTID:0002230;CHEMONTID:0002228;CHEMONTID:0001167;CHEMONTID:0002436;CHEMONTID:0002434;CHEMONTID:0000286;CHEMONTID:0002239;CHEMONTID:0000469;CHEMONTID:0001205;CHEMONTID:0001238;CHEMONTID:0001897;CHEMONTID:0000218;CHEMONTID:0004451;CHEMONTID:0003416;CHEMONTID:0002484;CHEMONTID:0001852;CHEMONTID:0002279;CHEMONTID:0003449;CHEMONTID:0000195;CHEMONTID:0004452;CHEMONTID:0001661;CHEMONTID:0001091;CHEMONTID:0004647;CHEMONTID:0001334;CHEMONTID:0000037;CHEMONTID:0001275;CHEMONTID:0000138;CHEMONTID:0000137;CHEMONTID:0004646;CHEMONTID:0000190;CHEMONTID:0000135;CHEMONTID:0000492;CHEMONTID:0000382;CHEMONTID:0000029;CHEMONTID:0004111;CHEMONTID:0003698;CHEMONTID:0000222;CHEMONTID:0000397;CHEMONTID:0002503
Ontology: Coumaric acids and derivatives
OntologyID: CHEMONTID:0000059
RETENTIONTIME: -1
RETENTIONINDEX: -1
TotalBondEnergy: 30058
TotalScore: 5.9601
TotalHrRulesScore: 0.5
TotalBondCleavageScore: 0.5
TotalMassAccuracyScore: 0.4992
TotalFragmentLinkageScore: 0.5
TotalBondDissociationEnergyScore: 0.5
DatabaseScore: 0.5476
SubstructureAssignmentScore: 0
RtSimilarityScore: -1
RiSimilarityScore: 0
Num Fragment VS2 (M/Z Intensity MatchedExactMass SaturatedExactMass Formula RearrangedHydrogen PPM MassDiff_mDa IsEvenElectronRule IsHrRule IsSolventAdductFragment AssignedAdductMass AdductString BondDissociationEnergy TreeDepth SMILES TotalScore HrLikelihood BcLikelihood MaLikelihood FlLikelihood BeLikelihood): 1
512.230647	66825.868185	512.227888027366	511.220611572266	C28H33NO8	1	5.39	2.76	True	True	False	0		0	0	O=C(OC3CC2N(C)C3(CC(OC(=O)CC=1C=CC=C(O)C=1)C2))C=CC=4C=C(OC)C(OC)=C(OC)C=4	4.99847877025604	1	1	0.998478770256042	1	1

NAME: UNPD221620
ID: SBJOOLHBCGISRK
IsSpectrumSearch: False
INCHIKEY: SBJOOLHBCGISRK-XIWQPWFWSA-N
SMILES: O=C(C=CC=CC)C=1C(=O)C2(C)(C3C(C(=O)C(=C(O)C3(OC2(O)(C(O)(C=1(N))C))(C))C)=C(O)C=CC=CC)
RESOURCES: UNPD=UNPD221620
SubstructureInChIKeys: VNWKTOKETHGBQD;QGZKDVFQNNGYKY;XLYOFNOQVPJJNP;VGGSQFUCUMXWEO;WSFSSNUMVMOOMR;OKKJLVBELUTLKV;QQONPFPTGQHPMA;IKHGUXGNUITLKF;IMROMDMJAWUWLK;ATUOYWHBWRKTHZ;QUSNBJAOOMFDIB;LCGLNKUTAGEVQW;LFQSCWFLJHTTHZ;CKFGINPQOCXMAZ;HGINCPLSRVDWNT;IAQRGUVFOMOMEM;VQTUBCCKSQIDNK;VXNZUUAINFGPBY;CSCPPACGZOOCGX;NBBJYMSMWIIQGU;XXROGKLTLUQVRX;IJDNQMDRQITEOD;NNPPMTNAJDCUHE;WGYKZJWCGVVSQN;BDERNNFJNOPAEC;KFZMGEQAYNKOFK;XOBKSJJDNFUZPF;HZAXFHJVJLSVMW;LYCAIKOWRPUZTN;MLUCVPSAIODCQM;BKOOMYPCSUNDGP;QMMOXUPEWRXHJS;YWAKXRMUMFPDSH;GMSHJLUJOABYOM;MKUWVMRNQOOSAT;ZSPTYLOMNJNZNG;ZTQSAGDEMFDKMZ;OFBQJSOFQDEBGM;QWTDNUCVQCZILF;HQABUPZFAYXKJW;KDSNLYIMUZNERS;AKXKFZDCRYJKTF;BEBCJVAWIBVWNZ;BTANRVKWQNVYAZ;LRHPLDYGYMQRHN;VNKYTQGIUYNRMY;ZXEKIIBDNHEJCQ;HXKKHQJGJAFBHI;WUGQZFFCHPXWKQ;DNIAPMSPPWPWGF;RRLWYLINGKISHN;XNWFRZJHXBZDAG;VIBDJEWPNNCFQO;PRBHEGAFLDMLAL;ACZNIBVNGPLHAC;BEQGRRJLJLVQAQ;LDTAOIUHUHHCMU;LIKMAJRDDDTEIG;RYPKRALMXUUNKS;ZQDPJFUHLCOCRG;FSUXYWPILZJGCC;GJYMQFMQRRNLCY;HGBOYTHUEUWSSQ;AFABGHUZZDYHJO;HNRMPXKDFBEGFZ;PFEOZHBOMNWTJB;VLKZOEOYAKHREP;DPBLXKKOBLCELK;VJROPLWGFCORRM;AMQJEAYHLZJPGS;AQIXEPGDORPWBJ;FVNIMHIOIXPIQT;JYVLIDXNZAXMDK;MXLMTQWGSQIYOW;PHTQWCKDNZKARW;BMRWNKZVCUKKSR;YTTFFPATQICAQN;ZNQVEEAIQZEUHB;FWFSEYBSWVRWGL;FMAMSYPJXSEYSW;USLRUYZDOLMIRJ;ADHCYQWFCLQBFG;WZHKDGJSXCTSCK;ZGEGCLOFRBLKSE;BVOSSZSHBZQJOI;JARKCYVAAOWBJS;UFLHIIWVXFIJGU;BZHMBWZPUJHVEE;IMNFDUFMRHMDMM;VLJXXKKOSFGPHI;KSTOUTVBGBEWOS;ZSIAUFGUXNUGDI;QONBKISCDWCHKF;WCVRQHFDJLLWFE;XLMFDCKSFJWJTP;MTHSVFCYNBDYFN;PKHBEGZTQNOZLP;RKSNPTXBQXBXDJ;GDDAJHJRAKOILH;UDOAKURRCZMWOJ;KWKAKUADMBZCLK;YXLCVBVDFKWWRW;CATSNJVOTSVZJV;FXHGMKSSBGDXIY;PZKFYTOLVRCMOA;JVSWJIKNEAIKJW;TVMXDCGIABBOFY;CETWDUZRCINIHU;OVOVDHYEOQJKMD;NSMOSDAEGJTOIQ;NDFYWJZFESRLBQ;NMFOAHIHPAPYJJ;ZUSUVEKHEZURSD;IICQZTQZQSBHBY;KPADFPAILITQBG;LEBVLOLOVGHEFE;NUJGJRNETVAIRJ;VSMOENVRRABVKN;ZDAWZDFBPUUDAY;KABCBIJVOXYNHG;ZIWXVGHUDKNNSH;YFBDMUJOFKYAGE
SubstructureOntologies: CHEMONTID:0002500;NonID:NH2;NonID:H2O;CHEMONTID:0004476;CHEMONTID:0001831;CHEMONTID:0000286;CHEMONTID:0002230;CHEMONTID:0000132;CHEMONTID:0000469;CHEMONTID:0001167;CHEMONTID:0001605;CHEMONTID:0002436;CHEMONTID:0004622;CHEMONTID:0000118;CHEMONTID:0002434;CHEMONTID:0004620;CHEMONTID:0001661;CHEMONTID:0001897;CHEMONTID:0002467;CHEMONTID:0002484;CHEMONTID:0001852;CHEMONTID:0001092;CHEMONTID:0002286;CHEMONTID:0001019;CHEMONTID:0004325;CHEMONTID:0002229;CHEMONTID:0001334;CHEMONTID:0002648;CHEMONTID:0002841;CHEMONTID:0001967
Ontology: O-quinomethanes
OntologyID: CHEMONTID:0002122
RETENTIONTIME: -1
RETENTIONINDEX: -1
TotalBondEnergy: 30231
TotalScore: 5.713
TotalHrRulesScore: 1
TotalBondCleavageScore: 0.7952
TotalMassAccuracyScore: 0.8526
TotalFragmentLinkageScore: 1
TotalBondDissociationEnergyScore: 0.7326
DatabaseScore: 0.2238
SubstructureAssignmentScore: 0
RtSimilarityScore: -1
RiSimilarityScore: 0
Num Fragment VS2 (M/Z Intensity MatchedExactMass SaturatedExactMass Formula RearrangedHydrogen PPM MassDiff_mDa IsEvenElectronRule IsHrRule IsSolventAdductFragment AssignedAdductMass AdductString BondDissociationEnergy TreeDepth SMILES TotalScore HrLikelihood BcLikelihood MaLikelihood FlLikelihood BeLikelihood): 2
273.190186	41268.389676	273.148522701819	276.172546386719	C17H24O3	-3	152.51	41.66	True	True	False	0		1766	3	O=C1C(=C(O)C(C)C(C1=C(O)C=CC=CC)C(C)C)C	3.76247774686043	1	0.59048992395401	0.706687927246094	1	0.465299895660324
512.230647	66825.868185	512.227888027366	511.220611572266	C28H33NO8	1	5.39	2.76	True	True	False	0		0	0	O=C(C=CC=CC)C=1C(=O)C2(C)(C3C(C(=O)C(=C(O)C3(OC2(O)(C(O)(C=1(N))C))(C))C)=C(O)C=CC=CC)	4.99847877025604	1	1	0.998478770256042	1	1

NAME: UNPD10655
ID: FSPDOKDIFCCWRB
IsSpectrumSearch: False
INCHIKEY: FSPDOKDIFCCWRB-SSELOYLUNA-N
SMILES: O=C3OC2C(OC(=O)C)C6(C)(C(C1=CCNC1(=O))CC5OC56(C(=C)C2C(C=C3)(C)C4CC(=O)OC4(C)(C)))
RESOURCES: UNPD=UNPD10655
SubstructureInChIKeys: VNWKTOKETHGBQD;VGGSQFUCUMXWEO;WSFSSNUMVMOOMR;IKHGUXGNUITLKF;ATUOYWHBWRKTHZ;ROSDSFDQCJNGOL;LCGLNKUTAGEVQW;HGINCPLSRVDWNT;IAQRGUVFOMOMEM;VQTUBCCKSQIDNK;VXNZUUAINFGPBY;NBBJYMSMWIIQGU;XXROGKLTLUQVRX;IJDNQMDRQITEOD;NNPPMTNAJDCUHE;ATHHXGZTWNVVOU;LIWAQLJGPBVORC;QTBSBXVTEAMEQO;TZIHFWKZFHZASV;BDERNNFJNOPAEC;XOBKSJJDNFUZPF;LYCAIKOWRPUZTN;MLUCVPSAIODCQM;BKOOMYPCSUNDGP;QMMOXUPEWRXHJS;RGSFGYAAUTVSQA;YWAKXRMUMFPDSH;NIXOWILDQLNWCW;ZSPTYLOMNJNZNG;ZTQSAGDEMFDKMZ;OFBQJSOFQDEBGM;QWTDNUCVQCZILF;GVWISOJSERXQBM;HPNMFZURTQLUMO;HQABUPZFAYXKJW;KXKVLQRXCPHEJC;WBJINCZRORDGAQ;XBDQKXXYIPTUBI;LRHPLDYGYMQRHN;VNKYTQGIUYNRMY;ZXEKIIBDNHEJCQ;XNWFRZJHXBZDAG;YPFDHNVEDLHUCE;VIBDJEWPNNCFQO;BEQGRRJLJLVQAQ;GDOPTJXRTPNYNR;LDTAOIUHUHHCMU;LIKMAJRDDDTEIG;RYPKRALMXUUNKS;XDTMQSROBMDMFD;BAPJBEWLBFYGME;YEJRWHAVMIAJKC;HGBOYTHUEUWSSQ;JWUJQDFVADABEY;AFABGHUZZDYHJO;HNRMPXKDFBEGFZ;PFEOZHBOMNWTJB;VLKZOEOYAKHREP;BMFVGAAISNGQNM;DPBLXKKOBLCELK;QCOGKXLOEWLIDC;FERIUCNNQQJTOY;XEKOWRVHYACXOJ;AMQJEAYHLZJPGS;AQIXEPGDORPWBJ;FVNIMHIOIXPIQT;JYVLIDXNZAXMDK;MXLMTQWGSQIYOW;PHTQWCKDNZKARW;BMRWNKZVCUKKSR;JDFDHBSESGTDAL;PUPZLCDOIYMWBV;QWGRWMMWNDWRQN;YTTFFPATQICAQN;ZNQVEEAIQZEUHB;USLRUYZDOLMIRJ;ADHCYQWFCLQBFG;QWHNJUXXYKPLQM;ZGEGCLOFRBLKSE;BVOSSZSHBZQJOI;HPXRVTGHNJAIIH;JARKCYVAAOWBJS;BZHMBWZPUJHVEE;IMNFDUFMRHMDMM;VLJXXKKOSFGPHI;ZSIAUFGUXNUGDI;SLCVBVWXLSEKPL;WCVRQHFDJLLWFE;XLMFDCKSFJWJTP;ARXKVVRQIIOZGF;QJXCDRBHYIAFTH;UDOAKURRCZMWOJ;KVZJLSYJROEPSQ;KWKAKUADMBZCLK;LETYIFNDQBJGPJ;QEGNUYASOUJEHD;YXLCVBVDFKWWRW;FXHGMKSSBGDXIY;MQWCXKGKQLNYQG;PZKFYTOLVRCMOA;JVSWJIKNEAIKJW;TVMXDCGIABBOFY;OQAGVSWESNCJJT;CETWDUZRCINIHU;OVOVDHYEOQJKMD;IICQZTQZQSBHBY;KPSZWAJWFMFMFF;LEBVLOLOVGHEFE;NUJGJRNETVAIRJ;VSMOENVRRABVKN;VWLITJGXNSANSN;ZBAXJUPCYVIBSP;JQASYHORSFXWGI;PFBUXLQVTTXUQM;BSTCHFGEIXFVRN;MHPUGCYGQWGLJL;NZQMQVJXSRMTCJ;ZDAWZDFBPUUDAY;GGWBGCSGJCRVIQ;NYFHUVYMLLAQHH;HIVFIUIKABOGIO;SOUITUXPBGREAE;IVAHELAXKRVMQR;WLBGHZBIFQNGCH;NXCPHYJTOJDSLE;IRXJZDLOCNJAHE;OTBOAOSTJYUVHP
SubstructureOntologies: CHEMONTID:0002500;CHEMONTID:0004476;CHEMONTID:0001831;CHEMONTID:0002230;CHEMONTID:0002228;CHEMONTID:0001167;CHEMONTID:0002436;CHEMONTID:0004622;CHEMONTID:0002434;CHEMONTID:0000286;CHEMONTID:0004620;CHEMONTID:0002484;CHEMONTID:0001205;CHEMONTID:0001238;CHEMONTID:0002467;CHEMONTID:0001016;CHEMONTID:0004451;CHEMONTID:0000469;CHEMONTID:0003416;CHEMONTID:0002286;CHEMONTID:0004452;CHEMONTID:0001245;CHEMONTID:0002648;CHEMONTID:0000333;CHEMONTID:0001661;CHEMONTID:0002229;CHEMONTID:0002647;CHEMONTID:0001334;CHEMONTID:0003417;CHEMONTID:0003086;CHEMONTID:0000331;CHEMONTID:0004149;CHEMONTID:0003544;CHEMONTID:0001401
Ontology: Tricarboxylic acids and derivatives
OntologyID: CHEMONTID:0001986
RETENTIONTIME: -1
RETENTIONINDEX: -1
TotalBondEnergy: 30464
TotalScore: 5.699
TotalHrRulesScore: 1
TotalBondCleavageScore: 0.664
TotalMassAccuracyScore: 0.9588
TotalFragmentLinkageScore: 1
TotalBondDissociationEnergyScore: 0.6831
DatabaseScore: 0.2238
SubstructureAssignmentScore: 0
RtSimilarityScore: -1
RiSimilarityScore: 0
Num Fragment VS2 (M/Z Intensity MatchedExactMass SaturatedExactMass Formula RearrangedHydrogen PPM MassDiff_mDa IsEvenElectronRule IsHrRule IsSolventAdductFragment AssignedAdductMass AdductString BondDissociationEnergy TreeDepth SMILES TotalScore HrLikelihood BcLikelihood MaLikelihood FlLikelihood BeLikelihood): 2
273.190186	41268.389676	273.169660488303	272.162384033203	C14H24O5	1	75.13	20.53	True	True	False	0		1652	2	O=C(OCC(O)CC(C)(C)C1CC(=O)OC1(C)(C))C	3.61353764553848	1	0.328049957752228	0.919192850589752	1	0.366294837196504
512.230647	66825.868185	512.227888027366	511.220611572266	C28H33NO8	1	5.39	2.76	True	True	False	0		0	0	O=C3OC2C(OC(=O)C)C6(C)(C(C1=CCNC1(=O))CC5OC56(C(=C)C2C(C=C3)(C)C4CC(=O)OC4(C)(C)))	4.99847877025604	1	1	0.998478770256042	1	1

NAME: UNPD219494
ID: FBUMTPMBZLYMGG
IsSpectrumSearch: False
INCHIKEY: FBUMTPMBZLYMGG-XNLMCKFUSA-N
SMILES: O=C1C(=C(O)C2(OC3(O)(C(O)(C=4NC(C=CC)CC(=O)C=4(C(=O)C3(C)(C2(C1(=C(O)C=CC=CC)))))C))(C))C
RESOURCES: UNPD=UNPD219494
SubstructureInChIKeys: VNWKTOKETHGBQD;XLYOFNOQVPJJNP;VGGSQFUCUMXWEO;WSFSSNUMVMOOMR;OKKJLVBELUTLKV;QQONPFPTGQHPMA;IKHGUXGNUITLKF;IMROMDMJAWUWLK;ATUOYWHBWRKTHZ;ROSDSFDQCJNGOL;LCGLNKUTAGEVQW;LFQSCWFLJHTTHZ;CKFGINPQOCXMAZ;HGINCPLSRVDWNT;IAQRGUVFOMOMEM;VQTUBCCKSQIDNK;VXNZUUAINFGPBY;CSCPPACGZOOCGX;NBBJYMSMWIIQGU;XXROGKLTLUQVRX;IJDNQMDRQITEOD;NNPPMTNAJDCUHE;JJWLVOIRVHMVIS;LIWAQLJGPBVORC;BDERNNFJNOPAEC;KFZMGEQAYNKOFK;XOBKSJJDNFUZPF;HZAXFHJVJLSVMW;LYCAIKOWRPUZTN;MLUCVPSAIODCQM;BKOOMYPCSUNDGP;QMMOXUPEWRXHJS;YWAKXRMUMFPDSH;GMSHJLUJOABYOM;MKUWVMRNQOOSAT;ZSPTYLOMNJNZNG;ZTQSAGDEMFDKMZ;OFBQJSOFQDEBGM;QWTDNUCVQCZILF;GVWISOJSERXQBM;HPNMFZURTQLUMO;HQABUPZFAYXKJW;KDSNLYIMUZNERS;XHFGWHUWQXTGAT;AKXKFZDCRYJKTF;BEBCJVAWIBVWNZ;BTANRVKWQNVYAZ;LRHPLDYGYMQRHN;VNKYTQGIUYNRMY;ZXEKIIBDNHEJCQ;HXKKHQJGJAFBHI;WUGQZFFCHPXWKQ;DNIAPMSPPWPWGF;RRLWYLINGKISHN;XNWFRZJHXBZDAG;VIBDJEWPNNCFQO;PRBHEGAFLDMLAL;ACZNIBVNGPLHAC;BEQGRRJLJLVQAQ;LDTAOIUHUHHCMU;LIKMAJRDDDTEIG;RYPKRALMXUUNKS;ZQDPJFUHLCOCRG;FSUXYWPILZJGCC;GJYMQFMQRRNLCY;HGBOYTHUEUWSSQ;AFABGHUZZDYHJO;HNRMPXKDFBEGFZ;PFEOZHBOMNWTJB;VLKZOEOYAKHREP;DPBLXKKOBLCELK;QCOGKXLOEWLIDC;VJROPLWGFCORRM;AMQJEAYHLZJPGS;AQIXEPGDORPWBJ;FVNIMHIOIXPIQT;JYVLIDXNZAXMDK;MXLMTQWGSQIYOW;PHTQWCKDNZKARW;BMRWNKZVCUKKSR;YTTFFPATQICAQN;ZNQVEEAIQZEUHB;FWFSEYBSWVRWGL;FMAMSYPJXSEYSW;USLRUYZDOLMIRJ;ADHCYQWFCLQBFG;WZHKDGJSXCTSCK;ZGEGCLOFRBLKSE;BVOSSZSHBZQJOI;JARKCYVAAOWBJS;UFLHIIWVXFIJGU;BZHMBWZPUJHVEE;IMNFDUFMRHMDMM;VLJXXKKOSFGPHI;VLSTXUUYLIALPB;KSTOUTVBGBEWOS;ZSIAUFGUXNUGDI;RILLZYSZSDGYGV;QONBKISCDWCHKF;WCVRQHFDJLLWFE;XLMFDCKSFJWJTP;MTHSVFCYNBDYFN;PKHBEGZTQNOZLP;RKSNPTXBQXBXDJ;GDDAJHJRAKOILH;UDOAKURRCZMWOJ;KWKAKUADMBZCLK;YXLCVBVDFKWWRW;CATSNJVOTSVZJV;FXHGMKSSBGDXIY;PZKFYTOLVRCMOA;JVSWJIKNEAIKJW;TVMXDCGIABBOFY;CETWDUZRCINIHU;OVOVDHYEOQJKMD;RNFDZDMIFOFNMC;NSMOSDAEGJTOIQ;NDFYWJZFESRLBQ;NMFOAHIHPAPYJJ;ZUSUVEKHEZURSD;IICQZTQZQSBHBY;KPADFPAILITQBG;LEBVLOLOVGHEFE;NUJGJRNETVAIRJ;VSMOENVRRABVKN;ZDAWZDFBPUUDAY;KABCBIJVOXYNHG;ZIWXVGHUDKNNSH;YFBDMUJOFKYAGE
SubstructureOntologies: CHEMONTID:0002500;NonID:H2O;CHEMONTID:0004476;CHEMONTID:0001831;CHEMONTID:0000286;CHEMONTID:0002230;CHEMONTID:0000132;CHEMONTID:0002228;CHEMONTID:0001167;CHEMONTID:0001605;CHEMONTID:0002436;CHEMONTID:0004622;CHEMONTID:0000118;CHEMONTID:0002434;CHEMONTID:0004620;CHEMONTID:0000469;CHEMONTID:0001661;CHEMONTID:0001897;CHEMONTID:0002467;CHEMONTID:0002484;CHEMONTID:0001852;CHEMONTID:0001092;CHEMONTID:0002286;CHEMONTID:0001019;CHEMONTID:0004325;CHEMONTID:0002229;CHEMONTID:0001334;CHEMONTID:0002648;CHEMONTID:0002841;CHEMONTID:0001967
Ontology: O-quinomethanes
OntologyID: CHEMONTID:0002122
RETENTIONTIME: -1
RETENTIONINDEX: -1
TotalBondEnergy: 30305
TotalScore: 5.6848
TotalHrRulesScore: 1
TotalBondCleavageScore: 0.7952
TotalMassAccuracyScore: 0.8526
TotalFragmentLinkageScore: 1
TotalBondDissociationEnergyScore: 0.6875
DatabaseScore: 0.2238
SubstructureAssignmentScore: 0
RtSimilarityScore: -1
RiSimilarityScore: 0
Num Fragment VS2 (M/Z Intensity MatchedExactMass SaturatedExactMass Formula RearrangedHydrogen PPM MassDiff_mDa IsEvenElectronRule IsHrRule IsSolventAdductFragment AssignedAdductMass AdductString BondDissociationEnergy TreeDepth SMILES TotalScore HrLikelihood BcLikelihood MaLikelihood FlLikelihood BeLikelihood): 2
273.190186	41268.389676	273.148522701819	276.172546386719	C17H24O3	-3	152.51	41.66	True	True	False	0		1766	3	O=C1C(=C(O)C(C)C(C1=C(O)C=CC=CC)C(C)C)C	3.67218798893817	1	0.59048992395401	0.706687927246094	1	0.37501013773807
512.230647	66825.868185	512.227888027366	511.220611572266	C28H33NO8	1	5.39	2.76	True	True	False	0		0	0	O=C1C(=C(O)C2(OC3(O)(C(O)(C=4NC(C=CC)CC(=O)C=4(C(=O)C3(C)(C2(C1(=C(O)C=CC=CC)))))C))(C))C	4.99847877025604	1	1	0.998478770256042	1	1

