NAME: 2'-Deoxymugineic acid
ID: CUZKLRTTYZOCSD
IsSpectrumSearch: False
INCHIKEY: CUZKLRTTYZOCSD-UHFFFAOYNA-N
SMILES: O=C(O)C(O)CCNC(C(=O)O)CCN1CCC1(C(=O)O)
RESOURCES: HMDB=HMDB0033909,ChEBI=CHEBI:19274;CHEBI:58487,FooDB=FDB012105,PubChem=45266659,PlantCyc=CPD-7227,UNPD=UNPD22165
SubstructureInChIKeys: XLYOFNOQVPJJNP;WSFSSNUMVMOOMR;OTMSDBZUPAUEDD;OKKJLVBELUTLKV;IKHGUXGNUITLKF;ATUOYWHBWRKTHZ;ROSDSFDQCJNGOL;BDAGIHXWWSANSR;LFQSCWFLJHTTHZ;NBBJYMSMWIIQGU;IJDNQMDRQITEOD;LYIIBVSRGJSHAV;GETQZCLCWQTVFV;JJWLVOIRVHMVIS;LIWAQLJGPBVORC;QTBSBXVTEAMEQO;WGCNASOHLSPBMP;BDERNNFJNOPAEC;KFZMGEQAYNKOFK;HZAXFHJVJLSVMW;LYCAIKOWRPUZTN;ZTQSAGDEMFDKMZ;DAZXVJBJRMWXJP;GVWISOJSERXQBM;HPNMFZURTQLUMO;HQABUPZFAYXKJW;XHFGWHUWQXTGAT;AKXKFZDCRYJKTF;BSABBBMNWQWLLU;XBDQKXXYIPTUBI;BEBCJVAWIBVWNZ;BTANRVKWQNVYAZ;LRHPLDYGYMQRHN;DHMQDGOQFOQNFH;WUGQZFFCHPXWKQ;AEMRFAOFKBGASW;DNIAPMSPPWPWGF;VIBDJEWPNNCFQO;DZQLQEYLEYWJIB;FGEPRNXUNITOCW;GNVRJGIVDSQCOP;QCOGKXLOEWLIDC;ZUHZZVMEUAUWHY;FERIUCNNQQJTOY;QNAYBMKLOCPYGJ;UEEJHVSXFDXPFK;ALRHLSYJTWAHJZ;JVTAAEKCZFNVCJ;BMRWNKZVCUKKSR;DJEQZVQFEPKLOY;SMBYUOXUISCLCF;VLSTXUUYLIALPB;ZMANZCXQSJIPKH;BTCSSZJGUNDROE;QWCKQJZIFLGMSD;AFENDNXGAFYKQO;BFSVOASYOCHEOV
SubstructureOntologies: NonID:H2O;CHEMONTID:0001831;CHEMONTID:0002500;CHEMONTID:0000286;CHEMONTID:0002230;CHEMONTID:0002228;CHEMONTID:0001205;CHEMONTID:0002434;CHEMONTID:0000469;CHEMONTID:0002239;CHEMONTID:0001661;CHEMONTID:0001897;CHEMONTID:0002467;CHEMONTID:0003675;CHEMONTID:0002484;CHEMONTID:0002404;CHEMONTID:0001852;CHEMONTID:0001359;CHEMONTID:0002286;CHEMONTID:0000333;CHEMONTID:0004314;CHEMONTID:0001713;CHEMONTID:0001880
Ontology: Gamma amino acids and derivatives
OntologyID: CHEMONTID:0001880
RETENTIONTIME: -1
RETENTIONINDEX: -1
TotalBondEnergy: 16705
TotalScore: 7.1211
TotalHrRulesScore: 1
TotalBondCleavageScore: 1
TotalMassAccuracyScore: 0.9983
TotalFragmentLinkageScore: 1
TotalBondDissociationEnergyScore: 1
DatabaseScore: 0.6429
SubstructureAssignmentScore: 0
RtSimilarityScore: -1
RiSimilarityScore: 0
Num Fragment VS2 (M/Z Intensity MatchedExactMass SaturatedExactMass Formula RearrangedHydrogen PPM MassDiff_mDa IsEvenElectronRule IsHrRule IsSolventAdductFragment AssignedAdductMass AdductString BondDissociationEnergy TreeDepth SMILES TotalScore HrLikelihood BcLikelihood MaLikelihood FlLikelihood BeLikelihood): 1
305.131397	383790.834699	305.134321132834	304.127044677734	C12H20N2O7	1	9.58	2.92	True	True	False	0		0	0	O=C(O)C(O)CCNC(C(=O)O)CCN1CCC1(C(=O)O)	4.99829137325287	1	1	0.998291373252869	1	1

NAME: 2-(1,2,3,4-Tetrahydroxybutyl)-6-(2,3,4-trihydroxybutyl)pyrazine
ID: MBHUNOHYVYVNIP
IsSpectrumSearch: False
INCHIKEY: MBHUNOHYVYVNIP-UHFFFAOYNA-N
SMILES: OCC(O)C(O)CC1=NC(=CN=C1)C(O)C(O)C(O)CO
RESOURCES: HMDB=HMDB0034894,FooDB=FDB013470,UNPD=UNPD13893
SubstructureInChIKeys: XLYOFNOQVPJJNP;OKKJLVBELUTLKV;ATUOYWHBWRKTHZ;LFQSCWFLJHTTHZ;IJDNQMDRQITEOD;BDERNNFJNOPAEC;KFZMGEQAYNKOFK;LYCAIKOWRPUZTN;OFBQJSOFQDEBGM;BTANRVKWQNVYAZ;LRHPLDYGYMQRHN;DNIAPMSPPWPWGF;YPFDHNVEDLHUCE;VIBDJEWPNNCFQO;AMQJEAYHLZJPGS;AQIXEPGDORPWBJ;JYVLIDXNZAXMDK;BMRWNKZVCUKKSR;PUPZLCDOIYMWBV;PEDCQBHIVMGVHV;WCVRQHFDJLLWFE;XLMFDCKSFJWJTP;ARXKVVRQIIOZGF;YAXKTBLXMTYWDQ;MQVRLONNONYDJP;AALKGALVYCZETF;UNXHWFMMPAWVPI;FJGNTEKSQVNVTJ;JJMZVBNCCUWEDF
SubstructureOntologies: NonID:H2O;CHEMONTID:0000286;CHEMONTID:0002500;CHEMONTID:0001661;CHEMONTID:0002467;CHEMONTID:0002286;CHEMONTID:0002210
Ontology: Pyrazines
OntologyID: CHEMONTID:0000067
RETENTIONTIME: -1
RETENTIONINDEX: -1
TotalBondEnergy: 16618
TotalScore: 6.9425
TotalHrRulesScore: 1
TotalBondCleavageScore: 1
TotalMassAccuracyScore: 0.9983
TotalFragmentLinkageScore: 1
TotalBondDissociationEnergyScore: 1
DatabaseScore: 0.5714
SubstructureAssignmentScore: 0
RtSimilarityScore: -1
RiSimilarityScore: 0
Num Fragment VS2 (M/Z Intensity MatchedExactMass SaturatedExactMass Formula RearrangedHydrogen PPM MassDiff_mDa IsEvenElectronRule IsHrRule IsSolventAdductFragment AssignedAdductMass AdductString BondDissociationEnergy TreeDepth SMILES TotalScore HrLikelihood BcLikelihood MaLikelihood FlLikelihood BeLikelihood): 1
305.131397	383790.834699	305.134321132834	304.127044677734	C12H20N2O7	1	9.58	2.92	True	True	False	0		0	0	OCC(O)C(O)CC1=NC(=CN=C1)C(O)C(O)C(O)CO	4.99829137325287	1	1	0.998291373252869	1	1

NAME: Deoxyfructosazine
ID: FBDICDJCXVZLIP
IsSpectrumSearch: False
INCHIKEY: FBDICDJCXVZLIP-UHFFFAOYNA-N
SMILES: OCC(O)C(O)CC=1N=CC(=NC=1)C(O)C(O)C(O)CO
RESOURCES: HMDB=HMDB0038696,FooDB=FDB018101
SubstructureInChIKeys: XLYOFNOQVPJJNP;OKKJLVBELUTLKV;ATUOYWHBWRKTHZ;LFQSCWFLJHTTHZ;IJDNQMDRQITEOD;BDERNNFJNOPAEC;KFZMGEQAYNKOFK;LYCAIKOWRPUZTN;OFBQJSOFQDEBGM;BTANRVKWQNVYAZ;LRHPLDYGYMQRHN;DNIAPMSPPWPWGF;YPFDHNVEDLHUCE;VIBDJEWPNNCFQO;AMQJEAYHLZJPGS;AQIXEPGDORPWBJ;JYVLIDXNZAXMDK;BMRWNKZVCUKKSR;PUPZLCDOIYMWBV;PEDCQBHIVMGVHV;WCVRQHFDJLLWFE;XLMFDCKSFJWJTP;ARXKVVRQIIOZGF;YAXKTBLXMTYWDQ;MQVRLONNONYDJP;AALKGALVYCZETF;UNXHWFMMPAWVPI;FJGNTEKSQVNVTJ;JJMZVBNCCUWEDF
SubstructureOntologies: NonID:H2O;CHEMONTID:0000286;CHEMONTID:0002500;CHEMONTID:0001661;CHEMONTID:0002467;CHEMONTID:0002286;CHEMONTID:0002210
Ontology: Pyrazines
OntologyID: CHEMONTID:0000067
RETENTIONTIME: -1
RETENTIONINDEX: -1
TotalBondEnergy: 16618
TotalScore: 6.883
TotalHrRulesScore: 1
TotalBondCleavageScore: 1
TotalMassAccuracyScore: 0.9983
TotalFragmentLinkageScore: 1
TotalBondDissociationEnergyScore: 1
DatabaseScore: 0.5476
SubstructureAssignmentScore: 0
RtSimilarityScore: -1
RiSimilarityScore: 0
Num Fragment VS2 (M/Z Intensity MatchedExactMass SaturatedExactMass Formula RearrangedHydrogen PPM MassDiff_mDa IsEvenElectronRule IsHrRule IsSolventAdductFragment AssignedAdductMass AdductString BondDissociationEnergy TreeDepth SMILES TotalScore HrLikelihood BcLikelihood MaLikelihood FlLikelihood BeLikelihood): 1
305.131397	383790.834699	305.134321132834	304.127044677734	C12H20N2O7	1	9.58	2.92	True	True	False	0		0	0	OCC(O)C(O)CC=1N=CC(=NC=1)C(O)C(O)C(O)CO	4.99829137325287	1	1	0.998291373252869	1	1

NAME: Dysiherbaine
ID: YUSZFKPLFIQTGF
IsSpectrumSearch: False
INCHIKEY: YUSZFKPLFIQTGF-NENVTKMUNA-N
SMILES: O=C(O)C(N)CC2(OC1C(OCC(O)C1(NC))C2)(C(=O)O)
RESOURCES: KNApSAcK=C00028227,UNPD=UNPD28047
SubstructureInChIKeys: VNWKTOKETHGBQD;QGZKDVFQNNGYKY;XLYOFNOQVPJJNP;WSFSSNUMVMOOMR;BAVYZALUXZFZLV;OKKJLVBELUTLKV;IKHGUXGNUITLKF;ATUOYWHBWRKTHZ;QUSNBJAOOMFDIB;ROSDSFDQCJNGOL;BDAGIHXWWSANSR;LCGLNKUTAGEVQW;LFQSCWFLJHTTHZ;NBBJYMSMWIIQGU;IJDNQMDRQITEOD;NNPPMTNAJDCUHE;LYIIBVSRGJSHAV;JJWLVOIRVHMVIS;LIWAQLJGPBVORC;WGYKZJWCGVVSQN;QTBSBXVTEAMEQO;BDERNNFJNOPAEC;KFZMGEQAYNKOFK;XOBKSJJDNFUZPF;HZAXFHJVJLSVMW;LYCAIKOWRPUZTN;ZTQSAGDEMFDKMZ;OFBQJSOFQDEBGM;QWTDNUCVQCZILF;QPMCUNAXNMSGTK;GVWISOJSERXQBM;HQABUPZFAYXKJW;XHFGWHUWQXTGAT;XBDQKXXYIPTUBI;YSEFYOVWKJXNCH;BEBCJVAWIBVWNZ;BTANRVKWQNVYAZ;LRHPLDYGYMQRHN;VNKYTQGIUYNRMY;ZXEKIIBDNHEJCQ;DHMQDGOQFOQNFH;HXKKHQJGJAFBHI;WUGQZFFCHPXWKQ;AEMRFAOFKBGASW;DNIAPMSPPWPWGF;XNWFRZJHXBZDAG;YPFDHNVEDLHUCE;VIBDJEWPNNCFQO;HGBOYTHUEUWSSQ;JWUJQDFVADABEY;AFABGHUZZDYHJO;PFEOZHBOMNWTJB;VLKZOEOYAKHREP;DZQLQEYLEYWJIB;FGEPRNXUNITOCW;BMFVGAAISNGQNM;DPBLXKKOBLCELK;QCOGKXLOEWLIDC;FERIUCNNQQJTOY;KQNPFQTWMSNSAP;AMQJEAYHLZJPGS;AQIXEPGDORPWBJ;FVNIMHIOIXPIQT;JYVLIDXNZAXMDK;PHTQWCKDNZKARW;QNAYBMKLOCPYGJ;JVTAAEKCZFNVCJ;BMRWNKZVCUKKSR;JDFDHBSESGTDAL;PUPZLCDOIYMWBV;YTTFFPATQICAQN;ZNQVEEAIQZEUHB;JARKCYVAAOWBJS;IMNFDUFMRHMDMM;VLJXXKKOSFGPHI;WLAMNBDJUVNPJU;ZSIAUFGUXNUGDI;BTCSSZJGUNDROE;QWCKQJZIFLGMSD;AFENDNXGAFYKQO;WCVRQHFDJLLWFE;XLMFDCKSFJWJTP;ARXKVVRQIIOZGF;MTHSVFCYNBDYFN;FXHGMKSSBGDXIY;JVSWJIKNEAIKJW;TVMXDCGIABBOFY;ZOFRRNUENOHELM;CETWDUZRCINIHU;SNDPXSYFESPGGJ;MMQYUDBFDDEJBP;NUJGJRNETVAIRJ;KABXUUFDPUOJMW;MPUUQNGXJSEWTF;SLXKOJJOQWFEFD;JFCQEDHGNNZCLN;UXUFMKFUJJLWKM;CZWARROQQFCFJB;ZDAWZDFBPUUDAY;WHUUTDBJXJRKMK
SubstructureOntologies: CHEMONTID:0002500;NonID:NH2;NonID:H2O;CHEMONTID:0001831;CHEMONTID:0000469;CHEMONTID:0000286;CHEMONTID:0002230;CHEMONTID:0002228;CHEMONTID:0001205;CHEMONTID:0001167;CHEMONTID:0002434;CHEMONTID:0004620;CHEMONTID:0001661;CHEMONTID:0001897;CHEMONTID:0002467;CHEMONTID:0002484;CHEMONTID:0002404;CHEMONTID:0001852;CHEMONTID:0001359;CHEMONTID:0002286;CHEMONTID:0002648;CHEMONTID:0000333;CHEMONTID:0004314;CHEMONTID:0002229;CHEMONTID:0003544;CHEMONTID:0001334;CHEMONTID:0001880;CHEMONTID:0002012;CHEMONTID:0003086;CHEMONTID:0000346;CHEMONTID:0004323
Ontology: Furanoid amino acids and derivatives
OntologyID: CHEMONTID:0001696
RETENTIONTIME: -1
RETENTIONINDEX: -1
TotalBondEnergy: 16668
TotalScore: 6.883
TotalHrRulesScore: 1
TotalBondCleavageScore: 1
TotalMassAccuracyScore: 0.9983
TotalFragmentLinkageScore: 1
TotalBondDissociationEnergyScore: 1
DatabaseScore: 0.5476
SubstructureAssignmentScore: 0
RtSimilarityScore: -1
RiSimilarityScore: 0
Num Fragment VS2 (M/Z Intensity MatchedExactMass SaturatedExactMass Formula RearrangedHydrogen PPM MassDiff_mDa IsEvenElectronRule IsHrRule IsSolventAdductFragment AssignedAdductMass AdductString BondDissociationEnergy TreeDepth SMILES TotalScore HrLikelihood BcLikelihood MaLikelihood FlLikelihood BeLikelihood): 1
305.131397	383790.834699	305.134321132834	304.127044677734	C12H20N2O7	1	9.58	2.92	True	True	False	0		0	0	O=C(O)C(N)CC2(OC1C(OCC(O)C1(NC))C2)(C(=O)O)	4.99829137325287	1	1	0.998291373252869	1	1

