NAME: tetraphenylene
ID: KTQYWNARBMKMCX
IsSpectrumSearch: False
INCHIKEY: KTQYWNARBMKMCX-LEYBOLSUSA-N
SMILES: C1=CC=C3C(=C1)C2=CC=CC=C2C5=CC=CC=C5(C4=CC=CC=C34)
RESOURCES: ChEBI=CHEBI:33149
SubstructureInChIKeys: UHOVQNZJYSORNB
SubstructureOntologies: CHEMONTID:0002279
Ontology: Benzenoids
OntologyID: CHEMONTID:0002448
RETENTIONTIME: -1
RETENTIONINDEX: -1
TotalBondEnergy: 19336
TotalScore: 6.7181
TotalHrRulesScore: 1
TotalBondCleavageScore: 1
TotalMassAccuracyScore: 0.9998
TotalFragmentLinkageScore: 1
TotalBondDissociationEnergyScore: 1
DatabaseScore: 0.5238
SubstructureAssignmentScore: 0
RtSimilarityScore: -1
RiSimilarityScore: 0
Num Fragment VS2 (M/Z Intensity MatchedExactMass SaturatedExactMass Formula RearrangedHydrogen PPM MassDiff_mDa IsEvenElectronRule IsHrRule IsSolventAdductFragment AssignedAdductMass AdductString BondDissociationEnergy TreeDepth SMILES TotalScore HrLikelihood BcLikelihood MaLikelihood FlLikelihood BeLikelihood): 1
305.131397	383790.834699	305.132490078147	304.125213623047	C24H16	1	3.58	1.09	True	True	False	0		0	0	C1=CC=C3C(=C1)C2=CC=CC=C2C5=CC=CC=C5(C4=CC=CC=C34)	4.9997610449791	1	1	0.999761044979095	1	1

