NAME: UNPD7175
ID: UJPWZJUBKFMAST
IsSpectrumSearch: False
INCHIKEY: UJPWZJUBKFMAST-KSAXTKFFNA-N
SMILES: O=C2C(=CC(C)CC=CC4C1OC1(C)C(C)C5C(NC(=O)C45(C3=NC2CC3))CC7=CNC6=CC=CC=C67)C
RESOURCES: UNPD=UNPD7175
SubstructureInChIKeys: VNWKTOKETHGBQD;VGGSQFUCUMXWEO;WDWDWGRYHDPSDS;WSFSSNUMVMOOMR;OTMSDBZUPAUEDD;QQONPFPTGQHPMA;IKHGUXGNUITLKF;ATUOYWHBWRKTHZ;ROSDSFDQCJNGOL;LCGLNKUTAGEVQW;HGINCPLSRVDWNT;IAQRGUVFOMOMEM;VQTUBCCKSQIDNK;VXNZUUAINFGPBY;CSCPPACGZOOCGX;GOOHAUXETOMSMM;NBBJYMSMWIIQGU;IJDNQMDRQITEOD;NNPPMTNAJDCUHE;ATHHXGZTWNVVOU;LYIIBVSRGJSHAV;JJWLVOIRVHMVIS;LIWAQLJGPBVORC;BDERNNFJNOPAEC;XOBKSJJDNFUZPF;MLUCVPSAIODCQM;BKOOMYPCSUNDGP;QMMOXUPEWRXHJS;YWAKXRMUMFPDSH;RWRDLPDLKQPQOW;ZSPTYLOMNJNZNG;ZTQSAGDEMFDKMZ;OFBQJSOFQDEBGM;QWTDNUCVQCZILF;GVWISOJSERXQBM;HPNMFZURTQLUMO;HQABUPZFAYXKJW;KDSNLYIMUZNERS;XHFGWHUWQXTGAT;LRHPLDYGYMQRHN;VNKYTQGIUYNRMY;ZXEKIIBDNHEJCQ;UHOVQNZJYSORNB;BEQGRRJLJLVQAQ;LDTAOIUHUHHCMU;LIKMAJRDDDTEIG;RYPKRALMXUUNKS;XDTMQSROBMDMFD;ZQDPJFUHLCOCRG;FSUXYWPILZJGCC;HGBOYTHUEUWSSQ;AFABGHUZZDYHJO;HNRMPXKDFBEGFZ;PFEOZHBOMNWTJB;VLKZOEOYAKHREP;DZQLQEYLEYWJIB;FGEPRNXUNITOCW;SUUDTPGCUKBECW;BMFVGAAISNGQNM;DPBLXKKOBLCELK;QCOGKXLOEWLIDC;VJROPLWGFCORRM;AMQJEAYHLZJPGS;AQIXEPGDORPWBJ;FVNIMHIOIXPIQT;JYVLIDXNZAXMDK;MXLMTQWGSQIYOW;PHTQWCKDNZKARW;BMRWNKZVCUKKSR;UAEPNZWRGJTJPN;WZHKDGJSXCTSCK;ZGEGCLOFRBLKSE;JARKCYVAAOWBJS;UFLHIIWVXFIJGU;BZHMBWZPUJHVEE;IMNFDUFMRHMDMM;VLJXXKKOSFGPHI;VLSTXUUYLIALPB;ZSIAUFGUXNUGDI;WCVRQHFDJLLWFE;XLMFDCKSFJWJTP;KVZJLSYJROEPSQ;KWKAKUADMBZCLK;QEGNUYASOUJEHD;SGVUHPSBDNVHKL;CATSNJVOTSVZJV;FXHGMKSSBGDXIY;JVSWJIKNEAIKJW;TVMXDCGIABBOFY;CETWDUZRCINIHU;OVOVDHYEOQJKMD;SIKJAQJRHWYJAI;IICQZTQZQSBHBY;KPADFPAILITQBG;PYOLJOJPIPCRDP;XARGIVYWQPXRTC;LZHHQGKEJNRBAZ;NUJGJRNETVAIRJ;VWLITJGXNSANSN;JQASYHORSFXWGI;PFBUXLQVTTXUQM;ZFRKQXVRDFCRJG;BUOAKQCLRBVIOX;HIVFIUIKABOGIO;YLZKVXHQMPWDBJ;IVAHELAXKRVMQR;GOVXKUCVZUROAN;VTXRDCQMLXABHJ;APJYDQYYACXCRM;IRXJZDLOCNJAHE;NCIKQJBVUNUXLW
SubstructureOntologies: CHEMONTID:0002500;CHEMONTID:0004476;CHEMONTID:0000117;CHEMONTID:0001831;CHEMONTID:0002230;CHEMONTID:0002228;CHEMONTID:0001167;CHEMONTID:0002436;CHEMONTID:0004622;CHEMONTID:0000118;CHEMONTID:0000159;CHEMONTID:0002434;CHEMONTID:0004620;CHEMONTID:0002484;CHEMONTID:0000469;CHEMONTID:0000286;CHEMONTID:0000218;CHEMONTID:0002279;CHEMONTID:0001016;CHEMONTID:0001663;CHEMONTID:0001661;CHEMONTID:0002467;CHEMONTID:0002229;CHEMONTID:0001334;CHEMONTID:0002497;CHEMONTID:0000331;CHEMONTID:0004529;CHEMONTID:0004196;CHEMONTID:0000183
Ontology: Macrolactams
OntologyID: CHEMONTID:0000064
RETENTIONTIME: -1
RETENTIONINDEX: -1
TotalBondEnergy: 32811
TotalScore: 6.4709
TotalHrRulesScore: 1
TotalBondCleavageScore: 0.8645
TotalMassAccuracyScore: 0.8236
TotalFragmentLinkageScore: 1
TotalBondDissociationEnergyScore: 0.8422
DatabaseScore: 0.2238
SubstructureAssignmentScore: 0
RtSimilarityScore: -1
RiSimilarityScore: 0
Num Fragment VS2 (M/Z Intensity MatchedExactMass SaturatedExactMass Formula RearrangedHydrogen PPM MassDiff_mDa IsEvenElectronRule IsHrRule IsSolventAdductFragment AssignedAdductMass AdductString BondDissociationEnergy TreeDepth SMILES TotalScore HrLikelihood BcLikelihood MaLikelihood FlLikelihood BeLikelihood): 2
362.232664	28357.212157	362.186298015959	363.194671630859	C22H25N3O2	-1	128	46.37	True	True	False	0		1038	2	O=C3NC(CC2=CNC1=CC=CC=C12)C5CC6(OC6(CC35(C4=NCCC4)))(C)	4.06401231535293	1	0.7289999127388	0.650534510612488	1	0.684477892001646
512.294814	34009.745686	512.290754238303	511.283477783203	C32H37N3O3	1	7.92	4.06	True	True	False	0		0	0	O=C2C(=CC(C)CC=CC4C1OC1(C)C(C)C5C(NC(=O)C45(C3=NC2CC3))CC7=CNC6=CC=CC=C67)C	4.99670910835266	1	1	0.996709108352661	1	1

