NAME: Pravastatin
ID: TUZYXOIXSAXUGO
IsSpectrumSearch: False
INCHIKEY: TUZYXOIXSAXUGO-PZAWKZKUSA-N
SMILES: O=C(O)CC(O)CC(O)CCC2C(C=CC1=CC(O)CC(OC(=O)C(C)CC)C12)C
RESOURCES: HMDB=HMDB0005022,KNApSAcK=C00000565,ChEBI=CHEBI:63618;CHEBI:63660;CHEBI:91841;CHEBI:94322;CHEBI:94554,DrugBank=DB00175,SMPDB=PW_C002369,FooDB=FDB023593,STOFF=STOFF_1028,BMDB=BMDB05022,LipidMAPS=LMFA05000695,PubChem=54687,UNPD=UNPD105304;UNPD117912;UNPD21853
SubstructureInChIKeys: VNWKTOKETHGBQD;XLYOFNOQVPJJNP;VGGSQFUCUMXWEO;WSFSSNUMVMOOMR;OTMSDBZUPAUEDD;OKKJLVBELUTLKV;IKHGUXGNUITLKF;ATUOYWHBWRKTHZ;BDAGIHXWWSANSR;LCGLNKUTAGEVQW;LFQSCWFLJHTTHZ;IAQRGUVFOMOMEM;VQTUBCCKSQIDNK;VXNZUUAINFGPBY;NBBJYMSMWIIQGU;XXROGKLTLUQVRX;IJDNQMDRQITEOD;NNPPMTNAJDCUHE;QTBSBXVTEAMEQO;TZIHFWKZFHZASV;BDERNNFJNOPAEC;KFZMGEQAYNKOFK;XOBKSJJDNFUZPF;BKOOMYPCSUNDGP;QMMOXUPEWRXHJS;YWAKXRMUMFPDSH;MKUWVMRNQOOSAT;ZSPTYLOMNJNZNG;ZTQSAGDEMFDKMZ;OFBQJSOFQDEBGM;QWTDNUCVQCZILF;AKXKFZDCRYJKTF;KXKVLQRXCPHEJC;WBJINCZRORDGAQ;XBDQKXXYIPTUBI;BTANRVKWQNVYAZ;LRHPLDYGYMQRHN;VNKYTQGIUYNRMY;ZXEKIIBDNHEJCQ;YPFDHNVEDLHUCE;ACZNIBVNGPLHAC;BEQGRRJLJLVQAQ;LDTAOIUHUHHCMU;LIKMAJRDDDTEIG;RYPKRALMXUUNKS;ZQDPJFUHLCOCRG;FSUXYWPILZJGCC;GJYMQFMQRRNLCY;HGBOYTHUEUWSSQ;AFABGHUZZDYHJO;PFEOZHBOMNWTJB;VLKZOEOYAKHREP;FERIUCNNQQJTOY;KQNPFQTWMSNSAP;PIAOXUVIBAKVSP;XEKOWRVHYACXOJ;AMQJEAYHLZJPGS;AQIXEPGDORPWBJ;FVNIMHIOIXPIQT;JYVLIDXNZAXMDK;MXLMTQWGSQIYOW;PHTQWCKDNZKARW;ALRHLSYJTWAHJZ;JVTAAEKCZFNVCJ;JDFDHBSESGTDAL;PUPZLCDOIYMWBV;VAOJQRMYAXTUQI;WZHKDGJSXCTSCK;ZGEGCLOFRBLKSE;BVOSSZSHBZQJOI;JARKCYVAAOWBJS;UFLHIIWVXFIJGU;BZHMBWZPUJHVEE;IMNFDUFMRHMDMM;VLJXXKKOSFGPHI;WLAMNBDJUVNPJU;ZSIAUFGUXNUGDI;SJZRECIVHVDYJC;KWKAKUADMBZCLK;FXHGMKSSBGDXIY;PZKFYTOLVRCMOA;JVSWJIKNEAIKJW;TVMXDCGIABBOFY;WDAXFOBOLVPGLV;CETWDUZRCINIHU;OVOVDHYEOQJKMD;IICQZTQZQSBHBY;KPADFPAILITQBG;LZHHQGKEJNRBAZ;NUJGJRNETVAIRJ;OHEFFKYYKJVVOX;VSMOENVRRABVKN;BQOAKIRTXKZTKD;ZIWXVGHUDKNNSH
SubstructureOntologies: CHEMONTID:0002500;NonID:H2O;CHEMONTID:0004476;CHEMONTID:0001831;CHEMONTID:0000286;CHEMONTID:0002230;CHEMONTID:0001205;CHEMONTID:0001167;CHEMONTID:0004622;CHEMONTID:0002434;CHEMONTID:0004620;CHEMONTID:0001238;CHEMONTID:0001661;CHEMONTID:0003416;CHEMONTID:0000333;CHEMONTID:0001713;CHEMONTID:0001359;CHEMONTID:0002229;CHEMONTID:0001334;CHEMONTID:0003544;CHEMONTID:0000341
Ontology: Medium-chain hydroxy acids and derivatives
OntologyID: CHEMONTID:0000299
RETENTIONTIME: -1
RETENTIONINDEX: -1
TotalBondEnergy: 27104
TotalScore: 5.9242
TotalHrRulesScore: 0.5
TotalBondCleavageScore: 0.5
TotalMassAccuracyScore: 0.493
TotalFragmentLinkageScore: 0.5
TotalBondDissociationEnergyScore: 0.5
DatabaseScore: 0.7619
SubstructureAssignmentScore: 0
RtSimilarityScore: -1
RiSimilarityScore: 0
Num Fragment VS2 (M/Z Intensity MatchedExactMass SaturatedExactMass Formula RearrangedHydrogen PPM MassDiff_mDa IsEvenElectronRule IsHrRule IsSolventAdductFragment AssignedAdductMass AdductString BondDissociationEnergy TreeDepth SMILES TotalScore HrLikelihood BcLikelihood MaLikelihood FlLikelihood BeLikelihood): 1
425.26178	239777.332171	425.2533702051	424.24609375	C23H36O7	1	19.78	8.41	True	True	False	0		0	0	O=C(O)CC(O)CC(O)CCC2C(C=CC1=CC(O)CC(OC(=O)C(C)CC)C12)C	4.98595464229584	1	1	0.985954642295837	1	1

NAME: Dendronpholide G;(+)-Dendronpholide G;Sinulaflexiolide E;(+)-Sinulaflexiolide E
ID: AVJJAJDAJIWWOI
IsSpectrumSearch: False
INCHIKEY: AVJJAJDAJIWWOI-HIXGYGBQNA-N
SMILES: O=C(OC)C(=C)C2CCC(O)(C)C1OC(C)(CC1)C(OC(=O)C)CCC3(OC3(C2))(C)
RESOURCES: KNApSAcK=C00038973,UNPD=UNPD181979;UNPD54811
SubstructureInChIKeys: VNWKTOKETHGBQD;XLYOFNOQVPJJNP;VGGSQFUCUMXWEO;WSFSSNUMVMOOMR;OTMSDBZUPAUEDD;OKKJLVBELUTLKV;IKHGUXGNUITLKF;ATUOYWHBWRKTHZ;LCGLNKUTAGEVQW;LFQSCWFLJHTTHZ;HGINCPLSRVDWNT;VQTUBCCKSQIDNK;VXNZUUAINFGPBY;GOOHAUXETOMSMM;NBBJYMSMWIIQGU;XXROGKLTLUQVRX;IJDNQMDRQITEOD;NNPPMTNAJDCUHE;QTBSBXVTEAMEQO;TZIHFWKZFHZASV;BDERNNFJNOPAEC;KFZMGEQAYNKOFK;XOBKSJJDNFUZPF;LYCAIKOWRPUZTN;YWAKXRMUMFPDSH;NIXOWILDQLNWCW;ZTQSAGDEMFDKMZ;OFBQJSOFQDEBGM;QWTDNUCVQCZILF;KXKVLQRXCPHEJC;WBJINCZRORDGAQ;XBDQKXXYIPTUBI;BTANRVKWQNVYAZ;LRHPLDYGYMQRHN;VNKYTQGIUYNRMY;ZXEKIIBDNHEJCQ;DNIAPMSPPWPWGF;XNWFRZJHXBZDAG;VIBDJEWPNNCFQO;LDTAOIUHUHHCMU;LIKMAJRDDDTEIG;BAPJBEWLBFYGME;CERQOIWHTDAKMF;HGBOYTHUEUWSSQ;JWUJQDFVADABEY;AFABGHUZZDYHJO;PFEOZHBOMNWTJB;VLKZOEOYAKHREP;FERIUCNNQQJTOY;XEKOWRVHYACXOJ;AMQJEAYHLZJPGS;AQIXEPGDORPWBJ;FVNIMHIOIXPIQT;JYVLIDXNZAXMDK;MXLMTQWGSQIYOW;PHTQWCKDNZKARW;BMRWNKZVCUKKSR;YTTFFPATQICAQN;ZNQVEEAIQZEUHB;ZGEGCLOFRBLKSE;JARKCYVAAOWBJS;IMNFDUFMRHMDMM;VLJXXKKOSFGPHI;ZSIAUFGUXNUGDI;WCVRQHFDJLLWFE;XLMFDCKSFJWJTP;MTHSVFCYNBDYFN;KWKAKUADMBZCLK;FXHGMKSSBGDXIY;JVSWJIKNEAIKJW;TVMXDCGIABBOFY;OQAGVSWESNCJJT;CETWDUZRCINIHU;NUJGJRNETVAIRJ;NZQMQVJXSRMTCJ;ZDAWZDFBPUUDAY
SubstructureOntologies: CHEMONTID:0002500;NonID:H2O;CHEMONTID:0004476;CHEMONTID:0001831;CHEMONTID:0000286;CHEMONTID:0002230;CHEMONTID:0001167;CHEMONTID:0002436;CHEMONTID:0004622;CHEMONTID:0000159;CHEMONTID:0002434;CHEMONTID:0004620;CHEMONTID:0001205;CHEMONTID:0001238;CHEMONTID:0001661;CHEMONTID:0002467;CHEMONTID:0004451;CHEMONTID:0003416;CHEMONTID:0002286;CHEMONTID:0004452;CHEMONTID:0002648;CHEMONTID:0000333;CHEMONTID:0002229;CHEMONTID:0001334;CHEMONTID:0003417;CHEMONTID:0003086
Ontology: Sesquiterpenoids
OntologyID: CHEMONTID:0001550
RETENTIONTIME: -1
RETENTIONINDEX: -1
TotalBondEnergy: 27086
TotalScore: 5.3885
TotalHrRulesScore: 0.5
TotalBondCleavageScore: 0.5
TotalMassAccuracyScore: 0.493
TotalFragmentLinkageScore: 0.5
TotalBondDissociationEnergyScore: 0.5
DatabaseScore: 0.5476
SubstructureAssignmentScore: 0
RtSimilarityScore: -1
RiSimilarityScore: 0
Num Fragment VS2 (M/Z Intensity MatchedExactMass SaturatedExactMass Formula RearrangedHydrogen PPM MassDiff_mDa IsEvenElectronRule IsHrRule IsSolventAdductFragment AssignedAdductMass AdductString BondDissociationEnergy TreeDepth SMILES TotalScore HrLikelihood BcLikelihood MaLikelihood FlLikelihood BeLikelihood): 1
425.26178	239777.332171	425.2533702051	424.24609375	C23H36O7	1	19.78	8.41	True	True	False	0		0	0	O=C(OC)C(=C)C2CCC(O)(C)C1OC(C)(CC1)C(OC(=O)C)CCC3(OC3(C2))(C)	4.98595464229584	1	1	0.985954642295837	1	1

NAME: Blumicin A;(-)-Blumicin A
ID: AZMYPPRBOSDBMG
IsSpectrumSearch: False
INCHIKEY: AZMYPPRBOSDBMG-BTJDEXEANA-N
SMILES: O=C(OCC(=CC=CC(O)(C)C)C2CCC1(C)(CC(O)(CCC1(O))C2(C(=O)OC)))C
RESOURCES: KNApSAcK=C00042290,UNPD=UNPD59265
SubstructureInChIKeys: VNWKTOKETHGBQD;XLYOFNOQVPJJNP;VGGSQFUCUMXWEO;WSFSSNUMVMOOMR;OTMSDBZUPAUEDD;OKKJLVBELUTLKV;IKHGUXGNUITLKF;ATUOYWHBWRKTHZ;LCGLNKUTAGEVQW;LFQSCWFLJHTTHZ;IAQRGUVFOMOMEM;VQTUBCCKSQIDNK;VXNZUUAINFGPBY;NBBJYMSMWIIQGU;XXROGKLTLUQVRX;IJDNQMDRQITEOD;NNPPMTNAJDCUHE;QTBSBXVTEAMEQO;TZIHFWKZFHZASV;BDERNNFJNOPAEC;KFZMGEQAYNKOFK;XOBKSJJDNFUZPF;BKOOMYPCSUNDGP;QMMOXUPEWRXHJS;YWAKXRMUMFPDSH;MKUWVMRNQOOSAT;ZTQSAGDEMFDKMZ;OFBQJSOFQDEBGM;QWTDNUCVQCZILF;AKXKFZDCRYJKTF;KXKVLQRXCPHEJC;WBJINCZRORDGAQ;XBDQKXXYIPTUBI;BTANRVKWQNVYAZ;LRHPLDYGYMQRHN;VNKYTQGIUYNRMY;ZXEKIIBDNHEJCQ;YPFDHNVEDLHUCE;ACZNIBVNGPLHAC;BEQGRRJLJLVQAQ;LDTAOIUHUHHCMU;LIKMAJRDDDTEIG;RYPKRALMXUUNKS;XDTMQSROBMDMFD;GJYMQFMQRRNLCY;HGBOYTHUEUWSSQ;NEJDKFPXHQRVMV;AFABGHUZZDYHJO;HNRMPXKDFBEGFZ;PFEOZHBOMNWTJB;VLKZOEOYAKHREP;FERIUCNNQQJTOY;KQNPFQTWMSNSAP;XEKOWRVHYACXOJ;AMQJEAYHLZJPGS;AQIXEPGDORPWBJ;JYVLIDXNZAXMDK;MXLMTQWGSQIYOW;PHTQWCKDNZKARW;JVTAAEKCZFNVCJ;JDFDHBSESGTDAL;PUPZLCDOIYMWBV;QWGRWMMWNDWRQN;VAOJQRMYAXTUQI;UAEPNZWRGJTJPN;ZGEGCLOFRBLKSE;HPXRVTGHNJAIIH;JARKCYVAAOWBJS;BZHMBWZPUJHVEE;IMNFDUFMRHMDMM;VLJXXKKOSFGPHI;WLAMNBDJUVNPJU;ZSIAUFGUXNUGDI;KVZJLSYJROEPSQ;KWKAKUADMBZCLK;QEGNUYASOUJEHD;SGVUHPSBDNVHKL;FXHGMKSSBGDXIY;MQWCXKGKQLNYQG;JVSWJIKNEAIKJW;TVMXDCGIABBOFY;OQAGVSWESNCJJT;CETWDUZRCINIHU;OVOVDHYEOQJKMD;IICQZTQZQSBHBY;PYOLJOJPIPCRDP;XARGIVYWQPXRTC;NUJGJRNETVAIRJ;VWLITJGXNSANSN;ZBAXJUPCYVIBSP;MHPUGCYGQWGLJL;NZQMQVJXSRMTCJ;HIVFIUIKABOGIO;YLZKVXHQMPWDBJ;SOUITUXPBGREAE
SubstructureOntologies: CHEMONTID:0002500;NonID:H2O;CHEMONTID:0004476;CHEMONTID:0001831;CHEMONTID:0000286;CHEMONTID:0002230;CHEMONTID:0001167;CHEMONTID:0004622;CHEMONTID:0002434;CHEMONTID:0004620;CHEMONTID:0001205;CHEMONTID:0001238;CHEMONTID:0001661;CHEMONTID:0003416;CHEMONTID:0001016;CHEMONTID:0000333;CHEMONTID:0001359;CHEMONTID:0002647;CHEMONTID:0002229;CHEMONTID:0003544;CHEMONTID:0001334;CHEMONTID:0003417;CHEMONTID:0003086
Ontology: Dicarboxylic acids and derivatives
OntologyID: CHEMONTID:0000346
RETENTIONTIME: -1
RETENTIONINDEX: -1
TotalBondEnergy: 27068
TotalScore: 5.3885
TotalHrRulesScore: 0.5
TotalBondCleavageScore: 0.5
TotalMassAccuracyScore: 0.493
TotalFragmentLinkageScore: 0.5
TotalBondDissociationEnergyScore: 0.5
DatabaseScore: 0.5476
SubstructureAssignmentScore: 0
RtSimilarityScore: -1
RiSimilarityScore: 0
Num Fragment VS2 (M/Z Intensity MatchedExactMass SaturatedExactMass Formula RearrangedHydrogen PPM MassDiff_mDa IsEvenElectronRule IsHrRule IsSolventAdductFragment AssignedAdductMass AdductString BondDissociationEnergy TreeDepth SMILES TotalScore HrLikelihood BcLikelihood MaLikelihood FlLikelihood BeLikelihood): 1
425.26178	239777.332171	425.2533702051	424.24609375	C23H36O7	1	19.78	8.41	True	True	False	0		0	0	O=C(OCC(=CC=CC(O)(C)C)C2CCC1(C)(CC(O)(CCC1(O))C2(C(=O)OC)))C	4.98595464229584	1	1	0.985954642295837	1	1

NAME: Briarellin N;(-)-Briarellin N
ID: BFRZTCFDEPTFFN
IsSpectrumSearch: False
INCHIKEY: BFRZTCFDEPTFFN-IAQHLQKPNA-N
SMILES: O=C(OC3(C)(CCC1C(C(=O)OC4(C)(CCC(OC)C(O)(C)CC2OC4(C1C23)))C))C
RESOURCES: KNApSAcK=C00044584,UNPD=UNPD174754
SubstructureInChIKeys: VNWKTOKETHGBQD;XLYOFNOQVPJJNP;WSFSSNUMVMOOMR;OTMSDBZUPAUEDD;OKKJLVBELUTLKV;IKHGUXGNUITLKF;ATUOYWHBWRKTHZ;LCGLNKUTAGEVQW;LFQSCWFLJHTTHZ;NBBJYMSMWIIQGU;IJDNQMDRQITEOD;NNPPMTNAJDCUHE;QTBSBXVTEAMEQO;TZIHFWKZFHZASV;BDERNNFJNOPAEC;KFZMGEQAYNKOFK;XOBKSJJDNFUZPF;LYCAIKOWRPUZTN;ZTQSAGDEMFDKMZ;OFBQJSOFQDEBGM;QWTDNUCVQCZILF;KXKVLQRXCPHEJC;WBJINCZRORDGAQ;XBDQKXXYIPTUBI;BTANRVKWQNVYAZ;LRHPLDYGYMQRHN;VNKYTQGIUYNRMY;ZXEKIIBDNHEJCQ;DNIAPMSPPWPWGF;XNWFRZJHXBZDAG;YPFDHNVEDLHUCE;VIBDJEWPNNCFQO;XDTMQSROBMDMFD;HGBOYTHUEUWSSQ;AFABGHUZZDYHJO;PFEOZHBOMNWTJB;VLKZOEOYAKHREP;FERIUCNNQQJTOY;KQNPFQTWMSNSAP;XEKOWRVHYACXOJ;AMQJEAYHLZJPGS;AQIXEPGDORPWBJ;FVNIMHIOIXPIQT;JYVLIDXNZAXMDK;MXLMTQWGSQIYOW;PHTQWCKDNZKARW;BMRWNKZVCUKKSR;JDFDHBSESGTDAL;PUPZLCDOIYMWBV;QWGRWMMWNDWRQN;YTTFFPATQICAQN;ZNQVEEAIQZEUHB;UAEPNZWRGJTJPN;HPXRVTGHNJAIIH;JARKCYVAAOWBJS;BZHMBWZPUJHVEE;IMNFDUFMRHMDMM;VLJXXKKOSFGPHI;WLAMNBDJUVNPJU;ZSIAUFGUXNUGDI;WCVRQHFDJLLWFE;XLMFDCKSFJWJTP;ARXKVVRQIIOZGF;KVZJLSYJROEPSQ;SGVUHPSBDNVHKL;FXHGMKSSBGDXIY;MQWCXKGKQLNYQG;JVSWJIKNEAIKJW;TVMXDCGIABBOFY;OQAGVSWESNCJJT;WDAXFOBOLVPGLV;CETWDUZRCINIHU;OVOVDHYEOQJKMD;XARGIVYWQPXRTC;NUJGJRNETVAIRJ;VWLITJGXNSANSN;ZBAXJUPCYVIBSP;MHPUGCYGQWGLJL;NZQMQVJXSRMTCJ;ZDAWZDFBPUUDAY;SOUITUXPBGREAE;IRXJZDLOCNJAHE
SubstructureOntologies: CHEMONTID:0002500;NonID:H2O;CHEMONTID:0001831;CHEMONTID:0000286;CHEMONTID:0002230;CHEMONTID:0001167;CHEMONTID:0002434;CHEMONTID:0004620;CHEMONTID:0001205;CHEMONTID:0001238;CHEMONTID:0001661;CHEMONTID:0002467;CHEMONTID:0003416;CHEMONTID:0002286;CHEMONTID:0001016;CHEMONTID:0000333;CHEMONTID:0002647;CHEMONTID:0002229;CHEMONTID:0003544;CHEMONTID:0001334;CHEMONTID:0003417;CHEMONTID:0003086
Ontology: Lactones
OntologyID: CHEMONTID:0000050
RETENTIONTIME: -1
RETENTIONINDEX: -1
TotalBondEnergy: 27176
TotalScore: 5.3885
TotalHrRulesScore: 0.5
TotalBondCleavageScore: 0.5
TotalMassAccuracyScore: 0.493
TotalFragmentLinkageScore: 0.5
TotalBondDissociationEnergyScore: 0.5
DatabaseScore: 0.5476
SubstructureAssignmentScore: 0
RtSimilarityScore: -1
RiSimilarityScore: 0
Num Fragment VS2 (M/Z Intensity MatchedExactMass SaturatedExactMass Formula RearrangedHydrogen PPM MassDiff_mDa IsEvenElectronRule IsHrRule IsSolventAdductFragment AssignedAdductMass AdductString BondDissociationEnergy TreeDepth SMILES TotalScore HrLikelihood BcLikelihood MaLikelihood FlLikelihood BeLikelihood): 1
425.26178	239777.332171	425.2533702051	424.24609375	C23H36O7	1	19.78	8.41	True	True	False	0		0	0	O=C(OC3(C)(CCC1C(C(=O)OC4(C)(CCC(OC)C(O)(C)CC2OC4(C1C23)))C))C	4.98595464229584	1	1	0.985954642295837	1	1

NAME: Cryptoporic acid A;(+)-Cryptoporic acid A
ID: OCKYURAITHEIMQ
IsSpectrumSearch: False
INCHIKEY: OCKYURAITHEIMQ-GJHIHDKGNA-N
SMILES: O=C(O)CC(C(=O)OC)C(OCC1C(=C)CCC2C(C)(C)CCCC12(C))C(=O)OC
RESOURCES: KNApSAcK=C00031693,UNPD=UNPD120337;UNPD37391
SubstructureInChIKeys: VNWKTOKETHGBQD;XLYOFNOQVPJJNP;VGGSQFUCUMXWEO;WSFSSNUMVMOOMR;OTMSDBZUPAUEDD;IKHGUXGNUITLKF;ATUOYWHBWRKTHZ;BDAGIHXWWSANSR;LCGLNKUTAGEVQW;LFQSCWFLJHTTHZ;VQTUBCCKSQIDNK;VXNZUUAINFGPBY;NBBJYMSMWIIQGU;IJDNQMDRQITEOD;NNPPMTNAJDCUHE;QTBSBXVTEAMEQO;TZIHFWKZFHZASV;WGCNASOHLSPBMP;BDERNNFJNOPAEC;XOBKSJJDNFUZPF;LYCAIKOWRPUZTN;YWAKXRMUMFPDSH;ZSPTYLOMNJNZNG;ZTQSAGDEMFDKMZ;OFBQJSOFQDEBGM;QWTDNUCVQCZILF;AKXKFZDCRYJKTF;KXKVLQRXCPHEJC;XBDQKXXYIPTUBI;YSEFYOVWKJXNCH;LRHPLDYGYMQRHN;VNKYTQGIUYNRMY;ZXEKIIBDNHEJCQ;AEMRFAOFKBGASW;XNWFRZJHXBZDAG;YPFDHNVEDLHUCE;VIBDJEWPNNCFQO;LDTAOIUHUHHCMU;LIKMAJRDDDTEIG;XDTMQSROBMDMFD;HGBOYTHUEUWSSQ;AFABGHUZZDYHJO;HNRMPXKDFBEGFZ;PFEOZHBOMNWTJB;VLKZOEOYAKHREP;FERIUCNNQQJTOY;KQNPFQTWMSNSAP;PIAOXUVIBAKVSP;AMQJEAYHLZJPGS;FVNIMHIOIXPIQT;JYVLIDXNZAXMDK;MXLMTQWGSQIYOW;PHTQWCKDNZKARW;ALRHLSYJTWAHJZ;JVTAAEKCZFNVCJ;BMRWNKZVCUKKSR;JDFDHBSESGTDAL;PUPZLCDOIYMWBV;QWGRWMMWNDWRQN;YTTFFPATQICAQN;ZNQVEEAIQZEUHB;ADHCYQWFCLQBFG;UAEPNZWRGJTJPN;ZGEGCLOFRBLKSE;BZHMBWZPUJHVEE;IMNFDUFMRHMDMM;VLJXXKKOSFGPHI;UIUJIQZEACWQSV;WLAMNBDJUVNPJU;ZSIAUFGUXNUGDI;AFENDNXGAFYKQO;SJZRECIVHVDYJC;WCVRQHFDJLLWFE;ARXKVVRQIIOZGF;QJXCDRBHYIAFTH;KVZJLSYJROEPSQ;KWKAKUADMBZCLK;QEGNUYASOUJEHD;SGVUHPSBDNVHKL;YXLCVBVDFKWWRW;JVSWJIKNEAIKJW;TVMXDCGIABBOFY;OQAGVSWESNCJJT;OVOVDHYEOQJKMD;KDYFGRWQOYBRFD;DZAIOXUZHHTJKN;ILIUIABCBOXIRX;PYOLJOJPIPCRDP;XARGIVYWQPXRTC;JFCQEDHGNNZCLN;WXUAQHNMJWJLTG;ZDAWZDFBPUUDAY;NYFHUVYMLLAQHH;BUOAKQCLRBVIOX;HIVFIUIKABOGIO;YLZKVXHQMPWDBJ;VTXRDCQMLXABHJ;NXCPHYJTOJDSLE;IRXJZDLOCNJAHE;UNWNSYMIUBZKCZ;OTBOAOSTJYUVHP
SubstructureOntologies: CHEMONTID:0002500;NonID:H2O;CHEMONTID:0004476;CHEMONTID:0001831;CHEMONTID:0002230;CHEMONTID:0001205;CHEMONTID:0001167;CHEMONTID:0000286;CHEMONTID:0004622;CHEMONTID:0002434;CHEMONTID:0004620;CHEMONTID:0001238;CHEMONTID:0002467;CHEMONTID:0003416;CHEMONTID:0001359;CHEMONTID:0002286;CHEMONTID:0001016;CHEMONTID:0000333;CHEMONTID:0001661;CHEMONTID:0001713;CHEMONTID:0003544;CHEMONTID:0001334;CHEMONTID:0000341;CHEMONTID:0003417;CHEMONTID:0000346;CHEMONTID:0001401
Ontology: Tricarboxylic acids and derivatives
OntologyID: CHEMONTID:0001986
RETENTIONTIME: -1
RETENTIONINDEX: -1
TotalBondEnergy: 27119
TotalScore: 5.3885
TotalHrRulesScore: 0.5
TotalBondCleavageScore: 0.5
TotalMassAccuracyScore: 0.493
TotalFragmentLinkageScore: 0.5
TotalBondDissociationEnergyScore: 0.5
DatabaseScore: 0.5476
SubstructureAssignmentScore: 0
RtSimilarityScore: -1
RiSimilarityScore: 0
Num Fragment VS2 (M/Z Intensity MatchedExactMass SaturatedExactMass Formula RearrangedHydrogen PPM MassDiff_mDa IsEvenElectronRule IsHrRule IsSolventAdductFragment AssignedAdductMass AdductString BondDissociationEnergy TreeDepth SMILES TotalScore HrLikelihood BcLikelihood MaLikelihood FlLikelihood BeLikelihood): 1
425.26178	239777.332171	425.2533702051	424.24609375	C23H36O7	1	19.78	8.41	True	True	False	0		0	0	O=C(O)CC(C(=O)OC)C(OCC1C(=C)CCC2C(C)(C)CCCC12(C))C(=O)OC	4.98595464229584	1	1	0.985954642295837	1	1

NAME: Umbellacin D;(+)-Umbellacin D
ID: PVGXBCPJSPFGIO
IsSpectrumSearch: False
INCHIKEY: PVGXBCPJSPFGIO-GQNSFIESNA-N
SMILES: O=C(OCC(=CCC(O)C(O)(C)C)C2CCC3(C)(C1OCC3(CC1)(C2(C(=O)OC))))C
RESOURCES: KNApSAcK=C00041956,UNPD=UNPD122105
SubstructureInChIKeys: VNWKTOKETHGBQD;XLYOFNOQVPJJNP;VGGSQFUCUMXWEO;WSFSSNUMVMOOMR;OTMSDBZUPAUEDD;OKKJLVBELUTLKV;IKHGUXGNUITLKF;ATUOYWHBWRKTHZ;LCGLNKUTAGEVQW;LFQSCWFLJHTTHZ;IAQRGUVFOMOMEM;VQTUBCCKSQIDNK;VXNZUUAINFGPBY;NBBJYMSMWIIQGU;XXROGKLTLUQVRX;IJDNQMDRQITEOD;NNPPMTNAJDCUHE;QTBSBXVTEAMEQO;TZIHFWKZFHZASV;BDERNNFJNOPAEC;KFZMGEQAYNKOFK;XOBKSJJDNFUZPF;LYCAIKOWRPUZTN;BKOOMYPCSUNDGP;QMMOXUPEWRXHJS;RGSFGYAAUTVSQA;YWAKXRMUMFPDSH;ZSPTYLOMNJNZNG;ZTQSAGDEMFDKMZ;OFBQJSOFQDEBGM;QWTDNUCVQCZILF;KXKVLQRXCPHEJC;WBJINCZRORDGAQ;XBDQKXXYIPTUBI;BTANRVKWQNVYAZ;LRHPLDYGYMQRHN;VNKYTQGIUYNRMY;ZXEKIIBDNHEJCQ;DNIAPMSPPWPWGF;VIBDJEWPNNCFQO;BEQGRRJLJLVQAQ;GDOPTJXRTPNYNR;LDTAOIUHUHHCMU;LIKMAJRDDDTEIG;RYPKRALMXUUNKS;XDTMQSROBMDMFD;ZQDPJFUHLCOCRG;FSUXYWPILZJGCC;HGBOYTHUEUWSSQ;NEJDKFPXHQRVMV;AFABGHUZZDYHJO;HNRMPXKDFBEGFZ;PFEOZHBOMNWTJB;VLKZOEOYAKHREP;FERIUCNNQQJTOY;KQNPFQTWMSNSAP;XEKOWRVHYACXOJ;AMQJEAYHLZJPGS;AQIXEPGDORPWBJ;FVNIMHIOIXPIQT;JYVLIDXNZAXMDK;MXLMTQWGSQIYOW;PHTQWCKDNZKARW;BMRWNKZVCUKKSR;QWHNJUXXYKPLQM;UAEPNZWRGJTJPN;WZHKDGJSXCTSCK;ZGEGCLOFRBLKSE;JARKCYVAAOWBJS;UFLHIIWVXFIJGU;BZHMBWZPUJHVEE;IMNFDUFMRHMDMM;VLJXXKKOSFGPHI;WLAMNBDJUVNPJU;ZSIAUFGUXNUGDI;XLMFDCKSFJWJTP;KVZJLSYJROEPSQ;KWKAKUADMBZCLK;LETYIFNDQBJGPJ;QEGNUYASOUJEHD;SGVUHPSBDNVHKL;FXHGMKSSBGDXIY;JVSWJIKNEAIKJW;TVMXDCGIABBOFY;OQAGVSWESNCJJT;CETWDUZRCINIHU;OVOVDHYEOQJKMD;IICQZTQZQSBHBY;KPADFPAILITQBG;PYOLJOJPIPCRDP;XARGIVYWQPXRTC;LEBVLOLOVGHEFE;LZHHQGKEJNRBAZ;NUJGJRNETVAIRJ;OHEFFKYYKJVVOX;NZQMQVJXSRMTCJ;GGWBGCSGJCRVIQ;BUOAKQCLRBVIOX;HIVFIUIKABOGIO;YLZKVXHQMPWDBJ;BQOAKIRTXKZTKD;WLBGHZBIFQNGCH;KGBMCONWCCBLAE;VTXRDCQMLXABHJ;IRXJZDLOCNJAHE
SubstructureOntologies: CHEMONTID:0002500;NonID:H2O;CHEMONTID:0004476;CHEMONTID:0001831;CHEMONTID:0000286;CHEMONTID:0002230;CHEMONTID:0001167;CHEMONTID:0004622;CHEMONTID:0002434;CHEMONTID:0004620;CHEMONTID:0001205;CHEMONTID:0001238;CHEMONTID:0001661;CHEMONTID:0002467;CHEMONTID:0001016;CHEMONTID:0003416;CHEMONTID:0002286;CHEMONTID:0000333;CHEMONTID:0002229;CHEMONTID:0001334;CHEMONTID:0003544;CHEMONTID:0003417;CHEMONTID:0003086;CHEMONTID:0004149
Ontology: Sesquiterpenoids
OntologyID: CHEMONTID:0001550
RETENTIONTIME: -1
RETENTIONINDEX: -1
TotalBondEnergy: 27122
TotalScore: 5.3885
TotalHrRulesScore: 0.5
TotalBondCleavageScore: 0.5
TotalMassAccuracyScore: 0.493
TotalFragmentLinkageScore: 0.5
TotalBondDissociationEnergyScore: 0.5
DatabaseScore: 0.5476
SubstructureAssignmentScore: 0
RtSimilarityScore: -1
RiSimilarityScore: 0
Num Fragment VS2 (M/Z Intensity MatchedExactMass SaturatedExactMass Formula RearrangedHydrogen PPM MassDiff_mDa IsEvenElectronRule IsHrRule IsSolventAdductFragment AssignedAdductMass AdductString BondDissociationEnergy TreeDepth SMILES TotalScore HrLikelihood BcLikelihood MaLikelihood FlLikelihood BeLikelihood): 1
425.26178	239777.332171	425.2533702051	424.24609375	C23H36O7	1	19.78	8.41	True	True	False	0		0	0	O=C(OCC(=CCC(O)C(O)(C)C)C2CCC3(C)(C1OCC3(CC1)(C2(C(=O)OC))))C	4.98595464229584	1	1	0.985954642295837	1	1

NAME: Dendronpholide P;(-)-Dendronpholide P
ID: QPABIZMBQKAQNF
IsSpectrumSearch: False
INCHIKEY: QPABIZMBQKAQNF-DEJBUWFMNA-N
SMILES: O=C(OC)C(=C)C2CCC(O)(C)C1OC(C)(CC1)C(OC(=O)C)CC=C(C)C(O)C2
RESOURCES: KNApSAcK=C00038982,UNPD=UNPD147478
SubstructureInChIKeys: VNWKTOKETHGBQD;XLYOFNOQVPJJNP;VGGSQFUCUMXWEO;WSFSSNUMVMOOMR;OTMSDBZUPAUEDD;OKKJLVBELUTLKV;QQONPFPTGQHPMA;IKHGUXGNUITLKF;ATUOYWHBWRKTHZ;LCGLNKUTAGEVQW;LFQSCWFLJHTTHZ;HGINCPLSRVDWNT;IAQRGUVFOMOMEM;VQTUBCCKSQIDNK;VXNZUUAINFGPBY;NBBJYMSMWIIQGU;XXROGKLTLUQVRX;IJDNQMDRQITEOD;NNPPMTNAJDCUHE;QTBSBXVTEAMEQO;TZIHFWKZFHZASV;BDERNNFJNOPAEC;KFZMGEQAYNKOFK;XOBKSJJDNFUZPF;LYCAIKOWRPUZTN;BKOOMYPCSUNDGP;QMMOXUPEWRXHJS;YWAKXRMUMFPDSH;NIXOWILDQLNWCW;MKUWVMRNQOOSAT;ZSPTYLOMNJNZNG;ZTQSAGDEMFDKMZ;OFBQJSOFQDEBGM;QWTDNUCVQCZILF;KXKVLQRXCPHEJC;WBJINCZRORDGAQ;XBDQKXXYIPTUBI;BTANRVKWQNVYAZ;LRHPLDYGYMQRHN;VNKYTQGIUYNRMY;ZXEKIIBDNHEJCQ;DNIAPMSPPWPWGF;XNWFRZJHXBZDAG;VIBDJEWPNNCFQO;BEQGRRJLJLVQAQ;LDTAOIUHUHHCMU;LIKMAJRDDDTEIG;RYPKRALMXUUNKS;ZQDPJFUHLCOCRG;BAPJBEWLBFYGME;CERQOIWHTDAKMF;FSUXYWPILZJGCC;GJYMQFMQRRNLCY;HGBOYTHUEUWSSQ;JWUJQDFVADABEY;NEJDKFPXHQRVMV;AFABGHUZZDYHJO;PFEOZHBOMNWTJB;VLKZOEOYAKHREP;FERIUCNNQQJTOY;XEKOWRVHYACXOJ;AMQJEAYHLZJPGS;AQIXEPGDORPWBJ;FVNIMHIOIXPIQT;JYVLIDXNZAXMDK;MXLMTQWGSQIYOW;PHTQWCKDNZKARW;BMRWNKZVCUKKSR;YTTFFPATQICAQN;ZNQVEEAIQZEUHB;WZHKDGJSXCTSCK;ZGEGCLOFRBLKSE;BVOSSZSHBZQJOI;JARKCYVAAOWBJS;UFLHIIWVXFIJGU;IMNFDUFMRHMDMM;VLJXXKKOSFGPHI;ZSIAUFGUXNUGDI;WCVRQHFDJLLWFE;XLMFDCKSFJWJTP;MTHSVFCYNBDYFN;KWKAKUADMBZCLK;FXHGMKSSBGDXIY;PZKFYTOLVRCMOA;JVSWJIKNEAIKJW;TVMXDCGIABBOFY;OQAGVSWESNCJJT;CETWDUZRCINIHU;IICQZTQZQSBHBY;KPADFPAILITQBG;LZHHQGKEJNRBAZ;NUJGJRNETVAIRJ;OHEFFKYYKJVVOX;VSMOENVRRABVKN;NZQMQVJXSRMTCJ;ZDAWZDFBPUUDAY;ZIWXVGHUDKNNSH
SubstructureOntologies: CHEMONTID:0002500;NonID:H2O;CHEMONTID:0004476;CHEMONTID:0001831;CHEMONTID:0000286;CHEMONTID:0002230;CHEMONTID:0001167;CHEMONTID:0002436;CHEMONTID:0004622;CHEMONTID:0002434;CHEMONTID:0004620;CHEMONTID:0001205;CHEMONTID:0001238;CHEMONTID:0001661;CHEMONTID:0002467;CHEMONTID:0004451;CHEMONTID:0003416;CHEMONTID:0002286;CHEMONTID:0004452;CHEMONTID:0002648;CHEMONTID:0000333;CHEMONTID:0002229;CHEMONTID:0001334;CHEMONTID:0003417;CHEMONTID:0003086
Ontology: Sesquiterpenoids
OntologyID: CHEMONTID:0001550
RETENTIONTIME: -1
RETENTIONINDEX: -1
TotalBondEnergy: 27032
TotalScore: 5.3885
TotalHrRulesScore: 0.5
TotalBondCleavageScore: 0.5
TotalMassAccuracyScore: 0.493
TotalFragmentLinkageScore: 0.5
TotalBondDissociationEnergyScore: 0.5
DatabaseScore: 0.5476
SubstructureAssignmentScore: 0
RtSimilarityScore: -1
RiSimilarityScore: 0
Num Fragment VS2 (M/Z Intensity MatchedExactMass SaturatedExactMass Formula RearrangedHydrogen PPM MassDiff_mDa IsEvenElectronRule IsHrRule IsSolventAdductFragment AssignedAdductMass AdductString BondDissociationEnergy TreeDepth SMILES TotalScore HrLikelihood BcLikelihood MaLikelihood FlLikelihood BeLikelihood): 1
425.26178	239777.332171	425.2533702051	424.24609375	C23H36O7	1	19.78	8.41	True	True	False	0		0	0	O=C(OC)C(=C)C2CCC(O)(C)C1OC(C)(CC1)C(OC(=O)C)CC=C(C)C(O)C2	4.98595464229584	1	1	0.985954642295837	1	1

NAME: Umbellacin E;(+)-Umbellacin E
ID: SKUXBRSPQCLBOB
IsSpectrumSearch: False
INCHIKEY: SKUXBRSPQCLBOB-IBNZCEQYNA-N
SMILES: O=C(OCC(=CCC(O)C(O)(C)C)C2CCC1(C)(CC(=CCC1(O))C2(C(=O)OC)))C
RESOURCES: KNApSAcK=C00041957,UNPD=UNPD100352
SubstructureInChIKeys: VNWKTOKETHGBQD;XLYOFNOQVPJJNP;VGGSQFUCUMXWEO;WSFSSNUMVMOOMR;OTMSDBZUPAUEDD;OKKJLVBELUTLKV;IKHGUXGNUITLKF;ATUOYWHBWRKTHZ;LCGLNKUTAGEVQW;LFQSCWFLJHTTHZ;IAQRGUVFOMOMEM;VQTUBCCKSQIDNK;VXNZUUAINFGPBY;NBBJYMSMWIIQGU;XXROGKLTLUQVRX;IJDNQMDRQITEOD;NNPPMTNAJDCUHE;QTBSBXVTEAMEQO;TZIHFWKZFHZASV;BDERNNFJNOPAEC;KFZMGEQAYNKOFK;XOBKSJJDNFUZPF;LYCAIKOWRPUZTN;BKOOMYPCSUNDGP;QMMOXUPEWRXHJS;YWAKXRMUMFPDSH;ZSPTYLOMNJNZNG;ZTQSAGDEMFDKMZ;OFBQJSOFQDEBGM;QWTDNUCVQCZILF;KXKVLQRXCPHEJC;WBJINCZRORDGAQ;XBDQKXXYIPTUBI;BTANRVKWQNVYAZ;LRHPLDYGYMQRHN;VNKYTQGIUYNRMY;ZXEKIIBDNHEJCQ;DNIAPMSPPWPWGF;VIBDJEWPNNCFQO;BEQGRRJLJLVQAQ;LDTAOIUHUHHCMU;LIKMAJRDDDTEIG;RYPKRALMXUUNKS;ZQDPJFUHLCOCRG;FSUXYWPILZJGCC;HGBOYTHUEUWSSQ;NEJDKFPXHQRVMV;AFABGHUZZDYHJO;HNRMPXKDFBEGFZ;PFEOZHBOMNWTJB;VLKZOEOYAKHREP;FERIUCNNQQJTOY;KQNPFQTWMSNSAP;XEKOWRVHYACXOJ;AMQJEAYHLZJPGS;AQIXEPGDORPWBJ;JYVLIDXNZAXMDK;MXLMTQWGSQIYOW;PHTQWCKDNZKARW;BMRWNKZVCUKKSR;ADHCYQWFCLQBFG;WZHKDGJSXCTSCK;ZGEGCLOFRBLKSE;JARKCYVAAOWBJS;UFLHIIWVXFIJGU;IMNFDUFMRHMDMM;VLJXXKKOSFGPHI;WLAMNBDJUVNPJU;ZSIAUFGUXNUGDI;XLMFDCKSFJWJTP;KWKAKUADMBZCLK;YXLCVBVDFKWWRW;FXHGMKSSBGDXIY;JVSWJIKNEAIKJW;TVMXDCGIABBOFY;OQAGVSWESNCJJT;CETWDUZRCINIHU;IICQZTQZQSBHBY;KPADFPAILITQBG;LZHHQGKEJNRBAZ;NUJGJRNETVAIRJ;OHEFFKYYKJVVOX;MHPUGCYGQWGLJL;NZQMQVJXSRMTCJ;BQOAKIRTXKZTKD
SubstructureOntologies: CHEMONTID:0002500;NonID:H2O;CHEMONTID:0004476;CHEMONTID:0001831;CHEMONTID:0000286;CHEMONTID:0002230;CHEMONTID:0001167;CHEMONTID:0004622;CHEMONTID:0002434;CHEMONTID:0004620;CHEMONTID:0001205;CHEMONTID:0001238;CHEMONTID:0001661;CHEMONTID:0002467;CHEMONTID:0003416;CHEMONTID:0002286;CHEMONTID:0000333;CHEMONTID:0002229;CHEMONTID:0001334;CHEMONTID:0003544;CHEMONTID:0003417;CHEMONTID:0003086
Ontology: Dicarboxylic acids and derivatives
OntologyID: CHEMONTID:0000346
RETENTIONTIME: -1
RETENTIONINDEX: -1
TotalBondEnergy: 27068
TotalScore: 5.3885
TotalHrRulesScore: 0.5
TotalBondCleavageScore: 0.5
TotalMassAccuracyScore: 0.493
TotalFragmentLinkageScore: 0.5
TotalBondDissociationEnergyScore: 0.5
DatabaseScore: 0.5476
SubstructureAssignmentScore: 0
RtSimilarityScore: -1
RiSimilarityScore: 0
Num Fragment VS2 (M/Z Intensity MatchedExactMass SaturatedExactMass Formula RearrangedHydrogen PPM MassDiff_mDa IsEvenElectronRule IsHrRule IsSolventAdductFragment AssignedAdductMass AdductString BondDissociationEnergy TreeDepth SMILES TotalScore HrLikelihood BcLikelihood MaLikelihood FlLikelihood BeLikelihood): 1
425.26178	239777.332171	425.2533702051	424.24609375	C23H36O7	1	19.78	8.41	True	True	False	0		0	0	O=C(OCC(=CCC(O)C(O)(C)C)C2CCC1(C)(CC(=CCC1(O))C2(C(=O)OC)))C	4.98595464229584	1	1	0.985954642295837	1	1

NAME: Umbellacin H;(+)-Umbellacin H
ID: URLHJBAPTRSOSU
IsSpectrumSearch: False
INCHIKEY: URLHJBAPTRSOSU-SGPFYJCZNA-N
SMILES: O=C(OCC(=CCC(O)C(O)(C)C)C1CCC2(OC2(CCC(=C)C1(C(=O)OC)))(C))C
RESOURCES: KNApSAcK=C00041960,UNPD=UNPD128764
SubstructureInChIKeys: VNWKTOKETHGBQD;XLYOFNOQVPJJNP;VGGSQFUCUMXWEO;WSFSSNUMVMOOMR;OTMSDBZUPAUEDD;OKKJLVBELUTLKV;IKHGUXGNUITLKF;ATUOYWHBWRKTHZ;LCGLNKUTAGEVQW;LFQSCWFLJHTTHZ;IAQRGUVFOMOMEM;VQTUBCCKSQIDNK;VXNZUUAINFGPBY;GOOHAUXETOMSMM;NBBJYMSMWIIQGU;XXROGKLTLUQVRX;IJDNQMDRQITEOD;NNPPMTNAJDCUHE;QTBSBXVTEAMEQO;TZIHFWKZFHZASV;BDERNNFJNOPAEC;KFZMGEQAYNKOFK;XOBKSJJDNFUZPF;LYCAIKOWRPUZTN;BKOOMYPCSUNDGP;QMMOXUPEWRXHJS;YWAKXRMUMFPDSH;ZSPTYLOMNJNZNG;ZTQSAGDEMFDKMZ;OFBQJSOFQDEBGM;QWTDNUCVQCZILF;KXKVLQRXCPHEJC;WBJINCZRORDGAQ;XBDQKXXYIPTUBI;BTANRVKWQNVYAZ;LRHPLDYGYMQRHN;VNKYTQGIUYNRMY;ZXEKIIBDNHEJCQ;DNIAPMSPPWPWGF;VIBDJEWPNNCFQO;BEQGRRJLJLVQAQ;LDTAOIUHUHHCMU;LIKMAJRDDDTEIG;RYPKRALMXUUNKS;ZQDPJFUHLCOCRG;FSUXYWPILZJGCC;HGBOYTHUEUWSSQ;NEJDKFPXHQRVMV;AFABGHUZZDYHJO;PFEOZHBOMNWTJB;VLKZOEOYAKHREP;FERIUCNNQQJTOY;KQNPFQTWMSNSAP;XEKOWRVHYACXOJ;AMQJEAYHLZJPGS;AQIXEPGDORPWBJ;FVNIMHIOIXPIQT;JYVLIDXNZAXMDK;MXLMTQWGSQIYOW;PHTQWCKDNZKARW;BMRWNKZVCUKKSR;ADHCYQWFCLQBFG;WZHKDGJSXCTSCK;ZGEGCLOFRBLKSE;JARKCYVAAOWBJS;UFLHIIWVXFIJGU;IMNFDUFMRHMDMM;VLJXXKKOSFGPHI;WLAMNBDJUVNPJU;ZSIAUFGUXNUGDI;WCVRQHFDJLLWFE;XLMFDCKSFJWJTP;KWKAKUADMBZCLK;YXLCVBVDFKWWRW;FXHGMKSSBGDXIY;JVSWJIKNEAIKJW;TVMXDCGIABBOFY;OQAGVSWESNCJJT;CETWDUZRCINIHU;IICQZTQZQSBHBY;KPADFPAILITQBG;LZHHQGKEJNRBAZ;NUJGJRNETVAIRJ;OHEFFKYYKJVVOX;NZQMQVJXSRMTCJ;BQOAKIRTXKZTKD
SubstructureOntologies: CHEMONTID:0002500;NonID:H2O;CHEMONTID:0004476;CHEMONTID:0001831;CHEMONTID:0000286;CHEMONTID:0002230;CHEMONTID:0001167;CHEMONTID:0004622;CHEMONTID:0000159;CHEMONTID:0002434;CHEMONTID:0004620;CHEMONTID:0001205;CHEMONTID:0001238;CHEMONTID:0001661;CHEMONTID:0002467;CHEMONTID:0003416;CHEMONTID:0002286;CHEMONTID:0000333;CHEMONTID:0002229;CHEMONTID:0001334;CHEMONTID:0003544;CHEMONTID:0003417;CHEMONTID:0003086
Ontology: Dicarboxylic acids and derivatives
OntologyID: CHEMONTID:0000346
RETENTIONTIME: -1
RETENTIONINDEX: -1
TotalBondEnergy: 27032
TotalScore: 5.3885
TotalHrRulesScore: 0.5
TotalBondCleavageScore: 0.5
TotalMassAccuracyScore: 0.493
TotalFragmentLinkageScore: 0.5
TotalBondDissociationEnergyScore: 0.5
DatabaseScore: 0.5476
SubstructureAssignmentScore: 0
RtSimilarityScore: -1
RiSimilarityScore: 0
Num Fragment VS2 (M/Z Intensity MatchedExactMass SaturatedExactMass Formula RearrangedHydrogen PPM MassDiff_mDa IsEvenElectronRule IsHrRule IsSolventAdductFragment AssignedAdductMass AdductString BondDissociationEnergy TreeDepth SMILES TotalScore HrLikelihood BcLikelihood MaLikelihood FlLikelihood BeLikelihood): 1
425.26178	239777.332171	425.2533702051	424.24609375	C23H36O7	1	19.78	8.41	True	True	False	0		0	0	O=C(OCC(=CCC(O)C(O)(C)C)C1CCC2(OC2(CCC(=C)C1(C(=O)OC)))(C))C	4.98595464229584	1	1	0.985954642295837	1	1

NAME: Umbellacin B
ID: XXCNRYRAZQDXFI
IsSpectrumSearch: False
INCHIKEY: XXCNRYRAZQDXFI-LNUMYGBCNA-N
SMILES: O=C(OCC(=CCC(O)C(=C)C)C2CCC1(C)(CC(O)(CCC1(O))C2(C(=O)OC)))C
RESOURCES: KNApSAcK=C00041954,UNPD=UNPD887
SubstructureInChIKeys: VNWKTOKETHGBQD;XLYOFNOQVPJJNP;VGGSQFUCUMXWEO;WSFSSNUMVMOOMR;OTMSDBZUPAUEDD;OKKJLVBELUTLKV;QQONPFPTGQHPMA;IKHGUXGNUITLKF;ATUOYWHBWRKTHZ;LCGLNKUTAGEVQW;LFQSCWFLJHTTHZ;IAQRGUVFOMOMEM;VQTUBCCKSQIDNK;VXNZUUAINFGPBY;NBBJYMSMWIIQGU;XXROGKLTLUQVRX;IJDNQMDRQITEOD;NNPPMTNAJDCUHE;QTBSBXVTEAMEQO;TZIHFWKZFHZASV;BDERNNFJNOPAEC;KFZMGEQAYNKOFK;XOBKSJJDNFUZPF;BKOOMYPCSUNDGP;QMMOXUPEWRXHJS;YWAKXRMUMFPDSH;MKUWVMRNQOOSAT;ZSPTYLOMNJNZNG;ZTQSAGDEMFDKMZ;OFBQJSOFQDEBGM;QWTDNUCVQCZILF;AKXKFZDCRYJKTF;KXKVLQRXCPHEJC;WBJINCZRORDGAQ;XBDQKXXYIPTUBI;BTANRVKWQNVYAZ;LRHPLDYGYMQRHN;VNKYTQGIUYNRMY;ZXEKIIBDNHEJCQ;YPFDHNVEDLHUCE;BEQGRRJLJLVQAQ;LDTAOIUHUHHCMU;LIKMAJRDDDTEIG;RYPKRALMXUUNKS;XDTMQSROBMDMFD;ZQDPJFUHLCOCRG;FSUXYWPILZJGCC;HGBOYTHUEUWSSQ;NEJDKFPXHQRVMV;AFABGHUZZDYHJO;HNRMPXKDFBEGFZ;PFEOZHBOMNWTJB;VLKZOEOYAKHREP;FERIUCNNQQJTOY;KQNPFQTWMSNSAP;XEKOWRVHYACXOJ;AMQJEAYHLZJPGS;AQIXEPGDORPWBJ;JYVLIDXNZAXMDK;MXLMTQWGSQIYOW;PHTQWCKDNZKARW;JVTAAEKCZFNVCJ;JDFDHBSESGTDAL;PUPZLCDOIYMWBV;QWGRWMMWNDWRQN;UAEPNZWRGJTJPN;WZHKDGJSXCTSCK;ZGEGCLOFRBLKSE;HPXRVTGHNJAIIH;JARKCYVAAOWBJS;UFLHIIWVXFIJGU;BZHMBWZPUJHVEE;IMNFDUFMRHMDMM;VLJXXKKOSFGPHI;WLAMNBDJUVNPJU;ZSIAUFGUXNUGDI;KVZJLSYJROEPSQ;KWKAKUADMBZCLK;QEGNUYASOUJEHD;SGVUHPSBDNVHKL;FXHGMKSSBGDXIY;MQWCXKGKQLNYQG;JVSWJIKNEAIKJW;TVMXDCGIABBOFY;OQAGVSWESNCJJT;CETWDUZRCINIHU;OVOVDHYEOQJKMD;IICQZTQZQSBHBY;KPADFPAILITQBG;PYOLJOJPIPCRDP;XARGIVYWQPXRTC;LZHHQGKEJNRBAZ;NUJGJRNETVAIRJ;VWLITJGXNSANSN;ZBAXJUPCYVIBSP;MHPUGCYGQWGLJL;NZQMQVJXSRMTCJ;HIVFIUIKABOGIO;YLZKVXHQMPWDBJ;BQOAKIRTXKZTKD;SOUITUXPBGREAE
SubstructureOntologies: CHEMONTID:0002500;NonID:H2O;CHEMONTID:0004476;CHEMONTID:0001831;CHEMONTID:0000286;CHEMONTID:0002230;CHEMONTID:0001167;CHEMONTID:0004622;CHEMONTID:0002434;CHEMONTID:0004620;CHEMONTID:0001205;CHEMONTID:0001238;CHEMONTID:0001661;CHEMONTID:0003416;CHEMONTID:0001016;CHEMONTID:0000333;CHEMONTID:0001359;CHEMONTID:0002647;CHEMONTID:0002229;CHEMONTID:0001334;CHEMONTID:0003544;CHEMONTID:0003417;CHEMONTID:0003086
Ontology: Dicarboxylic acids and derivatives
OntologyID: CHEMONTID:0000346
RETENTIONTIME: -1
RETENTIONINDEX: -1
TotalBondEnergy: 27068
TotalScore: 5.3885
TotalHrRulesScore: 0.5
TotalBondCleavageScore: 0.5
TotalMassAccuracyScore: 0.493
TotalFragmentLinkageScore: 0.5
TotalBondDissociationEnergyScore: 0.5
DatabaseScore: 0.5476
SubstructureAssignmentScore: 0
RtSimilarityScore: -1
RiSimilarityScore: 0
Num Fragment VS2 (M/Z Intensity MatchedExactMass SaturatedExactMass Formula RearrangedHydrogen PPM MassDiff_mDa IsEvenElectronRule IsHrRule IsSolventAdductFragment AssignedAdductMass AdductString BondDissociationEnergy TreeDepth SMILES TotalScore HrLikelihood BcLikelihood MaLikelihood FlLikelihood BeLikelihood): 1
425.26178	239777.332171	425.2533702051	424.24609375	C23H36O7	1	19.78	8.41	True	True	False	0		0	0	O=C(OCC(=CCC(O)C(=C)C)C2CCC1(C)(CC(O)(CCC1(O))C2(C(=O)OC)))C	4.98595464229584	1	1	0.985954642295837	1	1

NAME: UNPD176970
ID: AVQQGOZSLGRRGA
IsSpectrumSearch: False
INCHIKEY: AVQQGOZSLGRRGA-SLBLAUHANA-N
SMILES: O=C(OC4CCC3(C)(C(C(=O)C(O)C(C)C23(OC1(COC(OC)C1)(CC2)))C4(C)(C)))C
RESOURCES: UNPD=UNPD176970;UNPD216300
SubstructureInChIKeys: VNWKTOKETHGBQD;XLYOFNOQVPJJNP;WSFSSNUMVMOOMR;OTMSDBZUPAUEDD;OKKJLVBELUTLKV;IKHGUXGNUITLKF;ATUOYWHBWRKTHZ;LCGLNKUTAGEVQW;LFQSCWFLJHTTHZ;CKFGINPQOCXMAZ;CSCPPACGZOOCGX;NBBJYMSMWIIQGU;IJDNQMDRQITEOD;NNPPMTNAJDCUHE;QTBSBXVTEAMEQO;TZIHFWKZFHZASV;WGCNASOHLSPBMP;BDERNNFJNOPAEC;KFZMGEQAYNKOFK;XOBKSJJDNFUZPF;LYCAIKOWRPUZTN;ZTQSAGDEMFDKMZ;OFBQJSOFQDEBGM;QWTDNUCVQCZILF;BSABBBMNWQWLLU;KXKVLQRXCPHEJC;WBJINCZRORDGAQ;BTANRVKWQNVYAZ;LRHPLDYGYMQRHN;VNKYTQGIUYNRMY;ZXEKIIBDNHEJCQ;RRLWYLINGKISHN;XNWFRZJHXBZDAG;YPFDHNVEDLHUCE;VIBDJEWPNNCFQO;XDTMQSROBMDMFD;HGBOYTHUEUWSSQ;AFABGHUZZDYHJO;HNRMPXKDFBEGFZ;PFEOZHBOMNWTJB;VLKZOEOYAKHREP;XEKOWRVHYACXOJ;AMQJEAYHLZJPGS;AQIXEPGDORPWBJ;FVNIMHIOIXPIQT;JYVLIDXNZAXMDK;MXLMTQWGSQIYOW;PHTQWCKDNZKARW;BMRWNKZVCUKKSR;CHCLGECDSSWNCP;JDFDHBSESGTDAL;PUPZLCDOIYMWBV;QWGRWMMWNDWRQN;YTTFFPATQICAQN;ZNQVEEAIQZEUHB;UAEPNZWRGJTJPN;HPXRVTGHNJAIIH;JARKCYVAAOWBJS;BZHMBWZPUJHVEE;IMNFDUFMRHMDMM;VLJXXKKOSFGPHI;KSTOUTVBGBEWOS;ZSIAUFGUXNUGDI;QONBKISCDWCHKF;WCVRQHFDJLLWFE;ARXKVVRQIIOZGF;KVZJLSYJROEPSQ;QEGNUYASOUJEHD;SGVUHPSBDNVHKL;CATSNJVOTSVZJV;FXHGMKSSBGDXIY;MQWCXKGKQLNYQG;JVSWJIKNEAIKJW;TVMXDCGIABBOFY;CETWDUZRCINIHU;OVOVDHYEOQJKMD;VVDIZWFSGJERMA;XIRBXKMCQNAYAT;PYOLJOJPIPCRDP;XARGIVYWQPXRTC;NUJGJRNETVAIRJ;VWLITJGXNSANSN;ZBAXJUPCYVIBSP;ZDAWZDFBPUUDAY;BUOAKQCLRBVIOX;HIVFIUIKABOGIO;YLZKVXHQMPWDBJ;SOUITUXPBGREAE;VTXRDCQMLXABHJ;IRXJZDLOCNJAHE;XBENKLBOLWZLNQ;OTBOAOSTJYUVHP;GZURMVKYRIAPGE;HZNDJPAXRXLIOU
SubstructureOntologies: CHEMONTID:0002500;NonID:H2O;CHEMONTID:0001831;CHEMONTID:0000286;CHEMONTID:0002230;CHEMONTID:0001167;CHEMONTID:0001605;CHEMONTID:0000118;CHEMONTID:0002434;CHEMONTID:0004620;CHEMONTID:0001205;CHEMONTID:0001238;CHEMONTID:0001661;CHEMONTID:0002467;CHEMONTID:0003675;CHEMONTID:0003416;CHEMONTID:0001092;CHEMONTID:0002286;CHEMONTID:0001016;CHEMONTID:0001656;CHEMONTID:0002647;CHEMONTID:0002229;CHEMONTID:0002648;CHEMONTID:0001334;CHEMONTID:0001967;CHEMONTID:0001497;CHEMONTID:0004149;CHEMONTID:0001401;CHEMONTID:0001292
Ontology: Diterpenoids
OntologyID: CHEMONTID:0001551
RETENTIONTIME: -1
RETENTIONINDEX: -1
TotalBondEnergy: 27176
TotalScore: 4.5789
TotalHrRulesScore: 0.5
TotalBondCleavageScore: 0.5
TotalMassAccuracyScore: 0.493
TotalFragmentLinkageScore: 0.5
TotalBondDissociationEnergyScore: 0.5
DatabaseScore: 0.2238
SubstructureAssignmentScore: 0
RtSimilarityScore: -1
RiSimilarityScore: 0
Num Fragment VS2 (M/Z Intensity MatchedExactMass SaturatedExactMass Formula RearrangedHydrogen PPM MassDiff_mDa IsEvenElectronRule IsHrRule IsSolventAdductFragment AssignedAdductMass AdductString BondDissociationEnergy TreeDepth SMILES TotalScore HrLikelihood BcLikelihood MaLikelihood FlLikelihood BeLikelihood): 1
425.26178	239777.332171	425.2533702051	424.24609375	C23H36O7	1	19.78	8.41	True	True	False	0		0	0	O=C(OC4CCC3(C)(C(C(=O)C(O)C(C)C23(OC1(COC(OC)C1)(CC2)))C4(C)(C)))C	4.98595464229584	1	1	0.985954642295837	1	1

NAME: UNPD12077
ID: BVHJBNGRFJXVQG
IsSpectrumSearch: False
INCHIKEY: BVHJBNGRFJXVQG-QEQYMBMZNA-N
SMILES: O=C2OC3C(OC(=O)C)C(C)CCCC(OC)(C)C1OC(C)(CC1)C(O)CC3(C2(=C))
RESOURCES: UNPD=UNPD12077
SubstructureInChIKeys: VNWKTOKETHGBQD;XLYOFNOQVPJJNP;VGGSQFUCUMXWEO;WSFSSNUMVMOOMR;OTMSDBZUPAUEDD;OKKJLVBELUTLKV;IKHGUXGNUITLKF;ATUOYWHBWRKTHZ;LCGLNKUTAGEVQW;LFQSCWFLJHTTHZ;HGINCPLSRVDWNT;VQTUBCCKSQIDNK;VXNZUUAINFGPBY;NBBJYMSMWIIQGU;XXROGKLTLUQVRX;IJDNQMDRQITEOD;NNPPMTNAJDCUHE;QTBSBXVTEAMEQO;TZIHFWKZFHZASV;BDERNNFJNOPAEC;KFZMGEQAYNKOFK;XOBKSJJDNFUZPF;LYCAIKOWRPUZTN;YWAKXRMUMFPDSH;NIXOWILDQLNWCW;ZSPTYLOMNJNZNG;ZTQSAGDEMFDKMZ;OFBQJSOFQDEBGM;QWTDNUCVQCZILF;KXKVLQRXCPHEJC;WBJINCZRORDGAQ;XBDQKXXYIPTUBI;BTANRVKWQNVYAZ;LRHPLDYGYMQRHN;VNKYTQGIUYNRMY;ZXEKIIBDNHEJCQ;DNIAPMSPPWPWGF;XNWFRZJHXBZDAG;VIBDJEWPNNCFQO;LDTAOIUHUHHCMU;LIKMAJRDDDTEIG;BAPJBEWLBFYGME;CERQOIWHTDAKMF;YEJRWHAVMIAJKC;HGBOYTHUEUWSSQ;JWUJQDFVADABEY;AFABGHUZZDYHJO;PFEOZHBOMNWTJB;VLKZOEOYAKHREP;FERIUCNNQQJTOY;XEKOWRVHYACXOJ;AMQJEAYHLZJPGS;AQIXEPGDORPWBJ;FVNIMHIOIXPIQT;JYVLIDXNZAXMDK;MXLMTQWGSQIYOW;PHTQWCKDNZKARW;BMRWNKZVCUKKSR;YTTFFPATQICAQN;ZNQVEEAIQZEUHB;ZGEGCLOFRBLKSE;JARKCYVAAOWBJS;IMNFDUFMRHMDMM;VLJXXKKOSFGPHI;ZSIAUFGUXNUGDI;WCVRQHFDJLLWFE;XLMFDCKSFJWJTP;MTHSVFCYNBDYFN;KWKAKUADMBZCLK;SUPCQIBBMFXVTL;FXHGMKSSBGDXIY;JVSWJIKNEAIKJW;TVMXDCGIABBOFY;OQAGVSWESNCJJT;CETWDUZRCINIHU;NUJGJRNETVAIRJ;BSTCHFGEIXFVRN;NZQMQVJXSRMTCJ;ZDAWZDFBPUUDAY
SubstructureOntologies: CHEMONTID:0002500;NonID:H2O;CHEMONTID:0004476;CHEMONTID:0001831;CHEMONTID:0000286;CHEMONTID:0002230;CHEMONTID:0001167;CHEMONTID:0002436;CHEMONTID:0004622;CHEMONTID:0002434;CHEMONTID:0004620;CHEMONTID:0001205;CHEMONTID:0001238;CHEMONTID:0001661;CHEMONTID:0002467;CHEMONTID:0004451;CHEMONTID:0003416;CHEMONTID:0002286;CHEMONTID:0004452;CHEMONTID:0001245;CHEMONTID:0002648;CHEMONTID:0000333;CHEMONTID:0002229;CHEMONTID:0001334;CHEMONTID:0003626;CHEMONTID:0003417;CHEMONTID:0003086
Ontology: Macrolides and analogues
OntologyID: CHEMONTID:0000147
RETENTIONTIME: -1
RETENTIONINDEX: -1
TotalBondEnergy: 27086
TotalScore: 4.5789
TotalHrRulesScore: 0.5
TotalBondCleavageScore: 0.5
TotalMassAccuracyScore: 0.493
TotalFragmentLinkageScore: 0.5
TotalBondDissociationEnergyScore: 0.5
DatabaseScore: 0.2238
SubstructureAssignmentScore: 0
RtSimilarityScore: -1
RiSimilarityScore: 0
Num Fragment VS2 (M/Z Intensity MatchedExactMass SaturatedExactMass Formula RearrangedHydrogen PPM MassDiff_mDa IsEvenElectronRule IsHrRule IsSolventAdductFragment AssignedAdductMass AdductString BondDissociationEnergy TreeDepth SMILES TotalScore HrLikelihood BcLikelihood MaLikelihood FlLikelihood BeLikelihood): 1
425.26178	239777.332171	425.2533702051	424.24609375	C23H36O7	1	19.78	8.41	True	True	False	0		0	0	O=C2OC3C(OC(=O)C)C(C)CCCC(OC)(C)C1OC(C)(CC1)C(O)CC3(C2(=C))	4.98595464229584	1	1	0.985954642295837	1	1

NAME: UNPD64184
ID: BYAFYCNUPVUHNU
IsSpectrumSearch: False
INCHIKEY: BYAFYCNUPVUHNU-PFKSMDQZNA-N
SMILES: O=C(OC4(C(=O)CC1C(C)(C)C(O)CCC1(C)C34(OC2(COC(OC)C2)(CC3)))(C))C
RESOURCES: UNPD=UNPD64184;UNPD84950
SubstructureInChIKeys: VNWKTOKETHGBQD;XLYOFNOQVPJJNP;WSFSSNUMVMOOMR;OTMSDBZUPAUEDD;OKKJLVBELUTLKV;IKHGUXGNUITLKF;ATUOYWHBWRKTHZ;LCGLNKUTAGEVQW;LFQSCWFLJHTTHZ;CKFGINPQOCXMAZ;CSCPPACGZOOCGX;NBBJYMSMWIIQGU;IJDNQMDRQITEOD;NNPPMTNAJDCUHE;QTBSBXVTEAMEQO;TZIHFWKZFHZASV;BDERNNFJNOPAEC;KFZMGEQAYNKOFK;XOBKSJJDNFUZPF;LYCAIKOWRPUZTN;ZTQSAGDEMFDKMZ;OFBQJSOFQDEBGM;QWTDNUCVQCZILF;AKXKFZDCRYJKTF;KXKVLQRXCPHEJC;WBJINCZRORDGAQ;YSEFYOVWKJXNCH;BTANRVKWQNVYAZ;LRHPLDYGYMQRHN;VNKYTQGIUYNRMY;ZXEKIIBDNHEJCQ;RRLWYLINGKISHN;XNWFRZJHXBZDAG;YPFDHNVEDLHUCE;VIBDJEWPNNCFQO;XDTMQSROBMDMFD;HGBOYTHUEUWSSQ;AFABGHUZZDYHJO;HNRMPXKDFBEGFZ;PFEOZHBOMNWTJB;VLKZOEOYAKHREP;XEKOWRVHYACXOJ;AMQJEAYHLZJPGS;AQIXEPGDORPWBJ;FVNIMHIOIXPIQT;JYVLIDXNZAXMDK;MXLMTQWGSQIYOW;PHTQWCKDNZKARW;MNQZXJOMYWMBOU;BMRWNKZVCUKKSR;CHCLGECDSSWNCP;JDFDHBSESGTDAL;PUPZLCDOIYMWBV;YTTFFPATQICAQN;ZNQVEEAIQZEUHB;UAEPNZWRGJTJPN;HPXRVTGHNJAIIH;JARKCYVAAOWBJS;BZHMBWZPUJHVEE;IMNFDUFMRHMDMM;VLJXXKKOSFGPHI;KSTOUTVBGBEWOS;ZSIAUFGUXNUGDI;DFFAMJFPVBTTBX;QONBKISCDWCHKF;WCVRQHFDJLLWFE;XLMFDCKSFJWJTP;ARXKVVRQIIOZGF;MTHSVFCYNBDYFN;KVZJLSYJROEPSQ;QEGNUYASOUJEHD;SGVUHPSBDNVHKL;CATSNJVOTSVZJV;FXHGMKSSBGDXIY;MQWCXKGKQLNYQG;JVSWJIKNEAIKJW;TVMXDCGIABBOFY;CETWDUZRCINIHU;OVOVDHYEOQJKMD;VVDIZWFSGJERMA;XIRBXKMCQNAYAT;PYOLJOJPIPCRDP;XARGIVYWQPXRTC;LEBVLOLOVGHEFE;NUJGJRNETVAIRJ;VWLITJGXNSANSN;ZBAXJUPCYVIBSP;ZDAWZDFBPUUDAY;BUOAKQCLRBVIOX;HIVFIUIKABOGIO;YLZKVXHQMPWDBJ;SOUITUXPBGREAE;YFBDMUJOFKYAGE;VTXRDCQMLXABHJ;IRXJZDLOCNJAHE;XBENKLBOLWZLNQ;OTBOAOSTJYUVHP;GZURMVKYRIAPGE;HZNDJPAXRXLIOU
SubstructureOntologies: CHEMONTID:0002500;NonID:H2O;CHEMONTID:0001831;CHEMONTID:0000286;CHEMONTID:0002230;CHEMONTID:0001167;CHEMONTID:0001605;CHEMONTID:0000118;CHEMONTID:0002434;CHEMONTID:0004620;CHEMONTID:0001205;CHEMONTID:0001238;CHEMONTID:0001661;CHEMONTID:0002467;CHEMONTID:0003416;CHEMONTID:0001092;CHEMONTID:0002286;CHEMONTID:0001016;CHEMONTID:0001540;CHEMONTID:0001656;CHEMONTID:0002647;CHEMONTID:0002229;CHEMONTID:0002648;CHEMONTID:0001334;CHEMONTID:0001967;CHEMONTID:0001497;CHEMONTID:0004149;CHEMONTID:0001401;CHEMONTID:0001292
Ontology: Diterpenoids
OntologyID: CHEMONTID:0001551
RETENTIONTIME: -1
RETENTIONINDEX: -1
TotalBondEnergy: 27176
TotalScore: 4.5789
TotalHrRulesScore: 0.5
TotalBondCleavageScore: 0.5
TotalMassAccuracyScore: 0.493
TotalFragmentLinkageScore: 0.5
TotalBondDissociationEnergyScore: 0.5
DatabaseScore: 0.2238
SubstructureAssignmentScore: 0
RtSimilarityScore: -1
RiSimilarityScore: 0
Num Fragment VS2 (M/Z Intensity MatchedExactMass SaturatedExactMass Formula RearrangedHydrogen PPM MassDiff_mDa IsEvenElectronRule IsHrRule IsSolventAdductFragment AssignedAdductMass AdductString BondDissociationEnergy TreeDepth SMILES TotalScore HrLikelihood BcLikelihood MaLikelihood FlLikelihood BeLikelihood): 1
425.26178	239777.332171	425.2533702051	424.24609375	C23H36O7	1	19.78	8.41	True	True	False	0		0	0	O=C(OC4(C(=O)CC1C(C)(C)C(O)CCC1(C)C34(OC2(COC(OC)C2)(CC3)))(C))C	4.98595464229584	1	1	0.985954642295837	1	1

NAME: UNPD142946
ID: CABZVBYPLVSONM
IsSpectrumSearch: False
INCHIKEY: CABZVBYPLVSONM-PGPNNZIGNA-N
SMILES: O=C(OC2C(O)C4(C)(C(CCC4(O)(C3(O)(CC=C1CC(O)CCC1(C)C23)))C(O)C))C
RESOURCES: UNPD=UNPD142946
SubstructureInChIKeys: VNWKTOKETHGBQD;XLYOFNOQVPJJNP;VGGSQFUCUMXWEO;WSFSSNUMVMOOMR;OTMSDBZUPAUEDD;OKKJLVBELUTLKV;IKHGUXGNUITLKF;ATUOYWHBWRKTHZ;LCGLNKUTAGEVQW;LFQSCWFLJHTTHZ;IAQRGUVFOMOMEM;VQTUBCCKSQIDNK;VXNZUUAINFGPBY;IJDNQMDRQITEOD;NNPPMTNAJDCUHE;QTBSBXVTEAMEQO;TZIHFWKZFHZASV;BDERNNFJNOPAEC;KFZMGEQAYNKOFK;XOBKSJJDNFUZPF;LYCAIKOWRPUZTN;BKOOMYPCSUNDGP;QMMOXUPEWRXHJS;RGSFGYAAUTVSQA;YWAKXRMUMFPDSH;ZSPTYLOMNJNZNG;OFBQJSOFQDEBGM;QWTDNUCVQCZILF;KXKVLQRXCPHEJC;WBJINCZRORDGAQ;BTANRVKWQNVYAZ;LRHPLDYGYMQRHN;VNKYTQGIUYNRMY;ZXEKIIBDNHEJCQ;DNIAPMSPPWPWGF;XNWFRZJHXBZDAG;YPFDHNVEDLHUCE;VIBDJEWPNNCFQO;BEQGRRJLJLVQAQ;GDOPTJXRTPNYNR;LDTAOIUHUHHCMU;LIKMAJRDDDTEIG;RYPKRALMXUUNKS;XDTMQSROBMDMFD;ZQDPJFUHLCOCRG;FSUXYWPILZJGCC;AFABGHUZZDYHJO;HNRMPXKDFBEGFZ;PFEOZHBOMNWTJB;VLKZOEOYAKHREP;XEKOWRVHYACXOJ;AMQJEAYHLZJPGS;AQIXEPGDORPWBJ;FVNIMHIOIXPIQT;JYVLIDXNZAXMDK;MXLMTQWGSQIYOW;PHTQWCKDNZKARW;BMRWNKZVCUKKSR;JDFDHBSESGTDAL;PUPZLCDOIYMWBV;QWGRWMMWNDWRQN;YTTFFPATQICAQN;ZNQVEEAIQZEUHB;ADHCYQWFCLQBFG;QWHNJUXXYKPLQM;UAEPNZWRGJTJPN;WZHKDGJSXCTSCK;ZGEGCLOFRBLKSE;BVIJQMCYYASIFP;HPXRVTGHNJAIIH;UFLHIIWVXFIJGU;BZHMBWZPUJHVEE;IMNFDUFMRHMDMM;VLJXXKKOSFGPHI;ZSIAUFGUXNUGDI;SLCVBVWXLSEKPL;WCVRQHFDJLLWFE;XLMFDCKSFJWJTP;ARXKVVRQIIOZGF;QJXCDRBHYIAFTH;KVZJLSYJROEPSQ;KWKAKUADMBZCLK;LETYIFNDQBJGPJ;QEGNUYASOUJEHD;SGVUHPSBDNVHKL;YXLCVBVDFKWWRW;MQWCXKGKQLNYQG;JVSWJIKNEAIKJW;TVMXDCGIABBOFY;CETWDUZRCINIHU;OVOVDHYEOQJKMD;ILIUIABCBOXIRX;NUHCEMOQRZEGAQ;IICQZTQZQSBHBY;KPADFPAILITQBG;XARGIVYWQPXRTC;LZHHQGKEJNRBAZ;OHEFFKYYKJVVOX;ZBAXJUPCYVIBSP;ZDAWZDFBPUUDAY;GGWBGCSGJCRVIQ;NYFHUVYMLLAQHH;HIVFIUIKABOGIO;BQOAKIRTXKZTKD;SOUITUXPBGREAE;KGBMCONWCCBLAE;IRXJZDLOCNJAHE;OTBOAOSTJYUVHP
SubstructureOntologies: CHEMONTID:0002500;NonID:H2O;CHEMONTID:0004476;CHEMONTID:0001831;CHEMONTID:0000286;CHEMONTID:0002230;CHEMONTID:0001167;CHEMONTID:0004622;CHEMONTID:0004620;CHEMONTID:0001205;CHEMONTID:0001238;CHEMONTID:0001661;CHEMONTID:0002467;CHEMONTID:0001016;CHEMONTID:0003416;CHEMONTID:0002286;CHEMONTID:0002938;CHEMONTID:0002647;CHEMONTID:0001334;CHEMONTID:0004149;CHEMONTID:0001401
Ontology: Gluco/mineralocorticoids, progestogins and derivatives
OntologyID: CHEMONTID:0001468
RETENTIONTIME: -1
RETENTIONINDEX: -1
TotalBondEnergy: 27197
TotalScore: 4.5789
TotalHrRulesScore: 0.5
TotalBondCleavageScore: 0.5
TotalMassAccuracyScore: 0.493
TotalFragmentLinkageScore: 0.5
TotalBondDissociationEnergyScore: 0.5
DatabaseScore: 0.2238
SubstructureAssignmentScore: 0
RtSimilarityScore: -1
RiSimilarityScore: 0
Num Fragment VS2 (M/Z Intensity MatchedExactMass SaturatedExactMass Formula RearrangedHydrogen PPM MassDiff_mDa IsEvenElectronRule IsHrRule IsSolventAdductFragment AssignedAdductMass AdductString BondDissociationEnergy TreeDepth SMILES TotalScore HrLikelihood BcLikelihood MaLikelihood FlLikelihood BeLikelihood): 1
425.26178	239777.332171	425.2533702051	424.24609375	C23H36O7	1	19.78	8.41	True	True	False	0		0	0	O=C(OC2C(O)C4(C)(C(CCC4(O)(C3(O)(CC=C1CC(O)CCC1(C)C23)))C(O)C))C	4.98595464229584	1	1	0.985954642295837	1	1

NAME: UNPD98467
ID: FPWNQXCUDWQVAY
IsSpectrumSearch: False
INCHIKEY: FPWNQXCUDWQVAY-YKYVPUEWNA-N
SMILES: O=C(OC3C2CCC4C(O)(C)C5C1OC1C(C)(C)C5(O)(C(O)CC34(CC2(O)(C))))CC
RESOURCES: UNPD=UNPD98467
SubstructureInChIKeys: VNWKTOKETHGBQD;XLYOFNOQVPJJNP;WSFSSNUMVMOOMR;OTMSDBZUPAUEDD;OKKJLVBELUTLKV;IKHGUXGNUITLKF;ATUOYWHBWRKTHZ;LCGLNKUTAGEVQW;LFQSCWFLJHTTHZ;NBBJYMSMWIIQGU;IJDNQMDRQITEOD;NNPPMTNAJDCUHE;QTBSBXVTEAMEQO;TZIHFWKZFHZASV;BDERNNFJNOPAEC;KFZMGEQAYNKOFK;XOBKSJJDNFUZPF;LYCAIKOWRPUZTN;RGSFGYAAUTVSQA;OFBQJSOFQDEBGM;QWTDNUCVQCZILF;KXKVLQRXCPHEJC;WBJINCZRORDGAQ;XBDQKXXYIPTUBI;BTANRVKWQNVYAZ;LRHPLDYGYMQRHN;VNKYTQGIUYNRMY;ZXEKIIBDNHEJCQ;DNIAPMSPPWPWGF;YPFDHNVEDLHUCE;VIBDJEWPNNCFQO;GDOPTJXRTPNYNR;XDTMQSROBMDMFD;AFABGHUZZDYHJO;HNRMPXKDFBEGFZ;PFEOZHBOMNWTJB;VLKZOEOYAKHREP;XEKOWRVHYACXOJ;AMQJEAYHLZJPGS;AQIXEPGDORPWBJ;FVNIMHIOIXPIQT;JYVLIDXNZAXMDK;MXLMTQWGSQIYOW;PHTQWCKDNZKARW;BMRWNKZVCUKKSR;JDFDHBSESGTDAL;PUPZLCDOIYMWBV;QWGRWMMWNDWRQN;QWHNJUXXYKPLQM;BVIJQMCYYASIFP;BZHMBWZPUJHVEE;IMNFDUFMRHMDMM;VLJXXKKOSFGPHI;ZSIAUFGUXNUGDI;SLCVBVWXLSEKPL;WCVRQHFDJLLWFE;XLMFDCKSFJWJTP;ARXKVVRQIIOZGF;KVZJLSYJROEPSQ;LETYIFNDQBJGPJ;QEGNUYASOUJEHD;JVSWJIKNEAIKJW;TVMXDCGIABBOFY;CETWDUZRCINIHU;OVOVDHYEOQJKMD;ZDAWZDFBPUUDAY;GGWBGCSGJCRVIQ;HIVFIUIKABOGIO;KGBMCONWCCBLAE;IRXJZDLOCNJAHE
SubstructureOntologies: CHEMONTID:0002500;NonID:H2O;CHEMONTID:0001831;CHEMONTID:0000286;CHEMONTID:0002230;CHEMONTID:0001167;CHEMONTID:0002434;CHEMONTID:0004620;CHEMONTID:0001205;CHEMONTID:0001238;CHEMONTID:0001661;CHEMONTID:0002467;CHEMONTID:0001016;CHEMONTID:0003416;CHEMONTID:0002286;CHEMONTID:0002938;CHEMONTID:0001334;CHEMONTID:0004149
Ontology: Grayanoids
OntologyID: CHEMONTID:0002871
RETENTIONTIME: -1
RETENTIONINDEX: -1
TotalBondEnergy: 27251
TotalScore: 4.5789
TotalHrRulesScore: 0.5
TotalBondCleavageScore: 0.5
TotalMassAccuracyScore: 0.493
TotalFragmentLinkageScore: 0.5
TotalBondDissociationEnergyScore: 0.5
DatabaseScore: 0.2238
SubstructureAssignmentScore: 0
RtSimilarityScore: -1
RiSimilarityScore: 0
Num Fragment VS2 (M/Z Intensity MatchedExactMass SaturatedExactMass Formula RearrangedHydrogen PPM MassDiff_mDa IsEvenElectronRule IsHrRule IsSolventAdductFragment AssignedAdductMass AdductString BondDissociationEnergy TreeDepth SMILES TotalScore HrLikelihood BcLikelihood MaLikelihood FlLikelihood BeLikelihood): 1
425.26178	239777.332171	425.2533702051	424.24609375	C23H36O7	1	19.78	8.41	True	True	False	0		0	0	O=C(OC3C2CCC4C(O)(C)C5C1OC1C(C)(C)C5(O)(C(O)CC34(CC2(O)(C))))CC	4.98595464229584	1	1	0.985954642295837	1	1

NAME: UNPD115649
ID: HYGQABJPKDJZNQ
IsSpectrumSearch: False
INCHIKEY: HYGQABJPKDJZNQ-DWPFZAJCNA-N
SMILES: O=C(OC)C(=C)C1CCC(O)(C)C(OC(=O)C)CCC(O)(C=CCC2(OC2(C1))(C))C
RESOURCES: UNPD=UNPD115649;UNPD84840
SubstructureInChIKeys: VNWKTOKETHGBQD;XLYOFNOQVPJJNP;VGGSQFUCUMXWEO;WSFSSNUMVMOOMR;OTMSDBZUPAUEDD;OKKJLVBELUTLKV;IKHGUXGNUITLKF;ATUOYWHBWRKTHZ;LCGLNKUTAGEVQW;LFQSCWFLJHTTHZ;HGINCPLSRVDWNT;IAQRGUVFOMOMEM;VQTUBCCKSQIDNK;VXNZUUAINFGPBY;GOOHAUXETOMSMM;NBBJYMSMWIIQGU;XXROGKLTLUQVRX;IJDNQMDRQITEOD;NNPPMTNAJDCUHE;QTBSBXVTEAMEQO;TZIHFWKZFHZASV;BDERNNFJNOPAEC;KFZMGEQAYNKOFK;XOBKSJJDNFUZPF;LYCAIKOWRPUZTN;QMMOXUPEWRXHJS;YWAKXRMUMFPDSH;NIXOWILDQLNWCW;MKUWVMRNQOOSAT;ZSPTYLOMNJNZNG;ZTQSAGDEMFDKMZ;OFBQJSOFQDEBGM;QWTDNUCVQCZILF;KXKVLQRXCPHEJC;WBJINCZRORDGAQ;XBDQKXXYIPTUBI;BTANRVKWQNVYAZ;LRHPLDYGYMQRHN;VNKYTQGIUYNRMY;ZXEKIIBDNHEJCQ;DNIAPMSPPWPWGF;XNWFRZJHXBZDAG;VIBDJEWPNNCFQO;LDTAOIUHUHHCMU;LIKMAJRDDDTEIG;RYPKRALMXUUNKS;ZQDPJFUHLCOCRG;BAPJBEWLBFYGME;CERQOIWHTDAKMF;FSUXYWPILZJGCC;GJYMQFMQRRNLCY;HGBOYTHUEUWSSQ;AFABGHUZZDYHJO;PFEOZHBOMNWTJB;VLKZOEOYAKHREP;FERIUCNNQQJTOY;XEKOWRVHYACXOJ;AMQJEAYHLZJPGS;AQIXEPGDORPWBJ;FVNIMHIOIXPIQT;JYVLIDXNZAXMDK;MXLMTQWGSQIYOW;PHTQWCKDNZKARW;BMRWNKZVCUKKSR;YTTFFPATQICAQN;ZNQVEEAIQZEUHB;WZHKDGJSXCTSCK;ZGEGCLOFRBLKSE;BVOSSZSHBZQJOI;JARKCYVAAOWBJS;UFLHIIWVXFIJGU;IMNFDUFMRHMDMM;VLJXXKKOSFGPHI;ZSIAUFGUXNUGDI;WCVRQHFDJLLWFE;XLMFDCKSFJWJTP;KWKAKUADMBZCLK;FXHGMKSSBGDXIY;PZKFYTOLVRCMOA;JVSWJIKNEAIKJW;TVMXDCGIABBOFY;OQAGVSWESNCJJT;CETWDUZRCINIHU;IICQZTQZQSBHBY;KPADFPAILITQBG;LZHHQGKEJNRBAZ;NUJGJRNETVAIRJ;VSMOENVRRABVKN;NZQMQVJXSRMTCJ;ZDAWZDFBPUUDAY;BQOAKIRTXKZTKD;ZIWXVGHUDKNNSH
SubstructureOntologies: CHEMONTID:0002500;NonID:H2O;CHEMONTID:0004476;CHEMONTID:0001831;CHEMONTID:0000286;CHEMONTID:0002230;CHEMONTID:0001167;CHEMONTID:0002436;CHEMONTID:0004622;CHEMONTID:0000159;CHEMONTID:0002434;CHEMONTID:0004620;CHEMONTID:0001205;CHEMONTID:0001238;CHEMONTID:0001661;CHEMONTID:0002467;CHEMONTID:0004451;CHEMONTID:0003416;CHEMONTID:0002286;CHEMONTID:0004452;CHEMONTID:0000333;CHEMONTID:0002229;CHEMONTID:0001334;CHEMONTID:0003417;CHEMONTID:0003086
Ontology: Sesquiterpenoids
OntologyID: CHEMONTID:0001550
RETENTIONTIME: -1
RETENTIONINDEX: -1
TotalBondEnergy: 27032
TotalScore: 4.5789
TotalHrRulesScore: 0.5
TotalBondCleavageScore: 0.5
TotalMassAccuracyScore: 0.493
TotalFragmentLinkageScore: 0.5
TotalBondDissociationEnergyScore: 0.5
DatabaseScore: 0.2238
SubstructureAssignmentScore: 0
RtSimilarityScore: -1
RiSimilarityScore: 0
Num Fragment VS2 (M/Z Intensity MatchedExactMass SaturatedExactMass Formula RearrangedHydrogen PPM MassDiff_mDa IsEvenElectronRule IsHrRule IsSolventAdductFragment AssignedAdductMass AdductString BondDissociationEnergy TreeDepth SMILES TotalScore HrLikelihood BcLikelihood MaLikelihood FlLikelihood BeLikelihood): 1
425.26178	239777.332171	425.2533702051	424.24609375	C23H36O7	1	19.78	8.41	True	True	False	0		0	0	O=C(OC)C(=C)C1CCC(O)(C)C(OC(=O)C)CCC(O)(C=CCC2(OC2(C1))(C))C	4.98595464229584	1	1	0.985954642295837	1	1

NAME: UNPD162130
ID: JLXMRUGZMLTQJG
IsSpectrumSearch: False
INCHIKEY: JLXMRUGZMLTQJG-GYZAHFMLNA-N
SMILES: O=C(OC4CC3=CCC1(O)(C(CC(O)C2(C)(C(O)(CCC12(O))C(O)C))C3(C)CC4))C
RESOURCES: UNPD=UNPD162130
SubstructureInChIKeys: VNWKTOKETHGBQD;XLYOFNOQVPJJNP;VGGSQFUCUMXWEO;WSFSSNUMVMOOMR;OTMSDBZUPAUEDD;OKKJLVBELUTLKV;IKHGUXGNUITLKF;ATUOYWHBWRKTHZ;LCGLNKUTAGEVQW;LFQSCWFLJHTTHZ;IAQRGUVFOMOMEM;VQTUBCCKSQIDNK;VXNZUUAINFGPBY;IJDNQMDRQITEOD;NNPPMTNAJDCUHE;QTBSBXVTEAMEQO;TZIHFWKZFHZASV;BDERNNFJNOPAEC;KFZMGEQAYNKOFK;XOBKSJJDNFUZPF;LYCAIKOWRPUZTN;BKOOMYPCSUNDGP;QMMOXUPEWRXHJS;RGSFGYAAUTVSQA;YWAKXRMUMFPDSH;ZSPTYLOMNJNZNG;OFBQJSOFQDEBGM;QWTDNUCVQCZILF;KXKVLQRXCPHEJC;WBJINCZRORDGAQ;BTANRVKWQNVYAZ;LRHPLDYGYMQRHN;VNKYTQGIUYNRMY;ZXEKIIBDNHEJCQ;DNIAPMSPPWPWGF;YPFDHNVEDLHUCE;VIBDJEWPNNCFQO;BEQGRRJLJLVQAQ;GDOPTJXRTPNYNR;LDTAOIUHUHHCMU;LIKMAJRDDDTEIG;RYPKRALMXUUNKS;XDTMQSROBMDMFD;ZQDPJFUHLCOCRG;FSUXYWPILZJGCC;AFABGHUZZDYHJO;HNRMPXKDFBEGFZ;PFEOZHBOMNWTJB;VLKZOEOYAKHREP;XEKOWRVHYACXOJ;AMQJEAYHLZJPGS;AQIXEPGDORPWBJ;FVNIMHIOIXPIQT;JYVLIDXNZAXMDK;MXLMTQWGSQIYOW;PHTQWCKDNZKARW;BMRWNKZVCUKKSR;PUPZLCDOIYMWBV;QWGRWMMWNDWRQN;ADHCYQWFCLQBFG;QWHNJUXXYKPLQM;UAEPNZWRGJTJPN;WZHKDGJSXCTSCK;ZGEGCLOFRBLKSE;BVIJQMCYYASIFP;HPXRVTGHNJAIIH;UFLHIIWVXFIJGU;BZHMBWZPUJHVEE;IMNFDUFMRHMDMM;VLJXXKKOSFGPHI;ZSIAUFGUXNUGDI;SLCVBVWXLSEKPL;WCVRQHFDJLLWFE;XLMFDCKSFJWJTP;ARXKVVRQIIOZGF;QJXCDRBHYIAFTH;KVZJLSYJROEPSQ;KWKAKUADMBZCLK;LETYIFNDQBJGPJ;QEGNUYASOUJEHD;SGVUHPSBDNVHKL;YXLCVBVDFKWWRW;MQWCXKGKQLNYQG;JVSWJIKNEAIKJW;TVMXDCGIABBOFY;CETWDUZRCINIHU;OVOVDHYEOQJKMD;ILIUIABCBOXIRX;NUHCEMOQRZEGAQ;IICQZTQZQSBHBY;KPADFPAILITQBG;XARGIVYWQPXRTC;LZHHQGKEJNRBAZ;OHEFFKYYKJVVOX;ZBAXJUPCYVIBSP;ZDAWZDFBPUUDAY;GGWBGCSGJCRVIQ;NYFHUVYMLLAQHH;HIVFIUIKABOGIO;BQOAKIRTXKZTKD;SOUITUXPBGREAE;KGBMCONWCCBLAE;IRXJZDLOCNJAHE;OTBOAOSTJYUVHP
SubstructureOntologies: CHEMONTID:0002500;NonID:H2O;CHEMONTID:0004476;CHEMONTID:0001831;CHEMONTID:0000286;CHEMONTID:0002230;CHEMONTID:0001167;CHEMONTID:0004622;CHEMONTID:0004620;CHEMONTID:0001205;CHEMONTID:0001238;CHEMONTID:0001661;CHEMONTID:0002467;CHEMONTID:0001016;CHEMONTID:0003416;CHEMONTID:0002286;CHEMONTID:0002938;CHEMONTID:0002647;CHEMONTID:0001334;CHEMONTID:0004149;CHEMONTID:0001401
Ontology: Steroid esters
OntologyID: CHEMONTID:0001691
RETENTIONTIME: -1
RETENTIONINDEX: -1
TotalBondEnergy: 27197
TotalScore: 4.5789
TotalHrRulesScore: 0.5
TotalBondCleavageScore: 0.5
TotalMassAccuracyScore: 0.493
TotalFragmentLinkageScore: 0.5
TotalBondDissociationEnergyScore: 0.5
DatabaseScore: 0.2238
SubstructureAssignmentScore: 0
RtSimilarityScore: -1
RiSimilarityScore: 0
Num Fragment VS2 (M/Z Intensity MatchedExactMass SaturatedExactMass Formula RearrangedHydrogen PPM MassDiff_mDa IsEvenElectronRule IsHrRule IsSolventAdductFragment AssignedAdductMass AdductString BondDissociationEnergy TreeDepth SMILES TotalScore HrLikelihood BcLikelihood MaLikelihood FlLikelihood BeLikelihood): 1
425.26178	239777.332171	425.2533702051	424.24609375	C23H36O7	1	19.78	8.41	True	True	False	0		0	0	O=C(OC4CC3=CCC1(O)(C(CC(O)C2(C)(C(O)(CCC12(O))C(O)C))C3(C)CC4))C	4.98595464229584	1	1	0.985954642295837	1	1

NAME: UNPD228269
ID: NXRPMVSGYGPUIP
IsSpectrumSearch: False
INCHIKEY: NXRPMVSGYGPUIP-HJTFGXCASA-N
SMILES: O=C1OC(OC)C=C1CCC3(O)(C(C)C(O)C(OC(=O)C)C2C(C)(C)CCCC23(C))
RESOURCES: UNPD=UNPD228269
SubstructureInChIKeys: VNWKTOKETHGBQD;XLYOFNOQVPJJNP;VGGSQFUCUMXWEO;WSFSSNUMVMOOMR;OTMSDBZUPAUEDD;OKKJLVBELUTLKV;IKHGUXGNUITLKF;ATUOYWHBWRKTHZ;LCGLNKUTAGEVQW;LFQSCWFLJHTTHZ;CKFGINPQOCXMAZ;HGINCPLSRVDWNT;IAQRGUVFOMOMEM;VQTUBCCKSQIDNK;VXNZUUAINFGPBY;NBBJYMSMWIIQGU;XXROGKLTLUQVRX;IJDNQMDRQITEOD;NNPPMTNAJDCUHE;QTBSBXVTEAMEQO;TZIHFWKZFHZASV;BDERNNFJNOPAEC;KFZMGEQAYNKOFK;XOBKSJJDNFUZPF;LYCAIKOWRPUZTN;MLUCVPSAIODCQM;BKOOMYPCSUNDGP;QMMOXUPEWRXHJS;YWAKXRMUMFPDSH;NIXOWILDQLNWCW;ZTQSAGDEMFDKMZ;OFBQJSOFQDEBGM;QWTDNUCVQCZILF;KXKVLQRXCPHEJC;WBJINCZRORDGAQ;XBDQKXXYIPTUBI;BTANRVKWQNVYAZ;LRHPLDYGYMQRHN;VNKYTQGIUYNRMY;ZXEKIIBDNHEJCQ;DNIAPMSPPWPWGF;RRLWYLINGKISHN;XNWFRZJHXBZDAG;YPFDHNVEDLHUCE;VIBDJEWPNNCFQO;BEQGRRJLJLVQAQ;LIKMAJRDDDTEIG;RYPKRALMXUUNKS;XDTMQSROBMDMFD;BAPJBEWLBFYGME;CERQOIWHTDAKMF;YEJRWHAVMIAJKC;HGBOYTHUEUWSSQ;JWUJQDFVADABEY;NEJDKFPXHQRVMV;AFABGHUZZDYHJO;HNRMPXKDFBEGFZ;PFEOZHBOMNWTJB;VLKZOEOYAKHREP;FERIUCNNQQJTOY;XEKOWRVHYACXOJ;AMQJEAYHLZJPGS;AQIXEPGDORPWBJ;FVNIMHIOIXPIQT;JYVLIDXNZAXMDK;MXLMTQWGSQIYOW;PHTQWCKDNZKARW;BMRWNKZVCUKKSR;CHCLGECDSSWNCP;PUPZLCDOIYMWBV;QWGRWMMWNDWRQN;YTTFFPATQICAQN;ZNQVEEAIQZEUHB;UAEPNZWRGJTJPN;ZGEGCLOFRBLKSE;HPXRVTGHNJAIIH;JARKCYVAAOWBJS;BZHMBWZPUJHVEE;IMNFDUFMRHMDMM;VLJXXKKOSFGPHI;RMQJECWPWQIIPW;KSTOUTVBGBEWOS;ZSIAUFGUXNUGDI;WCVRQHFDJLLWFE;XLMFDCKSFJWJTP;ARXKVVRQIIOZGF;KVZJLSYJROEPSQ;KWKAKUADMBZCLK;QEGNUYASOUJEHD;SGVUHPSBDNVHKL;SUPCQIBBMFXVTL;FXHGMKSSBGDXIY;MQWCXKGKQLNYQG;JVSWJIKNEAIKJW;TVMXDCGIABBOFY;CETWDUZRCINIHU;OVOVDHYEOQJKMD;XIRBXKMCQNAYAT;IICQZTQZQSBHBY;PYOLJOJPIPCRDP;XARGIVYWQPXRTC;NUJGJRNETVAIRJ;ZBAXJUPCYVIBSP;MHPUGCYGQWGLJL;ZDAWZDFBPUUDAY;BUOAKQCLRBVIOX;HIVFIUIKABOGIO;YLZKVXHQMPWDBJ;SOUITUXPBGREAE;VTXRDCQMLXABHJ;IRXJZDLOCNJAHE;XBENKLBOLWZLNQ;OTBOAOSTJYUVHP;HZNDJPAXRXLIOU
SubstructureOntologies: CHEMONTID:0002500;NonID:H2O;CHEMONTID:0004476;CHEMONTID:0001831;CHEMONTID:0000286;CHEMONTID:0002230;CHEMONTID:0001167;CHEMONTID:0001605;CHEMONTID:0002436;CHEMONTID:0004622;CHEMONTID:0002434;CHEMONTID:0004620;CHEMONTID:0001205;CHEMONTID:0001238;CHEMONTID:0001661;CHEMONTID:0002467;CHEMONTID:0004451;CHEMONTID:0003416;CHEMONTID:0001092;CHEMONTID:0002286;CHEMONTID:0001016;CHEMONTID:0004452;CHEMONTID:0001245;CHEMONTID:0002648;CHEMONTID:0000333;CHEMONTID:0001656;CHEMONTID:0002647;CHEMONTID:0002229;CHEMONTID:0000341;CHEMONTID:0001334;CHEMONTID:0003626;CHEMONTID:0001497;CHEMONTID:0003086;CHEMONTID:0004149;CHEMONTID:0001401
Ontology: Diterpene lactones
OntologyID: CHEMONTID:0001538
RETENTIONTIME: -1
RETENTIONINDEX: -1
TotalBondEnergy: 27122
TotalScore: 4.5789
TotalHrRulesScore: 0.5
TotalBondCleavageScore: 0.5
TotalMassAccuracyScore: 0.493
TotalFragmentLinkageScore: 0.5
TotalBondDissociationEnergyScore: 0.5
DatabaseScore: 0.2238
SubstructureAssignmentScore: 0
RtSimilarityScore: -1
RiSimilarityScore: 0
Num Fragment VS2 (M/Z Intensity MatchedExactMass SaturatedExactMass Formula RearrangedHydrogen PPM MassDiff_mDa IsEvenElectronRule IsHrRule IsSolventAdductFragment AssignedAdductMass AdductString BondDissociationEnergy TreeDepth SMILES TotalScore HrLikelihood BcLikelihood MaLikelihood FlLikelihood BeLikelihood): 1
425.26178	239777.332171	425.2533702051	424.24609375	C23H36O7	1	19.78	8.41	True	True	False	0		0	0	O=C1OC(OC)C=C1CCC3(O)(C(C)C(O)C(OC(=O)C)C2C(C)(C)CCCC23(C))	4.98595464229584	1	1	0.985954642295837	1	1

NAME: UNPD46454
ID: TUOPMMVYGZYWAF
IsSpectrumSearch: False
INCHIKEY: TUOPMMVYGZYWAF-LEXCZQJBNA-N
SMILES: O=C(OC1C3C(CC1(C)(C))C(O)C45(OC5(C(O)C2(OC2)C34(C))))C(O)CCCCCC
RESOURCES: UNPD=UNPD46454
SubstructureInChIKeys: VNWKTOKETHGBQD;XLYOFNOQVPJJNP;WSFSSNUMVMOOMR;OTMSDBZUPAUEDD;OKKJLVBELUTLKV;IKHGUXGNUITLKF;ATUOYWHBWRKTHZ;LCGLNKUTAGEVQW;LFQSCWFLJHTTHZ;NBBJYMSMWIIQGU;IJDNQMDRQITEOD;NNPPMTNAJDCUHE;QTBSBXVTEAMEQO;TZIHFWKZFHZASV;WGCNASOHLSPBMP;BDERNNFJNOPAEC;KFZMGEQAYNKOFK;XOBKSJJDNFUZPF;LYCAIKOWRPUZTN;RGSFGYAAUTVSQA;ZTQSAGDEMFDKMZ;OFBQJSOFQDEBGM;QWTDNUCVQCZILF;AKXKFZDCRYJKTF;BSABBBMNWQWLLU;KXKVLQRXCPHEJC;WBJINCZRORDGAQ;XBDQKXXYIPTUBI;BTANRVKWQNVYAZ;LRHPLDYGYMQRHN;VNKYTQGIUYNRMY;ZXEKIIBDNHEJCQ;AEMRFAOFKBGASW;DNIAPMSPPWPWGF;XNWFRZJHXBZDAG;YPFDHNVEDLHUCE;VIBDJEWPNNCFQO;GDOPTJXRTPNYNR;HGBOYTHUEUWSSQ;AFABGHUZZDYHJO;HNRMPXKDFBEGFZ;PFEOZHBOMNWTJB;VLKZOEOYAKHREP;FERIUCNNQQJTOY;PIAOXUVIBAKVSP;XEKOWRVHYACXOJ;AMQJEAYHLZJPGS;AQIXEPGDORPWBJ;FVNIMHIOIXPIQT;JYVLIDXNZAXMDK;MXLMTQWGSQIYOW;PHTQWCKDNZKARW;ALRHLSYJTWAHJZ;JVTAAEKCZFNVCJ;BMRWNKZVCUKKSR;JDFDHBSESGTDAL;PUPZLCDOIYMWBV;QWGRWMMWNDWRQN;YTTFFPATQICAQN;ZNQVEEAIQZEUHB;PEDCQBHIVMGVHV;QWHNJUXXYKPLQM;BVIJQMCYYASIFP;JARKCYVAAOWBJS;BZHMBWZPUJHVEE;IMNFDUFMRHMDMM;VLJXXKKOSFGPHI;CNRGMQRNYAIBTN;ZSIAUFGUXNUGDI;AFENDNXGAFYKQO;SJZRECIVHVDYJC;SLCVBVWXLSEKPL;WCVRQHFDJLLWFE;XLMFDCKSFJWJTP;ARXKVVRQIIOZGF;MTHSVFCYNBDYFN;RKOGJKGQMPZCGG;YAXKTBLXMTYWDQ;MQVRLONNONYDJP;LETYIFNDQBJGPJ;FXHGMKSSBGDXIY;JVSWJIKNEAIKJW;TVMXDCGIABBOFY;YRMUTQRWVGDUBW;CETWDUZRCINIHU;OVOVDHYEOQJKMD;PHOJOSOUIAQEDH;AALKGALVYCZETF;GZXFYIDYTCWDDN;LOSWWGJGSSQDKH;UNXHWFMMPAWVPI;NUJGJRNETVAIRJ;UKFNNBXGHVJQMJ;YDCRNMJQROAWFT;FJGNTEKSQVNVTJ;ZDAWZDFBPUUDAY;JJMZVBNCCUWEDF;QVGWQEOFNGJAOO;ICKVZOWXZYBERI;HEBKCHPVOIAQTA;LAWNVEFFZXVKAN;LWWIYCLYWKAKRR;RUIACMUVCHMOMF;SKCKOFZKJLZSFA
SubstructureOntologies: CHEMONTID:0002500;NonID:H2O;CHEMONTID:0001831;CHEMONTID:0000286;CHEMONTID:0002230;CHEMONTID:0001167;CHEMONTID:0002434;CHEMONTID:0004620;CHEMONTID:0001205;CHEMONTID:0001238;CHEMONTID:0001661;CHEMONTID:0002467;CHEMONTID:0001016;CHEMONTID:0003675;CHEMONTID:0003416;CHEMONTID:0001359;CHEMONTID:0002286;CHEMONTID:0000333;CHEMONTID:0001713;CHEMONTID:0002210;CHEMONTID:0002938;CHEMONTID:0002229;CHEMONTID:0001334;CHEMONTID:0000341;CHEMONTID:0002391;CHEMONTID:0003263;CHEMONTID:0003086;CHEMONTID:0001498
Ontology: Sugar acids and derivatives
OntologyID: CHEMONTID:0000215
RETENTIONTIME: -1
RETENTIONINDEX: -1
TotalBondEnergy: 27215
TotalScore: 4.5789
TotalHrRulesScore: 0.5
TotalBondCleavageScore: 0.5
TotalMassAccuracyScore: 0.493
TotalFragmentLinkageScore: 0.5
TotalBondDissociationEnergyScore: 0.5
DatabaseScore: 0.2238
SubstructureAssignmentScore: 0
RtSimilarityScore: -1
RiSimilarityScore: 0
Num Fragment VS2 (M/Z Intensity MatchedExactMass SaturatedExactMass Formula RearrangedHydrogen PPM MassDiff_mDa IsEvenElectronRule IsHrRule IsSolventAdductFragment AssignedAdductMass AdductString BondDissociationEnergy TreeDepth SMILES TotalScore HrLikelihood BcLikelihood MaLikelihood FlLikelihood BeLikelihood): 1
425.26178	239777.332171	425.2533702051	424.24609375	C23H36O7	1	19.78	8.41	True	True	False	0		0	0	O=C(OC1C3C(CC1(C)(C))C(O)C45(OC5(C(O)C2(OC2)C34(C))))C(O)CCCCCC	4.98595464229584	1	1	0.985954642295837	1	1

NAME: UNPD43219
ID: UPYARILZUZMXKV
IsSpectrumSearch: False
INCHIKEY: UPYARILZUZMXKV-JQEXEDOCNA-N
SMILES: O=C1OC(CC)C(C=C(C=CC(=O)C(C)CC2CC(O)OC2(C(C)C(O)C1))C)CO
RESOURCES: UNPD=UNPD43219
SubstructureInChIKeys: VNWKTOKETHGBQD;XLYOFNOQVPJJNP;VGGSQFUCUMXWEO;WSFSSNUMVMOOMR;OTMSDBZUPAUEDD;OKKJLVBELUTLKV;QQONPFPTGQHPMA;IKHGUXGNUITLKF;ATUOYWHBWRKTHZ;LCGLNKUTAGEVQW;LFQSCWFLJHTTHZ;CKFGINPQOCXMAZ;HGINCPLSRVDWNT;IAQRGUVFOMOMEM;VQTUBCCKSQIDNK;VXNZUUAINFGPBY;CSCPPACGZOOCGX;NBBJYMSMWIIQGU;IJDNQMDRQITEOD;NNPPMTNAJDCUHE;QTBSBXVTEAMEQO;TZIHFWKZFHZASV;BDERNNFJNOPAEC;KFZMGEQAYNKOFK;XOBKSJJDNFUZPF;MLUCVPSAIODCQM;BKOOMYPCSUNDGP;QMMOXUPEWRXHJS;YWAKXRMUMFPDSH;ZSPTYLOMNJNZNG;ZTQSAGDEMFDKMZ;OFBQJSOFQDEBGM;QWTDNUCVQCZILF;AKXKFZDCRYJKTF;KXKVLQRXCPHEJC;WBJINCZRORDGAQ;XBDQKXXYIPTUBI;BTANRVKWQNVYAZ;LRHPLDYGYMQRHN;VNKYTQGIUYNRMY;ZXEKIIBDNHEJCQ;RRLWYLINGKISHN;YPFDHNVEDLHUCE;LDTAOIUHUHHCMU;LIKMAJRDDDTEIG;RYPKRALMXUUNKS;ZQDPJFUHLCOCRG;FSUXYWPILZJGCC;HGBOYTHUEUWSSQ;AFABGHUZZDYHJO;PFEOZHBOMNWTJB;VLKZOEOYAKHREP;FERIUCNNQQJTOY;XEKOWRVHYACXOJ;AMQJEAYHLZJPGS;AQIXEPGDORPWBJ;FVNIMHIOIXPIQT;JYVLIDXNZAXMDK;MXLMTQWGSQIYOW;PHTQWCKDNZKARW;JVTAAEKCZFNVCJ;JDFDHBSESGTDAL;PUPZLCDOIYMWBV;QWGRWMMWNDWRQN;WZHKDGJSXCTSCK;ZGEGCLOFRBLKSE;JARKCYVAAOWBJS;BZHMBWZPUJHVEE;IMNFDUFMRHMDMM;VLJXXKKOSFGPHI;KSTOUTVBGBEWOS;ZSIAUFGUXNUGDI;QONBKISCDWCHKF;KWKAKUADMBZCLK;CATSNJVOTSVZJV;FXHGMKSSBGDXIY;JVSWJIKNEAIKJW;TVMXDCGIABBOFY;CETWDUZRCINIHU;OVOVDHYEOQJKMD;IICQZTQZQSBHBY;KPADFPAILITQBG;NUJGJRNETVAIRJ
SubstructureOntologies: CHEMONTID:0002500;NonID:H2O;CHEMONTID:0004476;CHEMONTID:0001831;CHEMONTID:0000286;CHEMONTID:0002230;CHEMONTID:0001167;CHEMONTID:0001605;CHEMONTID:0002436;CHEMONTID:0004622;CHEMONTID:0000118;CHEMONTID:0002434;CHEMONTID:0004620;CHEMONTID:0001205;CHEMONTID:0001238;CHEMONTID:0001661;CHEMONTID:0003416;CHEMONTID:0001092;CHEMONTID:0000333;CHEMONTID:0001359;CHEMONTID:0002229;CHEMONTID:0002648;CHEMONTID:0001334
Ontology: Macrolides and analogues
OntologyID: CHEMONTID:0000147
RETENTIONTIME: -1
RETENTIONINDEX: -1
TotalBondEnergy: 27068
TotalScore: 4.5789
TotalHrRulesScore: 0.5
TotalBondCleavageScore: 0.5
TotalMassAccuracyScore: 0.493
TotalFragmentLinkageScore: 0.5
TotalBondDissociationEnergyScore: 0.5
DatabaseScore: 0.2238
SubstructureAssignmentScore: 0
RtSimilarityScore: -1
RiSimilarityScore: 0
Num Fragment VS2 (M/Z Intensity MatchedExactMass SaturatedExactMass Formula RearrangedHydrogen PPM MassDiff_mDa IsEvenElectronRule IsHrRule IsSolventAdductFragment AssignedAdductMass AdductString BondDissociationEnergy TreeDepth SMILES TotalScore HrLikelihood BcLikelihood MaLikelihood FlLikelihood BeLikelihood): 1
425.26178	239777.332171	425.2533702051	424.24609375	C23H36O7	1	19.78	8.41	True	True	False	0		0	0	O=C1OC(CC)C(C=C(C=CC(=O)C(C)CC2CC(O)OC2(C(C)C(O)C1))C)CO	4.98595464229584	1	1	0.985954642295837	1	1

NAME: UNPD121377
ID: XDZLKLVDXRPOQO
IsSpectrumSearch: False
INCHIKEY: XDZLKLVDXRPOQO-KAZFXMRPNA-N
SMILES: O=C3OC(CCC1C2C(=CC(O)C1(C))C(O)CCC2(OC(=O)C(C)CC))CC(O)C3
RESOURCES: UNPD=UNPD121377
SubstructureInChIKeys: VNWKTOKETHGBQD;XLYOFNOQVPJJNP;VGGSQFUCUMXWEO;WSFSSNUMVMOOMR;OTMSDBZUPAUEDD;OKKJLVBELUTLKV;IKHGUXGNUITLKF;ATUOYWHBWRKTHZ;LCGLNKUTAGEVQW;LFQSCWFLJHTTHZ;IAQRGUVFOMOMEM;VQTUBCCKSQIDNK;VXNZUUAINFGPBY;NBBJYMSMWIIQGU;XXROGKLTLUQVRX;IJDNQMDRQITEOD;NNPPMTNAJDCUHE;QTBSBXVTEAMEQO;TZIHFWKZFHZASV;BDERNNFJNOPAEC;KFZMGEQAYNKOFK;XOBKSJJDNFUZPF;BKOOMYPCSUNDGP;QMMOXUPEWRXHJS;YWAKXRMUMFPDSH;MKUWVMRNQOOSAT;ZSPTYLOMNJNZNG;ZTQSAGDEMFDKMZ;OFBQJSOFQDEBGM;QWTDNUCVQCZILF;AKXKFZDCRYJKTF;KXKVLQRXCPHEJC;WBJINCZRORDGAQ;XBDQKXXYIPTUBI;BTANRVKWQNVYAZ;LRHPLDYGYMQRHN;VNKYTQGIUYNRMY;ZXEKIIBDNHEJCQ;YPFDHNVEDLHUCE;BEQGRRJLJLVQAQ;LDTAOIUHUHHCMU;LIKMAJRDDDTEIG;RYPKRALMXUUNKS;XDTMQSROBMDMFD;ZQDPJFUHLCOCRG;FSUXYWPILZJGCC;GJYMQFMQRRNLCY;HGBOYTHUEUWSSQ;NEJDKFPXHQRVMV;AFABGHUZZDYHJO;PFEOZHBOMNWTJB;VLKZOEOYAKHREP;FERIUCNNQQJTOY;KQNPFQTWMSNSAP;XEKOWRVHYACXOJ;AMQJEAYHLZJPGS;AQIXEPGDORPWBJ;FVNIMHIOIXPIQT;JYVLIDXNZAXMDK;MXLMTQWGSQIYOW;PHTQWCKDNZKARW;JVTAAEKCZFNVCJ;JDFDHBSESGTDAL;PUPZLCDOIYMWBV;ADHCYQWFCLQBFG;WZHKDGJSXCTSCK;ZGEGCLOFRBLKSE;BVOSSZSHBZQJOI;HPXRVTGHNJAIIH;JARKCYVAAOWBJS;UFLHIIWVXFIJGU;BZHMBWZPUJHVEE;IMNFDUFMRHMDMM;VLJXXKKOSFGPHI;WLAMNBDJUVNPJU;ZSIAUFGUXNUGDI;QJXCDRBHYIAFTH;KWKAKUADMBZCLK;YXLCVBVDFKWWRW;FXHGMKSSBGDXIY;MQWCXKGKQLNYQG;PZKFYTOLVRCMOA;JVSWJIKNEAIKJW;TVMXDCGIABBOFY;WDAXFOBOLVPGLV;CETWDUZRCINIHU;OVOVDHYEOQJKMD;MMQYUDBFDDEJBP;NUHCEMOQRZEGAQ;IICQZTQZQSBHBY;KPADFPAILITQBG;NUJGJRNETVAIRJ;VSMOENVRRABVKN;UXUFMKFUJJLWKM;ZIWXVGHUDKNNSH
SubstructureOntologies: CHEMONTID:0002500;NonID:H2O;CHEMONTID:0004476;CHEMONTID:0001831;CHEMONTID:0000286;CHEMONTID:0002230;CHEMONTID:0001167;CHEMONTID:0004622;CHEMONTID:0002434;CHEMONTID:0004620;CHEMONTID:0001205;CHEMONTID:0001238;CHEMONTID:0001661;CHEMONTID:0003416;CHEMONTID:0001016;CHEMONTID:0000333;CHEMONTID:0001359;CHEMONTID:0002647;CHEMONTID:0002229;CHEMONTID:0001334;CHEMONTID:0003544;CHEMONTID:0002012
Ontology: Delta valerolactones
OntologyID: CHEMONTID:0001244
RETENTIONTIME: -1
RETENTIONINDEX: -1
TotalBondEnergy: 27158
TotalScore: 4.5789
TotalHrRulesScore: 0.5
TotalBondCleavageScore: 0.5
TotalMassAccuracyScore: 0.493
TotalFragmentLinkageScore: 0.5
TotalBondDissociationEnergyScore: 0.5
DatabaseScore: 0.2238
SubstructureAssignmentScore: 0
RtSimilarityScore: -1
RiSimilarityScore: 0
Num Fragment VS2 (M/Z Intensity MatchedExactMass SaturatedExactMass Formula RearrangedHydrogen PPM MassDiff_mDa IsEvenElectronRule IsHrRule IsSolventAdductFragment AssignedAdductMass AdductString BondDissociationEnergy TreeDepth SMILES TotalScore HrLikelihood BcLikelihood MaLikelihood FlLikelihood BeLikelihood): 1
425.26178	239777.332171	425.2533702051	424.24609375	C23H36O7	1	19.78	8.41	True	True	False	0		0	0	O=C3OC(CCC1C2C(=CC(O)C1(C))C(O)CCC2(OC(=O)C(C)CC))CC(O)C3	4.98595464229584	1	1	0.985954642295837	1	1

NAME: UNPD112688
ID: XMEGXHDYCSUOJC
IsSpectrumSearch: False
INCHIKEY: XMEGXHDYCSUOJC-BVRPYCRYNA-N
SMILES: O=CCC1CC(C(=O)C=CC(=CC(CO)C(OC(=O)CC(O)C(C)C1(O))CC)C)C
RESOURCES: UNPD=UNPD112688
SubstructureInChIKeys: VNWKTOKETHGBQD;XLYOFNOQVPJJNP;VGGSQFUCUMXWEO;WSFSSNUMVMOOMR;OTMSDBZUPAUEDD;OKKJLVBELUTLKV;QQONPFPTGQHPMA;IKHGUXGNUITLKF;ATUOYWHBWRKTHZ;LCGLNKUTAGEVQW;LFQSCWFLJHTTHZ;HGINCPLSRVDWNT;IAQRGUVFOMOMEM;VQTUBCCKSQIDNK;VXNZUUAINFGPBY;CSCPPACGZOOCGX;NBBJYMSMWIIQGU;IJDNQMDRQITEOD;NNPPMTNAJDCUHE;QTBSBXVTEAMEQO;TZIHFWKZFHZASV;BDERNNFJNOPAEC;KFZMGEQAYNKOFK;XOBKSJJDNFUZPF;MLUCVPSAIODCQM;BKOOMYPCSUNDGP;QMMOXUPEWRXHJS;YWAKXRMUMFPDSH;ZSPTYLOMNJNZNG;ZTQSAGDEMFDKMZ;OFBQJSOFQDEBGM;QWTDNUCVQCZILF;AKXKFZDCRYJKTF;KXKVLQRXCPHEJC;WBJINCZRORDGAQ;XBDQKXXYIPTUBI;BTANRVKWQNVYAZ;LRHPLDYGYMQRHN;VNKYTQGIUYNRMY;ZXEKIIBDNHEJCQ;YPFDHNVEDLHUCE;LDTAOIUHUHHCMU;LIKMAJRDDDTEIG;RYPKRALMXUUNKS;ZQDPJFUHLCOCRG;FSUXYWPILZJGCC;HGBOYTHUEUWSSQ;AFABGHUZZDYHJO;PFEOZHBOMNWTJB;VLKZOEOYAKHREP;FERIUCNNQQJTOY;XEKOWRVHYACXOJ;AMQJEAYHLZJPGS;AQIXEPGDORPWBJ;FVNIMHIOIXPIQT;JYVLIDXNZAXMDK;MXLMTQWGSQIYOW;JVTAAEKCZFNVCJ;JDFDHBSESGTDAL;PUPZLCDOIYMWBV;QWGRWMMWNDWRQN;WZHKDGJSXCTSCK;ZGEGCLOFRBLKSE;JARKCYVAAOWBJS;BZHMBWZPUJHVEE;IMNFDUFMRHMDMM;VLJXXKKOSFGPHI;ZSIAUFGUXNUGDI;KWKAKUADMBZCLK;CATSNJVOTSVZJV;FXHGMKSSBGDXIY;JVSWJIKNEAIKJW;TVMXDCGIABBOFY;CETWDUZRCINIHU;OVOVDHYEOQJKMD;IICQZTQZQSBHBY;KPADFPAILITQBG;NUJGJRNETVAIRJ;VWLITJGXNSANSN
SubstructureOntologies: CHEMONTID:0002500;NonID:H2O;CHEMONTID:0004476;CHEMONTID:0001831;CHEMONTID:0000286;CHEMONTID:0002230;CHEMONTID:0001167;CHEMONTID:0002436;CHEMONTID:0004622;CHEMONTID:0000118;CHEMONTID:0002434;CHEMONTID:0004620;CHEMONTID:0001205;CHEMONTID:0001238;CHEMONTID:0001661;CHEMONTID:0003416;CHEMONTID:0000333;CHEMONTID:0001359;CHEMONTID:0002229;CHEMONTID:0001334
Ontology: Macrolides and analogues
OntologyID: CHEMONTID:0000147
RETENTIONTIME: -1
RETENTIONINDEX: -1
TotalBondEnergy: 27101
TotalScore: 4.5789
TotalHrRulesScore: 0.5
TotalBondCleavageScore: 0.5
TotalMassAccuracyScore: 0.493
TotalFragmentLinkageScore: 0.5
TotalBondDissociationEnergyScore: 0.5
DatabaseScore: 0.2238
SubstructureAssignmentScore: 0
RtSimilarityScore: -1
RiSimilarityScore: 0
Num Fragment VS2 (M/Z Intensity MatchedExactMass SaturatedExactMass Formula RearrangedHydrogen PPM MassDiff_mDa IsEvenElectronRule IsHrRule IsSolventAdductFragment AssignedAdductMass AdductString BondDissociationEnergy TreeDepth SMILES TotalScore HrLikelihood BcLikelihood MaLikelihood FlLikelihood BeLikelihood): 1
425.26178	239777.332171	425.2533702051	424.24609375	C23H36O7	1	19.78	8.41	True	True	False	0		0	0	O=CCC1CC(C(=O)C=CC(=CC(CO)C(OC(=O)CC(O)C(C)C1(O))CC)C)C	4.98595464229584	1	1	0.985954642295837	1	1

