NAME: narbomycin
ID: OXFYAOOMMKGGAI
IsSpectrumSearch: False
INCHIKEY: OXFYAOOMMKGGAI-NUHZWXSCNA-N
SMILES: O=C2OC(CC)C(C=CC(=O)C(C)CC(C)C(OC1OC(C)CC(N(C)C)C1(O))C(C(=O)C2C)C)C
RESOURCES: ChEBI=CHEBI:29649;CHEBI:76801,PubChem=72715793;5282036,UNPD=UNPD112721;UNPD145190;UNPD159838
SubstructureInChIKeys: VNWKTOKETHGBQD;XLYOFNOQVPJJNP;VGGSQFUCUMXWEO;WSFSSNUMVMOOMR;OTMSDBZUPAUEDD;OKKJLVBELUTLKV;IKHGUXGNUITLKF;ATUOYWHBWRKTHZ;ROSDSFDQCJNGOL;LCGLNKUTAGEVQW;LFQSCWFLJHTTHZ;CKFGINPQOCXMAZ;HGINCPLSRVDWNT;IAQRGUVFOMOMEM;VXNZUUAINFGPBY;CSCPPACGZOOCGX;NBBJYMSMWIIQGU;IJDNQMDRQITEOD;NNPPMTNAJDCUHE;GETQZCLCWQTVFV;JJWLVOIRVHMVIS;LIWAQLJGPBVORC;QTBSBXVTEAMEQO;TZIHFWKZFHZASV;BDERNNFJNOPAEC;KFZMGEQAYNKOFK;XOBKSJJDNFUZPF;HZAXFHJVJLSVMW;LYCAIKOWRPUZTN;MLUCVPSAIODCQM;QMMOXUPEWRXHJS;YWAKXRMUMFPDSH;ZSPTYLOMNJNZNG;ZTQSAGDEMFDKMZ;OFBQJSOFQDEBGM;QWTDNUCVQCZILF;DAZXVJBJRMWXJP;GVWISOJSERXQBM;HQABUPZFAYXKJW;XHFGWHUWQXTGAT;AKXKFZDCRYJKTF;KXKVLQRXCPHEJC;WBJINCZRORDGAQ;XBDQKXXYIPTUBI;BEBCJVAWIBVWNZ;BTANRVKWQNVYAZ;LRHPLDYGYMQRHN;VNKYTQGIUYNRMY;ZXEKIIBDNHEJCQ;HXKKHQJGJAFBHI;WUGQZFFCHPXWKQ;DNIAPMSPPWPWGF;RRLWYLINGKISHN;XNWFRZJHXBZDAG;VIBDJEWPNNCFQO;LDTAOIUHUHHCMU;LIKMAJRDDDTEIG;RYPKRALMXUUNKS;ZQDPJFUHLCOCRG;FSUXYWPILZJGCC;HGBOYTHUEUWSSQ;AFABGHUZZDYHJO;PFEOZHBOMNWTJB;VLKZOEOYAKHREP;QCOGKXLOEWLIDC;ZUHZZVMEUAUWHY;FERIUCNNQQJTOY;KQNPFQTWMSNSAP;XEKOWRVHYACXOJ;AMQJEAYHLZJPGS;AQIXEPGDORPWBJ;FVNIMHIOIXPIQT;JYVLIDXNZAXMDK;MXLMTQWGSQIYOW;UEEJHVSXFDXPFK;BMRWNKZVCUKKSR;CHCLGECDSSWNCP;ZNQVEEAIQZEUHB;WZHKDGJSXCTSCK;ZGEGCLOFRBLKSE;JARKCYVAAOWBJS;UFLHIIWVXFIJGU;BZHMBWZPUJHVEE;IMNFDUFMRHMDMM;VLJXXKKOSFGPHI;DJEQZVQFEPKLOY;WLAMNBDJUVNPJU;ZSIAUFGUXNUGDI;KLKFAASOGCDTDT;QONBKISCDWCHKF;WCVRQHFDJLLWFE;KWKAKUADMBZCLK;CATSNJVOTSVZJV;FXHGMKSSBGDXIY;JVSWJIKNEAIKJW;TVMXDCGIABBOFY;WDAXFOBOLVPGLV;CETWDUZRCINIHU;OVOVDHYEOQJKMD;MMQYUDBFDDEJBP;IICQZTQZQSBHBY;KPADFPAILITQBG;NUJGJRNETVAIRJ;UXUFMKFUJJLWKM;ZDAWZDFBPUUDAY
SubstructureOntologies: CHEMONTID:0002500;NonID:H2O;CHEMONTID:0004476;CHEMONTID:0001831;CHEMONTID:0000286;CHEMONTID:0002230;CHEMONTID:0002228;CHEMONTID:0001167;CHEMONTID:0001605;CHEMONTID:0002436;CHEMONTID:0000118;CHEMONTID:0002434;CHEMONTID:0004620;CHEMONTID:0002239;CHEMONTID:0000469;CHEMONTID:0001205;CHEMONTID:0001238;CHEMONTID:0001661;CHEMONTID:0001897;CHEMONTID:0002467;CHEMONTID:0003416;CHEMONTID:0002484;CHEMONTID:0001852;CHEMONTID:0001092;CHEMONTID:0002286;CHEMONTID:0000333;CHEMONTID:0001656;CHEMONTID:0002229;CHEMONTID:0001334;CHEMONTID:0003544;CHEMONTID:0002012
Ontology: Aminoglycosides
OntologyID: CHEMONTID:0000282
RETENTIONTIME: -1
RETENTIONINDEX: -1
TotalBondEnergy: 33593
TotalScore: 6.7396
TotalHrRulesScore: 1
TotalBondCleavageScore: 1
TotalMassAccuracyScore: 0.9936
TotalFragmentLinkageScore: 1
TotalBondDissociationEnergyScore: 1
DatabaseScore: 0.5714
SubstructureAssignmentScore: 0
RtSimilarityScore: -1
RiSimilarityScore: 0
Num Fragment VS2 (M/Z Intensity MatchedExactMass SaturatedExactMass Formula RearrangedHydrogen PPM MassDiff_mDa IsEvenElectronRule IsHrRule IsSolventAdductFragment AssignedAdductMass AdductString BondDissociationEnergy TreeDepth SMILES TotalScore HrLikelihood BcLikelihood MaLikelihood FlLikelihood BeLikelihood): 1
510.348199	1626706.125331	510.342542568381	509.335266113281	C28H47NO7	1	11.08	5.66	True	True	False	0		0	0	O=C2OC(CC)C(C=CC(=O)C(C)CC(C)C(OC1OC(C)CC(N(C)C)C1(O))C(C(=O)C2C)C)C	4.99362140893936	1	1	0.993621408939362	1	1

