NAME: Pemirolast
ID: HIANJWSAHKJQTH
IsSpectrumSearch: False
INCHIKEY: HIANJWSAHKJQTH-UHFFFAOYSA-N
SMILES: O=C1C(=CN=C2C(=CC=CN12)C)C=3N=NNN=3
RESOURCES: HMDB=HMDB0015023,ChEBI=CHEBI:134936,DrugBank=DB00885,Urine=HMDB0015023,Serum=HMDB0015023
SubstructureInChIKeys: VNWKTOKETHGBQD;WSFSSNUMVMOOMR;JUJWROOIHBZHMG;ITQTTZVARXURQS
SubstructureOntologies: CHEMONTID:0002500;CHEMONTID:0001831;CHEMONTID:0000089;CHEMONTID:0004152
Ontology: Pyridopyrimidines
OntologyID: CHEMONTID:0001859
RETENTIONTIME: -1
RETENTIONINDEX: -1
TotalBondEnergy: 11055
TotalScore: 7.6003
TotalHrRulesScore: 0.6
TotalBondCleavageScore: 0.5253
TotalMassAccuracyScore: 0.9461
TotalFragmentLinkageScore: 1
TotalBondDissociationEnergyScore: 0.9563
DatabaseScore: 0.619
SubstructureAssignmentScore: 0
RtSimilarityScore: -1
RiSimilarityScore: 0
Num Fragment VS2 (M/Z Intensity MatchedExactMass SaturatedExactMass Formula RearrangedHydrogen PPM MassDiff_mDa IsEvenElectronRule IsHrRule IsSolventAdductFragment AssignedAdductMass AdductString BondDissociationEnergy TreeDepth SMILES TotalScore HrLikelihood BcLikelihood MaLikelihood FlLikelihood BeLikelihood): 2
211.072739	24392.702381	211.048855015452	215.080703735352	C10H9N5O	-4	113.16	23.88	False	False	False	0		334	1	O=C1C(=CN=C2C(=CC=CN12)C)C(=N)N=N	3.05544616318415	0.200000002980232	0.0506249964237213	0.892178595066071	1	0.912642568714124
229.083623	26093.112285	229.083234707053	228.075958251953	C10H8N6O	1	1.7	0.39	True	True	False	0		0	0	O=C1C(=CN=C2C(=CC=CN12)C)C=3N=NNN=3	4.99996984004974	1	1	0.999969840049744	1	1

NAME: 5-amino-2-phenyl-3H-triazolo[4,5-d]pyrimidin-7-one
ID: OIAXNBVLMBXWJU
IsSpectrumSearch: False
INCHIKEY: OIAXNBVLMBXWJU-UHFFFAOYSA-N
SMILES: O=C1N=C(N=C2NN(N=C12)C3=CC=CC=C3)N
RESOURCES: ChEBI=CHEBI:117025
SubstructureInChIKeys: QGZKDVFQNNGYKY;WDWDWGRYHDPSDS;WSFSSNUMVMOOMR;UHOVQNZJYSORNB;PAYRUJLWNCNPSJ;MISVBCMQSJUHMH
SubstructureOntologies: NonID:NH2;CHEMONTID:0000117;CHEMONTID:0001831;CHEMONTID:0002279;CHEMONTID:0000284;CHEMONTID:0001262
Ontology: Phenyl-1,2,3-triazoles
OntologyID: CHEMONTID:0003315
RETENTIONTIME: -1
RETENTIONINDEX: -1
TotalBondEnergy: 11202
TotalScore: 7.4533
TotalHrRulesScore: 0.6
TotalBondCleavageScore: 0.95
TotalMassAccuracyScore: 0.9461
TotalFragmentLinkageScore: 1
TotalBondDissociationEnergyScore: 0.9604
DatabaseScore: 0.5238
SubstructureAssignmentScore: 0
RtSimilarityScore: -1
RiSimilarityScore: 0
Num Fragment VS2 (M/Z Intensity MatchedExactMass SaturatedExactMass Formula RearrangedHydrogen PPM MassDiff_mDa IsEvenElectronRule IsHrRule IsSolventAdductFragment AssignedAdductMass AdductString BondDissociationEnergy TreeDepth SMILES TotalScore HrLikelihood BcLikelihood MaLikelihood FlLikelihood BeLikelihood): 2
211.072739	24392.702381	211.048864826663	213.065063476563	C10H7N5O	-2	113.11	23.87	False	False	False	0		305	1	O=C1N=CN=C2NN(N=C12)C3=CC=CC=C3	3.9131486683057	0.200000002980232	0.899999976158142	0.89226222038269	1	0.920886468784634
229.083623	26093.112285	229.083234707053	228.075958251953	C10H8N6O	1	1.7	0.39	True	True	False	0		0	0	O=C1N=C(N=C2NN(N=C12)C3=CC=CC=C3)N	4.99996984004974	1	1	0.999969840049744	1	1

