NAME: Culantraramine
ID: ZULSSCAFEXMMQF
IsSpectrumSearch: False
INCHIKEY: ZULSSCAFEXMMQF-YFMFSDRQNA-N
SMILES: O(C1=CC=C(C=C1C3C=C(C)CC(C2=CC(=CC=C2(OC))CCN(C)C)C3(C(=C)C))CCN(C)C)C
RESOURCES: KNApSAcK=C00000488;C00040736,UNPD=UNPD11135;UNPD128630
SubstructureInChIKeys: VNWKTOKETHGBQD;VGGSQFUCUMXWEO;OTMSDBZUPAUEDD;QQONPFPTGQHPMA;ATUOYWHBWRKTHZ;ROSDSFDQCJNGOL;LCGLNKUTAGEVQW;IAQRGUVFOMOMEM;VQTUBCCKSQIDNK;VXNZUUAINFGPBY;IJDNQMDRQITEOD;NNPPMTNAJDCUHE;GETQZCLCWQTVFV;LIWAQLJGPBVORC;BKOOMYPCSUNDGP;QMMOXUPEWRXHJS;YWAKXRMUMFPDSH;OFBQJSOFQDEBGM;QWTDNUCVQCZILF;DAZXVJBJRMWXJP;GVWISOJSERXQBM;UHOVQNZJYSORNB;BEQGRRJLJLVQAQ;LDTAOIUHUHHCMU;LIKMAJRDDDTEIG;RYPKRALMXUUNKS;ZQDPJFUHLCOCRG;AFABGHUZZDYHJO;PFEOZHBOMNWTJB;VLKZOEOYAKHREP;ZUHZZVMEUAUWHY;YXFVVABEGXRONW;ISWSIDIOOBJBQZ;WZHKDGJSXCTSCK;ZGEGCLOFRBLKSE;BZHMBWZPUJHVEE;IMNFDUFMRHMDMM;VLJXXKKOSFGPHI;YNQLUTRBYVCPMQ;IWDCLRJOBJJRNH;RDOXTESZEPMUJZ;KWKAKUADMBZCLK;JVSWJIKNEAIKJW;TVMXDCGIABBOFY;ODLMAHJVESYWTB;BHHGXPLMPWCGHP;CHLICZRVGGXEOD;HMNKTRSOROOSPP;HXDOZKJGKXYMEW;IICQZTQZQSBHBY;KPADFPAILITQBG;SASNBVQSOZSTPD;DWLZULQNIPIABE;HDNRAPAFJLXKBV;MPWGZBWDLMDIHO;DZGWFCGJZKJUFP;NOTCZLKDULMKBR;MQSXUKPGWMJYBT
SubstructureOntologies: CHEMONTID:0002500;CHEMONTID:0004476;CHEMONTID:0002228;CHEMONTID:0001167;CHEMONTID:0004622;CHEMONTID:0004620;CHEMONTID:0002239;CHEMONTID:0002279;CHEMONTID:0001091;CHEMONTID:0004647;CHEMONTID:0001275;CHEMONTID:0000138;CHEMONTID:0002811;CHEMONTID:0000186;CHEMONTID:0004646;CHEMONTID:0000190
Ontology: Aromatic monoterpenoids
OntologyID: CHEMONTID:0000051
RETENTIONTIME: -1
RETENTIONINDEX: -1
TotalBondEnergy: 33904
TotalScore: 7.1312
TotalHrRulesScore: 0.6
TotalBondCleavageScore: 0.95
TotalMassAccuracyScore: 0.9096
TotalFragmentLinkageScore: 1
TotalBondDissociationEnergyScore: 0.9407
DatabaseScore: 0.5476
SubstructureAssignmentScore: 0
RtSimilarityScore: -1
RiSimilarityScore: 0
Num Fragment VS2 (M/Z Intensity MatchedExactMass SaturatedExactMass Formula RearrangedHydrogen PPM MassDiff_mDa IsEvenElectronRule IsHrRule IsSolventAdductFragment AssignedAdductMass AdductString BondDissociationEnergy TreeDepth SMILES TotalScore HrLikelihood BcLikelihood MaLikelihood FlLikelihood BeLikelihood): 2
433.327797	139511.110006	433.297516605647	433.298065185547	C29H39NO2	0	69.88	30.28	False	False	False	0		346	1	O(C1=CC=C(C=C1C3C=C(C)CC(C2=CC(=CC=C2(OC))C)C3(C(=C)C))CCN(C)C)C	3.81379932353097	0.200000002980232	0.899999976158142	0.832451403141022	1	0.881347941251573
491.371374	288035.527781	491.363202968772	490.355926513672	C32H46N2O2	1	16.63	8.17	True	True	False	0		0	0	O(C1=CC=C(C=C1C3C=C(C)CC(C2=CC(=CC=C2(OC))CCN(C)C)C3(C(=C)C))CCN(C)C)C	4.98673558235168	1	1	0.986735582351685	1	1

NAME: UNPD23284
ID: LLYGNRFRSDDNEH
IsSpectrumSearch: False
INCHIKEY: LLYGNRFRSDDNEH-IMDSDXEONA-N
SMILES: O(C=1C=CC(=CC=1C3C=C(C)CC(C=2C=C(C=CC=2(OC))CCN(C)C)C3(=C(C)C))CCN(C)C)C
RESOURCES: UNPD=UNPD23284
SubstructureInChIKeys: VNWKTOKETHGBQD;VGGSQFUCUMXWEO;OTMSDBZUPAUEDD;QQONPFPTGQHPMA;ATUOYWHBWRKTHZ;ROSDSFDQCJNGOL;LCGLNKUTAGEVQW;IAQRGUVFOMOMEM;VQTUBCCKSQIDNK;VXNZUUAINFGPBY;IJDNQMDRQITEOD;NNPPMTNAJDCUHE;GETQZCLCWQTVFV;LIWAQLJGPBVORC;BKOOMYPCSUNDGP;QMMOXUPEWRXHJS;YWAKXRMUMFPDSH;OFBQJSOFQDEBGM;QWTDNUCVQCZILF;DAZXVJBJRMWXJP;GVWISOJSERXQBM;UHOVQNZJYSORNB;PRBHEGAFLDMLAL;BEQGRRJLJLVQAQ;LDTAOIUHUHHCMU;LIKMAJRDDDTEIG;RYPKRALMXUUNKS;ZQDPJFUHLCOCRG;AFABGHUZZDYHJO;PFEOZHBOMNWTJB;VLKZOEOYAKHREP;ZUHZZVMEUAUWHY;YXFVVABEGXRONW;ISWSIDIOOBJBQZ;FMAMSYPJXSEYSW;ADHCYQWFCLQBFG;WZHKDGJSXCTSCK;ZGEGCLOFRBLKSE;BZHMBWZPUJHVEE;IMNFDUFMRHMDMM;VLJXXKKOSFGPHI;YNQLUTRBYVCPMQ;IWDCLRJOBJJRNH;RDOXTESZEPMUJZ;GDDAJHJRAKOILH;KWKAKUADMBZCLK;YXLCVBVDFKWWRW;JVSWJIKNEAIKJW;TVMXDCGIABBOFY;ODLMAHJVESYWTB;BHHGXPLMPWCGHP;CHLICZRVGGXEOD;HMNKTRSOROOSPP;HXDOZKJGKXYMEW;NMFOAHIHPAPYJJ;IICQZTQZQSBHBY;KPADFPAILITQBG;SASNBVQSOZSTPD;DWLZULQNIPIABE;HDNRAPAFJLXKBV;MPWGZBWDLMDIHO;DZGWFCGJZKJUFP;NOTCZLKDULMKBR;MQSXUKPGWMJYBT
SubstructureOntologies: CHEMONTID:0002500;CHEMONTID:0004476;CHEMONTID:0002228;CHEMONTID:0001167;CHEMONTID:0004622;CHEMONTID:0004620;CHEMONTID:0002239;CHEMONTID:0002279;CHEMONTID:0001019;CHEMONTID:0001091;CHEMONTID:0004647;CHEMONTID:0001275;CHEMONTID:0000138;CHEMONTID:0002811;CHEMONTID:0000186;CHEMONTID:0004646;CHEMONTID:0000190
Ontology: Aromatic monoterpenoids
OntologyID: CHEMONTID:0000051
RETENTIONTIME: -1
RETENTIONINDEX: -1
TotalBondEnergy: 33904
TotalScore: 6.3217
TotalHrRulesScore: 0.6
TotalBondCleavageScore: 0.95
TotalMassAccuracyScore: 0.9096
TotalFragmentLinkageScore: 1
TotalBondDissociationEnergyScore: 0.9407
DatabaseScore: 0.2238
SubstructureAssignmentScore: 0
RtSimilarityScore: -1
RiSimilarityScore: 0
Num Fragment VS2 (M/Z Intensity MatchedExactMass SaturatedExactMass Formula RearrangedHydrogen PPM MassDiff_mDa IsEvenElectronRule IsHrRule IsSolventAdductFragment AssignedAdductMass AdductString BondDissociationEnergy TreeDepth SMILES TotalScore HrLikelihood BcLikelihood MaLikelihood FlLikelihood BeLikelihood): 2
433.327797	139511.110006	433.297516605647	433.298065185547	C29H39NO2	0	69.88	30.28	False	False	False	0		346	1	O(C=1C=CC(=CC=1C3C=C(C)CC(C=2C=C(C=CC=2(OC))C)C3(=C(C)C))CCN(C)C)C	3.81379932353097	0.200000002980232	0.899999976158142	0.832451403141022	1	0.881347941251573
491.371374	288035.527781	491.363202968772	490.355926513672	C32H46N2O2	1	16.63	8.17	True	True	False	0		0	0	O(C=1C=CC(=CC=1C3C=C(C)CC(C=2C=C(C=CC=2(OC))CCN(C)C)C3(=C(C)C))CCN(C)C)C	4.98673558235168	1	1	0.986735582351685	1	1

