NAME: 6-[(4-methyl-1-piperidinyl)sulfonyl]-2-(4-phenyl-1-piperazinyl)quinoline
ID: TWZFJQPLNVVNDH
IsSpectrumSearch: False
INCHIKEY: TWZFJQPLNVVNDH-UHFFFAOYSA-N
SMILES: O=S(=O)(C=1C=CC=2N=C(C=CC=2(C=1))N4CCN(C3=CC=CC=C3)CC4)N5CCC(C)CC5
RESOURCES: ChEBI=CHEBI:122009
SubstructureInChIKeys: VNWKTOKETHGBQD;OTMSDBZUPAUEDD;ATUOYWHBWRKTHZ;ROSDSFDQCJNGOL;IJDNQMDRQITEOD;NNPPMTNAJDCUHE;GETQZCLCWQTVFV;LIWAQLJGPBVORC;RAHZWNYVWXNFOC;BOTYRLOGQKSOAE;OFBQJSOFQDEBGM;QWTDNUCVQCZILF;DAZXVJBJRMWXJP;GVWISOJSERXQBM;HPNMFZURTQLUMO;HQABUPZFAYXKJW;UHOVQNZJYSORNB;JUJWROOIHBZHMG;KEIVLHIFSZBKGU;AHZVGADFMXTGBU;NQRYJNQNLNOLGT;PFEOZHBOMNWTJB;BMFVGAAISNGQNM;DPBLXKKOBLCELK;GNVRJGIVDSQCOP;QCOGKXLOEWLIDC;PAYRUJLWNCNPSJ;PVOAHINGSUIXLS;ZMANZCXQSJIPKH;AFBPFSWMIHJQDM;SMWDFEZZVXVKRB;DYHJCQLXZIELGG
SubstructureOntologies: CHEMONTID:0002500;CHEMONTID:0002228;CHEMONTID:0004620;CHEMONTID:0002239;NonID:SO2;CHEMONTID:0001212;CHEMONTID:0000469;CHEMONTID:0002279;CHEMONTID:0000089;NonID:Sulfonamide;CHEMONTID:0000195;CHEMONTID:0000284;CHEMONTID:0003358;CHEMONTID:0003924;CHEMONTID:0001253;CHEMONTID:0001141
Ontology: Pyridinylpiperazines
OntologyID: CHEMONTID:0001976
RETENTIONTIME: -1
RETENTIONINDEX: -1
TotalBondEnergy: 26776
TotalScore: 6.3689
TotalHrRulesScore: 1
TotalBondCleavageScore: 1
TotalMassAccuracyScore: 0.9945
TotalFragmentLinkageScore: 1
TotalBondDissociationEnergyScore: 1
DatabaseScore: 0.5238
SubstructureAssignmentScore: 0
RtSimilarityScore: -1
RiSimilarityScore: 0
Num Fragment VS2 (M/Z Intensity MatchedExactMass SaturatedExactMass Formula RearrangedHydrogen PPM MassDiff_mDa IsEvenElectronRule IsHrRule IsSolventAdductFragment AssignedAdductMass AdductString BondDissociationEnergy TreeDepth SMILES TotalScore HrLikelihood BcLikelihood MaLikelihood FlLikelihood BeLikelihood): 1
451.221488	35375.937347	451.216230312522	450.208953857422	C25H30N4O2S	1	11.65	5.26	True	True	False	0		0	0	O=S(=O)(C=1C=CC=2N=C(C=CC=2(C=1))N4CCN(C3=CC=CC=C3)CC4)N5CCC(C)CC5	4.99448657035828	1	1	0.994486570358276	1	1

