NAME: UNPD13848
ID: MMVCEIQLWBYBJB
IsSpectrumSearch: False
INCHIKEY: MMVCEIQLWBYBJB-BCANGNPRNA-N
SMILES: O=C(O)C2OC(OC1C(O)C(OC(O)C1(N))CO)C(O)C(O)C2(O)
RESOURCES: UNPD=UNPD13848;UNPD47347;UNPD75854
SubstructureInChIKeys: QGZKDVFQNNGYKY;XLYOFNOQVPJJNP;WSFSSNUMVMOOMR;BAVYZALUXZFZLV;OKKJLVBELUTLKV;IKHGUXGNUITLKF;ATUOYWHBWRKTHZ;QUSNBJAOOMFDIB;BDAGIHXWWSANSR;LCGLNKUTAGEVQW;LFQSCWFLJHTTHZ;CKFGINPQOCXMAZ;NBBJYMSMWIIQGU;IJDNQMDRQITEOD;JJWLVOIRVHMVIS;WGYKZJWCGVVSQN;QTBSBXVTEAMEQO;BDERNNFJNOPAEC;KFZMGEQAYNKOFK;XOBKSJJDNFUZPF;HZAXFHJVJLSVMW;LYCAIKOWRPUZTN;ZTQSAGDEMFDKMZ;OFBQJSOFQDEBGM;HQABUPZFAYXKJW;AKXKFZDCRYJKTF;XBDQKXXYIPTUBI;YSEFYOVWKJXNCH;BEBCJVAWIBVWNZ;BTANRVKWQNVYAZ;LRHPLDYGYMQRHN;VNKYTQGIUYNRMY;WUGQZFFCHPXWKQ;AEMRFAOFKBGASW;DNIAPMSPPWPWGF;RRLWYLINGKISHN;XNWFRZJHXBZDAG;YPFDHNVEDLHUCE;VIBDJEWPNNCFQO;HGBOYTHUEUWSSQ;VLKZOEOYAKHREP;DPBLXKKOBLCELK;FERIUCNNQQJTOY;AMQJEAYHLZJPGS;AQIXEPGDORPWBJ;FVNIMHIOIXPIQT;JYVLIDXNZAXMDK;JVTAAEKCZFNVCJ;MNQZXJOMYWMBOU;BMRWNKZVCUKKSR;CHCLGECDSSWNCP;JDFDHBSESGTDAL;PUPZLCDOIYMWBV;YTTFFPATQICAQN;ZNQVEEAIQZEUHB;PEDCQBHIVMGVHV;JARKCYVAAOWBJS;ZSIAUFGUXNUGDI;AFENDNXGAFYKQO;DFFAMJFPVBTTBX;KLKFAASOGCDTDT;WCVRQHFDJLLWFE;XLMFDCKSFJWJTP;RBNPOMFGQQGHHO;ARXKVVRQIIOZGF;MTHSVFCYNBDYFN;RKOGJKGQMPZCGG;YAXKTBLXMTYWDQ;MQVRLONNONYDJP;KTRCDOAFABEGON;MMQYUDBFDDEJBP;DZAIOXUZHHTJKN;AALKGALVYCZETF;BXXXHBWYZKLUGM;GZXFYIDYTCWDDN;LOSWWGJGSSQDKH;UNXHWFMMPAWVPI;UXUFMKFUJJLWKM;CJXCLBPFKGZXJP;HRARQIAGSKMHMV;QXAMTEJJAZOINB;WDRISBUVHBMJEF;JPIJQSOTBSSVTP;FJGNTEKSQVNVTJ;ZDAWZDFBPUUDAY;JJMZVBNCCUWEDF;BJBURJZEESAQPG;QFHKFGOUFKUPNX;QVNPTEPOWBEITR;SRBFZHDQGSBBOR;QYZAWZFNVOMDEF;HEBKCHPVOIAQTA;QNKOVWCOVLYPKR;TVTGZVYLUHVBAJ;MPCAJMNYNOGXPB;PMMURAAUARKVCB;SHZGCJCMOBCMKK;ZBDGHWFPLXXWRD;LWWIYCLYWKAKRR;RUIACMUVCHMOMF;SKCKOFZKJLZSFA;JMZFHBIADDYOTC;OHWCAVRRXKJCRB;UBUITGRMYNAZAX;PATWQGKLOAFEDC;WQZGKKKJIJFFOK;MZWSHEJWANSXEH;HRWQYCOJZMKBGI;AEMOLEFTQBMNLQ;DCZHIIAMPOQNQY;HOVAGTYPODGVJG;QPDOOAOPIHRGIC;QTIFSOVGBSROEQ;WEKZOSZDHREWIU;WYUFTYLVLQZQNH;FRMCCLBYAFUKSG;QBYFEBYWGWYNTO;BZQBQGKZJCGZCL;SMORULFPMBCEPX;YHUSUSKGDGXWGS;YFDGNWYGKKBZDJ;ADKODQNXEFIOIC;NHJUPBDCSOGIKX;OOLQGZAAQGIVPH;MPALGUFFCYBZBP;RLQSUKOOLWMMSY;DUUKYOAVWFMSKJ;UGJALIVEHMFBSP;SXEHDCDGTPHFBR;WXEKRRWEMCHREJ;CLCFCUQOMMGQKP
SubstructureOntologies: NonID:NH2;NonID:H2O;CHEMONTID:0001831;CHEMONTID:0000469;CHEMONTID:0000286;CHEMONTID:0002230;CHEMONTID:0002500;CHEMONTID:0001205;CHEMONTID:0001167;CHEMONTID:0001605;CHEMONTID:0002434;CHEMONTID:0001661;CHEMONTID:0001897;CHEMONTID:0002467;CHEMONTID:0002484;CHEMONTID:0001852;CHEMONTID:0001359;CHEMONTID:0001092;CHEMONTID:0002286;CHEMONTID:0000333;CHEMONTID:0001540;CHEMONTID:0001656;CHEMONTID:0002210;CHEMONTID:0002229;CHEMONTID:0001334;CHEMONTID:0000215;CHEMONTID:0002391;CHEMONTID:0002012;CHEMONTID:0001713;CHEMONTID:0003263;CHEMONTID:0000341;CHEMONTID:0001497;CHEMONTID:0000175;CHEMONTID:0002207;CHEMONTID:0001498;CHEMONTID:0002094;CHEMONTID:0000637;CHEMONTID:0003861
Ontology: O-glucuronides
OntologyID: CHEMONTID:0002813
RETENTIONTIME: -1
RETENTIONINDEX: -1
TotalBondEnergy: 18085
TotalScore: 5.7552
TotalHrRulesScore: 1
TotalBondCleavageScore: 1
TotalMassAccuracyScore: 0.9903
TotalFragmentLinkageScore: 1
TotalBondDissociationEnergyScore: 1
DatabaseScore: 0.2238
SubstructureAssignmentScore: 0
RtSimilarityScore: -1
RiSimilarityScore: 0
Num Fragment VS2 (M/Z Intensity MatchedExactMass SaturatedExactMass Formula RearrangedHydrogen PPM MassDiff_mDa IsEvenElectronRule IsHrRule IsSolventAdductFragment AssignedAdductMass AdductString BondDissociationEnergy TreeDepth SMILES TotalScore HrLikelihood BcLikelihood MaLikelihood FlLikelihood BeLikelihood): 1
356.125692	7414139.33019	356.118726650413	355.111450195313	C12H21NO11	1	19.56	6.96	True	True	False	0		0	0	O=C(O)C2OC(OC1C(O)C(OC(O)C1(N))CO)C(O)C(O)C2(O)	4.99034368991852	1	1	0.990343689918518	1	1

NAME: UNPD71613
ID: WNWNYJSOBYTXFA
IsSpectrumSearch: False
INCHIKEY: WNWNYJSOBYTXFA-GWTHAPONNA-N
SMILES: O=CC(N)C(OC1OC(C(=O)O)C(O)C(O)C1(O))C(O)C(O)CO
RESOURCES: UNPD=UNPD71613
SubstructureInChIKeys: QGZKDVFQNNGYKY;XLYOFNOQVPJJNP;WSFSSNUMVMOOMR;BAVYZALUXZFZLV;OKKJLVBELUTLKV;IKHGUXGNUITLKF;ATUOYWHBWRKTHZ;QUSNBJAOOMFDIB;BDAGIHXWWSANSR;LCGLNKUTAGEVQW;LFQSCWFLJHTTHZ;CKFGINPQOCXMAZ;NBBJYMSMWIIQGU;IJDNQMDRQITEOD;LYIIBVSRGJSHAV;JJWLVOIRVHMVIS;WGYKZJWCGVVSQN;QTBSBXVTEAMEQO;BDERNNFJNOPAEC;KFZMGEQAYNKOFK;XOBKSJJDNFUZPF;HZAXFHJVJLSVMW;LYCAIKOWRPUZTN;ZTQSAGDEMFDKMZ;OFBQJSOFQDEBGM;QPMCUNAXNMSGTK;HQABUPZFAYXKJW;AKXKFZDCRYJKTF;XBDQKXXYIPTUBI;YSEFYOVWKJXNCH;BEBCJVAWIBVWNZ;BTANRVKWQNVYAZ;LRHPLDYGYMQRHN;VNKYTQGIUYNRMY;WUGQZFFCHPXWKQ;AEMRFAOFKBGASW;DNIAPMSPPWPWGF;RRLWYLINGKISHN;XNWFRZJHXBZDAG;YPFDHNVEDLHUCE;VIBDJEWPNNCFQO;HGBOYTHUEUWSSQ;VLKZOEOYAKHREP;FGEPRNXUNITOCW;DPBLXKKOBLCELK;FERIUCNNQQJTOY;AMQJEAYHLZJPGS;AQIXEPGDORPWBJ;FVNIMHIOIXPIQT;JYVLIDXNZAXMDK;UXPVGJOKPUABJV;JVTAAEKCZFNVCJ;MNQZXJOMYWMBOU;BMRWNKZVCUKKSR;CHCLGECDSSWNCP;JDFDHBSESGTDAL;PUPZLCDOIYMWBV;YTTFFPATQICAQN;ZNQVEEAIQZEUHB;PEDCQBHIVMGVHV;JARKCYVAAOWBJS;ZSIAUFGUXNUGDI;ORDNBIQZKXYGTM;AFENDNXGAFYKQO;DFFAMJFPVBTTBX;KLKFAASOGCDTDT;WCVRQHFDJLLWFE;XLMFDCKSFJWJTP;RBNPOMFGQQGHHO;ARXKVVRQIIOZGF;MTHSVFCYNBDYFN;RKOGJKGQMPZCGG;YAXKTBLXMTYWDQ;MQVRLONNONYDJP;KTRCDOAFABEGON;MMQYUDBFDDEJBP;DZAIOXUZHHTJKN;AALKGALVYCZETF;BXXXHBWYZKLUGM;GZXFYIDYTCWDDN;LOSWWGJGSSQDKH;UNXHWFMMPAWVPI;UXUFMKFUJJLWKM;CJXCLBPFKGZXJP;HRARQIAGSKMHMV;QXAMTEJJAZOINB;WDRISBUVHBMJEF;JPIJQSOTBSSVTP;FJGNTEKSQVNVTJ;ZDAWZDFBPUUDAY;JJMZVBNCCUWEDF;BJBURJZEESAQPG;QFHKFGOUFKUPNX;QVNPTEPOWBEITR;SRBFZHDQGSBBOR;QYZAWZFNVOMDEF;HEBKCHPVOIAQTA;QNKOVWCOVLYPKR;MPCAJMNYNOGXPB;PMMURAAUARKVCB;SHZGCJCMOBCMKK;ZBDGHWFPLXXWRD;LWWIYCLYWKAKRR;RUIACMUVCHMOMF;SKCKOFZKJLZSFA;JMZFHBIADDYOTC;OHWCAVRRXKJCRB;UBUITGRMYNAZAX;PATWQGKLOAFEDC;WQZGKKKJIJFFOK;MZWSHEJWANSXEH;HRWQYCOJZMKBGI;AEMOLEFTQBMNLQ;DCZHIIAMPOQNQY;HOVAGTYPODGVJG;QPDOOAOPIHRGIC;QTIFSOVGBSROEQ;WEKZOSZDHREWIU;WYUFTYLVLQZQNH;FRMCCLBYAFUKSG;QBYFEBYWGWYNTO;BZQBQGKZJCGZCL;SMORULFPMBCEPX;YHUSUSKGDGXWGS;YFDGNWYGKKBZDJ;ADKODQNXEFIOIC;NHJUPBDCSOGIKX;OOLQGZAAQGIVPH;DUUKYOAVWFMSKJ;UGJALIVEHMFBSP
SubstructureOntologies: NonID:NH2;NonID:H2O;CHEMONTID:0001831;CHEMONTID:0000469;CHEMONTID:0000286;CHEMONTID:0002230;CHEMONTID:0002500;CHEMONTID:0001205;CHEMONTID:0001167;CHEMONTID:0001605;CHEMONTID:0002434;CHEMONTID:0001661;CHEMONTID:0001897;CHEMONTID:0002467;CHEMONTID:0002484;CHEMONTID:0001852;CHEMONTID:0001359;CHEMONTID:0001092;CHEMONTID:0002286;CHEMONTID:0000333;CHEMONTID:0001540;CHEMONTID:0001656;CHEMONTID:0002210;CHEMONTID:0002229;CHEMONTID:0001334;CHEMONTID:0002435;CHEMONTID:0000215;CHEMONTID:0002391;CHEMONTID:0002012;CHEMONTID:0001713;CHEMONTID:0003263;CHEMONTID:0000341;CHEMONTID:0001497;CHEMONTID:0000175;CHEMONTID:0002207;CHEMONTID:0001498;CHEMONTID:0002094;CHEMONTID:0000637;CHEMONTID:0003861
Ontology: Fatty acyl glycosides of mono- and disaccharides
OntologyID: CHEMONTID:0003861
RETENTIONTIME: -1
RETENTIONINDEX: -1
TotalBondEnergy: 18118
TotalScore: 5.7552
TotalHrRulesScore: 1
TotalBondCleavageScore: 1
TotalMassAccuracyScore: 0.9903
TotalFragmentLinkageScore: 1
TotalBondDissociationEnergyScore: 1
DatabaseScore: 0.2238
SubstructureAssignmentScore: 0
RtSimilarityScore: -1
RiSimilarityScore: 0
Num Fragment VS2 (M/Z Intensity MatchedExactMass SaturatedExactMass Formula RearrangedHydrogen PPM MassDiff_mDa IsEvenElectronRule IsHrRule IsSolventAdductFragment AssignedAdductMass AdductString BondDissociationEnergy TreeDepth SMILES TotalScore HrLikelihood BcLikelihood MaLikelihood FlLikelihood BeLikelihood): 1
356.125692	7414139.33019	356.118726650413	355.111450195313	C12H21NO11	1	19.56	6.96	True	True	False	0		0	0	O=CC(N)C(OC1OC(C(=O)O)C(O)C(O)C1(O))C(O)C(O)CO	4.99034368991852	1	1	0.990343689918518	1	1

