NAME: UNPD124123
ID: IWWYEUSBHSDVOX
IsSpectrumSearch: False
INCHIKEY: IWWYEUSBHSDVOX-IQSSWDKYNA-N
SMILES: O=C(NO)CC(C(=O)N1NCCCC1(C(=O)NC(C(=O)CC)C(C)CC))CCCCC
RESOURCES: UNPD=UNPD124123
SubstructureInChIKeys: VNWKTOKETHGBQD;XLYOFNOQVPJJNP;WSFSSNUMVMOOMR;OTMSDBZUPAUEDD;IKHGUXGNUITLKF;ATUOYWHBWRKTHZ;ROSDSFDQCJNGOL;CSCPPACGZOOCGX;NBBJYMSMWIIQGU;IJDNQMDRQITEOD;NNPPMTNAJDCUHE;ATHHXGZTWNVVOU;LYIIBVSRGJSHAV;JJWLVOIRVHMVIS;LIWAQLJGPBVORC;ZTQSAGDEMFDKMZ;OFBQJSOFQDEBGM;QWTDNUCVQCZILF;GVWISOJSERXQBM;HPNMFZURTQLUMO;HQABUPZFAYXKJW;KDSNLYIMUZNERS;XHFGWHUWQXTGAT;HGBOYTHUEUWSSQ;AFABGHUZZDYHJO;PFEOZHBOMNWTJB;VLKZOEOYAKHREP;DZQLQEYLEYWJIB;FGEPRNXUNITOCW;SUUDTPGCUKBECW;BMFVGAAISNGQNM;DPBLXKKOBLCELK;QCOGKXLOEWLIDC;VJROPLWGFCORRM;JARKCYVAAOWBJS;PVOAHINGSUIXLS;IMNFDUFMRHMDMM;VLJXXKKOSFGPHI;DVOFEOSDXAVUJD;VLSTXUUYLIALPB;VHRGRCVQAFMJIZ;FXHGMKSSBGDXIY;JVSWJIKNEAIKJW;TVMXDCGIABBOFY;PMQMMDVXYSSGCD;QCAAXUQRSHUEHU;JAEJQOUXXMFTJU;SKPCTMWFLGENTL;NUJGJRNETVAIRJ;PFBUXLQVTTXUQM
SubstructureOntologies: CHEMONTID:0002500;NonID:H2O;CHEMONTID:0001831;CHEMONTID:0002230;CHEMONTID:0002228;CHEMONTID:0000118;CHEMONTID:0002434;CHEMONTID:0004620;CHEMONTID:0002484;CHEMONTID:0000469;CHEMONTID:0001663;CHEMONTID:0002229;CHEMONTID:0003358;CHEMONTID:0002309;CHEMONTID:0000331
Ontology: Diazinanes
OntologyID: CHEMONTID:0002389
RETENTIONTIME: -1
RETENTIONINDEX: -1
TotalBondEnergy: 28181
TotalScore: 6.3489
TotalHrRulesScore: 1
TotalBondCleavageScore: 0.8645
TotalMassAccuracyScore: 0.9729
TotalFragmentLinkageScore: 1
TotalBondDissociationEnergyScore: 0.8516
DatabaseScore: 0.2238
SubstructureAssignmentScore: 0
RtSimilarityScore: -1
RiSimilarityScore: 0
Num Fragment VS2 (M/Z Intensity MatchedExactMass SaturatedExactMass Formula RearrangedHydrogen PPM MassDiff_mDa IsEvenElectronRule IsHrRule IsSolventAdductFragment AssignedAdductMass AdductString BondDissociationEnergy TreeDepth SMILES TotalScore HrLikelihood BcLikelihood MaLikelihood FlLikelihood BeLikelihood): 2
325.233974	23189.871554	325.248584392913	326.256958007813	C18H34N2O3	-1	44.92	14.61	True	True	False	0		859	2	O=C(NC(C(=O)NC(C(=O)CC)C(C)CC)C)CCCCCC	4.39034753247004	1	0.7289999127388	0.958205759525299	1	0.703141860205938
441.315058	35931.042167	441.307142177756	440.299865722656	C22H40N4O5	1	17.94	7.92	True	True	False	0		0	0	O=C(NO)CC(C(=O)N1NCCCC1(C(=O)NC(C(=O)CC)C(C)CC))CCCCC	4.98754614591599	1	1	0.987546145915985	1	1

