NAME: dolichyl-4 phosphate
ID: GYBNOAFGEKAZTA
IsSpectrumSearch: False
INCHIKEY: GYBNOAFGEKAZTA-QOLULZRONA-N
SMILES: O=P(O)(O)OCCC(C)CCC=C(C)CCC=C(C)CCC=C(C)CCC=C(C)C
RESOURCES: LipidMAPS=LMPR03080015,PubChem=24892715
SubstructureInChIKeys: VNWKTOKETHGBQD;XLYOFNOQVPJJNP;VGGSQFUCUMXWEO;OTMSDBZUPAUEDD;QQONPFPTGQHPMA;ATUOYWHBWRKTHZ;IAQRGUVFOMOMEM;VQTUBCCKSQIDNK;VXNZUUAINFGPBY;IJDNQMDRQITEOD;NNPPMTNAJDCUHE;BDERNNFJNOPAEC;BKOOMYPCSUNDGP;QMMOXUPEWRXHJS;YWAKXRMUMFPDSH;OFBQJSOFQDEBGM;QWTDNUCVQCZILF;LRHPLDYGYMQRHN;ABLZXFCXXLZCGV;BEQGRRJLJLVQAQ;LIKMAJRDDDTEIG;RYPKRALMXUUNKS;ZQDPJFUHLCOCRG;AFABGHUZZDYHJO;PFEOZHBOMNWTJB;VLKZOEOYAKHREP;AMQJEAYHLZJPGS;PHTQWCKDNZKARW;NBIIXXVUZAFLBC;WZHKDGJSXCTSCK;ZGEGCLOFRBLKSE;VLJXXKKOSFGPHI;ZSIAUFGUXNUGDI;KPADFPAILITQBG
SubstructureOntologies: CHEMONTID:0002500;NonID:H2O;CHEMONTID:0004476;CHEMONTID:0004622;CHEMONTID:0004620;CHEMONTID:0000286;NonID:PO3;NonID:PO4;CHEMONTID:0001334
Ontology: Polyprenyl monophosphates
OntologyID: CHEMONTID:0004276
RETENTIONTIME: -1
RETENTIONINDEX: -1
TotalBondEnergy: 29826
TotalScore: 7.5579
TotalHrRulesScore: 1
TotalBondCleavageScore: 0.5911
TotalMassAccuracyScore: 0.9971
TotalFragmentLinkageScore: 1
TotalBondDissociationEnergyScore: 0.7802
DatabaseScore: 0.5476
SubstructureAssignmentScore: 0
RtSimilarityScore: -1
RiSimilarityScore: 0
Num Fragment VS2 (M/Z Intensity MatchedExactMass SaturatedExactMass Formula RearrangedHydrogen PPM MassDiff_mDa IsEvenElectronRule IsHrRule IsSolventAdductFragment AssignedAdductMass AdductString BondDissociationEnergy TreeDepth SMILES TotalScore HrLikelihood BcLikelihood MaLikelihood FlLikelihood BeLikelihood): 2
325.233974	23189.871554	325.229083660491	326.237457275391	C19H35O2P	-1	15.04	4.89	True	True	False	0		1016	3	O=POCCC(C)CCC=C(C)CCC=C(C)CCC=CC	3.73781487234449	1	0.1822499781847	0.995228350162506	1	0.560336543997288
441.315058	35931.042167	441.312818447288	440.305541992188	C25H45O4P	1	5.07	2.24	True	True	False	0		0	0	O=P(O)(O)OCCC(C)CCC=C(C)CCC=C(C)CCC=C(C)CCC=C(C)C	4.99899739027023	1	1	0.998997390270233	1	1

