NAME: Acetylbrowniine
ID: BQMFTYVYHRJVMQ
IsSpectrumSearch: False
INCHIKEY: BQMFTYVYHRJVMQ-CSWIGANCNA-N
SMILES: O=C(OC1C2CC5C1C(O)(CC2(OC))C3(O)(C(OC)C6C4(COC)(CN(CC)C3C56(C(OC)CC4))))C
RESOURCES: KNApSAcK=C00001609;C00027972,ChEBI=CHEBI:2414,UNPD=UNPD102356;UNPD24725;UNPD79328;UNPD92731
SubstructureInChIKeys: VNWKTOKETHGBQD;XLYOFNOQVPJJNP;WSFSSNUMVMOOMR;OTMSDBZUPAUEDD;OKKJLVBELUTLKV;IKHGUXGNUITLKF;ATUOYWHBWRKTHZ;ROSDSFDQCJNGOL;LCGLNKUTAGEVQW;LFQSCWFLJHTTHZ;IJDNQMDRQITEOD;NNPPMTNAJDCUHE;GETQZCLCWQTVFV;JJWLVOIRVHMVIS;LIWAQLJGPBVORC;QTBSBXVTEAMEQO;TZIHFWKZFHZASV;BDERNNFJNOPAEC;KFZMGEQAYNKOFK;XOBKSJJDNFUZPF;HZAXFHJVJLSVMW;LYCAIKOWRPUZTN;RGSFGYAAUTVSQA;OFBQJSOFQDEBGM;QWTDNUCVQCZILF;DAZXVJBJRMWXJP;GVWISOJSERXQBM;HPNMFZURTQLUMO;HQABUPZFAYXKJW;KDSNLYIMUZNERS;XHFGWHUWQXTGAT;KXKVLQRXCPHEJC;WBJINCZRORDGAQ;BEBCJVAWIBVWNZ;BTANRVKWQNVYAZ;LRHPLDYGYMQRHN;VNKYTQGIUYNRMY;ZXEKIIBDNHEJCQ;HXKKHQJGJAFBHI;WUGQZFFCHPXWKQ;DNIAPMSPPWPWGF;XNWFRZJHXBZDAG;YPFDHNVEDLHUCE;VIBDJEWPNNCFQO;XDTMQSROBMDMFD;NQRYJNQNLNOLGT;AFABGHUZZDYHJO;HNRMPXKDFBEGFZ;PFEOZHBOMNWTJB;VLKZOEOYAKHREP;BMFVGAAISNGQNM;DPBLXKKOBLCELK;GNVRJGIVDSQCOP;QCOGKXLOEWLIDC;VJROPLWGFCORRM;ZUHZZVMEUAUWHY;XEKOWRVHYACXOJ;AMQJEAYHLZJPGS;AQIXEPGDORPWBJ;FVNIMHIOIXPIQT;JYVLIDXNZAXMDK;MXLMTQWGSQIYOW;PHTQWCKDNZKARW;UEEJHVSXFDXPFK;BMRWNKZVCUKKSR;JDFDHBSESGTDAL;PUPZLCDOIYMWBV;QWGRWMMWNDWRQN;YTTFFPATQICAQN;PEDCQBHIVMGVHV;UAEPNZWRGJTJPN;PAMIQIKDUOTOBW;BVIJQMCYYASIFP;HPXRVTGHNJAIIH;BZHMBWZPUJHVEE;IMNFDUFMRHMDMM;VLJXXKKOSFGPHI;DJEQZVQFEPKLOY;SMBYUOXUISCLCF;VLSTXUUYLIALPB;ZMANZCXQSJIPKH;ZSIAUFGUXNUGDI;WCVRQHFDJLLWFE;XLMFDCKSFJWJTP;ARXKVVRQIIOZGF;YAXKTBLXMTYWDQ;MQVRLONNONYDJP;KVZJLSYJROEPSQ;QEGNUYASOUJEHD;SGVUHPSBDNVHKL;ONQLCPDIXPYJSS;MQWCXKGKQLNYQG;JVSWJIKNEAIKJW;TVMXDCGIABBOFY;CETWDUZRCINIHU;OVOVDHYEOQJKMD;BFSVOASYOCHEOV;AALKGALVYCZETF;GZXFYIDYTCWDDN;PYOLJOJPIPCRDP;XARGIVYWQPXRTC;KDISMIMTGUMORD;FMETWOPSCIOJSL;ZBAXJUPCYVIBSP;ZDAWZDFBPUUDAY;GGWBGCSGJCRVIQ;BUOAKQCLRBVIOX;HIVFIUIKABOGIO;YLZKVXHQMPWDBJ;MZMHDMCGCUWTDS;SOUITUXPBGREAE;KGBMCONWCCBLAE;VTXRDCQMLXABHJ;IRXJZDLOCNJAHE;OTBOAOSTJYUVHP;GZURMVKYRIAPGE;HZNDJPAXRXLIOU
SubstructureOntologies: CHEMONTID:0002500;NonID:H2O;CHEMONTID:0001831;CHEMONTID:0000286;CHEMONTID:0002230;CHEMONTID:0002228;CHEMONTID:0001167;CHEMONTID:0004620;CHEMONTID:0002239;CHEMONTID:0000469;CHEMONTID:0001205;CHEMONTID:0001238;CHEMONTID:0001661;CHEMONTID:0001897;CHEMONTID:0002467;CHEMONTID:0001016;CHEMONTID:0003416;CHEMONTID:0002484;CHEMONTID:0001852;CHEMONTID:0002286;CHEMONTID:0000195;CHEMONTID:0002210;CHEMONTID:0002938;CHEMONTID:0002647;CHEMONTID:0001334;CHEMONTID:0000335;CHEMONTID:0004149;CHEMONTID:0001401;CHEMONTID:0001292
Ontology: Aconitane-type diterpenoid alkaloids
OntologyID: CHEMONTID:0003788
RETENTIONTIME: -1
RETENTIONINDEX: -1
TotalBondEnergy: 32379
TotalScore: 5.9681
TotalHrRulesScore: 0.5
TotalBondCleavageScore: 0.5
TotalMassAccuracyScore: 0.4982
TotalFragmentLinkageScore: 0.5
TotalBondDissociationEnergyScore: 0.5
DatabaseScore: 0.5714
SubstructureAssignmentScore: 0
RtSimilarityScore: -1
RiSimilarityScore: 0
Num Fragment VS2 (M/Z Intensity MatchedExactMass SaturatedExactMass Formula RearrangedHydrogen PPM MassDiff_mDa IsEvenElectronRule IsHrRule IsSolventAdductFragment AssignedAdductMass AdductString BondDissociationEnergy TreeDepth SMILES TotalScore HrLikelihood BcLikelihood MaLikelihood FlLikelihood BeLikelihood): 1
510.310429	40155.456977	510.306135097678	509.298858642578	C27H43NO8	1	8.41	4.29	True	True	False	0		0	0	O=C(OC1C2CC5C1C(O)(CC2(OC))C3(O)(C(OC)C6C4(COC)(CN(CC)C3C56(C(OC)CC4))))C	4.99631929397583	1	1	0.99631929397583	1	1

NAME: Veracevine
ID: MZHXYVMEVBEFAL
IsSpectrumSearch: False
INCHIKEY: MZHXYVMEVBEFAL-IEZVGZIVNA-N
SMILES: OC3CCC6(C)(C4CCC5C7(O)(CC(O)C2(O)(C(CN1CC(C)CCC1C2(O)(C))C7(O)(CC56(OC34(O))))))
RESOURCES: KNApSAcK=C00002269,ChEBI=CHEBI:9947;CHEBI:35652,UNPD=UNPD65413;UNPD70575
SubstructureInChIKeys: VNWKTOKETHGBQD;XLYOFNOQVPJJNP;OTMSDBZUPAUEDD;OKKJLVBELUTLKV;ATUOYWHBWRKTHZ;ROSDSFDQCJNGOL;LCGLNKUTAGEVQW;LFQSCWFLJHTTHZ;CKFGINPQOCXMAZ;IJDNQMDRQITEOD;NNPPMTNAJDCUHE;GETQZCLCWQTVFV;JJWLVOIRVHMVIS;LIWAQLJGPBVORC;BDERNNFJNOPAEC;KFZMGEQAYNKOFK;XOBKSJJDNFUZPF;HZAXFHJVJLSVMW;LYCAIKOWRPUZTN;RGSFGYAAUTVSQA;OFBQJSOFQDEBGM;QWTDNUCVQCZILF;DAZXVJBJRMWXJP;GVWISOJSERXQBM;HPNMFZURTQLUMO;HQABUPZFAYXKJW;KDSNLYIMUZNERS;XHFGWHUWQXTGAT;BEBCJVAWIBVWNZ;BTANRVKWQNVYAZ;LRHPLDYGYMQRHN;VNKYTQGIUYNRMY;ZXEKIIBDNHEJCQ;HXKKHQJGJAFBHI;WUGQZFFCHPXWKQ;DNIAPMSPPWPWGF;RRLWYLINGKISHN;XNWFRZJHXBZDAG;YPFDHNVEDLHUCE;VIBDJEWPNNCFQO;XDTMQSROBMDMFD;NQRYJNQNLNOLGT;AFABGHUZZDYHJO;HNRMPXKDFBEGFZ;PFEOZHBOMNWTJB;VLKZOEOYAKHREP;BMFVGAAISNGQNM;DPBLXKKOBLCELK;GNVRJGIVDSQCOP;QCOGKXLOEWLIDC;VJROPLWGFCORRM;ZUHZZVMEUAUWHY;AMQJEAYHLZJPGS;AQIXEPGDORPWBJ;FVNIMHIOIXPIQT;JYVLIDXNZAXMDK;MXLMTQWGSQIYOW;PHTQWCKDNZKARW;UEEJHVSXFDXPFK;BMRWNKZVCUKKSR;JDFDHBSESGTDAL;PUPZLCDOIYMWBV;QWGRWMMWNDWRQN;YTTFFPATQICAQN;ZNQVEEAIQZEUHB;PEDCQBHIVMGVHV;UAEPNZWRGJTJPN;BVIJQMCYYASIFP;HPXRVTGHNJAIIH;BZHMBWZPUJHVEE;IMNFDUFMRHMDMM;VLJXXKKOSFGPHI;DJEQZVQFEPKLOY;SMBYUOXUISCLCF;VLSTXUUYLIALPB;ZMANZCXQSJIPKH;ZSIAUFGUXNUGDI;QONBKISCDWCHKF;WCVRQHFDJLLWFE;XLMFDCKSFJWJTP;ARXKVVRQIIOZGF;YAXKTBLXMTYWDQ;MQVRLONNONYDJP;KVZJLSYJROEPSQ;QEGNUYASOUJEHD;SGVUHPSBDNVHKL;MQWCXKGKQLNYQG;JVSWJIKNEAIKJW;TVMXDCGIABBOFY;CETWDUZRCINIHU;OVOVDHYEOQJKMD;BFSVOASYOCHEOV;AALKGALVYCZETF;PYOLJOJPIPCRDP;XARGIVYWQPXRTC;ZBAXJUPCYVIBSP;ZDAWZDFBPUUDAY;GGWBGCSGJCRVIQ;LJPZHJUSICYOIX;BUOAKQCLRBVIOX;HIVFIUIKABOGIO;YLZKVXHQMPWDBJ;SOUITUXPBGREAE;VTXRDCQMLXABHJ;RUIACMUVCHMOMF;IRXJZDLOCNJAHE;OTBOAOSTJYUVHP
SubstructureOntologies: CHEMONTID:0002500;NonID:H2O;CHEMONTID:0000286;CHEMONTID:0002228;CHEMONTID:0001167;CHEMONTID:0001605;CHEMONTID:0004620;CHEMONTID:0002239;CHEMONTID:0000469;CHEMONTID:0001661;CHEMONTID:0001897;CHEMONTID:0002467;CHEMONTID:0001016;CHEMONTID:0002484;CHEMONTID:0001852;CHEMONTID:0001092;CHEMONTID:0002286;CHEMONTID:0000195;CHEMONTID:0002210;CHEMONTID:0002938;CHEMONTID:0002647;CHEMONTID:0001334;CHEMONTID:0004149;CHEMONTID:0000222;CHEMONTID:0001401
Ontology: Cerveratrum-type alkaloids
OntologyID: CHEMONTID:0002729
RETENTIONTIME: -1
RETENTIONINDEX: -1
TotalBondEnergy: 32526
TotalScore: 5.9681
TotalHrRulesScore: 0.5
TotalBondCleavageScore: 0.5
TotalMassAccuracyScore: 0.4982
TotalFragmentLinkageScore: 0.5
TotalBondDissociationEnergyScore: 0.5
DatabaseScore: 0.5714
SubstructureAssignmentScore: 0
RtSimilarityScore: -1
RiSimilarityScore: 0
Num Fragment VS2 (M/Z Intensity MatchedExactMass SaturatedExactMass Formula RearrangedHydrogen PPM MassDiff_mDa IsEvenElectronRule IsHrRule IsSolventAdductFragment AssignedAdductMass AdductString BondDissociationEnergy TreeDepth SMILES TotalScore HrLikelihood BcLikelihood MaLikelihood FlLikelihood BeLikelihood): 1
510.310429	40155.456977	510.306135097678	509.298858642578	C27H43NO8	1	8.41	4.29	True	True	False	0		0	0	OC3CCC6(C)(C4CCC5C7(O)(CC(O)C2(O)(C(CN1CC(C)CCC1C2(O)(C))C7(O)(CC56(OC34(O))))))	4.99631929397583	1	1	0.99631929397583	1	1

NAME: Tricornine
ID: STJQAAPRZLERIZ
IsSpectrumSearch: False
INCHIKEY: STJQAAPRZLERIZ-LCRCFATQNA-N
SMILES: O=C(OCC12(CN(CC)C3C6(O)(C(OC)C1C3(C(OC)CC2)C5CC4C(OC)CC6(O)(C5(C4(OC))))))C
RESOURCES: KNApSAcK=C00001671,ChEBI=CHEBI:9696,UNPD=UNPD106343;UNPD69865
SubstructureInChIKeys: VNWKTOKETHGBQD;XLYOFNOQVPJJNP;WSFSSNUMVMOOMR;OTMSDBZUPAUEDD;OKKJLVBELUTLKV;IKHGUXGNUITLKF;ATUOYWHBWRKTHZ;ROSDSFDQCJNGOL;LCGLNKUTAGEVQW;LFQSCWFLJHTTHZ;IJDNQMDRQITEOD;NNPPMTNAJDCUHE;GETQZCLCWQTVFV;JJWLVOIRVHMVIS;LIWAQLJGPBVORC;QTBSBXVTEAMEQO;TZIHFWKZFHZASV;BDERNNFJNOPAEC;KFZMGEQAYNKOFK;XOBKSJJDNFUZPF;HZAXFHJVJLSVMW;LYCAIKOWRPUZTN;RGSFGYAAUTVSQA;OFBQJSOFQDEBGM;QWTDNUCVQCZILF;DAZXVJBJRMWXJP;GVWISOJSERXQBM;HPNMFZURTQLUMO;HQABUPZFAYXKJW;KDSNLYIMUZNERS;XHFGWHUWQXTGAT;KXKVLQRXCPHEJC;WBJINCZRORDGAQ;BEBCJVAWIBVWNZ;BTANRVKWQNVYAZ;LRHPLDYGYMQRHN;VNKYTQGIUYNRMY;ZXEKIIBDNHEJCQ;HXKKHQJGJAFBHI;WUGQZFFCHPXWKQ;DNIAPMSPPWPWGF;XNWFRZJHXBZDAG;YPFDHNVEDLHUCE;VIBDJEWPNNCFQO;XDTMQSROBMDMFD;NQRYJNQNLNOLGT;AFABGHUZZDYHJO;HNRMPXKDFBEGFZ;PFEOZHBOMNWTJB;VLKZOEOYAKHREP;BMFVGAAISNGQNM;DPBLXKKOBLCELK;GNVRJGIVDSQCOP;QCOGKXLOEWLIDC;VJROPLWGFCORRM;ZUHZZVMEUAUWHY;XEKOWRVHYACXOJ;AMQJEAYHLZJPGS;AQIXEPGDORPWBJ;FVNIMHIOIXPIQT;JYVLIDXNZAXMDK;MXLMTQWGSQIYOW;PHTQWCKDNZKARW;UEEJHVSXFDXPFK;BMRWNKZVCUKKSR;JDFDHBSESGTDAL;PUPZLCDOIYMWBV;QWGRWMMWNDWRQN;YTTFFPATQICAQN;PEDCQBHIVMGVHV;UAEPNZWRGJTJPN;PAMIQIKDUOTOBW;BVIJQMCYYASIFP;HPXRVTGHNJAIIH;BZHMBWZPUJHVEE;IMNFDUFMRHMDMM;VLJXXKKOSFGPHI;DJEQZVQFEPKLOY;SMBYUOXUISCLCF;VLSTXUUYLIALPB;ZMANZCXQSJIPKH;ZSIAUFGUXNUGDI;WCVRQHFDJLLWFE;XLMFDCKSFJWJTP;ARXKVVRQIIOZGF;YAXKTBLXMTYWDQ;MQVRLONNONYDJP;KVZJLSYJROEPSQ;QEGNUYASOUJEHD;SGVUHPSBDNVHKL;ONQLCPDIXPYJSS;MQWCXKGKQLNYQG;JVSWJIKNEAIKJW;TVMXDCGIABBOFY;CETWDUZRCINIHU;OVOVDHYEOQJKMD;BFSVOASYOCHEOV;AALKGALVYCZETF;GZXFYIDYTCWDDN;PYOLJOJPIPCRDP;XARGIVYWQPXRTC;KDISMIMTGUMORD;FMETWOPSCIOJSL;ZBAXJUPCYVIBSP;ZDAWZDFBPUUDAY;GGWBGCSGJCRVIQ;BUOAKQCLRBVIOX;HIVFIUIKABOGIO;YLZKVXHQMPWDBJ;MZMHDMCGCUWTDS;SOUITUXPBGREAE;KGBMCONWCCBLAE;VTXRDCQMLXABHJ;IRXJZDLOCNJAHE;OTBOAOSTJYUVHP;GZURMVKYRIAPGE;HZNDJPAXRXLIOU
SubstructureOntologies: CHEMONTID:0002500;NonID:H2O;CHEMONTID:0001831;CHEMONTID:0000286;CHEMONTID:0002230;CHEMONTID:0002228;CHEMONTID:0001167;CHEMONTID:0004620;CHEMONTID:0002239;CHEMONTID:0000469;CHEMONTID:0001205;CHEMONTID:0001238;CHEMONTID:0001661;CHEMONTID:0001897;CHEMONTID:0002467;CHEMONTID:0001016;CHEMONTID:0003416;CHEMONTID:0002484;CHEMONTID:0001852;CHEMONTID:0002286;CHEMONTID:0000195;CHEMONTID:0002210;CHEMONTID:0002938;CHEMONTID:0002647;CHEMONTID:0001334;CHEMONTID:0000335;CHEMONTID:0004149;CHEMONTID:0001401;CHEMONTID:0001292
Ontology: Aconitane-type diterpenoid alkaloids
OntologyID: CHEMONTID:0003788
RETENTIONTIME: -1
RETENTIONINDEX: -1
TotalBondEnergy: 32379
TotalScore: 5.9681
TotalHrRulesScore: 0.5
TotalBondCleavageScore: 0.5
TotalMassAccuracyScore: 0.4982
TotalFragmentLinkageScore: 0.5
TotalBondDissociationEnergyScore: 0.5
DatabaseScore: 0.5714
SubstructureAssignmentScore: 0
RtSimilarityScore: -1
RiSimilarityScore: 0
Num Fragment VS2 (M/Z Intensity MatchedExactMass SaturatedExactMass Formula RearrangedHydrogen PPM MassDiff_mDa IsEvenElectronRule IsHrRule IsSolventAdductFragment AssignedAdductMass AdductString BondDissociationEnergy TreeDepth SMILES TotalScore HrLikelihood BcLikelihood MaLikelihood FlLikelihood BeLikelihood): 1
510.310429	40155.456977	510.306135097678	509.298858642578	C27H43NO8	1	8.41	4.29	True	True	False	0		0	0	O=C(OCC12(CN(CC)C3C6(O)(C(OC)C1C3(C(OC)CC2)C5CC4C(OC)CC6(O)(C5(C4(OC))))))C	4.99631929397583	1	1	0.99631929397583	1	1

NAME: Germine
ID: RNPABQVCNAUEIY
IsSpectrumSearch: False
INCHIKEY: RNPABQVCNAUEIY-SMSIQNTFNA-N
SMILES: OC3CC7C6(O)(OC4(CC2C5CN1CC(C)CCC1C(O)(C)C5(C(O)C(O)C2(O)C34))C7(C)(CCC6(O)))
RESOURCES: KNApSAcK=C00002250;C00028300,ChEBI=CHEBI:5338,UNPD=UNPD181424;UNPD43103;UNPD67956
SubstructureInChIKeys: VNWKTOKETHGBQD;XLYOFNOQVPJJNP;OTMSDBZUPAUEDD;OKKJLVBELUTLKV;ATUOYWHBWRKTHZ;ROSDSFDQCJNGOL;LCGLNKUTAGEVQW;LFQSCWFLJHTTHZ;CKFGINPQOCXMAZ;IJDNQMDRQITEOD;NNPPMTNAJDCUHE;GETQZCLCWQTVFV;JJWLVOIRVHMVIS;LIWAQLJGPBVORC;BDERNNFJNOPAEC;KFZMGEQAYNKOFK;XOBKSJJDNFUZPF;HZAXFHJVJLSVMW;LYCAIKOWRPUZTN;RGSFGYAAUTVSQA;OFBQJSOFQDEBGM;QWTDNUCVQCZILF;DAZXVJBJRMWXJP;GVWISOJSERXQBM;HPNMFZURTQLUMO;HQABUPZFAYXKJW;KDSNLYIMUZNERS;XHFGWHUWQXTGAT;BEBCJVAWIBVWNZ;BTANRVKWQNVYAZ;LRHPLDYGYMQRHN;VNKYTQGIUYNRMY;ZXEKIIBDNHEJCQ;HXKKHQJGJAFBHI;DNIAPMSPPWPWGF;RRLWYLINGKISHN;XNWFRZJHXBZDAG;YPFDHNVEDLHUCE;VIBDJEWPNNCFQO;XDTMQSROBMDMFD;NQRYJNQNLNOLGT;AFABGHUZZDYHJO;HNRMPXKDFBEGFZ;PFEOZHBOMNWTJB;VLKZOEOYAKHREP;BMFVGAAISNGQNM;DPBLXKKOBLCELK;GNVRJGIVDSQCOP;QCOGKXLOEWLIDC;VJROPLWGFCORRM;ZUHZZVMEUAUWHY;AMQJEAYHLZJPGS;AQIXEPGDORPWBJ;FVNIMHIOIXPIQT;JYVLIDXNZAXMDK;MXLMTQWGSQIYOW;PHTQWCKDNZKARW;UEEJHVSXFDXPFK;BMRWNKZVCUKKSR;JDFDHBSESGTDAL;PUPZLCDOIYMWBV;QWGRWMMWNDWRQN;YTTFFPATQICAQN;ZNQVEEAIQZEUHB;PEDCQBHIVMGVHV;UAEPNZWRGJTJPN;BVIJQMCYYASIFP;HPXRVTGHNJAIIH;BZHMBWZPUJHVEE;IMNFDUFMRHMDMM;VLJXXKKOSFGPHI;DJEQZVQFEPKLOY;SMBYUOXUISCLCF;VLSTXUUYLIALPB;ZMANZCXQSJIPKH;ZSIAUFGUXNUGDI;QONBKISCDWCHKF;WCVRQHFDJLLWFE;XLMFDCKSFJWJTP;ARXKVVRQIIOZGF;YAXKTBLXMTYWDQ;MQVRLONNONYDJP;KVZJLSYJROEPSQ;QEGNUYASOUJEHD;SGVUHPSBDNVHKL;MQWCXKGKQLNYQG;JVSWJIKNEAIKJW;TVMXDCGIABBOFY;CETWDUZRCINIHU;OVOVDHYEOQJKMD;BFSVOASYOCHEOV;AALKGALVYCZETF;PYOLJOJPIPCRDP;XARGIVYWQPXRTC;ZBAXJUPCYVIBSP;ZDAWZDFBPUUDAY;GGWBGCSGJCRVIQ;LJPZHJUSICYOIX;BUOAKQCLRBVIOX;HIVFIUIKABOGIO;YLZKVXHQMPWDBJ;SOUITUXPBGREAE;VTXRDCQMLXABHJ;IRXJZDLOCNJAHE;OTBOAOSTJYUVHP
SubstructureOntologies: CHEMONTID:0002500;NonID:H2O;CHEMONTID:0000286;CHEMONTID:0002228;CHEMONTID:0001167;CHEMONTID:0001605;CHEMONTID:0004620;CHEMONTID:0002239;CHEMONTID:0000469;CHEMONTID:0001661;CHEMONTID:0001897;CHEMONTID:0002467;CHEMONTID:0001016;CHEMONTID:0002484;CHEMONTID:0001092;CHEMONTID:0002286;CHEMONTID:0000195;CHEMONTID:0002210;CHEMONTID:0002938;CHEMONTID:0002647;CHEMONTID:0001334;CHEMONTID:0004149;CHEMONTID:0000222;CHEMONTID:0001401
Ontology: Cerveratrum-type alkaloids
OntologyID: CHEMONTID:0002729
RETENTIONTIME: -1
RETENTIONINDEX: -1
TotalBondEnergy: 32526
TotalScore: 5.9681
TotalHrRulesScore: 0.5
TotalBondCleavageScore: 0.5
TotalMassAccuracyScore: 0.4982
TotalFragmentLinkageScore: 0.5
TotalBondDissociationEnergyScore: 0.5
DatabaseScore: 0.5714
SubstructureAssignmentScore: 0
RtSimilarityScore: -1
RiSimilarityScore: 0
Num Fragment VS2 (M/Z Intensity MatchedExactMass SaturatedExactMass Formula RearrangedHydrogen PPM MassDiff_mDa IsEvenElectronRule IsHrRule IsSolventAdductFragment AssignedAdductMass AdductString BondDissociationEnergy TreeDepth SMILES TotalScore HrLikelihood BcLikelihood MaLikelihood FlLikelihood BeLikelihood): 1
510.310429	40155.456977	510.306135097678	509.298858642578	C27H43NO8	1	8.41	4.29	True	True	False	0		0	0	OC3CC7C6(O)(OC4(CC2C5CN1CC(C)CCC1C(O)(C)C5(C(O)C(O)C2(O)C34))C7(C)(CCC6(O)))	4.99631929397583	1	1	0.99631929397583	1	1

NAME: Leucostine A
ID: BXWPDMXKEZYVBB
IsSpectrumSearch: False
INCHIKEY: BXWPDMXKEZYVBB-UHFFFAOYNA-N
SMILES: O=C(OC1C6C4(COC)(CN(CC)C5C1(O)C3(O)(CC(OC)C2CC(C3(C2(OC)))C56(C(OC)CC4))))C
RESOURCES: KNApSAcK=C00028471;C00049097,UNPD=UNPD195930;UNPD95640
SubstructureInChIKeys: VNWKTOKETHGBQD;XLYOFNOQVPJJNP;WSFSSNUMVMOOMR;OTMSDBZUPAUEDD;OKKJLVBELUTLKV;IKHGUXGNUITLKF;ATUOYWHBWRKTHZ;ROSDSFDQCJNGOL;LCGLNKUTAGEVQW;LFQSCWFLJHTTHZ;IJDNQMDRQITEOD;NNPPMTNAJDCUHE;GETQZCLCWQTVFV;JJWLVOIRVHMVIS;LIWAQLJGPBVORC;QTBSBXVTEAMEQO;TZIHFWKZFHZASV;BDERNNFJNOPAEC;KFZMGEQAYNKOFK;XOBKSJJDNFUZPF;HZAXFHJVJLSVMW;LYCAIKOWRPUZTN;RGSFGYAAUTVSQA;OFBQJSOFQDEBGM;QWTDNUCVQCZILF;DAZXVJBJRMWXJP;GVWISOJSERXQBM;HPNMFZURTQLUMO;HQABUPZFAYXKJW;KDSNLYIMUZNERS;XHFGWHUWQXTGAT;KXKVLQRXCPHEJC;WBJINCZRORDGAQ;BEBCJVAWIBVWNZ;BTANRVKWQNVYAZ;LRHPLDYGYMQRHN;VNKYTQGIUYNRMY;ZXEKIIBDNHEJCQ;HXKKHQJGJAFBHI;WUGQZFFCHPXWKQ;DNIAPMSPPWPWGF;XNWFRZJHXBZDAG;YPFDHNVEDLHUCE;VIBDJEWPNNCFQO;XDTMQSROBMDMFD;NQRYJNQNLNOLGT;AFABGHUZZDYHJO;HNRMPXKDFBEGFZ;PFEOZHBOMNWTJB;VLKZOEOYAKHREP;BMFVGAAISNGQNM;DPBLXKKOBLCELK;GNVRJGIVDSQCOP;QCOGKXLOEWLIDC;VJROPLWGFCORRM;ZUHZZVMEUAUWHY;XEKOWRVHYACXOJ;AMQJEAYHLZJPGS;AQIXEPGDORPWBJ;FVNIMHIOIXPIQT;JYVLIDXNZAXMDK;MXLMTQWGSQIYOW;PHTQWCKDNZKARW;UEEJHVSXFDXPFK;BMRWNKZVCUKKSR;JDFDHBSESGTDAL;PUPZLCDOIYMWBV;QWGRWMMWNDWRQN;YTTFFPATQICAQN;ZNQVEEAIQZEUHB;PEDCQBHIVMGVHV;UAEPNZWRGJTJPN;PAMIQIKDUOTOBW;BVIJQMCYYASIFP;HPXRVTGHNJAIIH;BZHMBWZPUJHVEE;IMNFDUFMRHMDMM;VLJXXKKOSFGPHI;DJEQZVQFEPKLOY;SMBYUOXUISCLCF;VLSTXUUYLIALPB;ZMANZCXQSJIPKH;ZSIAUFGUXNUGDI;WCVRQHFDJLLWFE;XLMFDCKSFJWJTP;ARXKVVRQIIOZGF;YAXKTBLXMTYWDQ;MQVRLONNONYDJP;KVZJLSYJROEPSQ;QEGNUYASOUJEHD;SGVUHPSBDNVHKL;ONQLCPDIXPYJSS;MQWCXKGKQLNYQG;JVSWJIKNEAIKJW;TVMXDCGIABBOFY;CETWDUZRCINIHU;OVOVDHYEOQJKMD;BFSVOASYOCHEOV;BVDRUCCQKHGCRX;AALKGALVYCZETF;GZXFYIDYTCWDDN;LOSWWGJGSSQDKH;PYOLJOJPIPCRDP;XARGIVYWQPXRTC;KDISMIMTGUMORD;FMETWOPSCIOJSL;ZBAXJUPCYVIBSP;ZDAWZDFBPUUDAY;GGWBGCSGJCRVIQ;BUOAKQCLRBVIOX;HIVFIUIKABOGIO;YLZKVXHQMPWDBJ;MZMHDMCGCUWTDS;SOUITUXPBGREAE;KGBMCONWCCBLAE;VTXRDCQMLXABHJ;IRXJZDLOCNJAHE;OTBOAOSTJYUVHP;GZURMVKYRIAPGE;HZNDJPAXRXLIOU
SubstructureOntologies: CHEMONTID:0002500;NonID:H2O;CHEMONTID:0001831;CHEMONTID:0000286;CHEMONTID:0002230;CHEMONTID:0002228;CHEMONTID:0001167;CHEMONTID:0004620;CHEMONTID:0002239;CHEMONTID:0000469;CHEMONTID:0001205;CHEMONTID:0001238;CHEMONTID:0001661;CHEMONTID:0001897;CHEMONTID:0002467;CHEMONTID:0001016;CHEMONTID:0003416;CHEMONTID:0002484;CHEMONTID:0001852;CHEMONTID:0002286;CHEMONTID:0000195;CHEMONTID:0002210;CHEMONTID:0002938;CHEMONTID:0002647;CHEMONTID:0001334;CHEMONTID:0001597;CHEMONTID:0003263;CHEMONTID:0000335;CHEMONTID:0004149;CHEMONTID:0001401;CHEMONTID:0001292
Ontology: Aconitane-type diterpenoid alkaloids
OntologyID: CHEMONTID:0003788
RETENTIONTIME: -1
RETENTIONINDEX: -1
TotalBondEnergy: 32379
TotalScore: 5.9086
TotalHrRulesScore: 0.5
TotalBondCleavageScore: 0.5
TotalMassAccuracyScore: 0.4982
TotalFragmentLinkageScore: 0.5
TotalBondDissociationEnergyScore: 0.5
DatabaseScore: 0.5476
SubstructureAssignmentScore: 0
RtSimilarityScore: -1
RiSimilarityScore: 0
Num Fragment VS2 (M/Z Intensity MatchedExactMass SaturatedExactMass Formula RearrangedHydrogen PPM MassDiff_mDa IsEvenElectronRule IsHrRule IsSolventAdductFragment AssignedAdductMass AdductString BondDissociationEnergy TreeDepth SMILES TotalScore HrLikelihood BcLikelihood MaLikelihood FlLikelihood BeLikelihood): 1
510.310429	40155.456977	510.306135097678	509.298858642578	C27H43NO8	1	8.41	4.29	True	True	False	0		0	0	O=C(OC1C6C4(COC)(CN(CC)C5C1(O)C3(O)(CC(OC)C2CC(C3(C2(OC)))C56(C(OC)CC4))))C	4.99631929397583	1	1	0.99631929397583	1	1

NAME: Delbonine
ID: UTQKGBDSCRMUJO
IsSpectrumSearch: False
INCHIKEY: UTQKGBDSCRMUJO-UHFFFAOYNA-N
SMILES: O=C(OC1C2CC5C1C(OC)(CC2(OC))C3(O)(C(OC)C6C4(COC)(CN(CC)C3C56(C(O)CC4))))C
RESOURCES: KNApSAcK=C00031727,UNPD=UNPD132707;UNPD49545
SubstructureInChIKeys: VNWKTOKETHGBQD;XLYOFNOQVPJJNP;WSFSSNUMVMOOMR;OTMSDBZUPAUEDD;OKKJLVBELUTLKV;IKHGUXGNUITLKF;ATUOYWHBWRKTHZ;ROSDSFDQCJNGOL;LCGLNKUTAGEVQW;LFQSCWFLJHTTHZ;IJDNQMDRQITEOD;NNPPMTNAJDCUHE;GETQZCLCWQTVFV;JJWLVOIRVHMVIS;LIWAQLJGPBVORC;QTBSBXVTEAMEQO;TZIHFWKZFHZASV;BDERNNFJNOPAEC;KFZMGEQAYNKOFK;XOBKSJJDNFUZPF;HZAXFHJVJLSVMW;LYCAIKOWRPUZTN;RGSFGYAAUTVSQA;OFBQJSOFQDEBGM;QWTDNUCVQCZILF;DAZXVJBJRMWXJP;GVWISOJSERXQBM;HPNMFZURTQLUMO;HQABUPZFAYXKJW;KDSNLYIMUZNERS;XHFGWHUWQXTGAT;KXKVLQRXCPHEJC;WBJINCZRORDGAQ;BEBCJVAWIBVWNZ;BTANRVKWQNVYAZ;LRHPLDYGYMQRHN;VNKYTQGIUYNRMY;ZXEKIIBDNHEJCQ;HXKKHQJGJAFBHI;WUGQZFFCHPXWKQ;DNIAPMSPPWPWGF;XNWFRZJHXBZDAG;YPFDHNVEDLHUCE;VIBDJEWPNNCFQO;XDTMQSROBMDMFD;NQRYJNQNLNOLGT;AFABGHUZZDYHJO;HNRMPXKDFBEGFZ;PFEOZHBOMNWTJB;VLKZOEOYAKHREP;BMFVGAAISNGQNM;DPBLXKKOBLCELK;GNVRJGIVDSQCOP;QCOGKXLOEWLIDC;VJROPLWGFCORRM;ZUHZZVMEUAUWHY;XEKOWRVHYACXOJ;AMQJEAYHLZJPGS;AQIXEPGDORPWBJ;FVNIMHIOIXPIQT;JYVLIDXNZAXMDK;MXLMTQWGSQIYOW;PHTQWCKDNZKARW;UEEJHVSXFDXPFK;BMRWNKZVCUKKSR;JDFDHBSESGTDAL;PUPZLCDOIYMWBV;QWGRWMMWNDWRQN;YTTFFPATQICAQN;PEDCQBHIVMGVHV;UAEPNZWRGJTJPN;PAMIQIKDUOTOBW;BVIJQMCYYASIFP;HPXRVTGHNJAIIH;BZHMBWZPUJHVEE;IMNFDUFMRHMDMM;VLJXXKKOSFGPHI;DJEQZVQFEPKLOY;SMBYUOXUISCLCF;VLSTXUUYLIALPB;ZMANZCXQSJIPKH;ZSIAUFGUXNUGDI;WCVRQHFDJLLWFE;XLMFDCKSFJWJTP;ARXKVVRQIIOZGF;YAXKTBLXMTYWDQ;MQVRLONNONYDJP;KVZJLSYJROEPSQ;QEGNUYASOUJEHD;SGVUHPSBDNVHKL;ONQLCPDIXPYJSS;MQWCXKGKQLNYQG;JVSWJIKNEAIKJW;TVMXDCGIABBOFY;CETWDUZRCINIHU;OVOVDHYEOQJKMD;BFSVOASYOCHEOV;AALKGALVYCZETF;GZXFYIDYTCWDDN;PYOLJOJPIPCRDP;XARGIVYWQPXRTC;KDISMIMTGUMORD;FMETWOPSCIOJSL;ZBAXJUPCYVIBSP;ZDAWZDFBPUUDAY;GGWBGCSGJCRVIQ;BUOAKQCLRBVIOX;HIVFIUIKABOGIO;YLZKVXHQMPWDBJ;MZMHDMCGCUWTDS;SOUITUXPBGREAE;KGBMCONWCCBLAE;VTXRDCQMLXABHJ;IRXJZDLOCNJAHE;OTBOAOSTJYUVHP;GZURMVKYRIAPGE;HZNDJPAXRXLIOU
SubstructureOntologies: CHEMONTID:0002500;NonID:H2O;CHEMONTID:0001831;CHEMONTID:0000286;CHEMONTID:0002230;CHEMONTID:0002228;CHEMONTID:0001167;CHEMONTID:0004620;CHEMONTID:0002239;CHEMONTID:0000469;CHEMONTID:0001205;CHEMONTID:0001238;CHEMONTID:0001661;CHEMONTID:0001897;CHEMONTID:0002467;CHEMONTID:0001016;CHEMONTID:0003416;CHEMONTID:0002484;CHEMONTID:0001852;CHEMONTID:0002286;CHEMONTID:0000195;CHEMONTID:0002210;CHEMONTID:0002938;CHEMONTID:0002647;CHEMONTID:0001334;CHEMONTID:0000335;CHEMONTID:0004149;CHEMONTID:0001401;CHEMONTID:0001292
Ontology: Aconitane-type diterpenoid alkaloids
OntologyID: CHEMONTID:0003788
RETENTIONTIME: -1
RETENTIONINDEX: -1
TotalBondEnergy: 32379
TotalScore: 5.9086
TotalHrRulesScore: 0.5
TotalBondCleavageScore: 0.5
TotalMassAccuracyScore: 0.4982
TotalFragmentLinkageScore: 0.5
TotalBondDissociationEnergyScore: 0.5
DatabaseScore: 0.5476
SubstructureAssignmentScore: 0
RtSimilarityScore: -1
RiSimilarityScore: 0
Num Fragment VS2 (M/Z Intensity MatchedExactMass SaturatedExactMass Formula RearrangedHydrogen PPM MassDiff_mDa IsEvenElectronRule IsHrRule IsSolventAdductFragment AssignedAdductMass AdductString BondDissociationEnergy TreeDepth SMILES TotalScore HrLikelihood BcLikelihood MaLikelihood FlLikelihood BeLikelihood): 1
510.310429	40155.456977	510.306135097678	509.298858642578	C27H43NO8	1	8.41	4.29	True	True	False	0		0	0	O=C(OC1C2CC5C1C(OC)(CC2(OC))C3(O)(C(OC)C6C4(COC)(CN(CC)C3C56(C(O)CC4))))C	4.99631929397583	1	1	0.99631929397583	1	1

NAME: Colforsin dapropate hydrochloride
ID: RSOZZQTUMVBTMR
IsSpectrumSearch: False
INCHIKEY: RSOZZQTUMVBTMR-RSCHXIDRNA-N
SMILES: O=C(OC2C(OC(=O)CCN(C)C)C1C(C)(C)CCC(O)C1(C)C3(O)(C(=O)CC(OC23(C))(C=C)C))C
RESOURCES: ChEBI=CHEBI:31429
SubstructureInChIKeys: VNWKTOKETHGBQD;XLYOFNOQVPJJNP;VGGSQFUCUMXWEO;WSFSSNUMVMOOMR;OTMSDBZUPAUEDD;OKKJLVBELUTLKV;IKHGUXGNUITLKF;ATUOYWHBWRKTHZ;ROSDSFDQCJNGOL;LCGLNKUTAGEVQW;LFQSCWFLJHTTHZ;VXNZUUAINFGPBY;CSCPPACGZOOCGX;NBBJYMSMWIIQGU;XXROGKLTLUQVRX;IJDNQMDRQITEOD;NNPPMTNAJDCUHE;GETQZCLCWQTVFV;LIWAQLJGPBVORC;QTBSBXVTEAMEQO;TZIHFWKZFHZASV;WGCNASOHLSPBMP;BDERNNFJNOPAEC;KFZMGEQAYNKOFK;XOBKSJJDNFUZPF;LYCAIKOWRPUZTN;YWAKXRMUMFPDSH;ZTQSAGDEMFDKMZ;OFBQJSOFQDEBGM;QWTDNUCVQCZILF;DAZXVJBJRMWXJP;GVWISOJSERXQBM;AKXKFZDCRYJKTF;BSABBBMNWQWLLU;KXKVLQRXCPHEJC;WBJINCZRORDGAQ;XBDQKXXYIPTUBI;BTANRVKWQNVYAZ;LRHPLDYGYMQRHN;VNKYTQGIUYNRMY;ZXEKIIBDNHEJCQ;WUGQZFFCHPXWKQ;DNIAPMSPPWPWGF;XNWFRZJHXBZDAG;YPFDHNVEDLHUCE;VIBDJEWPNNCFQO;LDTAOIUHUHHCMU;LIKMAJRDDDTEIG;XDTMQSROBMDMFD;HGBOYTHUEUWSSQ;AFABGHUZZDYHJO;HNRMPXKDFBEGFZ;PFEOZHBOMNWTJB;VLKZOEOYAKHREP;ZUHZZVMEUAUWHY;XEKOWRVHYACXOJ;AMQJEAYHLZJPGS;AQIXEPGDORPWBJ;FVNIMHIOIXPIQT;JYVLIDXNZAXMDK;MXLMTQWGSQIYOW;PHTQWCKDNZKARW;UCMIRNVEIXFBKS;MNQZXJOMYWMBOU;BMRWNKZVCUKKSR;JDFDHBSESGTDAL;PUPZLCDOIYMWBV;QWGRWMMWNDWRQN;YTTFFPATQICAQN;ZNQVEEAIQZEUHB;PEDCQBHIVMGVHV;UAEPNZWRGJTJPN;ZGEGCLOFRBLKSE;BVOSSZSHBZQJOI;HPXRVTGHNJAIIH;JARKCYVAAOWBJS;BZHMBWZPUJHVEE;IMNFDUFMRHMDMM;VLJXXKKOSFGPHI;ZSIAUFGUXNUGDI;DFFAMJFPVBTTBX;SLCVBVWXLSEKPL;WCVRQHFDJLLWFE;XLMFDCKSFJWJTP;ARXKVVRQIIOZGF;RKOGJKGQMPZCGG;YAXKTBLXMTYWDQ;MQVRLONNONYDJP;KVZJLSYJROEPSQ;KWKAKUADMBZCLK;QEGNUYASOUJEHD;SGVUHPSBDNVHKL;CATSNJVOTSVZJV;FXHGMKSSBGDXIY;MQWCXKGKQLNYQG;PZKFYTOLVRCMOA;JVSWJIKNEAIKJW;TVMXDCGIABBOFY;CETWDUZRCINIHU;OVOVDHYEOQJKMD;MMQYUDBFDDEJBP;BVDRUCCQKHGCRX;AALKGALVYCZETF;GZXFYIDYTCWDDN;LOSWWGJGSSQDKH;UNXHWFMMPAWVPI;PYOLJOJPIPCRDP;XARGIVYWQPXRTC;NUJGJRNETVAIRJ;VSMOENVRRABVKN;VWLITJGXNSANSN;ZBAXJUPCYVIBSP;UXUFMKFUJJLWKM;WDRISBUVHBMJEF;FJGNTEKSQVNVTJ;ZDAWZDFBPUUDAY;JJMZVBNCCUWEDF;BUOAKQCLRBVIOX;HIVFIUIKABOGIO;YLZKVXHQMPWDBJ;SOUITUXPBGREAE;YFBDMUJOFKYAGE;QFHKFGOUFKUPNX;VTXRDCQMLXABHJ;LWWIYCLYWKAKRR;IRXJZDLOCNJAHE;HYHMOIFJBNVOTK;XBENKLBOLWZLNQ;OTBOAOSTJYUVHP;GZURMVKYRIAPGE;HZNDJPAXRXLIOU
SubstructureOntologies: CHEMONTID:0002500;NonID:H2O;CHEMONTID:0004476;CHEMONTID:0001831;CHEMONTID:0000286;CHEMONTID:0002230;CHEMONTID:0002228;CHEMONTID:0001167;CHEMONTID:0000118;CHEMONTID:0002434;CHEMONTID:0004620;CHEMONTID:0002239;CHEMONTID:0001205;CHEMONTID:0001238;CHEMONTID:0001661;CHEMONTID:0002467;CHEMONTID:0003675;CHEMONTID:0003416;CHEMONTID:0001852;CHEMONTID:0002286;CHEMONTID:0001016;CHEMONTID:0001878;CHEMONTID:0001540;CHEMONTID:0002210;CHEMONTID:0002647;CHEMONTID:0002229;CHEMONTID:0001334;CHEMONTID:0002391;CHEMONTID:0002012;CHEMONTID:0001597;CHEMONTID:0003263;CHEMONTID:0001498;CHEMONTID:0004149;CHEMONTID:0001401;CHEMONTID:0001292
Ontology: Triterpenoids
OntologyID: CHEMONTID:0001553
RETENTIONTIME: -1
RETENTIONINDEX: -1
TotalBondEnergy: 32355
TotalScore: 5.8491
TotalHrRulesScore: 0.5
TotalBondCleavageScore: 0.5
TotalMassAccuracyScore: 0.4982
TotalFragmentLinkageScore: 0.5
TotalBondDissociationEnergyScore: 0.5
DatabaseScore: 0.5238
SubstructureAssignmentScore: 0
RtSimilarityScore: -1
RiSimilarityScore: 0
Num Fragment VS2 (M/Z Intensity MatchedExactMass SaturatedExactMass Formula RearrangedHydrogen PPM MassDiff_mDa IsEvenElectronRule IsHrRule IsSolventAdductFragment AssignedAdductMass AdductString BondDissociationEnergy TreeDepth SMILES TotalScore HrLikelihood BcLikelihood MaLikelihood FlLikelihood BeLikelihood): 1
510.310429	40155.456977	510.306135097678	509.298858642578	C27H43NO8	1	8.41	4.29	True	True	False	0		0	0	O=C(OC2C(OC(=O)CCN(C)C)C1C(C)(C)CCC(O)C1(C)C3(O)(C(=O)CC(OC23(C))(C=C)C))C	4.99631929397583	1	1	0.99631929397583	1	1

NAME: UNPD13101
ID: BPPPYIAMTVHQOI
IsSpectrumSearch: False
INCHIKEY: BPPPYIAMTVHQOI-ZMDSSVLVNA-N
SMILES: O=C1C(O)CCC5(C)(C1CCC4C6(O)(CC(O)C3(O)(C(CN2CC(C)CCC2C3(O)(C))C6(O)(CC45(O)))))
RESOURCES: UNPD=UNPD13101
SubstructureInChIKeys: VNWKTOKETHGBQD;XLYOFNOQVPJJNP;WSFSSNUMVMOOMR;OTMSDBZUPAUEDD;OKKJLVBELUTLKV;IKHGUXGNUITLKF;ATUOYWHBWRKTHZ;ROSDSFDQCJNGOL;LFQSCWFLJHTTHZ;CSCPPACGZOOCGX;NBBJYMSMWIIQGU;IJDNQMDRQITEOD;NNPPMTNAJDCUHE;GETQZCLCWQTVFV;JJWLVOIRVHMVIS;LIWAQLJGPBVORC;WGCNASOHLSPBMP;BDERNNFJNOPAEC;KFZMGEQAYNKOFK;HZAXFHJVJLSVMW;LYCAIKOWRPUZTN;RGSFGYAAUTVSQA;ZTQSAGDEMFDKMZ;OFBQJSOFQDEBGM;QWTDNUCVQCZILF;DAZXVJBJRMWXJP;GVWISOJSERXQBM;HPNMFZURTQLUMO;HQABUPZFAYXKJW;KDSNLYIMUZNERS;XHFGWHUWQXTGAT;BSABBBMNWQWLLU;BEBCJVAWIBVWNZ;BTANRVKWQNVYAZ;LRHPLDYGYMQRHN;ZXEKIIBDNHEJCQ;HXKKHQJGJAFBHI;WUGQZFFCHPXWKQ;DNIAPMSPPWPWGF;YPFDHNVEDLHUCE;VIBDJEWPNNCFQO;XDTMQSROBMDMFD;NQRYJNQNLNOLGT;HGBOYTHUEUWSSQ;AFABGHUZZDYHJO;HNRMPXKDFBEGFZ;PFEOZHBOMNWTJB;VLKZOEOYAKHREP;BMFVGAAISNGQNM;DPBLXKKOBLCELK;GNVRJGIVDSQCOP;QCOGKXLOEWLIDC;VJROPLWGFCORRM;ZUHZZVMEUAUWHY;AMQJEAYHLZJPGS;AQIXEPGDORPWBJ;JYVLIDXNZAXMDK;MXLMTQWGSQIYOW;PHTQWCKDNZKARW;UEEJHVSXFDXPFK;BMRWNKZVCUKKSR;PUPZLCDOIYMWBV;QWGRWMMWNDWRQN;PEDCQBHIVMGVHV;UAEPNZWRGJTJPN;BVIJQMCYYASIFP;HPXRVTGHNJAIIH;JARKCYVAAOWBJS;BZHMBWZPUJHVEE;IMNFDUFMRHMDMM;VLJXXKKOSFGPHI;DJEQZVQFEPKLOY;SMBYUOXUISCLCF;VLSTXUUYLIALPB;ZMANZCXQSJIPKH;ZSIAUFGUXNUGDI;WCVRQHFDJLLWFE;XLMFDCKSFJWJTP;ARXKVVRQIIOZGF;YAXKTBLXMTYWDQ;MQVRLONNONYDJP;KVZJLSYJROEPSQ;QEGNUYASOUJEHD;SGVUHPSBDNVHKL;CATSNJVOTSVZJV;FXHGMKSSBGDXIY;MQWCXKGKQLNYQG;JVSWJIKNEAIKJW;TVMXDCGIABBOFY;CETWDUZRCINIHU;OVOVDHYEOQJKMD;BFSVOASYOCHEOV;AALKGALVYCZETF;PYOLJOJPIPCRDP;XARGIVYWQPXRTC;NUJGJRNETVAIRJ;VWLITJGXNSANSN;ZBAXJUPCYVIBSP;ZDAWZDFBPUUDAY;GGWBGCSGJCRVIQ;LJPZHJUSICYOIX;BUOAKQCLRBVIOX;HIVFIUIKABOGIO;YLZKVXHQMPWDBJ;SOUITUXPBGREAE;VTXRDCQMLXABHJ;RUIACMUVCHMOMF;IRXJZDLOCNJAHE;OTBOAOSTJYUVHP
SubstructureOntologies: CHEMONTID:0002500;NonID:H2O;CHEMONTID:0001831;CHEMONTID:0000286;CHEMONTID:0002230;CHEMONTID:0002228;CHEMONTID:0000118;CHEMONTID:0002434;CHEMONTID:0004620;CHEMONTID:0002239;CHEMONTID:0000469;CHEMONTID:0001661;CHEMONTID:0001897;CHEMONTID:0002467;CHEMONTID:0001016;CHEMONTID:0003675;CHEMONTID:0002484;CHEMONTID:0001852;CHEMONTID:0002286;CHEMONTID:0000195;CHEMONTID:0002210;CHEMONTID:0002938;CHEMONTID:0002647;CHEMONTID:0002229;CHEMONTID:0001334;CHEMONTID:0004149;CHEMONTID:0000222;CHEMONTID:0001401
Ontology: Cerveratrum-type alkaloids
OntologyID: CHEMONTID:0002729
RETENTIONTIME: -1
RETENTIONINDEX: -1
TotalBondEnergy: 32559
TotalScore: 5.0991
TotalHrRulesScore: 0.5
TotalBondCleavageScore: 0.5
TotalMassAccuracyScore: 0.4982
TotalFragmentLinkageScore: 0.5
TotalBondDissociationEnergyScore: 0.5
DatabaseScore: 0.2238
SubstructureAssignmentScore: 0
RtSimilarityScore: -1
RiSimilarityScore: 0
Num Fragment VS2 (M/Z Intensity MatchedExactMass SaturatedExactMass Formula RearrangedHydrogen PPM MassDiff_mDa IsEvenElectronRule IsHrRule IsSolventAdductFragment AssignedAdductMass AdductString BondDissociationEnergy TreeDepth SMILES TotalScore HrLikelihood BcLikelihood MaLikelihood FlLikelihood BeLikelihood): 1
510.310429	40155.456977	510.306135097678	509.298858642578	C27H43NO8	1	8.41	4.29	True	True	False	0		0	0	O=C1C(O)CCC5(C)(C1CCC4C6(O)(CC(O)C3(O)(C(CN2CC(C)CCC2C3(O)(C))C6(O)(CC45(O)))))	4.99631929397583	1	1	0.99631929397583	1	1

NAME: UNPD185077
ID: QWNOCXABDPZOJQ
IsSpectrumSearch: False
INCHIKEY: QWNOCXABDPZOJQ-KGFMCOMGNA-N
SMILES: O=C(OC6C1CC4C6(CC(O)(CC1(OC))C2(O)(C(OC)C5C3(COC)(CN(CC)C2C45(C(O)CC3)))))C
RESOURCES: UNPD=UNPD185077
SubstructureInChIKeys: VNWKTOKETHGBQD;XLYOFNOQVPJJNP;WSFSSNUMVMOOMR;OTMSDBZUPAUEDD;OKKJLVBELUTLKV;IKHGUXGNUITLKF;ATUOYWHBWRKTHZ;ROSDSFDQCJNGOL;LCGLNKUTAGEVQW;LFQSCWFLJHTTHZ;IJDNQMDRQITEOD;NNPPMTNAJDCUHE;GETQZCLCWQTVFV;JJWLVOIRVHMVIS;LIWAQLJGPBVORC;QTBSBXVTEAMEQO;TZIHFWKZFHZASV;BDERNNFJNOPAEC;KFZMGEQAYNKOFK;XOBKSJJDNFUZPF;HZAXFHJVJLSVMW;LYCAIKOWRPUZTN;RGSFGYAAUTVSQA;OFBQJSOFQDEBGM;QWTDNUCVQCZILF;DAZXVJBJRMWXJP;GVWISOJSERXQBM;HPNMFZURTQLUMO;HQABUPZFAYXKJW;KDSNLYIMUZNERS;XHFGWHUWQXTGAT;KXKVLQRXCPHEJC;WBJINCZRORDGAQ;BEBCJVAWIBVWNZ;BTANRVKWQNVYAZ;LRHPLDYGYMQRHN;VNKYTQGIUYNRMY;ZXEKIIBDNHEJCQ;HXKKHQJGJAFBHI;WUGQZFFCHPXWKQ;DNIAPMSPPWPWGF;XNWFRZJHXBZDAG;YPFDHNVEDLHUCE;VIBDJEWPNNCFQO;XDTMQSROBMDMFD;NQRYJNQNLNOLGT;AFABGHUZZDYHJO;HNRMPXKDFBEGFZ;PFEOZHBOMNWTJB;VLKZOEOYAKHREP;BMFVGAAISNGQNM;DPBLXKKOBLCELK;GNVRJGIVDSQCOP;QCOGKXLOEWLIDC;VJROPLWGFCORRM;ZUHZZVMEUAUWHY;XEKOWRVHYACXOJ;AMQJEAYHLZJPGS;AQIXEPGDORPWBJ;FVNIMHIOIXPIQT;JYVLIDXNZAXMDK;MXLMTQWGSQIYOW;PHTQWCKDNZKARW;UEEJHVSXFDXPFK;BMRWNKZVCUKKSR;JDFDHBSESGTDAL;PUPZLCDOIYMWBV;QWGRWMMWNDWRQN;YTTFFPATQICAQN;PEDCQBHIVMGVHV;UAEPNZWRGJTJPN;PAMIQIKDUOTOBW;BVIJQMCYYASIFP;HPXRVTGHNJAIIH;BZHMBWZPUJHVEE;IMNFDUFMRHMDMM;VLJXXKKOSFGPHI;DJEQZVQFEPKLOY;SMBYUOXUISCLCF;VLSTXUUYLIALPB;ZMANZCXQSJIPKH;ZSIAUFGUXNUGDI;WCVRQHFDJLLWFE;XLMFDCKSFJWJTP;ARXKVVRQIIOZGF;YAXKTBLXMTYWDQ;MQVRLONNONYDJP;KVZJLSYJROEPSQ;QEGNUYASOUJEHD;SGVUHPSBDNVHKL;ONQLCPDIXPYJSS;MQWCXKGKQLNYQG;JVSWJIKNEAIKJW;TVMXDCGIABBOFY;CETWDUZRCINIHU;OVOVDHYEOQJKMD;BFSVOASYOCHEOV;AALKGALVYCZETF;GZXFYIDYTCWDDN;PYOLJOJPIPCRDP;XARGIVYWQPXRTC;KDISMIMTGUMORD;FMETWOPSCIOJSL;ZBAXJUPCYVIBSP;ZDAWZDFBPUUDAY;GGWBGCSGJCRVIQ;BUOAKQCLRBVIOX;HIVFIUIKABOGIO;YLZKVXHQMPWDBJ;MZMHDMCGCUWTDS;SOUITUXPBGREAE;KGBMCONWCCBLAE;VTXRDCQMLXABHJ;IRXJZDLOCNJAHE;OTBOAOSTJYUVHP
SubstructureOntologies: CHEMONTID:0002500;NonID:H2O;CHEMONTID:0001831;CHEMONTID:0000286;CHEMONTID:0002230;CHEMONTID:0002228;CHEMONTID:0001167;CHEMONTID:0004620;CHEMONTID:0002239;CHEMONTID:0000469;CHEMONTID:0001205;CHEMONTID:0001238;CHEMONTID:0001661;CHEMONTID:0001897;CHEMONTID:0002467;CHEMONTID:0001016;CHEMONTID:0003416;CHEMONTID:0002484;CHEMONTID:0001852;CHEMONTID:0002286;CHEMONTID:0000195;CHEMONTID:0002210;CHEMONTID:0002938;CHEMONTID:0002647;CHEMONTID:0001334;CHEMONTID:0000335;CHEMONTID:0004149;CHEMONTID:0001401
Ontology: Azepanes
OntologyID: CHEMONTID:0000307
RETENTIONTIME: -1
RETENTIONINDEX: -1
TotalBondEnergy: 32415
TotalScore: 5.0991
TotalHrRulesScore: 0.5
TotalBondCleavageScore: 0.5
TotalMassAccuracyScore: 0.4982
TotalFragmentLinkageScore: 0.5
TotalBondDissociationEnergyScore: 0.5
DatabaseScore: 0.2238
SubstructureAssignmentScore: 0
RtSimilarityScore: -1
RiSimilarityScore: 0
Num Fragment VS2 (M/Z Intensity MatchedExactMass SaturatedExactMass Formula RearrangedHydrogen PPM MassDiff_mDa IsEvenElectronRule IsHrRule IsSolventAdductFragment AssignedAdductMass AdductString BondDissociationEnergy TreeDepth SMILES TotalScore HrLikelihood BcLikelihood MaLikelihood FlLikelihood BeLikelihood): 1
510.310429	40155.456977	510.306135097678	509.298858642578	C27H43NO8	1	8.41	4.29	True	True	False	0		0	0	O=C(OC6C1CC4C6(CC(O)(CC1(OC))C2(O)(C(OC)C5C3(COC)(CN(CC)C2C45(C(O)CC3)))))C	4.99631929397583	1	1	0.99631929397583	1	1

