NAME: (3b,24R,25x)-26-Benzoyloxystigmast-5-ene-3-ol
ID: BJZQJLWLEFGCBH
IsSpectrumSearch: False
INCHIKEY: BJZQJLWLEFGCBH-UHFFFAOYNA-N
SMILES: O=C(OCC(C)C(CC)CCC(C)C2CCC3C4CC=C1CC(O)CCC1(C)C4(CCC23(C)))C5=CC=CC=C5
RESOURCES: HMDB=HMDB0034553,FooDB=FDB013060,UNPD=UNPD167271
SubstructureInChIKeys: VNWKTOKETHGBQD;XLYOFNOQVPJJNP;VGGSQFUCUMXWEO;WSFSSNUMVMOOMR;OTMSDBZUPAUEDD;OKKJLVBELUTLKV;IKHGUXGNUITLKF;ATUOYWHBWRKTHZ;LCGLNKUTAGEVQW;LFQSCWFLJHTTHZ;IAQRGUVFOMOMEM;VQTUBCCKSQIDNK;VXNZUUAINFGPBY;IJDNQMDRQITEOD;NNPPMTNAJDCUHE;QTBSBXVTEAMEQO;TZIHFWKZFHZASV;BDERNNFJNOPAEC;KFZMGEQAYNKOFK;XOBKSJJDNFUZPF;BKOOMYPCSUNDGP;QMMOXUPEWRXHJS;RGSFGYAAUTVSQA;YWAKXRMUMFPDSH;ZSPTYLOMNJNZNG;OFBQJSOFQDEBGM;QWTDNUCVQCZILF;KXKVLQRXCPHEJC;WBJINCZRORDGAQ;BTANRVKWQNVYAZ;LRHPLDYGYMQRHN;VNKYTQGIUYNRMY;ZXEKIIBDNHEJCQ;UHOVQNZJYSORNB;BEQGRRJLJLVQAQ;GDOPTJXRTPNYNR;LDTAOIUHUHHCMU;LIKMAJRDDDTEIG;RYPKRALMXUUNKS;XDTMQSROBMDMFD;ZQDPJFUHLCOCRG;FSUXYWPILZJGCC;AFABGHUZZDYHJO;HNRMPXKDFBEGFZ;PFEOZHBOMNWTJB;VLKZOEOYAKHREP;XEKOWRVHYACXOJ;AMQJEAYHLZJPGS;AQIXEPGDORPWBJ;JYVLIDXNZAXMDK;PHTQWCKDNZKARW;YXFVVABEGXRONW;ADHCYQWFCLQBFG;QWHNJUXXYKPLQM;UAEPNZWRGJTJPN;WZHKDGJSXCTSCK;ZGEGCLOFRBLKSE;HPXRVTGHNJAIIH;UFLHIIWVXFIJGU;BZHMBWZPUJHVEE;IMNFDUFMRHMDMM;VLJXXKKOSFGPHI;ZSIAUFGUXNUGDI;HUMNYLRZRPPJDN;WVDDGKGOMKODPV;QJXCDRBHYIAFTH;KVZJLSYJROEPSQ;KWKAKUADMBZCLK;LETYIFNDQBJGPJ;QEGNUYASOUJEHD;SGVUHPSBDNVHKL;YXLCVBVDFKWWRW;MQWCXKGKQLNYQG;JVSWJIKNEAIKJW;TVMXDCGIABBOFY;CETWDUZRCINIHU;WPYMKLBDIGXBTP;ILIUIABCBOXIRX;NUHCEMOQRZEGAQ;IICQZTQZQSBHBY;KPADFPAILITQBG;XARGIVYWQPXRTC;ZBAXJUPCYVIBSP;QPJVMBTYPHYUOC;GGWBGCSGJCRVIQ;NYFHUVYMLLAQHH;HIVFIUIKABOGIO;SOUITUXPBGREAE;KGBMCONWCCBLAE;IRXJZDLOCNJAHE;OTBOAOSTJYUVHP;DTGDZMYNKLTSKC;HVYWMOMLDIMFJA;SGNBVLSWZMBQTH;KZJWDPNRJALLNS
SubstructureOntologies: CHEMONTID:0002500;NonID:H2O;CHEMONTID:0004476;CHEMONTID:0001831;CHEMONTID:0000286;CHEMONTID:0002230;CHEMONTID:0001167;CHEMONTID:0004622;CHEMONTID:0004620;CHEMONTID:0001205;CHEMONTID:0001238;CHEMONTID:0001661;CHEMONTID:0001016;CHEMONTID:0003416;CHEMONTID:0002279;CHEMONTID:0001091;CHEMONTID:0002647;CHEMONTID:0001334;CHEMONTID:0000321;CHEMONTID:0000033;CHEMONTID:0002565;CHEMONTID:0001350;CHEMONTID:0004149;CHEMONTID:0001401;NonID:Cholesteryl ester-lipid body;CHEMONTID:0001469;CHEMONTID:0001403;CHEMONTID:0002031
Ontology: Stigmastanes and derivatives
OntologyID: CHEMONTID:0002031
RETENTIONTIME: -1
RETENTIONINDEX: -1
TotalBondEnergy: 38583
TotalScore: 5.877
TotalHrRulesScore: 0.6667
TotalBondCleavageScore: 0.3941
TotalMassAccuracyScore: 0.6016
TotalFragmentLinkageScore: 0.6667
TotalBondDissociationEnergyScore: 0.5678
DatabaseScore: 0.5714
SubstructureAssignmentScore: 0
RtSimilarityScore: -1
RiSimilarityScore: 0
Num Fragment VS2 (M/Z Intensity MatchedExactMass SaturatedExactMass Formula RearrangedHydrogen PPM MassDiff_mDa IsEvenElectronRule IsHrRule IsSolventAdductFragment AssignedAdductMass AdductString BondDissociationEnergy TreeDepth SMILES TotalScore HrLikelihood BcLikelihood MaLikelihood FlLikelihood BeLikelihood): 2
301.321833	80739.530109	301.28898966635	302.29736328125	C22H38	-1	109	32.84	True	True	False	0		1038	2	C1=C(C)C(C)(CC)C2CCC3(C)(C(CCC3(C2(C1)))C(C)CC)	3.69168183114656	1	0.1822499781847	0.805947303771973	1	0.703484549189892
535.416916	297823.377454	535.414564052756	534.407287597656	C36H54O3	1	4.39	2.35	True	True	False	0		0	0	O=C(OCC(C)C(CC)CCC(C)C2CCC3C4CC=C1CC(O)CCC1(C)C4(CCC23(C)))C5=CC=CC=C5	4.99889427423477	1	1	0.998894274234772	1	1

NAME: Toxicol B
ID: VCNJMPOFIIFUFK
IsSpectrumSearch: False
INCHIKEY: VCNJMPOFIIFUFK-UHFFFAOYNA-N
SMILES: OC1=CC=C(O)C2=C1CC4C2(C)CCC3C(CCC34(C))C6(C)(CCC5OC7(C)(CCCC(C)(C)C7(CCC56(C))))
RESOURCES: KNApSAcK=C00040518,UNPD=UNPD27392;UNPD68647
SubstructureInChIKeys: VNWKTOKETHGBQD;XLYOFNOQVPJJNP;OTMSDBZUPAUEDD;ATUOYWHBWRKTHZ;LCGLNKUTAGEVQW;IJDNQMDRQITEOD;NNPPMTNAJDCUHE;BDERNNFJNOPAEC;XOBKSJJDNFUZPF;RGSFGYAAUTVSQA;OFBQJSOFQDEBGM;QWTDNUCVQCZILF;LRHPLDYGYMQRHN;VNKYTQGIUYNRMY;ZXEKIIBDNHEJCQ;UHOVQNZJYSORNB;GDOPTJXRTPNYNR;XDTMQSROBMDMFD;AFABGHUZZDYHJO;HNRMPXKDFBEGFZ;PFEOZHBOMNWTJB;VLKZOEOYAKHREP;AMQJEAYHLZJPGS;AQIXEPGDORPWBJ;FVNIMHIOIXPIQT;JYVLIDXNZAXMDK;MXLMTQWGSQIYOW;PHTQWCKDNZKARW;ISWSIDIOOBJBQZ;QWHNJUXXYKPLQM;UAEPNZWRGJTJPN;BZHMBWZPUJHVEE;IMNFDUFMRHMDMM;VLJXXKKOSFGPHI;ZSIAUFGUXNUGDI;YNQLUTRBYVCPMQ;IWDCLRJOBJJRNH;GHMLBKRAJCXXBS;KVZJLSYJROEPSQ;KWKAKUADMBZCLK;LETYIFNDQBJGPJ;QEGNUYASOUJEHD;SGVUHPSBDNVHKL;JVSWJIKNEAIKJW;TVMXDCGIABBOFY;CETWDUZRCINIHU;OVOVDHYEOQJKMD;ODLMAHJVESYWTB;HMNKTRSOROOSPP;HXDOZKJGKXYMEW;OIPPWFOQEKKFEE;ZBCATMYQYDCTIZ;PYOLJOJPIPCRDP;XARGIVYWQPXRTC;MPWGZBWDLMDIHO;HFLGBNBLMBSXEM;VGMJYYDKPUPTID;GGWBGCSGJCRVIQ;BUOAKQCLRBVIOX;HIVFIUIKABOGIO;YLZKVXHQMPWDBJ;MQSXUKPGWMJYBT;VTXRDCQMLXABHJ;IRXJZDLOCNJAHE;OTBOAOSTJYUVHP;SLVFVSVYCYGPJP;HRMIBYZWBMSUHC
SubstructureOntologies: CHEMONTID:0002500;NonID:H2O;CHEMONTID:0001167;CHEMONTID:0004620;CHEMONTID:0000286;CHEMONTID:0001016;CHEMONTID:0002279;CHEMONTID:0001661;CHEMONTID:0004647;CHEMONTID:0001334;CHEMONTID:0001275;CHEMONTID:0000137;CHEMONTID:0004476;CHEMONTID:0002811;CHEMONTID:0004646;CHEMONTID:0000135;CHEMONTID:0004149;CHEMONTID:0001401
Ontology: Sesterterpenoids
OntologyID: CHEMONTID:0001552
RETENTIONTIME: -1
RETENTIONINDEX: -1
TotalBondEnergy: 38676
TotalScore: 5.4074
TotalHrRulesScore: 0.3333
TotalBondCleavageScore: 0.3333
TotalMassAccuracyScore: 0.333
TotalFragmentLinkageScore: 0.3333
TotalBondDissociationEnergyScore: 0.3333
DatabaseScore: 0.5476
SubstructureAssignmentScore: 0
RtSimilarityScore: -1
RiSimilarityScore: 0
Num Fragment VS2 (M/Z Intensity MatchedExactMass SaturatedExactMass Formula RearrangedHydrogen PPM MassDiff_mDa IsEvenElectronRule IsHrRule IsSolventAdductFragment AssignedAdductMass AdductString BondDissociationEnergy TreeDepth SMILES TotalScore HrLikelihood BcLikelihood MaLikelihood FlLikelihood BeLikelihood): 1
535.416916	297823.377454	535.414564052756	534.407287597656	C36H54O3	1	4.39	2.35	True	True	False	0		0	0	OC1=CC=C(O)C2=C1CC4C2(C)CCC3C(CCC34(C))C6(C)(CCC5OC7(C)(CCCC(C)(C)C7(CCC56(C))))	4.99889427423477	1	1	0.998894274234772	1	1

NAME: Oleoyl estrone
ID: IMIPDPVHGGHVNH
IsSpectrumSearch: False
INCHIKEY: IMIPDPVHGGHVNH-YWVHRCQQSA-N
SMILES: O=C(OC=1C=CC2=C(C=1)CCC3C2CCC4(C(=O)CCC34)(C))CCCCCCCC=CCCCCCCCC
RESOURCES: DrugBank=DB04870
SubstructureInChIKeys: VNWKTOKETHGBQD;VGGSQFUCUMXWEO;WSFSSNUMVMOOMR;OTMSDBZUPAUEDD;IKHGUXGNUITLKF;ATUOYWHBWRKTHZ;LCGLNKUTAGEVQW;IAQRGUVFOMOMEM;VXNZUUAINFGPBY;CSCPPACGZOOCGX;NBBJYMSMWIIQGU;IJDNQMDRQITEOD;NNPPMTNAJDCUHE;QTBSBXVTEAMEQO;TZIHFWKZFHZASV;BDERNNFJNOPAEC;XOBKSJJDNFUZPF;QMMOXUPEWRXHJS;RGSFGYAAUTVSQA;YWAKXRMUMFPDSH;ZTQSAGDEMFDKMZ;OFBQJSOFQDEBGM;QWTDNUCVQCZILF;KXKVLQRXCPHEJC;XBDQKXXYIPTUBI;LRHPLDYGYMQRHN;VNKYTQGIUYNRMY;UHOVQNZJYSORNB;GDOPTJXRTPNYNR;LIKMAJRDDDTEIG;RYPKRALMXUUNKS;XDTMQSROBMDMFD;ZQDPJFUHLCOCRG;HGBOYTHUEUWSSQ;AFABGHUZZDYHJO;HNRMPXKDFBEGFZ;PFEOZHBOMNWTJB;VLKZOEOYAKHREP;FERIUCNNQQJTOY;AMQJEAYHLZJPGS;ISWSIDIOOBJBQZ;QWHNJUXXYKPLQM;WZHKDGJSXCTSCK;ZGEGCLOFRBLKSE;JARKCYVAAOWBJS;BZHMBWZPUJHVEE;IMNFDUFMRHMDMM;VLJXXKKOSFGPHI;NQPDZGIKBAWPEJ;ZSIAUFGUXNUGDI;YNQLUTRBYVCPMQ;IWDCLRJOBJJRNH;RDOXTESZEPMUJZ;KVZJLSYJROEPSQ;KWKAKUADMBZCLK;LETYIFNDQBJGPJ;QEGNUYASOUJEHD;CATSNJVOTSVZJV;FXHGMKSSBGDXIY;JVSWJIKNEAIKJW;TVMXDCGIABBOFY;FUZZWVXGSFPDMH;ODLMAHJVESYWTB;CHLICZRVGGXEOD;DLRJIFUOBPOJNS;HMNKTRSOROOSPP;HXDOZKJGKXYMEW;IICQZTQZQSBHBY;KPADFPAILITQBG;NUJGJRNETVAIRJ;VWLITJGXNSANSN;MNWFXJYAOYHMED;DWLZULQNIPIABE;HDNRAPAFJLXKBV;MPWGZBWDLMDIHO;NOTCZLKDULMKBR;GGWBGCSGJCRVIQ;HIVFIUIKABOGIO;GYHFUZHODSMOHU;WWZKQHOCKIZLMA;MQSXUKPGWMJYBT;KGBMCONWCCBLAE;FBUKVWPVBMHYJY;IRXJZDLOCNJAHE;VNGRIQMEDUZTCJ;ANJAOCICJSRZSR;KIWIPIAOWPKUNM;CZECIKXGUYQZJL;ILDMCKZJSLWXTH;YWWVWXASSLXJHU;HRMIBYZWBMSUHC;QFPVVMKZTVQDTL;DJCQJZKZUCHHAL;HJEWKIMQTQIIIN;SECPZKHBENQXJG;ZENZJGDPWWLORF;QSBYPNXLFMSGKH;ZQPPMHVWECSIRJ
SubstructureOntologies: CHEMONTID:0002500;CHEMONTID:0004476;CHEMONTID:0001831;CHEMONTID:0002230;CHEMONTID:0001167;CHEMONTID:0000118;CHEMONTID:0002434;CHEMONTID:0004620;CHEMONTID:0001205;CHEMONTID:0001238;CHEMONTID:0000286;CHEMONTID:0001016;CHEMONTID:0003416;CHEMONTID:0002279;CHEMONTID:0000333;CHEMONTID:0004647;CHEMONTID:0002229;CHEMONTID:0001334;CHEMONTID:0001275;CHEMONTID:0000138;CHEMONTID:0003086;CHEMONTID:0002811;CHEMONTID:0002341;CHEMONTID:0004646;CHEMONTID:0000190;CHEMONTID:0004149;CHEMONTID:0000298;CHEMONTID:0002949
Ontology: Steroid esters
OntologyID: CHEMONTID:0001691
RETENTIONTIME: -1
RETENTIONINDEX: -1
TotalBondEnergy: 38580
TotalScore: 5.3479
TotalHrRulesScore: 0.3333
TotalBondCleavageScore: 0.3333
TotalMassAccuracyScore: 0.333
TotalFragmentLinkageScore: 0.3333
TotalBondDissociationEnergyScore: 0.3333
DatabaseScore: 0.5238
SubstructureAssignmentScore: 0
RtSimilarityScore: -1
RiSimilarityScore: 0
Num Fragment VS2 (M/Z Intensity MatchedExactMass SaturatedExactMass Formula RearrangedHydrogen PPM MassDiff_mDa IsEvenElectronRule IsHrRule IsSolventAdductFragment AssignedAdductMass AdductString BondDissociationEnergy TreeDepth SMILES TotalScore HrLikelihood BcLikelihood MaLikelihood FlLikelihood BeLikelihood): 1
535.416916	297823.377454	535.414564052756	534.407287597656	C36H54O3	1	4.39	2.35	True	True	False	0		0	0	O=C(OC=1C=CC2=C(C=1)CCC3C2CCC4(C(=O)CCC34)(C))CCCCCCCC=CCCCCCCCC	4.99889427423477	1	1	0.998894274234772	1	1

NAME: UNPD194511
ID: VQYDFTBIHSSFEQ
IsSpectrumSearch: False
INCHIKEY: VQYDFTBIHSSFEQ-YLGIOTCDNA-N
SMILES: O=C2C=C1OC(C)(C)CC(CC=C(C)CCC=C(C)C)C13(C(=O)C2(CC=C(C)C)C(C)(CCC=C(C)C)CC3)
RESOURCES: UNPD=UNPD194511;UNPD226695
SubstructureInChIKeys: VNWKTOKETHGBQD;VGGSQFUCUMXWEO;WSFSSNUMVMOOMR;OTMSDBZUPAUEDD;QQONPFPTGQHPMA;IKHGUXGNUITLKF;IMROMDMJAWUWLK;ATUOYWHBWRKTHZ;LCGLNKUTAGEVQW;HGINCPLSRVDWNT;IAQRGUVFOMOMEM;VQTUBCCKSQIDNK;VXNZUUAINFGPBY;CSCPPACGZOOCGX;NBBJYMSMWIIQGU;XJRBAMWJDBPFIM;IJDNQMDRQITEOD;NNPPMTNAJDCUHE;BDERNNFJNOPAEC;XOBKSJJDNFUZPF;MLUCVPSAIODCQM;BKOOMYPCSUNDGP;QMMOXUPEWRXHJS;YWAKXRMUMFPDSH;GMSHJLUJOABYOM;ZTQSAGDEMFDKMZ;OFBQJSOFQDEBGM;QWTDNUCVQCZILF;AKXKFZDCRYJKTF;LRHPLDYGYMQRHN;VNKYTQGIUYNRMY;ZXEKIIBDNHEJCQ;BEQGRRJLJLVQAQ;LDTAOIUHUHHCMU;LIKMAJRDDDTEIG;RYPKRALMXUUNKS;XDTMQSROBMDMFD;ZQDPJFUHLCOCRG;XJQSLJZYZFSHAI;HGBOYTHUEUWSSQ;AFABGHUZZDYHJO;HNRMPXKDFBEGFZ;PFEOZHBOMNWTJB;VLKZOEOYAKHREP;AMQJEAYHLZJPGS;FVNIMHIOIXPIQT;JYVLIDXNZAXMDK;PHTQWCKDNZKARW;FWFSEYBSWVRWGL;USLRUYZDOLMIRJ;UAEPNZWRGJTJPN;WZHKDGJSXCTSCK;ZGEGCLOFRBLKSE;JARKCYVAAOWBJS;BZHMBWZPUJHVEE;IMNFDUFMRHMDMM;VLJXXKKOSFGPHI;ZSIAUFGUXNUGDI;UDOAKURRCZMWOJ;KVZJLSYJROEPSQ;KWKAKUADMBZCLK;QEGNUYASOUJEHD;SGVUHPSBDNVHKL;CATSNJVOTSVZJV;FXHGMKSSBGDXIY;JVSWJIKNEAIKJW;TVMXDCGIABBOFY;CETWDUZRCINIHU;OVOVDHYEOQJKMD;NDFYWJZFESRLBQ;ZUSUVEKHEZURSD;IICQZTQZQSBHBY;KPADFPAILITQBG;PYOLJOJPIPCRDP;XARGIVYWQPXRTC;NUJGJRNETVAIRJ;VWLITJGXNSANSN;KABCBIJVOXYNHG;RXFZCBZCGBDPDT;BUOAKQCLRBVIOX;HIVFIUIKABOGIO;YLZKVXHQMPWDBJ;YFBDMUJOFKYAGE;FOCKPZOFYCTNIA;GCLZXEJWFDSXJZ;VTXRDCQMLXABHJ;IRXJZDLOCNJAHE;NUQYJMDNHVQOME;OTBOAOSTJYUVHP
SubstructureOntologies: CHEMONTID:0002500;CHEMONTID:0004476;CHEMONTID:0001831;CHEMONTID:0002230;CHEMONTID:0000132;CHEMONTID:0001167;CHEMONTID:0002436;CHEMONTID:0004622;CHEMONTID:0000118;CHEMONTID:0002434;CHEMONTID:0000323;CHEMONTID:0004620;CHEMONTID:0000286;CHEMONTID:0001016;CHEMONTID:0001661;CHEMONTID:0004325;CHEMONTID:0002229;CHEMONTID:0001334;CHEMONTID:0004149;NonID:Cholesteryl ester-lipid fragment;CHEMONTID:0001401
Ontology: Sesterterpenoids
OntologyID: CHEMONTID:0001552
RETENTIONTIME: -1
RETENTIONINDEX: -1
TotalBondEnergy: 38490
TotalScore: 4.5979
TotalHrRulesScore: 0.3333
TotalBondCleavageScore: 0.3333
TotalMassAccuracyScore: 0.333
TotalFragmentLinkageScore: 0.3333
TotalBondDissociationEnergyScore: 0.3333
DatabaseScore: 0.2238
SubstructureAssignmentScore: 0
RtSimilarityScore: -1
RiSimilarityScore: 0
Num Fragment VS2 (M/Z Intensity MatchedExactMass SaturatedExactMass Formula RearrangedHydrogen PPM MassDiff_mDa IsEvenElectronRule IsHrRule IsSolventAdductFragment AssignedAdductMass AdductString BondDissociationEnergy TreeDepth SMILES TotalScore HrLikelihood BcLikelihood MaLikelihood FlLikelihood BeLikelihood): 1
535.416916	297823.377454	535.414564052756	534.407287597656	C36H54O3	1	4.39	2.35	True	True	False	0		0	0	O=C2C=C1OC(C)(C)CC(CC=C(C)CCC=C(C)C)C13(C(=O)C2(CC=C(C)C)C(C)(CCC=C(C)C)CC3)	4.99889427423477	1	1	0.998894274234772	1	1

