NAME: dodecyl hydrogen sulfate
ID: MOTZDAYCYVMXPC
IsSpectrumSearch: False
INCHIKEY: MOTZDAYCYVMXPC-UHFFFAOYSA-N
SMILES: O=S(=O)(O)OCCCCCCCCCCCC
RESOURCES: ChEBI=CHEBI:45599;CHEBI:23872,DrugBank=DB03967,STOFF=STOFF_5573
SubstructureInChIKeys: VNWKTOKETHGBQD;XLYOFNOQVPJJNP;OTMSDBZUPAUEDD;ATUOYWHBWRKTHZ;IJDNQMDRQITEOD;BDERNNFJNOPAEC;RAHZWNYVWXNFOC;OFBQJSOFQDEBGM;LRHPLDYGYMQRHN;BDHFUVZGWQCTTF;VLKZOEOYAKHREP;AMQJEAYHLZJPGS;QAOWNCQODCNURD;IMNFDUFMRHMDMM;ZSIAUFGUXNUGDI;TVMXDCGIABBOFY
SubstructureOntologies: CHEMONTID:0002500;NonID:H2O;CHEMONTID:0000286;NonID:SO2;NonID:SO3;NonID:SO4;CHEMONTID:0001334
Ontology: Sulfuric acid monoesters
OntologyID: CHEMONTID:0001185
RETENTIONTIME: -1
RETENTIONINDEX: -1
TotalBondEnergy: 16654
TotalScore: 6.7122
TotalHrRulesScore: 1
TotalBondCleavageScore: 1
TotalMassAccuracyScore: 0.9999
TotalFragmentLinkageScore: 1
TotalBondDissociationEnergyScore: 1
DatabaseScore: 0.5714
SubstructureAssignmentScore: 0
RtSimilarityScore: -1
RiSimilarityScore: 0
Num Fragment VS2 (M/Z Intensity MatchedExactMass SaturatedExactMass Formula RearrangedHydrogen PPM MassDiff_mDa IsEvenElectronRule IsHrRule IsSolventAdductFragment AssignedAdductMass AdductString BondDissociationEnergy TreeDepth SMILES TotalScore HrLikelihood BcLikelihood MaLikelihood FlLikelihood BeLikelihood): 1
267.163011	52961.756905	267.162458339866	266.155181884766	C12H26O4S	1	2.07	0.55	True	True	False	0		0	0	O=S(=O)(O)OCCCCCCCCCCCC	4.99993890523911	1	1	0.999938905239105	1	1

NAME: Ammonium lauryl sulfate
ID: BTBJBAZGXNKLQC
IsSpectrumSearch: False
INCHIKEY: BTBJBAZGXNKLQC-UHFFFAOYSA-N
SMILES: O=S(=O)(O)OCCCCCCCCCCCC
RESOURCES: T3DB=T3D3620
SubstructureInChIKeys: VNWKTOKETHGBQD;XLYOFNOQVPJJNP;OTMSDBZUPAUEDD;ATUOYWHBWRKTHZ;IJDNQMDRQITEOD;BDERNNFJNOPAEC;RAHZWNYVWXNFOC;OFBQJSOFQDEBGM;LRHPLDYGYMQRHN;BDHFUVZGWQCTTF;VLKZOEOYAKHREP;AMQJEAYHLZJPGS;QAOWNCQODCNURD;IMNFDUFMRHMDMM;ZSIAUFGUXNUGDI;TVMXDCGIABBOFY
SubstructureOntologies: CHEMONTID:0002500;NonID:H2O;CHEMONTID:0000286;NonID:SO2;NonID:SO3;NonID:SO4;CHEMONTID:0001334
Ontology: Sulfuric acid monoesters
OntologyID: CHEMONTID:0001185
RETENTIONTIME: -1
RETENTIONINDEX: -1
TotalBondEnergy: 16654
TotalScore: 6.5932
TotalHrRulesScore: 1
TotalBondCleavageScore: 1
TotalMassAccuracyScore: 0.9999
TotalFragmentLinkageScore: 1
TotalBondDissociationEnergyScore: 1
DatabaseScore: 0.5238
SubstructureAssignmentScore: 0
RtSimilarityScore: -1
RiSimilarityScore: 0
Num Fragment VS2 (M/Z Intensity MatchedExactMass SaturatedExactMass Formula RearrangedHydrogen PPM MassDiff_mDa IsEvenElectronRule IsHrRule IsSolventAdductFragment AssignedAdductMass AdductString BondDissociationEnergy TreeDepth SMILES TotalScore HrLikelihood BcLikelihood MaLikelihood FlLikelihood BeLikelihood): 1
267.163011	52961.756905	267.162458339866	266.155181884766	C12H26O4S	1	2.07	0.55	True	True	False	0		0	0	O=S(=O)(O)OCCCCCCCCCCCC	4.99993890523911	1	1	0.999938905239105	1	1

NAME: 2-butyloctyl-sulfonic acid
ID: CYEJSYGBYQRTPJ
IsSpectrumSearch: False
INCHIKEY: CYEJSYGBYQRTPJ-UHFFFAOYNA-N
SMILES: O=S(=O)(O)OCC(CCCC)CCCCCC
RESOURCES: STOFF=STOFF_8138
SubstructureInChIKeys: VNWKTOKETHGBQD;XLYOFNOQVPJJNP;OTMSDBZUPAUEDD;ATUOYWHBWRKTHZ;IJDNQMDRQITEOD;NNPPMTNAJDCUHE;BDERNNFJNOPAEC;RAHZWNYVWXNFOC;OFBQJSOFQDEBGM;QWTDNUCVQCZILF;LRHPLDYGYMQRHN;ZXEKIIBDNHEJCQ;BDHFUVZGWQCTTF;AFABGHUZZDYHJO;PFEOZHBOMNWTJB;VLKZOEOYAKHREP;AMQJEAYHLZJPGS;QAOWNCQODCNURD;IMNFDUFMRHMDMM;VLJXXKKOSFGPHI;ZSIAUFGUXNUGDI;JVSWJIKNEAIKJW;TVMXDCGIABBOFY
SubstructureOntologies: CHEMONTID:0002500;NonID:H2O;CHEMONTID:0004620;CHEMONTID:0000286;NonID:SO2;NonID:SO3;NonID:SO4;CHEMONTID:0001334
Ontology: Sulfuric acid monoesters
OntologyID: CHEMONTID:0001185
RETENTIONTIME: -1
RETENTIONINDEX: -1
TotalBondEnergy: 16654
TotalScore: 6.5932
TotalHrRulesScore: 1
TotalBondCleavageScore: 1
TotalMassAccuracyScore: 0.9999
TotalFragmentLinkageScore: 1
TotalBondDissociationEnergyScore: 1
DatabaseScore: 0.5238
SubstructureAssignmentScore: 0
RtSimilarityScore: -1
RiSimilarityScore: 0
Num Fragment VS2 (M/Z Intensity MatchedExactMass SaturatedExactMass Formula RearrangedHydrogen PPM MassDiff_mDa IsEvenElectronRule IsHrRule IsSolventAdductFragment AssignedAdductMass AdductString BondDissociationEnergy TreeDepth SMILES TotalScore HrLikelihood BcLikelihood MaLikelihood FlLikelihood BeLikelihood): 1
267.163011	52961.756905	267.162458339866	266.155181884766	C12H26O4S	1	2.07	0.55	True	True	False	0		0	0	O=S(=O)(O)OCC(CCCC)CCCCCC	4.99993890523911	1	1	0.999938905239105	1	1

NAME: UNPD75166
ID: KQQLXTPDBGDRPL
IsSpectrumSearch: False
INCHIKEY: KQQLXTPDBGDRPL-SEWXWNKDNA-N
SMILES: O=S(=O)(O)OCC(C)CC(C)CC(C)CCC
RESOURCES: UNPD=UNPD75166
SubstructureInChIKeys: VNWKTOKETHGBQD;XLYOFNOQVPJJNP;OTMSDBZUPAUEDD;ATUOYWHBWRKTHZ;IJDNQMDRQITEOD;NNPPMTNAJDCUHE;BDERNNFJNOPAEC;RAHZWNYVWXNFOC;OFBQJSOFQDEBGM;QWTDNUCVQCZILF;LRHPLDYGYMQRHN;ZXEKIIBDNHEJCQ;BDHFUVZGWQCTTF;AFABGHUZZDYHJO;PFEOZHBOMNWTJB;VLKZOEOYAKHREP;AMQJEAYHLZJPGS;QAOWNCQODCNURD;BZHMBWZPUJHVEE;IMNFDUFMRHMDMM;VLJXXKKOSFGPHI;ZSIAUFGUXNUGDI;JVSWJIKNEAIKJW;TVMXDCGIABBOFY;OVOVDHYEOQJKMD
SubstructureOntologies: CHEMONTID:0002500;NonID:H2O;CHEMONTID:0004620;CHEMONTID:0000286;NonID:SO2;NonID:SO3;NonID:SO4;CHEMONTID:0001334
Ontology: Sulfuric acid monoesters
OntologyID: CHEMONTID:0001185
RETENTIONTIME: -1
RETENTIONINDEX: -1
TotalBondEnergy: 16654
TotalScore: 5.8432
TotalHrRulesScore: 1
TotalBondCleavageScore: 1
TotalMassAccuracyScore: 0.9999
TotalFragmentLinkageScore: 1
TotalBondDissociationEnergyScore: 1
DatabaseScore: 0.2238
SubstructureAssignmentScore: 0
RtSimilarityScore: -1
RiSimilarityScore: 0
Num Fragment VS2 (M/Z Intensity MatchedExactMass SaturatedExactMass Formula RearrangedHydrogen PPM MassDiff_mDa IsEvenElectronRule IsHrRule IsSolventAdductFragment AssignedAdductMass AdductString BondDissociationEnergy TreeDepth SMILES TotalScore HrLikelihood BcLikelihood MaLikelihood FlLikelihood BeLikelihood): 1
267.163011	52961.756905	267.162458339866	266.155181884766	C12H26O4S	1	2.07	0.55	True	True	False	0		0	0	O=S(=O)(O)OCC(C)CC(C)CC(C)CCC	4.99993890523911	1	1	0.999938905239105	1	1

