NAME: Atenolol
ID: METKIMKYRPQLGS
IsSpectrumSearch: False
INCHIKEY: METKIMKYRPQLGS-UHFFFAOYSA-N
SMILES: O=C(N)CC1=CC=C(OCC(O)CNC(C)C)C=C1
RESOURCES: HMDB=HMDB0001924,ChEBI=CHEBI:2904;CHEBI:31556;CHEBI:55352,DrugBank=DB00335;DB06987,SMPDB=PW_C001283,T3DB=T3D3480,FooDB=FDB022742,STOFF=STOFF_505,Serum=HMDB0001924
SubstructureInChIKeys: VNWKTOKETHGBQD;QGZKDVFQNNGYKY;XLYOFNOQVPJJNP;WSFSSNUMVMOOMR;OKKJLVBELUTLKV;IKHGUXGNUITLKF;ATUOYWHBWRKTHZ;QUSNBJAOOMFDIB;ROSDSFDQCJNGOL;LCGLNKUTAGEVQW;LFQSCWFLJHTTHZ;NBBJYMSMWIIQGU;JJWLVOIRVHMVIS;LIWAQLJGPBVORC;WGYKZJWCGVVSQN;BDERNNFJNOPAEC;KFZMGEQAYNKOFK;XOBKSJJDNFUZPF;HZAXFHJVJLSVMW;LYCAIKOWRPUZTN;GVWISOJSERXQBM;HPNMFZURTQLUMO;XHFGWHUWQXTGAT;BEBCJVAWIBVWNZ;VNKYTQGIUYNRMY;HXKKHQJGJAFBHI;WUGQZFFCHPXWKQ;DNIAPMSPPWPWGF;XNWFRZJHXBZDAG;VIBDJEWPNNCFQO;UHOVQNZJYSORNB;YXFVVABEGXRONW;ISWSIDIOOBJBQZ;VLSTXUUYLIALPB;RILLZYSZSDGYGV;YNQLUTRBYVCPMQ;IWDCLRJOBJJRNH;RDOXTESZEPMUJZ;RNFDZDMIFOFNMC;BHHGXPLMPWCGHP;CHLICZRVGGXEOD;DLRJIFUOBPOJNS;HMNKTRSOROOSPP;HXDOZKJGKXYMEW;DWLZULQNIPIABE;HDNRAPAFJLXKBV;DZGWFCGJZKJUFP;NOTCZLKDULMKBR
SubstructureOntologies: CHEMONTID:0002500;NonID:NH2;NonID:H2O;CHEMONTID:0001831;CHEMONTID:0000286;CHEMONTID:0002230;CHEMONTID:0000469;CHEMONTID:0002228;CHEMONTID:0001167;CHEMONTID:0002434;CHEMONTID:0001661;CHEMONTID:0001897;CHEMONTID:0002467;CHEMONTID:0002484;CHEMONTID:0001852;CHEMONTID:0002286;CHEMONTID:0002279;CHEMONTID:0001091;CHEMONTID:0004647;CHEMONTID:0001275;CHEMONTID:0000138;CHEMONTID:0000186;CHEMONTID:0002341;CHEMONTID:0004646;CHEMONTID:0000190
Ontology: Phenylacetamides
OntologyID: CHEMONTID:0002363
RETENTIONTIME: -1
RETENTIONINDEX: -1
TotalBondEnergy: 16673
TotalScore: 7.0924
TotalHrRulesScore: 1
TotalBondCleavageScore: 1
TotalMassAccuracyScore: 0.9893
TotalFragmentLinkageScore: 1
TotalBondDissociationEnergyScore: 1
DatabaseScore: 0.6905
SubstructureAssignmentScore: 0
RtSimilarityScore: -1
RiSimilarityScore: 0
Num Fragment VS2 (M/Z Intensity MatchedExactMass SaturatedExactMass Formula RearrangedHydrogen PPM MassDiff_mDa IsEvenElectronRule IsHrRule IsSolventAdductFragment AssignedAdductMass AdductString BondDissociationEnergy TreeDepth SMILES TotalScore HrLikelihood BcLikelihood MaLikelihood FlLikelihood BeLikelihood): 1
267.163011	52961.756905	267.170331875022	266.163055419922	C14H22N2O3	1	27.4	7.32	True	True	False	0		0	0	O=C(N)CC1=CC=C(OCC(O)CNC(C)C)C=C1	4.9893382191658	1	1	0.989338219165802	1	1

NAME: Practolol
ID: DURULFYMVIFBIR
IsSpectrumSearch: False
INCHIKEY: DURULFYMVIFBIR-UHFFFAOYNA-N
SMILES: O=C(NC1=CC=C(OCC(O)CNC(C)C)C=C1)C
RESOURCES: HMDB=HMDB0015411,ChEBI=CHEBI:258351,DrugBank=DB01297,SMPDB=PW_C009686,STOFF=STOFF_1269,Urine=HMDB0015411,Serum=HMDB0015411
SubstructureInChIKeys: VNWKTOKETHGBQD;XLYOFNOQVPJJNP;WSFSSNUMVMOOMR;OKKJLVBELUTLKV;IKHGUXGNUITLKF;ATUOYWHBWRKTHZ;ROSDSFDQCJNGOL;LCGLNKUTAGEVQW;LFQSCWFLJHTTHZ;ATHHXGZTWNVVOU;JJWLVOIRVHMVIS;LIWAQLJGPBVORC;BDERNNFJNOPAEC;KFZMGEQAYNKOFK;XOBKSJJDNFUZPF;HZAXFHJVJLSVMW;LYCAIKOWRPUZTN;GVWISOJSERXQBM;HPNMFZURTQLUMO;XHFGWHUWQXTGAT;BEBCJVAWIBVWNZ;VNKYTQGIUYNRMY;HXKKHQJGJAFBHI;WUGQZFFCHPXWKQ;DNIAPMSPPWPWGF;XNWFRZJHXBZDAG;VIBDJEWPNNCFQO;UHOVQNZJYSORNB;PAYRUJLWNCNPSJ;ISWSIDIOOBJBQZ;VLSTXUUYLIALPB;RILLZYSZSDGYGV;AFBPFSWMIHJQDM;RDOXTESZEPMUJZ;RNFDZDMIFOFNMC;DYDNPESBYVVLBO;DLRJIFUOBPOJNS;FZERHIULMFGESH
SubstructureOntologies: CHEMONTID:0002500;NonID:H2O;CHEMONTID:0001831;CHEMONTID:0000286;CHEMONTID:0002230;CHEMONTID:0002228;CHEMONTID:0001167;CHEMONTID:0002484;CHEMONTID:0000469;CHEMONTID:0001661;CHEMONTID:0001897;CHEMONTID:0002467;CHEMONTID:0001852;CHEMONTID:0002286;CHEMONTID:0002279;CHEMONTID:0000284;CHEMONTID:0004647;CHEMONTID:0003924;CHEMONTID:0000138;CHEMONTID:0000285;CHEMONTID:0002341
Ontology: Acetanilides
OntologyID: CHEMONTID:0001846
RETENTIONTIME: -1
RETENTIONINDEX: -1
TotalBondEnergy: 16657
TotalScore: 7.0329
TotalHrRulesScore: 1
TotalBondCleavageScore: 1
TotalMassAccuracyScore: 0.9893
TotalFragmentLinkageScore: 1
TotalBondDissociationEnergyScore: 1
DatabaseScore: 0.6667
SubstructureAssignmentScore: 0
RtSimilarityScore: -1
RiSimilarityScore: 0
Num Fragment VS2 (M/Z Intensity MatchedExactMass SaturatedExactMass Formula RearrangedHydrogen PPM MassDiff_mDa IsEvenElectronRule IsHrRule IsSolventAdductFragment AssignedAdductMass AdductString BondDissociationEnergy TreeDepth SMILES TotalScore HrLikelihood BcLikelihood MaLikelihood FlLikelihood BeLikelihood): 1
267.163011	52961.756905	267.170331875022	266.163055419922	C14H22N2O3	1	27.4	7.32	True	True	False	0		0	0	O=C(NC1=CC=C(OCC(O)CNC(C)C)C=C1)C	4.9893382191658	1	1	0.989338219165802	1	1

NAME: 1-[(2,3,4-trimethoxyphenyl)methyl]piperazine
ID: UHWVSEOVJBQKBE
IsSpectrumSearch: False
INCHIKEY: UHWVSEOVJBQKBE-UHFFFAOYSA-N
SMILES: O(C=1C=CC(=C(OC)C=1(OC))CN2CCNCC2)C
RESOURCES: ChEBI=CHEBI:94789,STOFF=STOFF_8795
SubstructureInChIKeys: VNWKTOKETHGBQD;OTMSDBZUPAUEDD;ROSDSFDQCJNGOL;LCGLNKUTAGEVQW;GETQZCLCWQTVFV;LIWAQLJGPBVORC;DAZXVJBJRMWXJP;HPNMFZURTQLUMO;UHOVQNZJYSORNB;GNVRJGIVDSQCOP;YXFVVABEGXRONW;ISWSIDIOOBJBQZ;PVOAHINGSUIXLS;ZMANZCXQSJIPKH;IWDCLRJOBJJRNH;RDOXTESZEPMUJZ;GHMLBKRAJCXXBS;RIWRFSMVIUAEBX;CHLICZRVGGXEOD;LHGVFZTZFXWLCP;OIPPWFOQEKKFEE;ZBCATMYQYDCTIZ;QCDYQQDYXPDABM;ABDKAPXRBAPSQN;DPZNOMCNRMUKPS;NOTCZLKDULMKBR;PETRWTHZSKVLRE;BPHYZRNTQNPLFI;HDVRLUFGYQYLFJ;GYPMBQZAVBFUIZ;RIZBLVRXRWHLFA;FALWUVSXNUUXQA;XQDNFAMOIPNVES;AGIQIOSHSMJYJP;CRUILBNAQILVHZ;KCIZTNZGSBSSRM;NWYBPFPJJYBYSR
SubstructureOntologies: CHEMONTID:0002500;CHEMONTID:0002228;CHEMONTID:0001167;CHEMONTID:0002239;CHEMONTID:0002279;CHEMONTID:0001091;CHEMONTID:0004647;CHEMONTID:0003358;CHEMONTID:0001275;CHEMONTID:0000138;CHEMONTID:0000137;CHEMONTID:0000185;CHEMONTID:0000190;CHEMONTID:0000135;CHEMONTID:0000382;CHEMONTID:0004111
Ontology: Phenylmethylamines
OntologyID: CHEMONTID:0000185
RETENTIONTIME: -1
RETENTIONINDEX: -1
TotalBondEnergy: 16572
TotalScore: 6.7353
TotalHrRulesScore: 1
TotalBondCleavageScore: 1
TotalMassAccuracyScore: 0.9893
TotalFragmentLinkageScore: 1
TotalBondDissociationEnergyScore: 1
DatabaseScore: 0.5476
SubstructureAssignmentScore: 0
RtSimilarityScore: -1
RiSimilarityScore: 0
Num Fragment VS2 (M/Z Intensity MatchedExactMass SaturatedExactMass Formula RearrangedHydrogen PPM MassDiff_mDa IsEvenElectronRule IsHrRule IsSolventAdductFragment AssignedAdductMass AdductString BondDissociationEnergy TreeDepth SMILES TotalScore HrLikelihood BcLikelihood MaLikelihood FlLikelihood BeLikelihood): 1
267.163011	52961.756905	267.170331875022	266.163055419922	C14H22N2O3	1	27.4	7.32	True	True	False	0		0	0	O(C=1C=CC(=C(OC)C=1(OC))CN2CCNCC2)C	4.9893382191658	1	1	0.989338219165802	1	1

NAME: N-(4-aminobutyl)-3-(4-hydroxy-3-methoxyphenyl)propanimidic acid
ID: DDSIZVYRTNDIJL
IsSpectrumSearch: False
INCHIKEY: DDSIZVYRTNDIJL-UHFFFAOYSA-N
SMILES: OC(=NCCCCN)CCC=1C=CC(O)=C(OC)C=1
RESOURCES: HMDB=HMDB0139570
SubstructureInChIKeys: VNWKTOKETHGBQD;QGZKDVFQNNGYKY;XLYOFNOQVPJJNP;WDWDWGRYHDPSDS;OTMSDBZUPAUEDD;BAVYZALUXZFZLV;ATUOYWHBWRKTHZ;ZHNUHDYFZUAESO;QUSNBJAOOMFDIB;LCGLNKUTAGEVQW;LFQSCWFLJHTTHZ;IJDNQMDRQITEOD;DLFVBJFMPXGRIB;WGYKZJWCGVVSQN;BDERNNFJNOPAEC;QLNJFJADRCOGBJ;HQABUPZFAYXKJW;LRHPLDYGYMQRHN;UHOVQNZJYSORNB;DNSISZSEWVHGLH;YXFVVABEGXRONW;ISWSIDIOOBJBQZ;YNQLUTRBYVCPMQ;IWDCLRJOBJJRNH;RDOXTESZEPMUJZ;GHMLBKRAJCXXBS;ODLMAHJVESYWTB;CHLICZRVGGXEOD;HMNKTRSOROOSPP;HXDOZKJGKXYMEW;LHGVFZTZFXWLCP;OIPPWFOQEKKFEE;ZBCATMYQYDCTIZ;DWLZULQNIPIABE;HDNRAPAFJLXKBV;MPWGZBWDLMDIHO;HFLGBNBLMBSXEM;NOTCZLKDULMKBR;PETRWTHZSKVLRE;VGMJYYDKPUPTID;CAWZFQGJUGEKFU;MWOMNLDJNQWJMK
SubstructureOntologies: CHEMONTID:0002500;NonID:NH2;NonID:H2O;CHEMONTID:0000117;CHEMONTID:0000469;CHEMONTID:0002484;CHEMONTID:0001167;CHEMONTID:0000286;CHEMONTID:0001662;CHEMONTID:0002279;CHEMONTID:0000331;CHEMONTID:0001091;CHEMONTID:0004647;CHEMONTID:0001275;CHEMONTID:0000138;CHEMONTID:0000137;CHEMONTID:0002811;CHEMONTID:0004646;CHEMONTID:0000190;CHEMONTID:0000135
Ontology: Methoxyphenols
OntologyID: CHEMONTID:0000190
RETENTIONTIME: -1
RETENTIONINDEX: -1
TotalBondEnergy: 16665
TotalScore: 6.6757
TotalHrRulesScore: 1
TotalBondCleavageScore: 1
TotalMassAccuracyScore: 0.9893
TotalFragmentLinkageScore: 1
TotalBondDissociationEnergyScore: 1
DatabaseScore: 0.5238
SubstructureAssignmentScore: 0
RtSimilarityScore: -1
RiSimilarityScore: 0
Num Fragment VS2 (M/Z Intensity MatchedExactMass SaturatedExactMass Formula RearrangedHydrogen PPM MassDiff_mDa IsEvenElectronRule IsHrRule IsSolventAdductFragment AssignedAdductMass AdductString BondDissociationEnergy TreeDepth SMILES TotalScore HrLikelihood BcLikelihood MaLikelihood FlLikelihood BeLikelihood): 1
267.163011	52961.756905	267.170331875022	266.163055419922	C14H22N2O3	1	27.4	7.32	True	True	False	0		0	0	OC(=NCCCCN)CCC=1C=CC(O)=C(OC)C=1	4.9893382191658	1	1	0.989338219165802	1	1

NAME: 5-butyl-1-cyclohexylbarbituric acid
ID: DVEQCIBLXRSYPH
IsSpectrumSearch: False
INCHIKEY: DVEQCIBLXRSYPH-UHFFFAOYNA-N
SMILES: O=C1NC(=O)C(C(=O)N1C2CCCCC2)CCCC
RESOURCES: ChEBI=CHEBI:31314
SubstructureInChIKeys: VNWKTOKETHGBQD;WSFSSNUMVMOOMR;OTMSDBZUPAUEDD;IKHGUXGNUITLKF;ATUOYWHBWRKTHZ;ROSDSFDQCJNGOL;NBBJYMSMWIIQGU;IJDNQMDRQITEOD;NNPPMTNAJDCUHE;ATHHXGZTWNVVOU;GETQZCLCWQTVFV;JJWLVOIRVHMVIS;LIWAQLJGPBVORC;XOTDURGROKNGTI;ZTQSAGDEMFDKMZ;OFBQJSOFQDEBGM;QWTDNUCVQCZILF;DAZXVJBJRMWXJP;GVWISOJSERXQBM;HPNMFZURTQLUMO;HQABUPZFAYXKJW;KDSNLYIMUZNERS;XHFGWHUWQXTGAT;XDTMQSROBMDMFD;HGBOYTHUEUWSSQ;AFABGHUZZDYHJO;VLKZOEOYAKHREP;SUUDTPGCUKBECW;DPBLXKKOBLCELK;GNVRJGIVDSQCOP;QCOGKXLOEWLIDC;VJROPLWGFCORRM;ZUHZZVMEUAUWHY;JARKCYVAAOWBJS;PVOAHINGSUIXLS;DJEQZVQFEPKLOY;SMBYUOXUISCLCF;VLSTXUUYLIALPB
SubstructureOntologies: CHEMONTID:0002500;CHEMONTID:0001831;CHEMONTID:0002230;CHEMONTID:0002228;CHEMONTID:0002434;CHEMONTID:0004620;CHEMONTID:0002484;CHEMONTID:0002239;CHEMONTID:0000469;CHEMONTID:0000497;CHEMONTID:0001016;CHEMONTID:0001663;CHEMONTID:0002229;CHEMONTID:0003358
Ontology: Pyrimidones
OntologyID: CHEMONTID:0000291
RETENTIONTIME: -1
RETENTIONINDEX: -1
TotalBondEnergy: 16941
TotalScore: 6.6757
TotalHrRulesScore: 1
TotalBondCleavageScore: 1
TotalMassAccuracyScore: 0.9893
TotalFragmentLinkageScore: 1
TotalBondDissociationEnergyScore: 1
DatabaseScore: 0.5238
SubstructureAssignmentScore: 0
RtSimilarityScore: -1
RiSimilarityScore: 0
Num Fragment VS2 (M/Z Intensity MatchedExactMass SaturatedExactMass Formula RearrangedHydrogen PPM MassDiff_mDa IsEvenElectronRule IsHrRule IsSolventAdductFragment AssignedAdductMass AdductString BondDissociationEnergy TreeDepth SMILES TotalScore HrLikelihood BcLikelihood MaLikelihood FlLikelihood BeLikelihood): 1
267.163011	52961.756905	267.170331875022	266.163055419922	C14H22N2O3	1	27.4	7.32	True	True	False	0		0	0	O=C1NC(=O)C(C(=O)N1C2CCCCC2)CCCC	4.9893382191658	1	1	0.989338219165802	1	1

NAME: (2R,3R,4S,5R)-2-({[(1R)-2-hydroxy-1-phenylethyl]amino}methyl)-5-methylpyrrolidine-3,4-diol
ID: KHLOMLBNZUMIHX
IsSpectrumSearch: False
INCHIKEY: KHLOMLBNZUMIHX-GXESMDLGNA-N
SMILES: OCC(NCC1NC(C)C(O)C1(O))C2=CC=CC=C2
RESOURCES: ChEBI=CHEBI:42683
SubstructureInChIKeys: VNWKTOKETHGBQD;XLYOFNOQVPJJNP;OKKJLVBELUTLKV;ATUOYWHBWRKTHZ;ROSDSFDQCJNGOL;LFQSCWFLJHTTHZ;IJDNQMDRQITEOD;JJWLVOIRVHMVIS;LIWAQLJGPBVORC;BDERNNFJNOPAEC;KFZMGEQAYNKOFK;HZAXFHJVJLSVMW;LYCAIKOWRPUZTN;RWRDLPDLKQPQOW;OFBQJSOFQDEBGM;GVWISOJSERXQBM;HPNMFZURTQLUMO;HQABUPZFAYXKJW;XHFGWHUWQXTGAT;BEBCJVAWIBVWNZ;BTANRVKWQNVYAZ;LRHPLDYGYMQRHN;HXKKHQJGJAFBHI;WUGQZFFCHPXWKQ;DNIAPMSPPWPWGF;VIBDJEWPNNCFQO;UHOVQNZJYSORNB;VLKZOEOYAKHREP;DPBLXKKOBLCELK;QCOGKXLOEWLIDC;AQIXEPGDORPWBJ;JYVLIDXNZAXMDK;BMRWNKZVCUKKSR;YXFVVABEGXRONW;VLSTXUUYLIALPB;VHRGRCVQAFMJIZ;RILLZYSZSDGYGV;XLMFDCKSFJWJTP;YNQLUTRBYVCPMQ;RNFDZDMIFOFNMC;RIWRFSMVIUAEBX;WRMNZCZEMHIOCP
SubstructureOntologies: CHEMONTID:0002500;NonID:H2O;CHEMONTID:0000286;CHEMONTID:0002228;CHEMONTID:0000469;CHEMONTID:0001661;CHEMONTID:0001897;CHEMONTID:0002467;CHEMONTID:0000218;CHEMONTID:0002484;CHEMONTID:0001852;CHEMONTID:0002286;CHEMONTID:0002279;CHEMONTID:0001091;CHEMONTID:0000185
Ontology: Aralkylamines
OntologyID: CHEMONTID:0003899
RETENTIONTIME: -1
RETENTIONINDEX: -1
TotalBondEnergy: 16696
TotalScore: 6.6757
TotalHrRulesScore: 1
TotalBondCleavageScore: 1
TotalMassAccuracyScore: 0.9893
TotalFragmentLinkageScore: 1
TotalBondDissociationEnergyScore: 1
DatabaseScore: 0.5238
SubstructureAssignmentScore: 0
RtSimilarityScore: -1
RiSimilarityScore: 0
Num Fragment VS2 (M/Z Intensity MatchedExactMass SaturatedExactMass Formula RearrangedHydrogen PPM MassDiff_mDa IsEvenElectronRule IsHrRule IsSolventAdductFragment AssignedAdductMass AdductString BondDissociationEnergy TreeDepth SMILES TotalScore HrLikelihood BcLikelihood MaLikelihood FlLikelihood BeLikelihood): 1
267.163011	52961.756905	267.170331875022	266.163055419922	C14H22N2O3	1	27.4	7.32	True	True	False	0		0	0	OCC(NCC1NC(C)C(O)C1(O))C2=CC=CC=C2	4.9893382191658	1	1	0.989338219165802	1	1

NAME: Trimetazidine hydrochloride
ID: VYFLPFGUVGMBEP
IsSpectrumSearch: False
INCHIKEY: VYFLPFGUVGMBEP-UHFFFAOYSA-N
SMILES: O(C1=CC=C(C(OC)=C1(OC))CN2CCNCC2)C
RESOURCES: ChEBI=CHEBI:32262
SubstructureInChIKeys: VNWKTOKETHGBQD;OTMSDBZUPAUEDD;ROSDSFDQCJNGOL;LCGLNKUTAGEVQW;GETQZCLCWQTVFV;LIWAQLJGPBVORC;DAZXVJBJRMWXJP;HPNMFZURTQLUMO;UHOVQNZJYSORNB;GNVRJGIVDSQCOP;YXFVVABEGXRONW;ISWSIDIOOBJBQZ;PVOAHINGSUIXLS;ZMANZCXQSJIPKH;IWDCLRJOBJJRNH;RDOXTESZEPMUJZ;GHMLBKRAJCXXBS;RIWRFSMVIUAEBX;CHLICZRVGGXEOD;LHGVFZTZFXWLCP;OIPPWFOQEKKFEE;ZBCATMYQYDCTIZ;QCDYQQDYXPDABM;ABDKAPXRBAPSQN;DPZNOMCNRMUKPS;NOTCZLKDULMKBR;PETRWTHZSKVLRE;BPHYZRNTQNPLFI;HDVRLUFGYQYLFJ;GYPMBQZAVBFUIZ;RIZBLVRXRWHLFA;FALWUVSXNUUXQA;XQDNFAMOIPNVES;AGIQIOSHSMJYJP;CRUILBNAQILVHZ;KCIZTNZGSBSSRM;NWYBPFPJJYBYSR
SubstructureOntologies: CHEMONTID:0002500;CHEMONTID:0002228;CHEMONTID:0001167;CHEMONTID:0002239;CHEMONTID:0002279;CHEMONTID:0001091;CHEMONTID:0004647;CHEMONTID:0003358;CHEMONTID:0001275;CHEMONTID:0000138;CHEMONTID:0000137;CHEMONTID:0000185;CHEMONTID:0000190;CHEMONTID:0000135;CHEMONTID:0000382;CHEMONTID:0004111
Ontology: Phenylmethylamines
OntologyID: CHEMONTID:0000185
RETENTIONTIME: -1
RETENTIONINDEX: -1
TotalBondEnergy: 16572
TotalScore: 6.6757
TotalHrRulesScore: 1
TotalBondCleavageScore: 1
TotalMassAccuracyScore: 0.9893
TotalFragmentLinkageScore: 1
TotalBondDissociationEnergyScore: 1
DatabaseScore: 0.5238
SubstructureAssignmentScore: 0
RtSimilarityScore: -1
RiSimilarityScore: 0
Num Fragment VS2 (M/Z Intensity MatchedExactMass SaturatedExactMass Formula RearrangedHydrogen PPM MassDiff_mDa IsEvenElectronRule IsHrRule IsSolventAdductFragment AssignedAdductMass AdductString BondDissociationEnergy TreeDepth SMILES TotalScore HrLikelihood BcLikelihood MaLikelihood FlLikelihood BeLikelihood): 1
267.163011	52961.756905	267.170331875022	266.163055419922	C14H22N2O3	1	27.4	7.32	True	True	False	0		0	0	O(C1=CC=C(C(OC)=C1(OC))CN2CCNCC2)C	4.9893382191658	1	1	0.989338219165802	1	1

