NAME: Octadecene-1,9,18-triol;(12Z)-Octadecene-1,9,18-triol
ID: HDMPRVPFPXXMCE
IsSpectrumSearch: False
INCHIKEY: HDMPRVPFPXXMCE-KXFIGUGUNA-N
SMILES: OCCCCCC=CCCC(O)CCCCCCCCO
RESOURCES: KNApSAcK=C00007438
SubstructureInChIKeys: XLYOFNOQVPJJNP;VGGSQFUCUMXWEO;OTMSDBZUPAUEDD;OKKJLVBELUTLKV;ATUOYWHBWRKTHZ;LFQSCWFLJHTTHZ;IAQRGUVFOMOMEM;VXNZUUAINFGPBY;IJDNQMDRQITEOD;BDERNNFJNOPAEC;KFZMGEQAYNKOFK;QMMOXUPEWRXHJS;YWAKXRMUMFPDSH;OFBQJSOFQDEBGM;BTANRVKWQNVYAZ;LRHPLDYGYMQRHN;LIKMAJRDDDTEIG;RYPKRALMXUUNKS;ZQDPJFUHLCOCRG;VLKZOEOYAKHREP;AMQJEAYHLZJPGS;AQIXEPGDORPWBJ;JYVLIDXNZAXMDK;WZHKDGJSXCTSCK;ZGEGCLOFRBLKSE;IMNFDUFMRHMDMM;ZSIAUFGUXNUGDI;KWKAKUADMBZCLK;TVMXDCGIABBOFY;CETWDUZRCINIHU;IICQZTQZQSBHBY;KPADFPAILITQBG;LZHHQGKEJNRBAZ
SubstructureOntologies: NonID:H2O;CHEMONTID:0004476;CHEMONTID:0002500;CHEMONTID:0000286;CHEMONTID:0001661;CHEMONTID:0001334
Ontology: Long-chain fatty alcohols
OntologyID: CHEMONTID:0002951
RETENTIONTIME: -1
RETENTIONINDEX: -1
TotalBondEnergy: 22152
TotalScore: 7.2854
TotalHrRulesScore: 1
TotalBondCleavageScore: 0.5228
TotalMassAccuracyScore: 0.9022
TotalFragmentLinkageScore: 1
TotalBondDissociationEnergyScore: 0.7255
DatabaseScore: 0.5238
SubstructureAssignmentScore: 0
RtSimilarityScore: -1
RiSimilarityScore: 0
Num Fragment VS2 (M/Z Intensity MatchedExactMass SaturatedExactMass Formula RearrangedHydrogen PPM MassDiff_mDa IsEvenElectronRule IsHrRule IsSolventAdductFragment AssignedAdductMass AdductString BondDissociationEnergy TreeDepth SMILES TotalScore HrLikelihood BcLikelihood MaLikelihood FlLikelihood BeLikelihood): 2
163.179398	86632.731587	163.148131420881	168.187805175781	C12H24	-5	191.61	31.27	True	True	False	0		1050	3	C=CCCCCCCCCCC	3.31890014527475	1	0.045562494546175	0.822407066822052	1	0.450930583906521
301.264193	103671.077513	301.273725429709	300.266448974609	C18H36O3	1	31.64	9.53	True	True	False	0		0	0	OCCCCCC=CCCC(O)CCCCCCCCO	4.98199069499969	1	1	0.981990694999695	1	1

NAME: xi-10-Hydroxyoctadecanoic acid
ID: PAZZVPKITDJCPV
IsSpectrumSearch: False
INCHIKEY: PAZZVPKITDJCPV-UHFFFAOYNA-N
SMILES: O=C(O)CCCCCCCCC(O)CCCCCCCC
RESOURCES: HMDB=HMDB0037396,ChEBI=CHEBI:15683;CHEBI:33197,FooDB=FDB016439,LipidMAPS=LMFA02000128;LMFA02000237,Feces=HMDB0037396,UNPD=UNPD182165
SubstructureInChIKeys: VNWKTOKETHGBQD;XLYOFNOQVPJJNP;WSFSSNUMVMOOMR;OTMSDBZUPAUEDD;OKKJLVBELUTLKV;IKHGUXGNUITLKF;ATUOYWHBWRKTHZ;BDAGIHXWWSANSR;LFQSCWFLJHTTHZ;NBBJYMSMWIIQGU;IJDNQMDRQITEOD;QTBSBXVTEAMEQO;BDERNNFJNOPAEC;KFZMGEQAYNKOFK;ZTQSAGDEMFDKMZ;OFBQJSOFQDEBGM;XBDQKXXYIPTUBI;BTANRVKWQNVYAZ;LRHPLDYGYMQRHN;HGBOYTHUEUWSSQ;VLKZOEOYAKHREP;FERIUCNNQQJTOY;AMQJEAYHLZJPGS;AQIXEPGDORPWBJ;JYVLIDXNZAXMDK;JARKCYVAAOWBJS;IMNFDUFMRHMDMM;NQPDZGIKBAWPEJ;ZSIAUFGUXNUGDI;FXHGMKSSBGDXIY;TVMXDCGIABBOFY;FUZZWVXGSFPDMH;CETWDUZRCINIHU;NUJGJRNETVAIRJ;MNWFXJYAOYHMED;GYHFUZHODSMOHU;WWZKQHOCKIZLMA;FBUKVWPVBMHYJY;AASQBYVPOFXFGU;IOKPZOGAWQXXLF;LMHJFKYQYDSOQO;NGBPDDMTRGHYFM;KTPMCFLPGSCUKH;NAMFFBYYOKLDOM;LXNOENXQFNYMGT;ZTKXZDLAHNDYCJ;DEXVEASLUGBXDF;PXBOJWNZUUEBDU;RIOQEURNPLKGHG;GBOCFSKPHBCOCX;ZNZLXMVSALEVHW;XZNLDDNERIACTN;GIEJMPHHFWMLHG;PZLYXEVGRAQCLK;SUESMKJJGAOOGC;YTITYUDOZJUZBE
SubstructureOntologies: CHEMONTID:0002500;NonID:H2O;CHEMONTID:0001831;CHEMONTID:0000286;CHEMONTID:0002230;CHEMONTID:0001205;CHEMONTID:0002434;CHEMONTID:0001661;CHEMONTID:0000333;CHEMONTID:0002229;CHEMONTID:0001334;CHEMONTID:0003086;CHEMONTID:0000298;CHEMONTID:0002949;CHEMONTID:0002951
Ontology: Long-chain fatty acids
OntologyID: CHEMONTID:0002949
RETENTIONTIME: -1
RETENTIONINDEX: -1
TotalBondEnergy: 22239
TotalScore: 7.0577
TotalHrRulesScore: 0.5
TotalBondCleavageScore: 0.5
TotalMassAccuracyScore: 0.491
TotalFragmentLinkageScore: 0.5
TotalBondDissociationEnergyScore: 0.5
DatabaseScore: 0.6429
SubstructureAssignmentScore: 0
RtSimilarityScore: -1
RiSimilarityScore: 0
Num Fragment VS2 (M/Z Intensity MatchedExactMass SaturatedExactMass Formula RearrangedHydrogen PPM MassDiff_mDa IsEvenElectronRule IsHrRule IsSolventAdductFragment AssignedAdductMass AdductString BondDissociationEnergy TreeDepth SMILES TotalScore HrLikelihood BcLikelihood MaLikelihood FlLikelihood BeLikelihood): 1
301.264193	103671.077513	301.273725429709	300.266448974609	C18H36O3	1	31.64	9.53	True	True	False	0		0	0	O=C(O)CCCCCCCCC(O)CCCCCCCC	4.98199069499969	1	1	0.981990694999695	1	1

NAME: (R)-3-Hydroxy-Octadecanoic acid
ID: POMQYTSPMKEQNB
IsSpectrumSearch: False
INCHIKEY: POMQYTSPMKEQNB-QGZVFWFLSA-N
SMILES: O=C(O)CC(O)CCCCCCCCCCCCCCC
RESOURCES: HMDB=HMDB0010737,ChEBI=CHEBI:50578;CHEBI:50579;CHEBI:76614,FooDB=FDB027884,BMDB=BMDB10737,LipidMAPS=LMFA01050434;LMFA02000121;LMFA02000196,UNPD=UNPD188228
SubstructureInChIKeys: VNWKTOKETHGBQD;XLYOFNOQVPJJNP;WSFSSNUMVMOOMR;OTMSDBZUPAUEDD;OKKJLVBELUTLKV;IKHGUXGNUITLKF;ATUOYWHBWRKTHZ;BDAGIHXWWSANSR;LFQSCWFLJHTTHZ;NBBJYMSMWIIQGU;IJDNQMDRQITEOD;QTBSBXVTEAMEQO;BDERNNFJNOPAEC;KFZMGEQAYNKOFK;ZTQSAGDEMFDKMZ;OFBQJSOFQDEBGM;AKXKFZDCRYJKTF;XBDQKXXYIPTUBI;BTANRVKWQNVYAZ;LRHPLDYGYMQRHN;YPFDHNVEDLHUCE;HGBOYTHUEUWSSQ;VLKZOEOYAKHREP;FERIUCNNQQJTOY;PIAOXUVIBAKVSP;AMQJEAYHLZJPGS;AQIXEPGDORPWBJ;JYVLIDXNZAXMDK;ALRHLSYJTWAHJZ;JVTAAEKCZFNVCJ;PUPZLCDOIYMWBV;JARKCYVAAOWBJS;IMNFDUFMRHMDMM;CNRGMQRNYAIBTN;ZSIAUFGUXNUGDI;SJZRECIVHVDYJC;FXHGMKSSBGDXIY;TVMXDCGIABBOFY;YRMUTQRWVGDUBW;CETWDUZRCINIHU;PHOJOSOUIAQEDH;NUJGJRNETVAIRJ;UKFNNBXGHVJQMJ;YDCRNMJQROAWFT;QVGWQEOFNGJAOO;ICKVZOWXZYBERI;PBZLKHXTZLJSSO;LAWNVEFFZXVKAN;AASQBYVPOFXFGU;XYXANQCOUCDVRX;IOKPZOGAWQXXLF;LMHJFKYQYDSOQO;NGBPDDMTRGHYFM;KTPMCFLPGSCUKH;NAMFFBYYOKLDOM;LXNOENXQFNYMGT;ZTKXZDLAHNDYCJ;DEXVEASLUGBXDF;PXBOJWNZUUEBDU;RIOQEURNPLKGHG;GBOCFSKPHBCOCX;ZNZLXMVSALEVHW;XZNLDDNERIACTN;GIEJMPHHFWMLHG;PZLYXEVGRAQCLK;SUESMKJJGAOOGC;YTITYUDOZJUZBE
SubstructureOntologies: CHEMONTID:0002500;NonID:H2O;CHEMONTID:0001831;CHEMONTID:0000286;CHEMONTID:0002230;CHEMONTID:0001205;CHEMONTID:0002434;CHEMONTID:0001661;CHEMONTID:0000333;CHEMONTID:0001713;CHEMONTID:0001359;CHEMONTID:0002229;CHEMONTID:0001334;CHEMONTID:0000341;CHEMONTID:0003086;CHEMONTID:0000298;CHEMONTID:0002949;CHEMONTID:0002951
Ontology: Long-chain fatty acids
OntologyID: CHEMONTID:0002949
RETENTIONTIME: -1
RETENTIONINDEX: -1
TotalBondEnergy: 22239
TotalScore: 7.0577
TotalHrRulesScore: 0.5
TotalBondCleavageScore: 0.5
TotalMassAccuracyScore: 0.491
TotalFragmentLinkageScore: 0.5
TotalBondDissociationEnergyScore: 0.5
DatabaseScore: 0.6429
SubstructureAssignmentScore: 0
RtSimilarityScore: -1
RiSimilarityScore: 0
Num Fragment VS2 (M/Z Intensity MatchedExactMass SaturatedExactMass Formula RearrangedHydrogen PPM MassDiff_mDa IsEvenElectronRule IsHrRule IsSolventAdductFragment AssignedAdductMass AdductString BondDissociationEnergy TreeDepth SMILES TotalScore HrLikelihood BcLikelihood MaLikelihood FlLikelihood BeLikelihood): 1
301.264193	103671.077513	301.273725429709	300.266448974609	C18H36O3	1	31.64	9.53	True	True	False	0		0	0	O=C(O)CC(O)CCCCCCCCCCCCCCC	4.98199069499969	1	1	0.981990694999695	1	1

NAME: 18-Hydroxyoctadecanoic acid
ID: VLHZUYUOEGBBJB
IsSpectrumSearch: False
INCHIKEY: VLHZUYUOEGBBJB-UHFFFAOYSA-N
SMILES: O=C(O)CCCCCCCCCCCCCCCCCO
RESOURCES: KNApSAcK=C00034998,ChEBI=CHEBI:79182;CHEBI:86046,FooDB=FDB006898,LipidMAPS=LMFA02000136,PubChem=21891501,UNPD=UNPD184501
SubstructureInChIKeys: XLYOFNOQVPJJNP;WSFSSNUMVMOOMR;OTMSDBZUPAUEDD;OKKJLVBELUTLKV;IKHGUXGNUITLKF;ATUOYWHBWRKTHZ;BDAGIHXWWSANSR;LFQSCWFLJHTTHZ;NBBJYMSMWIIQGU;IJDNQMDRQITEOD;QTBSBXVTEAMEQO;BDERNNFJNOPAEC;ZTQSAGDEMFDKMZ;OFBQJSOFQDEBGM;XBDQKXXYIPTUBI;LRHPLDYGYMQRHN;HGBOYTHUEUWSSQ;VLKZOEOYAKHREP;FERIUCNNQQJTOY;AMQJEAYHLZJPGS;JARKCYVAAOWBJS;IMNFDUFMRHMDMM;NQPDZGIKBAWPEJ;ZSIAUFGUXNUGDI;FXHGMKSSBGDXIY;TVMXDCGIABBOFY;FUZZWVXGSFPDMH;NUJGJRNETVAIRJ;MNWFXJYAOYHMED;GYHFUZHODSMOHU;WWZKQHOCKIZLMA;KSMVZQYAVGTKIV;FBUKVWPVBMHYJY;KMPQYAYAQWNLME;GHVNFZFCNZKVNT;HFJRKMMYBMWEAD;ZDPHROOEEOARMN;BGEHHAVMRVXCGR;POULHZVOKOAJMA;UHUFTBALEZWWIH;SZHOJFHSIKHZHA;XGQJZNCFDLXSIJ;TUNFSRHWOTWDNC;NIOYUNMRJMEDGI;WQEPLUUGTLDZJY;PIYDVAYKYBWPPY;IPCSVZSSVZVIGE;KEMQGTRYUADPNZ;PZLYXEVGRAQCLK;YTITYUDOZJUZBE
SubstructureOntologies: NonID:H2O;CHEMONTID:0001831;CHEMONTID:0002500;CHEMONTID:0000286;CHEMONTID:0002230;CHEMONTID:0001205;CHEMONTID:0002434;CHEMONTID:0000333;CHEMONTID:0002229;CHEMONTID:0001334;CHEMONTID:0003086;CHEMONTID:0000298;CHEMONTID:0002949;CHEMONTID:0002951
Ontology: Long-chain fatty acids
OntologyID: CHEMONTID:0002949
RETENTIONTIME: -1
RETENTIONINDEX: -1
TotalBondEnergy: 22239
TotalScore: 7.0577
TotalHrRulesScore: 0.5
TotalBondCleavageScore: 0.5
TotalMassAccuracyScore: 0.491
TotalFragmentLinkageScore: 0.5
TotalBondDissociationEnergyScore: 0.5
DatabaseScore: 0.6429
SubstructureAssignmentScore: 0
RtSimilarityScore: -1
RiSimilarityScore: 0
Num Fragment VS2 (M/Z Intensity MatchedExactMass SaturatedExactMass Formula RearrangedHydrogen PPM MassDiff_mDa IsEvenElectronRule IsHrRule IsSolventAdductFragment AssignedAdductMass AdductString BondDissociationEnergy TreeDepth SMILES TotalScore HrLikelihood BcLikelihood MaLikelihood FlLikelihood BeLikelihood): 1
301.264193	103671.077513	301.273725429709	300.266448974609	C18H36O3	1	31.64	9.53	True	True	False	0		0	0	O=C(O)CCCCCCCCCCCCCCCCCO	4.98199069499969	1	1	0.981990694999695	1	1

NAME: 2-hydroxystearate
ID: KIHBGTRZFAVZRV
IsSpectrumSearch: False
INCHIKEY: KIHBGTRZFAVZRV-UHFFFAOYNA-N
SMILES: O=C(O)C(O)CCCCCCCCCCCCCCCC
RESOURCES: HMDB=HMDB0062549,ChEBI=CHEBI:15913;CHEBI:18129;CHEBI:76724;CHEBI:19660;CHEBI:57562;CHEBI:58386,LipidMAPS=LMFA01050485;LMFA02000120;LMFA02000195,Feces=HMDB0062549,UNPD=UNPD156076;UNPD192500
SubstructureInChIKeys: VNWKTOKETHGBQD;XLYOFNOQVPJJNP;WSFSSNUMVMOOMR;OTMSDBZUPAUEDD;OKKJLVBELUTLKV;IKHGUXGNUITLKF;ATUOYWHBWRKTHZ;BDAGIHXWWSANSR;LFQSCWFLJHTTHZ;NBBJYMSMWIIQGU;IJDNQMDRQITEOD;QTBSBXVTEAMEQO;WGCNASOHLSPBMP;BDERNNFJNOPAEC;KFZMGEQAYNKOFK;LYCAIKOWRPUZTN;ZTQSAGDEMFDKMZ;OFBQJSOFQDEBGM;AKXKFZDCRYJKTF;BSABBBMNWQWLLU;XBDQKXXYIPTUBI;BTANRVKWQNVYAZ;LRHPLDYGYMQRHN;AEMRFAOFKBGASW;DNIAPMSPPWPWGF;VIBDJEWPNNCFQO;HGBOYTHUEUWSSQ;VLKZOEOYAKHREP;FERIUCNNQQJTOY;PIAOXUVIBAKVSP;AMQJEAYHLZJPGS;JYVLIDXNZAXMDK;ALRHLSYJTWAHJZ;JVTAAEKCZFNVCJ;BMRWNKZVCUKKSR;JARKCYVAAOWBJS;IMNFDUFMRHMDMM;CNRGMQRNYAIBTN;ZSIAUFGUXNUGDI;AFENDNXGAFYKQO;SJZRECIVHVDYJC;WCVRQHFDJLLWFE;FXHGMKSSBGDXIY;TVMXDCGIABBOFY;YRMUTQRWVGDUBW;CETWDUZRCINIHU;PHOJOSOUIAQEDH;NUJGJRNETVAIRJ;UKFNNBXGHVJQMJ;YDCRNMJQROAWFT;QVGWQEOFNGJAOO;ICKVZOWXZYBERI;PBZLKHXTZLJSSO;LAWNVEFFZXVKAN;AASQBYVPOFXFGU;XYXANQCOUCDVRX;IOKPZOGAWQXXLF;LMHJFKYQYDSOQO;NGBPDDMTRGHYFM;KTPMCFLPGSCUKH;NAMFFBYYOKLDOM;LXNOENXQFNYMGT;ZTKXZDLAHNDYCJ;DEXVEASLUGBXDF;PXBOJWNZUUEBDU;RIOQEURNPLKGHG;GBOCFSKPHBCOCX;ZNZLXMVSALEVHW;XZNLDDNERIACTN;GIEJMPHHFWMLHG;PZLYXEVGRAQCLK;SUESMKJJGAOOGC;YTITYUDOZJUZBE
SubstructureOntologies: CHEMONTID:0002500;NonID:H2O;CHEMONTID:0001831;CHEMONTID:0000286;CHEMONTID:0002230;CHEMONTID:0001205;CHEMONTID:0002434;CHEMONTID:0001661;CHEMONTID:0002467;CHEMONTID:0003675;CHEMONTID:0001359;CHEMONTID:0002286;CHEMONTID:0000333;CHEMONTID:0001713;CHEMONTID:0002229;CHEMONTID:0001334;CHEMONTID:0000341;CHEMONTID:0003086;CHEMONTID:0000298;CHEMONTID:0002949;CHEMONTID:0002951
Ontology: Long-chain fatty acids
OntologyID: CHEMONTID:0002949
RETENTIONTIME: -1
RETENTIONINDEX: -1
TotalBondEnergy: 22239
TotalScore: 6.9982
TotalHrRulesScore: 0.5
TotalBondCleavageScore: 0.5
TotalMassAccuracyScore: 0.491
TotalFragmentLinkageScore: 0.5
TotalBondDissociationEnergyScore: 0.5
DatabaseScore: 0.619
SubstructureAssignmentScore: 0
RtSimilarityScore: -1
RiSimilarityScore: 0
Num Fragment VS2 (M/Z Intensity MatchedExactMass SaturatedExactMass Formula RearrangedHydrogen PPM MassDiff_mDa IsEvenElectronRule IsHrRule IsSolventAdductFragment AssignedAdductMass AdductString BondDissociationEnergy TreeDepth SMILES TotalScore HrLikelihood BcLikelihood MaLikelihood FlLikelihood BeLikelihood): 1
301.264193	103671.077513	301.273725429709	300.266448974609	C18H36O3	1	31.64	9.53	True	True	False	0		0	0	O=C(O)C(O)CCCCCCCCCCCCCCCC	4.98199069499969	1	1	0.981990694999695	1	1

NAME: 12-Hydroxystearic acid
ID: ULQISTXYYBZJSJ
IsSpectrumSearch: False
INCHIKEY: ULQISTXYYBZJSJ-UHFFFAOYNA-N
SMILES: O=C(O)CCCCCCCCCCC(O)CCCCCC
RESOURCES: HMDB=HMDB0061706,ChEBI=CHEBI:84201;CHEBI:85208,STOFF=STOFF_100,LipidMAPS=LMFA02000130;LMFA02000232,UNPD=UNPD183230;UNPD190625
SubstructureInChIKeys: VNWKTOKETHGBQD;XLYOFNOQVPJJNP;WSFSSNUMVMOOMR;OTMSDBZUPAUEDD;OKKJLVBELUTLKV;IKHGUXGNUITLKF;ATUOYWHBWRKTHZ;BDAGIHXWWSANSR;LFQSCWFLJHTTHZ;NBBJYMSMWIIQGU;IJDNQMDRQITEOD;QTBSBXVTEAMEQO;BDERNNFJNOPAEC;KFZMGEQAYNKOFK;ZTQSAGDEMFDKMZ;OFBQJSOFQDEBGM;XBDQKXXYIPTUBI;BTANRVKWQNVYAZ;LRHPLDYGYMQRHN;HGBOYTHUEUWSSQ;VLKZOEOYAKHREP;FERIUCNNQQJTOY;AMQJEAYHLZJPGS;AQIXEPGDORPWBJ;JYVLIDXNZAXMDK;JARKCYVAAOWBJS;IMNFDUFMRHMDMM;NQPDZGIKBAWPEJ;ZSIAUFGUXNUGDI;FXHGMKSSBGDXIY;TVMXDCGIABBOFY;FUZZWVXGSFPDMH;CETWDUZRCINIHU;NUJGJRNETVAIRJ;MNWFXJYAOYHMED;GYHFUZHODSMOHU;WWZKQHOCKIZLMA;KSMVZQYAVGTKIV;FBUKVWPVBMHYJY;KMPQYAYAQWNLME;GHVNFZFCNZKVNT;ZDPHROOEEOARMN;NGBPDDMTRGHYFM;NAMFFBYYOKLDOM;LXNOENXQFNYMGT;ZTKXZDLAHNDYCJ;DEXVEASLUGBXDF;PXBOJWNZUUEBDU;RIOQEURNPLKGHG;GBOCFSKPHBCOCX;ZNZLXMVSALEVHW;XZNLDDNERIACTN;GIEJMPHHFWMLHG;PZLYXEVGRAQCLK;SUESMKJJGAOOGC;YTITYUDOZJUZBE
SubstructureOntologies: CHEMONTID:0002500;NonID:H2O;CHEMONTID:0001831;CHEMONTID:0000286;CHEMONTID:0002230;CHEMONTID:0001205;CHEMONTID:0002434;CHEMONTID:0001661;CHEMONTID:0000333;CHEMONTID:0002229;CHEMONTID:0001334;CHEMONTID:0003086;CHEMONTID:0000298;CHEMONTID:0002949;CHEMONTID:0002951
Ontology: Long-chain fatty acids
OntologyID: CHEMONTID:0002949
RETENTIONTIME: -1
RETENTIONINDEX: -1
TotalBondEnergy: 22239
TotalScore: 6.9982
TotalHrRulesScore: 0.5
TotalBondCleavageScore: 0.5
TotalMassAccuracyScore: 0.491
TotalFragmentLinkageScore: 0.5
TotalBondDissociationEnergyScore: 0.5
DatabaseScore: 0.619
SubstructureAssignmentScore: 0
RtSimilarityScore: -1
RiSimilarityScore: 0
Num Fragment VS2 (M/Z Intensity MatchedExactMass SaturatedExactMass Formula RearrangedHydrogen PPM MassDiff_mDa IsEvenElectronRule IsHrRule IsSolventAdductFragment AssignedAdductMass AdductString BondDissociationEnergy TreeDepth SMILES TotalScore HrLikelihood BcLikelihood MaLikelihood FlLikelihood BeLikelihood): 1
301.264193	103671.077513	301.273725429709	300.266448974609	C18H36O3	1	31.64	9.53	True	True	False	0		0	0	O=C(O)CCCCCCCCCCC(O)CCCCCC	4.98199069499969	1	1	0.981990694999695	1	1

NAME: 13-hydroxyoctadecanoic acid
ID: MRWKWISFCDSNQN
IsSpectrumSearch: False
INCHIKEY: MRWKWISFCDSNQN-UHFFFAOYNA-N
SMILES: O=C(O)CCCCCCCCCCCC(O)CCCCC
RESOURCES: HMDB=HMDB0061662,ChEBI=CHEBI:136304;CHEBI:136406,LipidMAPS=LMFA02000131;LMFA02000233,UNPD=UNPD129464
SubstructureInChIKeys: VNWKTOKETHGBQD;XLYOFNOQVPJJNP;WSFSSNUMVMOOMR;OTMSDBZUPAUEDD;OKKJLVBELUTLKV;IKHGUXGNUITLKF;ATUOYWHBWRKTHZ;BDAGIHXWWSANSR;LFQSCWFLJHTTHZ;NBBJYMSMWIIQGU;IJDNQMDRQITEOD;QTBSBXVTEAMEQO;BDERNNFJNOPAEC;KFZMGEQAYNKOFK;ZTQSAGDEMFDKMZ;OFBQJSOFQDEBGM;XBDQKXXYIPTUBI;BTANRVKWQNVYAZ;LRHPLDYGYMQRHN;HGBOYTHUEUWSSQ;VLKZOEOYAKHREP;FERIUCNNQQJTOY;AMQJEAYHLZJPGS;AQIXEPGDORPWBJ;JYVLIDXNZAXMDK;JARKCYVAAOWBJS;IMNFDUFMRHMDMM;NQPDZGIKBAWPEJ;ZSIAUFGUXNUGDI;FXHGMKSSBGDXIY;TVMXDCGIABBOFY;FUZZWVXGSFPDMH;CETWDUZRCINIHU;NUJGJRNETVAIRJ;MNWFXJYAOYHMED;GYHFUZHODSMOHU;WWZKQHOCKIZLMA;KSMVZQYAVGTKIV;FBUKVWPVBMHYJY;KMPQYAYAQWNLME;GHVNFZFCNZKVNT;HFJRKMMYBMWEAD;ZDPHROOEEOARMN;POULHZVOKOAJMA;NAMFFBYYOKLDOM;ZTKXZDLAHNDYCJ;DEXVEASLUGBXDF;PXBOJWNZUUEBDU;RIOQEURNPLKGHG;GBOCFSKPHBCOCX;ZNZLXMVSALEVHW;XZNLDDNERIACTN;GIEJMPHHFWMLHG;PZLYXEVGRAQCLK;SUESMKJJGAOOGC;YTITYUDOZJUZBE
SubstructureOntologies: CHEMONTID:0002500;NonID:H2O;CHEMONTID:0001831;CHEMONTID:0000286;CHEMONTID:0002230;CHEMONTID:0001205;CHEMONTID:0002434;CHEMONTID:0001661;CHEMONTID:0000333;CHEMONTID:0002229;CHEMONTID:0001334;CHEMONTID:0003086;CHEMONTID:0000298;CHEMONTID:0002949;CHEMONTID:0002951
Ontology: Long-chain fatty acids
OntologyID: CHEMONTID:0002949
RETENTIONTIME: -1
RETENTIONINDEX: -1
TotalBondEnergy: 22239
TotalScore: 6.9387
TotalHrRulesScore: 0.5
TotalBondCleavageScore: 0.5
TotalMassAccuracyScore: 0.491
TotalFragmentLinkageScore: 0.5
TotalBondDissociationEnergyScore: 0.5
DatabaseScore: 0.5952
SubstructureAssignmentScore: 0
RtSimilarityScore: -1
RiSimilarityScore: 0
Num Fragment VS2 (M/Z Intensity MatchedExactMass SaturatedExactMass Formula RearrangedHydrogen PPM MassDiff_mDa IsEvenElectronRule IsHrRule IsSolventAdductFragment AssignedAdductMass AdductString BondDissociationEnergy TreeDepth SMILES TotalScore HrLikelihood BcLikelihood MaLikelihood FlLikelihood BeLikelihood): 1
301.264193	103671.077513	301.273725429709	300.266448974609	C18H36O3	1	31.64	9.53	True	True	False	0		0	0	O=C(O)CCCCCCCCCCCC(O)CCCCC	4.98199069499969	1	1	0.981990694999695	1	1

NAME: 9-hydroxyoctadecanoic acid
ID: RKHXDCVAPIMDMG
IsSpectrumSearch: False
INCHIKEY: RKHXDCVAPIMDMG-UHFFFAOYNA-N
SMILES: O=C(O)CCCCCCCC(O)CCCCCCCCC
RESOURCES: HMDB=HMDB0061661,ChEBI=CHEBI:136286;CHEBI:136638,LipidMAPS=LMFA02000127;LMFA02000197;LMFA02000198,UNPD=UNPD43788;UNPD73605
SubstructureInChIKeys: VNWKTOKETHGBQD;XLYOFNOQVPJJNP;WSFSSNUMVMOOMR;OTMSDBZUPAUEDD;OKKJLVBELUTLKV;IKHGUXGNUITLKF;ATUOYWHBWRKTHZ;BDAGIHXWWSANSR;LFQSCWFLJHTTHZ;NBBJYMSMWIIQGU;IJDNQMDRQITEOD;QTBSBXVTEAMEQO;BDERNNFJNOPAEC;KFZMGEQAYNKOFK;ZTQSAGDEMFDKMZ;OFBQJSOFQDEBGM;XBDQKXXYIPTUBI;BTANRVKWQNVYAZ;LRHPLDYGYMQRHN;HGBOYTHUEUWSSQ;VLKZOEOYAKHREP;FERIUCNNQQJTOY;AMQJEAYHLZJPGS;AQIXEPGDORPWBJ;JYVLIDXNZAXMDK;JARKCYVAAOWBJS;IMNFDUFMRHMDMM;NQPDZGIKBAWPEJ;ZSIAUFGUXNUGDI;FXHGMKSSBGDXIY;TVMXDCGIABBOFY;FUZZWVXGSFPDMH;CETWDUZRCINIHU;NUJGJRNETVAIRJ;MNWFXJYAOYHMED;WWZKQHOCKIZLMA;PBZLKHXTZLJSSO;AASQBYVPOFXFGU;XYXANQCOUCDVRX;IOKPZOGAWQXXLF;LMHJFKYQYDSOQO;NGBPDDMTRGHYFM;KTPMCFLPGSCUKH;NAMFFBYYOKLDOM;LXNOENXQFNYMGT;ZTKXZDLAHNDYCJ;DEXVEASLUGBXDF;PXBOJWNZUUEBDU;RIOQEURNPLKGHG;GBOCFSKPHBCOCX;ZNZLXMVSALEVHW;XZNLDDNERIACTN;GIEJMPHHFWMLHG;PZLYXEVGRAQCLK;SUESMKJJGAOOGC;YTITYUDOZJUZBE
SubstructureOntologies: CHEMONTID:0002500;NonID:H2O;CHEMONTID:0001831;CHEMONTID:0000286;CHEMONTID:0002230;CHEMONTID:0001205;CHEMONTID:0002434;CHEMONTID:0001661;CHEMONTID:0000333;CHEMONTID:0002229;CHEMONTID:0001334;CHEMONTID:0003086;CHEMONTID:0000298;CHEMONTID:0002949;CHEMONTID:0002951
Ontology: Long-chain fatty acids
OntologyID: CHEMONTID:0002949
RETENTIONTIME: -1
RETENTIONINDEX: -1
TotalBondEnergy: 22239
TotalScore: 6.9387
TotalHrRulesScore: 0.5
TotalBondCleavageScore: 0.5
TotalMassAccuracyScore: 0.491
TotalFragmentLinkageScore: 0.5
TotalBondDissociationEnergyScore: 0.5
DatabaseScore: 0.5952
SubstructureAssignmentScore: 0
RtSimilarityScore: -1
RiSimilarityScore: 0
Num Fragment VS2 (M/Z Intensity MatchedExactMass SaturatedExactMass Formula RearrangedHydrogen PPM MassDiff_mDa IsEvenElectronRule IsHrRule IsSolventAdductFragment AssignedAdductMass AdductString BondDissociationEnergy TreeDepth SMILES TotalScore HrLikelihood BcLikelihood MaLikelihood FlLikelihood BeLikelihood): 1
301.264193	103671.077513	301.273725429709	300.266448974609	C18H36O3	1	31.64	9.53	True	True	False	0		0	0	O=C(O)CCCCCCCC(O)CCCCCCCCC	4.98199069499969	1	1	0.981990694999695	1	1

NAME: 7-Hydroxyoctadecanoic acid
ID: AROVHWXXFTUQIL
IsSpectrumSearch: False
INCHIKEY: AROVHWXXFTUQIL-UHFFFAOYNA-N
SMILES: O=C(O)CCCCCC(O)CCCCCCCCCCC
RESOURCES: HMDB=HMDB0112181,LipidMAPS=LMFA02000125,UNPD=UNPD41055
SubstructureInChIKeys: VNWKTOKETHGBQD;XLYOFNOQVPJJNP;WSFSSNUMVMOOMR;OTMSDBZUPAUEDD;OKKJLVBELUTLKV;IKHGUXGNUITLKF;ATUOYWHBWRKTHZ;BDAGIHXWWSANSR;LFQSCWFLJHTTHZ;NBBJYMSMWIIQGU;IJDNQMDRQITEOD;QTBSBXVTEAMEQO;BDERNNFJNOPAEC;KFZMGEQAYNKOFK;ZTQSAGDEMFDKMZ;OFBQJSOFQDEBGM;XBDQKXXYIPTUBI;BTANRVKWQNVYAZ;LRHPLDYGYMQRHN;HGBOYTHUEUWSSQ;VLKZOEOYAKHREP;FERIUCNNQQJTOY;AMQJEAYHLZJPGS;AQIXEPGDORPWBJ;JYVLIDXNZAXMDK;JARKCYVAAOWBJS;IMNFDUFMRHMDMM;NQPDZGIKBAWPEJ;ZSIAUFGUXNUGDI;FXHGMKSSBGDXIY;TVMXDCGIABBOFY;FUZZWVXGSFPDMH;CETWDUZRCINIHU;NUJGJRNETVAIRJ;UKFNNBXGHVJQMJ;QVGWQEOFNGJAOO;ICKVZOWXZYBERI;PBZLKHXTZLJSSO;LAWNVEFFZXVKAN;AASQBYVPOFXFGU;XYXANQCOUCDVRX;IOKPZOGAWQXXLF;LMHJFKYQYDSOQO;NGBPDDMTRGHYFM;KTPMCFLPGSCUKH;NAMFFBYYOKLDOM;LXNOENXQFNYMGT;ZTKXZDLAHNDYCJ;DEXVEASLUGBXDF;PXBOJWNZUUEBDU;RIOQEURNPLKGHG;GBOCFSKPHBCOCX;ZNZLXMVSALEVHW;XZNLDDNERIACTN;GIEJMPHHFWMLHG;PZLYXEVGRAQCLK;SUESMKJJGAOOGC;YTITYUDOZJUZBE
SubstructureOntologies: CHEMONTID:0002500;NonID:H2O;CHEMONTID:0001831;CHEMONTID:0000286;CHEMONTID:0002230;CHEMONTID:0001205;CHEMONTID:0002434;CHEMONTID:0001661;CHEMONTID:0000333;CHEMONTID:0002229;CHEMONTID:0001334;CHEMONTID:0003086;CHEMONTID:0000298;CHEMONTID:0002949;CHEMONTID:0002951
Ontology: Long-chain fatty acids
OntologyID: CHEMONTID:0002949
RETENTIONTIME: -1
RETENTIONINDEX: -1
TotalBondEnergy: 22239
TotalScore: 6.8792
TotalHrRulesScore: 0.5
TotalBondCleavageScore: 0.5
TotalMassAccuracyScore: 0.491
TotalFragmentLinkageScore: 0.5
TotalBondDissociationEnergyScore: 0.5
DatabaseScore: 0.5714
SubstructureAssignmentScore: 0
RtSimilarityScore: -1
RiSimilarityScore: 0
Num Fragment VS2 (M/Z Intensity MatchedExactMass SaturatedExactMass Formula RearrangedHydrogen PPM MassDiff_mDa IsEvenElectronRule IsHrRule IsSolventAdductFragment AssignedAdductMass AdductString BondDissociationEnergy TreeDepth SMILES TotalScore HrLikelihood BcLikelihood MaLikelihood FlLikelihood BeLikelihood): 1
301.264193	103671.077513	301.273725429709	300.266448974609	C18H36O3	1	31.64	9.53	True	True	False	0		0	0	O=C(O)CCCCCC(O)CCCCCCCCCCC	4.98199069499969	1	1	0.981990694999695	1	1

NAME: 11-Hydroxyoctadecanoic acid
ID: CJUFNCPPYUSJPR
IsSpectrumSearch: False
INCHIKEY: CJUFNCPPYUSJPR-UHFFFAOYNA-N
SMILES: O=C(O)CCCCCCCCCC(O)CCCCCCC
RESOURCES: HMDB=HMDB0112183,LipidMAPS=LMFA02000129,UNPD=UNPD287
SubstructureInChIKeys: VNWKTOKETHGBQD;XLYOFNOQVPJJNP;WSFSSNUMVMOOMR;OTMSDBZUPAUEDD;OKKJLVBELUTLKV;IKHGUXGNUITLKF;ATUOYWHBWRKTHZ;BDAGIHXWWSANSR;LFQSCWFLJHTTHZ;NBBJYMSMWIIQGU;IJDNQMDRQITEOD;QTBSBXVTEAMEQO;BDERNNFJNOPAEC;KFZMGEQAYNKOFK;ZTQSAGDEMFDKMZ;OFBQJSOFQDEBGM;XBDQKXXYIPTUBI;BTANRVKWQNVYAZ;LRHPLDYGYMQRHN;HGBOYTHUEUWSSQ;VLKZOEOYAKHREP;FERIUCNNQQJTOY;AMQJEAYHLZJPGS;AQIXEPGDORPWBJ;JYVLIDXNZAXMDK;JARKCYVAAOWBJS;IMNFDUFMRHMDMM;NQPDZGIKBAWPEJ;ZSIAUFGUXNUGDI;FXHGMKSSBGDXIY;TVMXDCGIABBOFY;FUZZWVXGSFPDMH;CETWDUZRCINIHU;NUJGJRNETVAIRJ;MNWFXJYAOYHMED;GYHFUZHODSMOHU;WWZKQHOCKIZLMA;KSMVZQYAVGTKIV;FBUKVWPVBMHYJY;GHVNFZFCNZKVNT;IOKPZOGAWQXXLF;NGBPDDMTRGHYFM;KTPMCFLPGSCUKH;NAMFFBYYOKLDOM;LXNOENXQFNYMGT;ZTKXZDLAHNDYCJ;DEXVEASLUGBXDF;PXBOJWNZUUEBDU;RIOQEURNPLKGHG;GBOCFSKPHBCOCX;ZNZLXMVSALEVHW;XZNLDDNERIACTN;GIEJMPHHFWMLHG;PZLYXEVGRAQCLK;SUESMKJJGAOOGC;YTITYUDOZJUZBE
SubstructureOntologies: CHEMONTID:0002500;NonID:H2O;CHEMONTID:0001831;CHEMONTID:0000286;CHEMONTID:0002230;CHEMONTID:0001205;CHEMONTID:0002434;CHEMONTID:0001661;CHEMONTID:0000333;CHEMONTID:0002229;CHEMONTID:0001334;CHEMONTID:0003086;CHEMONTID:0000298;CHEMONTID:0002949;CHEMONTID:0002951
Ontology: Long-chain fatty acids
OntologyID: CHEMONTID:0002949
RETENTIONTIME: -1
RETENTIONINDEX: -1
TotalBondEnergy: 22239
TotalScore: 6.8792
TotalHrRulesScore: 0.5
TotalBondCleavageScore: 0.5
TotalMassAccuracyScore: 0.491
TotalFragmentLinkageScore: 0.5
TotalBondDissociationEnergyScore: 0.5
DatabaseScore: 0.5714
SubstructureAssignmentScore: 0
RtSimilarityScore: -1
RiSimilarityScore: 0
Num Fragment VS2 (M/Z Intensity MatchedExactMass SaturatedExactMass Formula RearrangedHydrogen PPM MassDiff_mDa IsEvenElectronRule IsHrRule IsSolventAdductFragment AssignedAdductMass AdductString BondDissociationEnergy TreeDepth SMILES TotalScore HrLikelihood BcLikelihood MaLikelihood FlLikelihood BeLikelihood): 1
301.264193	103671.077513	301.273725429709	300.266448974609	C18H36O3	1	31.64	9.53	True	True	False	0		0	0	O=C(O)CCCCCCCCCC(O)CCCCCCC	4.98199069499969	1	1	0.981990694999695	1	1

NAME: 5-Hydroxyoctadecanoic acid
ID: YTITYUDOZJUZBE
IsSpectrumSearch: False
INCHIKEY: YTITYUDOZJUZBE-UHFFFAOYNA-N
SMILES: O=C(O)CCCC(O)CCCCCCCCCCCCC
RESOURCES: HMDB=HMDB0112180,ChEBI=CHEBI:136370;CHEBI:136819,LipidMAPS=LMFA02000123
SubstructureInChIKeys: VNWKTOKETHGBQD;XLYOFNOQVPJJNP;WSFSSNUMVMOOMR;OTMSDBZUPAUEDD;OKKJLVBELUTLKV;IKHGUXGNUITLKF;ATUOYWHBWRKTHZ;BDAGIHXWWSANSR;LFQSCWFLJHTTHZ;NBBJYMSMWIIQGU;IJDNQMDRQITEOD;QTBSBXVTEAMEQO;BDERNNFJNOPAEC;KFZMGEQAYNKOFK;ZTQSAGDEMFDKMZ;OFBQJSOFQDEBGM;XBDQKXXYIPTUBI;BTANRVKWQNVYAZ;LRHPLDYGYMQRHN;HGBOYTHUEUWSSQ;VLKZOEOYAKHREP;FERIUCNNQQJTOY;AMQJEAYHLZJPGS;AQIXEPGDORPWBJ;JYVLIDXNZAXMDK;JARKCYVAAOWBJS;IMNFDUFMRHMDMM;CNRGMQRNYAIBTN;ZSIAUFGUXNUGDI;FXHGMKSSBGDXIY;TVMXDCGIABBOFY;YRMUTQRWVGDUBW;CETWDUZRCINIHU;PHOJOSOUIAQEDH;NUJGJRNETVAIRJ;UKFNNBXGHVJQMJ;YDCRNMJQROAWFT;QVGWQEOFNGJAOO;ICKVZOWXZYBERI;PBZLKHXTZLJSSO;LAWNVEFFZXVKAN;AASQBYVPOFXFGU;XYXANQCOUCDVRX;IOKPZOGAWQXXLF;LMHJFKYQYDSOQO;NGBPDDMTRGHYFM;KTPMCFLPGSCUKH;NAMFFBYYOKLDOM;LXNOENXQFNYMGT;ZTKXZDLAHNDYCJ;DEXVEASLUGBXDF;PXBOJWNZUUEBDU;RIOQEURNPLKGHG;GBOCFSKPHBCOCX;ZNZLXMVSALEVHW;XZNLDDNERIACTN;GIEJMPHHFWMLHG;PZLYXEVGRAQCLK;SUESMKJJGAOOGC;YTITYUDOZJUZBE
SubstructureOntologies: CHEMONTID:0002500;NonID:H2O;CHEMONTID:0001831;CHEMONTID:0000286;CHEMONTID:0002230;CHEMONTID:0001205;CHEMONTID:0002434;CHEMONTID:0001661;CHEMONTID:0000333;CHEMONTID:0002229;CHEMONTID:0001334;CHEMONTID:0000341;CHEMONTID:0003086;CHEMONTID:0000298;CHEMONTID:0002949;CHEMONTID:0002951
Ontology: Long-chain fatty acids
OntologyID: CHEMONTID:0002949
RETENTIONTIME: -1
RETENTIONINDEX: -1
TotalBondEnergy: 22239
TotalScore: 6.8792
TotalHrRulesScore: 0.5
TotalBondCleavageScore: 0.5
TotalMassAccuracyScore: 0.491
TotalFragmentLinkageScore: 0.5
TotalBondDissociationEnergyScore: 0.5
DatabaseScore: 0.5714
SubstructureAssignmentScore: 0
RtSimilarityScore: -1
RiSimilarityScore: 0
Num Fragment VS2 (M/Z Intensity MatchedExactMass SaturatedExactMass Formula RearrangedHydrogen PPM MassDiff_mDa IsEvenElectronRule IsHrRule IsSolventAdductFragment AssignedAdductMass AdductString BondDissociationEnergy TreeDepth SMILES TotalScore HrLikelihood BcLikelihood MaLikelihood FlLikelihood BeLikelihood): 1
301.264193	103671.077513	301.273725429709	300.266448974609	C18H36O3	1	31.64	9.53	True	True	False	0		0	0	O=C(O)CCCC(O)CCCCCCCCCCCCC	4.98199069499969	1	1	0.981990694999695	1	1

NAME: (R)-17-hydroxyoctadecanoic acid
ID: CKGPXFKOAGKQDN
IsSpectrumSearch: False
INCHIKEY: CKGPXFKOAGKQDN-QGZVFWFLSA-N
SMILES: O=C(O)CCCCCCCCCCCCCCCC(O)C
RESOURCES: ChEBI=CHEBI:79004,LipidMAPS=LMFA02000135,UNPD=UNPD17134
SubstructureInChIKeys: VNWKTOKETHGBQD;XLYOFNOQVPJJNP;WSFSSNUMVMOOMR;OTMSDBZUPAUEDD;OKKJLVBELUTLKV;IKHGUXGNUITLKF;ATUOYWHBWRKTHZ;BDAGIHXWWSANSR;LFQSCWFLJHTTHZ;NBBJYMSMWIIQGU;IJDNQMDRQITEOD;QTBSBXVTEAMEQO;BDERNNFJNOPAEC;KFZMGEQAYNKOFK;ZTQSAGDEMFDKMZ;OFBQJSOFQDEBGM;XBDQKXXYIPTUBI;BTANRVKWQNVYAZ;LRHPLDYGYMQRHN;HGBOYTHUEUWSSQ;VLKZOEOYAKHREP;FERIUCNNQQJTOY;AMQJEAYHLZJPGS;JYVLIDXNZAXMDK;JARKCYVAAOWBJS;IMNFDUFMRHMDMM;NQPDZGIKBAWPEJ;ZSIAUFGUXNUGDI;FXHGMKSSBGDXIY;TVMXDCGIABBOFY;FUZZWVXGSFPDMH;CETWDUZRCINIHU;NUJGJRNETVAIRJ;MNWFXJYAOYHMED;GYHFUZHODSMOHU;WWZKQHOCKIZLMA;KSMVZQYAVGTKIV;FBUKVWPVBMHYJY;KMPQYAYAQWNLME;GHVNFZFCNZKVNT;HFJRKMMYBMWEAD;ZDPHROOEEOARMN;BGEHHAVMRVXCGR;POULHZVOKOAJMA;UHUFTBALEZWWIH;SZHOJFHSIKHZHA;XGQJZNCFDLXSIJ;TUNFSRHWOTWDNC;NIOYUNMRJMEDGI;WQEPLUUGTLDZJY;IPCSVZSSVZVIGE;XZNLDDNERIACTN;PZLYXEVGRAQCLK;SUESMKJJGAOOGC;YTITYUDOZJUZBE
SubstructureOntologies: CHEMONTID:0002500;NonID:H2O;CHEMONTID:0001831;CHEMONTID:0000286;CHEMONTID:0002230;CHEMONTID:0001205;CHEMONTID:0002434;CHEMONTID:0001661;CHEMONTID:0000333;CHEMONTID:0002229;CHEMONTID:0001334;CHEMONTID:0003086;CHEMONTID:0000298;CHEMONTID:0002949;CHEMONTID:0002951
Ontology: Long-chain fatty acids
OntologyID: CHEMONTID:0002949
RETENTIONTIME: -1
RETENTIONINDEX: -1
TotalBondEnergy: 22239
TotalScore: 6.8792
TotalHrRulesScore: 0.5
TotalBondCleavageScore: 0.5
TotalMassAccuracyScore: 0.491
TotalFragmentLinkageScore: 0.5
TotalBondDissociationEnergyScore: 0.5
DatabaseScore: 0.5714
SubstructureAssignmentScore: 0
RtSimilarityScore: -1
RiSimilarityScore: 0
Num Fragment VS2 (M/Z Intensity MatchedExactMass SaturatedExactMass Formula RearrangedHydrogen PPM MassDiff_mDa IsEvenElectronRule IsHrRule IsSolventAdductFragment AssignedAdductMass AdductString BondDissociationEnergy TreeDepth SMILES TotalScore HrLikelihood BcLikelihood MaLikelihood FlLikelihood BeLikelihood): 1
301.264193	103671.077513	301.273725429709	300.266448974609	C18H36O3	1	31.64	9.53	True	True	False	0		0	0	O=C(O)CCCCCCCCCCCCCCCC(O)C	4.98199069499969	1	1	0.981990694999695	1	1

NAME: 6-Hydroxyoctadecanoic acid
ID: LXKCZUOSRQSRHW
IsSpectrumSearch: False
INCHIKEY: LXKCZUOSRQSRHW-UHFFFAOYNA-N
SMILES: O=C(O)CCCCC(O)CCCCCCCCCCCC
RESOURCES: HMDB=HMDB0112193,LipidMAPS=LMFA02000124
SubstructureInChIKeys: VNWKTOKETHGBQD;XLYOFNOQVPJJNP;WSFSSNUMVMOOMR;OTMSDBZUPAUEDD;OKKJLVBELUTLKV;IKHGUXGNUITLKF;ATUOYWHBWRKTHZ;BDAGIHXWWSANSR;LFQSCWFLJHTTHZ;NBBJYMSMWIIQGU;IJDNQMDRQITEOD;QTBSBXVTEAMEQO;BDERNNFJNOPAEC;KFZMGEQAYNKOFK;ZTQSAGDEMFDKMZ;OFBQJSOFQDEBGM;XBDQKXXYIPTUBI;BTANRVKWQNVYAZ;LRHPLDYGYMQRHN;HGBOYTHUEUWSSQ;VLKZOEOYAKHREP;FERIUCNNQQJTOY;AMQJEAYHLZJPGS;AQIXEPGDORPWBJ;JYVLIDXNZAXMDK;JARKCYVAAOWBJS;IMNFDUFMRHMDMM;NQPDZGIKBAWPEJ;ZSIAUFGUXNUGDI;FXHGMKSSBGDXIY;TVMXDCGIABBOFY;YRMUTQRWVGDUBW;CETWDUZRCINIHU;NUJGJRNETVAIRJ;UKFNNBXGHVJQMJ;YDCRNMJQROAWFT;QVGWQEOFNGJAOO;ICKVZOWXZYBERI;PBZLKHXTZLJSSO;LAWNVEFFZXVKAN;AASQBYVPOFXFGU;XYXANQCOUCDVRX;IOKPZOGAWQXXLF;LMHJFKYQYDSOQO;NGBPDDMTRGHYFM;KTPMCFLPGSCUKH;NAMFFBYYOKLDOM;LXNOENXQFNYMGT;ZTKXZDLAHNDYCJ;DEXVEASLUGBXDF;PXBOJWNZUUEBDU;RIOQEURNPLKGHG;GBOCFSKPHBCOCX;ZNZLXMVSALEVHW;XZNLDDNERIACTN;GIEJMPHHFWMLHG;PZLYXEVGRAQCLK;SUESMKJJGAOOGC;YTITYUDOZJUZBE
SubstructureOntologies: CHEMONTID:0002500;NonID:H2O;CHEMONTID:0001831;CHEMONTID:0000286;CHEMONTID:0002230;CHEMONTID:0001205;CHEMONTID:0002434;CHEMONTID:0001661;CHEMONTID:0000333;CHEMONTID:0002229;CHEMONTID:0001334;CHEMONTID:0003086;CHEMONTID:0000298;CHEMONTID:0002949;CHEMONTID:0002951
Ontology: Long-chain fatty acids
OntologyID: CHEMONTID:0002949
RETENTIONTIME: -1
RETENTIONINDEX: -1
TotalBondEnergy: 22239
TotalScore: 6.8196
TotalHrRulesScore: 0.5
TotalBondCleavageScore: 0.5
TotalMassAccuracyScore: 0.491
TotalFragmentLinkageScore: 0.5
TotalBondDissociationEnergyScore: 0.5
DatabaseScore: 0.5476
SubstructureAssignmentScore: 0
RtSimilarityScore: -1
RiSimilarityScore: 0
Num Fragment VS2 (M/Z Intensity MatchedExactMass SaturatedExactMass Formula RearrangedHydrogen PPM MassDiff_mDa IsEvenElectronRule IsHrRule IsSolventAdductFragment AssignedAdductMass AdductString BondDissociationEnergy TreeDepth SMILES TotalScore HrLikelihood BcLikelihood MaLikelihood FlLikelihood BeLikelihood): 1
301.264193	103671.077513	301.273725429709	300.266448974609	C18H36O3	1	31.64	9.53	True	True	False	0		0	0	O=C(O)CCCCC(O)CCCCCCCCCCCC	4.98199069499969	1	1	0.981990694999695	1	1

NAME: 8-Hydroxyoctadecanoic acid
ID: YYWHSFVJGXJTKD
IsSpectrumSearch: False
INCHIKEY: YYWHSFVJGXJTKD-UHFFFAOYNA-N
SMILES: O=C(O)CCCCCCC(O)CCCCCCCCCC
RESOURCES: HMDB=HMDB0112182,LipidMAPS=LMFA02000126
SubstructureInChIKeys: VNWKTOKETHGBQD;XLYOFNOQVPJJNP;WSFSSNUMVMOOMR;OTMSDBZUPAUEDD;OKKJLVBELUTLKV;IKHGUXGNUITLKF;ATUOYWHBWRKTHZ;BDAGIHXWWSANSR;LFQSCWFLJHTTHZ;NBBJYMSMWIIQGU;IJDNQMDRQITEOD;QTBSBXVTEAMEQO;BDERNNFJNOPAEC;KFZMGEQAYNKOFK;ZTQSAGDEMFDKMZ;OFBQJSOFQDEBGM;XBDQKXXYIPTUBI;BTANRVKWQNVYAZ;LRHPLDYGYMQRHN;HGBOYTHUEUWSSQ;VLKZOEOYAKHREP;FERIUCNNQQJTOY;AMQJEAYHLZJPGS;AQIXEPGDORPWBJ;JYVLIDXNZAXMDK;JARKCYVAAOWBJS;IMNFDUFMRHMDMM;NQPDZGIKBAWPEJ;ZSIAUFGUXNUGDI;FXHGMKSSBGDXIY;TVMXDCGIABBOFY;FUZZWVXGSFPDMH;CETWDUZRCINIHU;NUJGJRNETVAIRJ;MNWFXJYAOYHMED;QVGWQEOFNGJAOO;PBZLKHXTZLJSSO;LAWNVEFFZXVKAN;AASQBYVPOFXFGU;XYXANQCOUCDVRX;IOKPZOGAWQXXLF;LMHJFKYQYDSOQO;NGBPDDMTRGHYFM;KTPMCFLPGSCUKH;NAMFFBYYOKLDOM;LXNOENXQFNYMGT;ZTKXZDLAHNDYCJ;DEXVEASLUGBXDF;PXBOJWNZUUEBDU;RIOQEURNPLKGHG;GBOCFSKPHBCOCX;ZNZLXMVSALEVHW;XZNLDDNERIACTN;GIEJMPHHFWMLHG;PZLYXEVGRAQCLK;SUESMKJJGAOOGC;YTITYUDOZJUZBE
SubstructureOntologies: CHEMONTID:0002500;NonID:H2O;CHEMONTID:0001831;CHEMONTID:0000286;CHEMONTID:0002230;CHEMONTID:0001205;CHEMONTID:0002434;CHEMONTID:0001661;CHEMONTID:0000333;CHEMONTID:0002229;CHEMONTID:0001334;CHEMONTID:0003086;CHEMONTID:0000298;CHEMONTID:0002949;CHEMONTID:0002951
Ontology: Long-chain fatty acids
OntologyID: CHEMONTID:0002949
RETENTIONTIME: -1
RETENTIONINDEX: -1
TotalBondEnergy: 22239
TotalScore: 6.8196
TotalHrRulesScore: 0.5
TotalBondCleavageScore: 0.5
TotalMassAccuracyScore: 0.491
TotalFragmentLinkageScore: 0.5
TotalBondDissociationEnergyScore: 0.5
DatabaseScore: 0.5476
SubstructureAssignmentScore: 0
RtSimilarityScore: -1
RiSimilarityScore: 0
Num Fragment VS2 (M/Z Intensity MatchedExactMass SaturatedExactMass Formula RearrangedHydrogen PPM MassDiff_mDa IsEvenElectronRule IsHrRule IsSolventAdductFragment AssignedAdductMass AdductString BondDissociationEnergy TreeDepth SMILES TotalScore HrLikelihood BcLikelihood MaLikelihood FlLikelihood BeLikelihood): 1
301.264193	103671.077513	301.273725429709	300.266448974609	C18H36O3	1	31.64	9.53	True	True	False	0		0	0	O=C(O)CCCCCCC(O)CCCCCCCCCC	4.98199069499969	1	1	0.981990694999695	1	1

NAME: 15-hydroxy stearic acid
ID: BKVAAWMQOQLENB
IsSpectrumSearch: False
INCHIKEY: BKVAAWMQOQLENB-UHFFFAOYNA-N
SMILES: O=C(O)CCCCCCCCCCCCCC(O)CCC
RESOURCES: LipidMAPS=LMFA02000133,UNPD=UNPD53783
SubstructureInChIKeys: VNWKTOKETHGBQD;XLYOFNOQVPJJNP;WSFSSNUMVMOOMR;OTMSDBZUPAUEDD;OKKJLVBELUTLKV;IKHGUXGNUITLKF;ATUOYWHBWRKTHZ;BDAGIHXWWSANSR;LFQSCWFLJHTTHZ;NBBJYMSMWIIQGU;IJDNQMDRQITEOD;QTBSBXVTEAMEQO;BDERNNFJNOPAEC;KFZMGEQAYNKOFK;ZTQSAGDEMFDKMZ;OFBQJSOFQDEBGM;XBDQKXXYIPTUBI;BTANRVKWQNVYAZ;LRHPLDYGYMQRHN;HGBOYTHUEUWSSQ;VLKZOEOYAKHREP;FERIUCNNQQJTOY;AMQJEAYHLZJPGS;AQIXEPGDORPWBJ;JYVLIDXNZAXMDK;JARKCYVAAOWBJS;IMNFDUFMRHMDMM;NQPDZGIKBAWPEJ;ZSIAUFGUXNUGDI;FXHGMKSSBGDXIY;TVMXDCGIABBOFY;FUZZWVXGSFPDMH;CETWDUZRCINIHU;NUJGJRNETVAIRJ;MNWFXJYAOYHMED;GYHFUZHODSMOHU;WWZKQHOCKIZLMA;KSMVZQYAVGTKIV;FBUKVWPVBMHYJY;KMPQYAYAQWNLME;GHVNFZFCNZKVNT;HFJRKMMYBMWEAD;ZDPHROOEEOARMN;BGEHHAVMRVXCGR;POULHZVOKOAJMA;UHUFTBALEZWWIH;SZHOJFHSIKHZHA;TUNFSRHWOTWDNC;PXBOJWNZUUEBDU;GBOCFSKPHBCOCX;ZNZLXMVSALEVHW;XZNLDDNERIACTN;GIEJMPHHFWMLHG;PZLYXEVGRAQCLK;SUESMKJJGAOOGC;YTITYUDOZJUZBE
SubstructureOntologies: CHEMONTID:0002500;NonID:H2O;CHEMONTID:0001831;CHEMONTID:0000286;CHEMONTID:0002230;CHEMONTID:0001205;CHEMONTID:0002434;CHEMONTID:0001661;CHEMONTID:0000333;CHEMONTID:0002229;CHEMONTID:0001334;CHEMONTID:0003086;CHEMONTID:0000298;CHEMONTID:0002949;CHEMONTID:0002951
Ontology: Long-chain fatty acids
OntologyID: CHEMONTID:0002949
RETENTIONTIME: -1
RETENTIONINDEX: -1
TotalBondEnergy: 22239
TotalScore: 6.8196
TotalHrRulesScore: 0.5
TotalBondCleavageScore: 0.5
TotalMassAccuracyScore: 0.491
TotalFragmentLinkageScore: 0.5
TotalBondDissociationEnergyScore: 0.5
DatabaseScore: 0.5476
SubstructureAssignmentScore: 0
RtSimilarityScore: -1
RiSimilarityScore: 0
Num Fragment VS2 (M/Z Intensity MatchedExactMass SaturatedExactMass Formula RearrangedHydrogen PPM MassDiff_mDa IsEvenElectronRule IsHrRule IsSolventAdductFragment AssignedAdductMass AdductString BondDissociationEnergy TreeDepth SMILES TotalScore HrLikelihood BcLikelihood MaLikelihood FlLikelihood BeLikelihood): 1
301.264193	103671.077513	301.273725429709	300.266448974609	C18H36O3	1	31.64	9.53	True	True	False	0		0	0	O=C(O)CCCCCCCCCCCCCC(O)CCC	4.98199069499969	1	1	0.981990694999695	1	1

NAME: 16-hydroxy stearic acid
ID: IZAIPALZJVSRHT
IsSpectrumSearch: False
INCHIKEY: IZAIPALZJVSRHT-UHFFFAOYNA-N
SMILES: O=C(O)CCCCCCCCCCCCCCC(O)CC
RESOURCES: LipidMAPS=LMFA02000134,UNPD=UNPD31391
SubstructureInChIKeys: VNWKTOKETHGBQD;XLYOFNOQVPJJNP;WSFSSNUMVMOOMR;OTMSDBZUPAUEDD;OKKJLVBELUTLKV;IKHGUXGNUITLKF;ATUOYWHBWRKTHZ;BDAGIHXWWSANSR;LFQSCWFLJHTTHZ;NBBJYMSMWIIQGU;IJDNQMDRQITEOD;QTBSBXVTEAMEQO;BDERNNFJNOPAEC;KFZMGEQAYNKOFK;ZTQSAGDEMFDKMZ;OFBQJSOFQDEBGM;XBDQKXXYIPTUBI;BTANRVKWQNVYAZ;LRHPLDYGYMQRHN;HGBOYTHUEUWSSQ;VLKZOEOYAKHREP;FERIUCNNQQJTOY;AMQJEAYHLZJPGS;AQIXEPGDORPWBJ;JYVLIDXNZAXMDK;JARKCYVAAOWBJS;IMNFDUFMRHMDMM;NQPDZGIKBAWPEJ;ZSIAUFGUXNUGDI;FXHGMKSSBGDXIY;TVMXDCGIABBOFY;FUZZWVXGSFPDMH;CETWDUZRCINIHU;NUJGJRNETVAIRJ;MNWFXJYAOYHMED;GYHFUZHODSMOHU;WWZKQHOCKIZLMA;KSMVZQYAVGTKIV;FBUKVWPVBMHYJY;KMPQYAYAQWNLME;GHVNFZFCNZKVNT;HFJRKMMYBMWEAD;ZDPHROOEEOARMN;BGEHHAVMRVXCGR;POULHZVOKOAJMA;UHUFTBALEZWWIH;SZHOJFHSIKHZHA;XGQJZNCFDLXSIJ;TUNFSRHWOTWDNC;WQEPLUUGTLDZJY;GBOCFSKPHBCOCX;XZNLDDNERIACTN;GIEJMPHHFWMLHG;PZLYXEVGRAQCLK;SUESMKJJGAOOGC;YTITYUDOZJUZBE
SubstructureOntologies: CHEMONTID:0002500;NonID:H2O;CHEMONTID:0001831;CHEMONTID:0000286;CHEMONTID:0002230;CHEMONTID:0001205;CHEMONTID:0002434;CHEMONTID:0001661;CHEMONTID:0000333;CHEMONTID:0002229;CHEMONTID:0001334;CHEMONTID:0003086;CHEMONTID:0000298;CHEMONTID:0002949;CHEMONTID:0002951
Ontology: Long-chain fatty acids
OntologyID: CHEMONTID:0002949
RETENTIONTIME: -1
RETENTIONINDEX: -1
TotalBondEnergy: 22239
TotalScore: 6.8196
TotalHrRulesScore: 0.5
TotalBondCleavageScore: 0.5
TotalMassAccuracyScore: 0.491
TotalFragmentLinkageScore: 0.5
TotalBondDissociationEnergyScore: 0.5
DatabaseScore: 0.5476
SubstructureAssignmentScore: 0
RtSimilarityScore: -1
RiSimilarityScore: 0
Num Fragment VS2 (M/Z Intensity MatchedExactMass SaturatedExactMass Formula RearrangedHydrogen PPM MassDiff_mDa IsEvenElectronRule IsHrRule IsSolventAdductFragment AssignedAdductMass AdductString BondDissociationEnergy TreeDepth SMILES TotalScore HrLikelihood BcLikelihood MaLikelihood FlLikelihood BeLikelihood): 1
301.264193	103671.077513	301.273725429709	300.266448974609	C18H36O3	1	31.64	9.53	True	True	False	0		0	0	O=C(O)CCCCCCCCCCCCCCC(O)CC	4.98199069499969	1	1	0.981990694999695	1	1

NAME: 14-hydroxy stearic acid
ID: LEKAIGKHNJSDAH
IsSpectrumSearch: False
INCHIKEY: LEKAIGKHNJSDAH-UHFFFAOYNA-N
SMILES: O=C(O)CCCCCCCCCCCCC(O)CCCC
RESOURCES: LipidMAPS=LMFA02000132,UNPD=UNPD29018
SubstructureInChIKeys: VNWKTOKETHGBQD;XLYOFNOQVPJJNP;WSFSSNUMVMOOMR;OTMSDBZUPAUEDD;OKKJLVBELUTLKV;IKHGUXGNUITLKF;ATUOYWHBWRKTHZ;BDAGIHXWWSANSR;LFQSCWFLJHTTHZ;NBBJYMSMWIIQGU;IJDNQMDRQITEOD;QTBSBXVTEAMEQO;BDERNNFJNOPAEC;KFZMGEQAYNKOFK;ZTQSAGDEMFDKMZ;OFBQJSOFQDEBGM;XBDQKXXYIPTUBI;BTANRVKWQNVYAZ;LRHPLDYGYMQRHN;HGBOYTHUEUWSSQ;VLKZOEOYAKHREP;FERIUCNNQQJTOY;AMQJEAYHLZJPGS;AQIXEPGDORPWBJ;JYVLIDXNZAXMDK;JARKCYVAAOWBJS;IMNFDUFMRHMDMM;NQPDZGIKBAWPEJ;ZSIAUFGUXNUGDI;FXHGMKSSBGDXIY;TVMXDCGIABBOFY;FUZZWVXGSFPDMH;CETWDUZRCINIHU;NUJGJRNETVAIRJ;MNWFXJYAOYHMED;GYHFUZHODSMOHU;WWZKQHOCKIZLMA;KSMVZQYAVGTKIV;FBUKVWPVBMHYJY;KMPQYAYAQWNLME;GHVNFZFCNZKVNT;HFJRKMMYBMWEAD;ZDPHROOEEOARMN;BGEHHAVMRVXCGR;POULHZVOKOAJMA;SZHOJFHSIKHZHA;ZTKXZDLAHNDYCJ;PXBOJWNZUUEBDU;RIOQEURNPLKGHG;GBOCFSKPHBCOCX;ZNZLXMVSALEVHW;XZNLDDNERIACTN;GIEJMPHHFWMLHG;PZLYXEVGRAQCLK;SUESMKJJGAOOGC;YTITYUDOZJUZBE
SubstructureOntologies: CHEMONTID:0002500;NonID:H2O;CHEMONTID:0001831;CHEMONTID:0000286;CHEMONTID:0002230;CHEMONTID:0001205;CHEMONTID:0002434;CHEMONTID:0001661;CHEMONTID:0000333;CHEMONTID:0002229;CHEMONTID:0001334;CHEMONTID:0003086;CHEMONTID:0000298;CHEMONTID:0002949;CHEMONTID:0002951
Ontology: Long-chain fatty acids
OntologyID: CHEMONTID:0002949
RETENTIONTIME: -1
RETENTIONINDEX: -1
TotalBondEnergy: 22239
TotalScore: 6.8196
TotalHrRulesScore: 0.5
TotalBondCleavageScore: 0.5
TotalMassAccuracyScore: 0.491
TotalFragmentLinkageScore: 0.5
TotalBondDissociationEnergyScore: 0.5
DatabaseScore: 0.5476
SubstructureAssignmentScore: 0
RtSimilarityScore: -1
RiSimilarityScore: 0
Num Fragment VS2 (M/Z Intensity MatchedExactMass SaturatedExactMass Formula RearrangedHydrogen PPM MassDiff_mDa IsEvenElectronRule IsHrRule IsSolventAdductFragment AssignedAdductMass AdductString BondDissociationEnergy TreeDepth SMILES TotalScore HrLikelihood BcLikelihood MaLikelihood FlLikelihood BeLikelihood): 1
301.264193	103671.077513	301.273725429709	300.266448974609	C18H36O3	1	31.64	9.53	True	True	False	0		0	0	O=C(O)CCCCCCCCCCCCC(O)CCCC	4.98199069499969	1	1	0.981990694999695	1	1

NAME: 3-hydroxy-16-methyl-heptadecanoic acid
ID: GWLJUAYGDYEJLV
IsSpectrumSearch: False
INCHIKEY: GWLJUAYGDYEJLV-UHFFFAOYNA-N
SMILES: O=C(O)CC(O)CCCCCCCCCCCCC(C)C
RESOURCES: LipidMAPS=LMFA02000185
SubstructureInChIKeys: VNWKTOKETHGBQD;XLYOFNOQVPJJNP;WSFSSNUMVMOOMR;OTMSDBZUPAUEDD;OKKJLVBELUTLKV;IKHGUXGNUITLKF;ATUOYWHBWRKTHZ;BDAGIHXWWSANSR;LFQSCWFLJHTTHZ;NBBJYMSMWIIQGU;IJDNQMDRQITEOD;NNPPMTNAJDCUHE;QTBSBXVTEAMEQO;BDERNNFJNOPAEC;KFZMGEQAYNKOFK;ZTQSAGDEMFDKMZ;OFBQJSOFQDEBGM;QWTDNUCVQCZILF;AKXKFZDCRYJKTF;XBDQKXXYIPTUBI;BTANRVKWQNVYAZ;LRHPLDYGYMQRHN;YPFDHNVEDLHUCE;HGBOYTHUEUWSSQ;AFABGHUZZDYHJO;VLKZOEOYAKHREP;FERIUCNNQQJTOY;PIAOXUVIBAKVSP;AMQJEAYHLZJPGS;AQIXEPGDORPWBJ;JYVLIDXNZAXMDK;ALRHLSYJTWAHJZ;JVTAAEKCZFNVCJ;PUPZLCDOIYMWBV;JARKCYVAAOWBJS;IMNFDUFMRHMDMM;CNRGMQRNYAIBTN;ZSIAUFGUXNUGDI;SJZRECIVHVDYJC;FXHGMKSSBGDXIY;JVSWJIKNEAIKJW;TVMXDCGIABBOFY;YRMUTQRWVGDUBW;CETWDUZRCINIHU;PHOJOSOUIAQEDH;NUJGJRNETVAIRJ;UKFNNBXGHVJQMJ;YDCRNMJQROAWFT;QVGWQEOFNGJAOO;ICKVZOWXZYBERI;PBZLKHXTZLJSSO;LAWNVEFFZXVKAN;AASQBYVPOFXFGU;XYXANQCOUCDVRX;IOKPZOGAWQXXLF;LMHJFKYQYDSOQO;NGBPDDMTRGHYFM;KTPMCFLPGSCUKH;NAMFFBYYOKLDOM;LXNOENXQFNYMGT;ZTKXZDLAHNDYCJ;DEXVEASLUGBXDF;PXBOJWNZUUEBDU;RIOQEURNPLKGHG;GBOCFSKPHBCOCX;ZNZLXMVSALEVHW;XZNLDDNERIACTN;GIEJMPHHFWMLHG;PZLYXEVGRAQCLK;SUESMKJJGAOOGC;YTITYUDOZJUZBE
SubstructureOntologies: CHEMONTID:0002500;NonID:H2O;CHEMONTID:0001831;CHEMONTID:0000286;CHEMONTID:0002230;CHEMONTID:0001205;CHEMONTID:0002434;CHEMONTID:0004620;CHEMONTID:0001661;CHEMONTID:0000333;CHEMONTID:0001713;CHEMONTID:0001359;CHEMONTID:0002229;CHEMONTID:0001334;CHEMONTID:0000341;CHEMONTID:0003086;CHEMONTID:0000298;CHEMONTID:0002949;CHEMONTID:0002951
Ontology: Long-chain fatty acids
OntologyID: CHEMONTID:0002949
RETENTIONTIME: -1
RETENTIONINDEX: -1
TotalBondEnergy: 22239
TotalScore: 6.7998
TotalHrRulesScore: 0.5
TotalBondCleavageScore: 0.5
TotalMassAccuracyScore: 0.491
TotalFragmentLinkageScore: 0.5
TotalBondDissociationEnergyScore: 0.5
DatabaseScore: 0.5238
SubstructureAssignmentScore: 0.0476
RtSimilarityScore: -1
RiSimilarityScore: 0
Num Fragment VS2 (M/Z Intensity MatchedExactMass SaturatedExactMass Formula RearrangedHydrogen PPM MassDiff_mDa IsEvenElectronRule IsHrRule IsSolventAdductFragment AssignedAdductMass AdductString BondDissociationEnergy TreeDepth SMILES TotalScore HrLikelihood BcLikelihood MaLikelihood FlLikelihood BeLikelihood): 1
301.264193	103671.077513	301.273725429709	300.266448974609	C18H36O3	1	31.64	9.53	True	True	False	0		0	0	O=C(O)CC(O)CCCCCCCCCCCCC(C)C	4.98199069499969	1	1	0.981990694999695	1	1

NAME: 9-methoxy-heptadecanoic acid
ID: OJVARKQKLHOOKH
IsSpectrumSearch: False
INCHIKEY: OJVARKQKLHOOKH-UHFFFAOYNA-N
SMILES: O=C(O)CCCCCCCC(OC)CCCCCCCC
RESOURCES: LipidMAPS=LMFA01080014
SubstructureInChIKeys: VNWKTOKETHGBQD;XLYOFNOQVPJJNP;WSFSSNUMVMOOMR;OTMSDBZUPAUEDD;IKHGUXGNUITLKF;ATUOYWHBWRKTHZ;BDAGIHXWWSANSR;LCGLNKUTAGEVQW;LFQSCWFLJHTTHZ;NBBJYMSMWIIQGU;IJDNQMDRQITEOD;QTBSBXVTEAMEQO;BDERNNFJNOPAEC;XOBKSJJDNFUZPF;ZTQSAGDEMFDKMZ;OFBQJSOFQDEBGM;XBDQKXXYIPTUBI;LRHPLDYGYMQRHN;VNKYTQGIUYNRMY;HGBOYTHUEUWSSQ;VLKZOEOYAKHREP;FERIUCNNQQJTOY;AMQJEAYHLZJPGS;AQIXEPGDORPWBJ;FVNIMHIOIXPIQT;JYVLIDXNZAXMDK;JARKCYVAAOWBJS;IMNFDUFMRHMDMM;NQPDZGIKBAWPEJ;ZSIAUFGUXNUGDI;FXHGMKSSBGDXIY;TVMXDCGIABBOFY;FUZZWVXGSFPDMH;CETWDUZRCINIHU;NUJGJRNETVAIRJ;MNWFXJYAOYHMED;WWZKQHOCKIZLMA;PBZLKHXTZLJSSO;AASQBYVPOFXFGU;XYXANQCOUCDVRX;IOKPZOGAWQXXLF;LMHJFKYQYDSOQO;NGBPDDMTRGHYFM;KTPMCFLPGSCUKH;NAMFFBYYOKLDOM;LXNOENXQFNYMGT;ZTKXZDLAHNDYCJ;DEXVEASLUGBXDF;PXBOJWNZUUEBDU;RIOQEURNPLKGHG;GBOCFSKPHBCOCX;ZNZLXMVSALEVHW;XZNLDDNERIACTN;GIEJMPHHFWMLHG;SUESMKJJGAOOGC
SubstructureOntologies: CHEMONTID:0002500;NonID:H2O;CHEMONTID:0001831;CHEMONTID:0002230;CHEMONTID:0001205;CHEMONTID:0001167;CHEMONTID:0000286;CHEMONTID:0002434;CHEMONTID:0000333;CHEMONTID:0001661;CHEMONTID:0002229;CHEMONTID:0001334;CHEMONTID:0003086;CHEMONTID:0000298;CHEMONTID:0002949;CHEMONTID:0002951
Ontology: Long-chain fatty acids
OntologyID: CHEMONTID:0002949
RETENTIONTIME: -1
RETENTIONINDEX: -1
TotalBondEnergy: 22203
TotalScore: 6.7601
TotalHrRulesScore: 0.5
TotalBondCleavageScore: 0.5
TotalMassAccuracyScore: 0.491
TotalFragmentLinkageScore: 0.5
TotalBondDissociationEnergyScore: 0.5
DatabaseScore: 0.5238
SubstructureAssignmentScore: 0
RtSimilarityScore: -1
RiSimilarityScore: 0
Num Fragment VS2 (M/Z Intensity MatchedExactMass SaturatedExactMass Formula RearrangedHydrogen PPM MassDiff_mDa IsEvenElectronRule IsHrRule IsSolventAdductFragment AssignedAdductMass AdductString BondDissociationEnergy TreeDepth SMILES TotalScore HrLikelihood BcLikelihood MaLikelihood FlLikelihood BeLikelihood): 1
301.264193	103671.077513	301.273725429709	300.266448974609	C18H36O3	1	31.64	9.53	True	True	False	0		0	0	O=C(O)CCCCCCCC(OC)CCCCCCCC	4.98199069499969	1	1	0.981990694999695	1	1

NAME: DL-4-hydroxy stearic acid
ID: VSRRGPPFTIJBJG
IsSpectrumSearch: False
INCHIKEY: VSRRGPPFTIJBJG-UHFFFAOYNA-N
SMILES: O=C(O)CCC(O)CCCCCCCCCCCCCC
RESOURCES: LipidMAPS=LMFA02000122
SubstructureInChIKeys: VNWKTOKETHGBQD;XLYOFNOQVPJJNP;WSFSSNUMVMOOMR;OTMSDBZUPAUEDD;OKKJLVBELUTLKV;IKHGUXGNUITLKF;ATUOYWHBWRKTHZ;BDAGIHXWWSANSR;LFQSCWFLJHTTHZ;NBBJYMSMWIIQGU;IJDNQMDRQITEOD;QTBSBXVTEAMEQO;BDERNNFJNOPAEC;KFZMGEQAYNKOFK;ZTQSAGDEMFDKMZ;OFBQJSOFQDEBGM;XBDQKXXYIPTUBI;BTANRVKWQNVYAZ;LRHPLDYGYMQRHN;HGBOYTHUEUWSSQ;VLKZOEOYAKHREP;FERIUCNNQQJTOY;PIAOXUVIBAKVSP;AMQJEAYHLZJPGS;AQIXEPGDORPWBJ;JYVLIDXNZAXMDK;JARKCYVAAOWBJS;IMNFDUFMRHMDMM;CNRGMQRNYAIBTN;ZSIAUFGUXNUGDI;SJZRECIVHVDYJC;FXHGMKSSBGDXIY;TVMXDCGIABBOFY;YRMUTQRWVGDUBW;CETWDUZRCINIHU;PHOJOSOUIAQEDH;NUJGJRNETVAIRJ;UKFNNBXGHVJQMJ;YDCRNMJQROAWFT;QVGWQEOFNGJAOO;ICKVZOWXZYBERI;PBZLKHXTZLJSSO;LAWNVEFFZXVKAN;AASQBYVPOFXFGU;XYXANQCOUCDVRX;IOKPZOGAWQXXLF;LMHJFKYQYDSOQO;NGBPDDMTRGHYFM;KTPMCFLPGSCUKH;NAMFFBYYOKLDOM;LXNOENXQFNYMGT;ZTKXZDLAHNDYCJ;DEXVEASLUGBXDF;PXBOJWNZUUEBDU;RIOQEURNPLKGHG;GBOCFSKPHBCOCX;ZNZLXMVSALEVHW;XZNLDDNERIACTN;GIEJMPHHFWMLHG;PZLYXEVGRAQCLK;SUESMKJJGAOOGC;YTITYUDOZJUZBE
SubstructureOntologies: CHEMONTID:0002500;NonID:H2O;CHEMONTID:0001831;CHEMONTID:0000286;CHEMONTID:0002230;CHEMONTID:0001205;CHEMONTID:0002434;CHEMONTID:0001661;CHEMONTID:0000333;CHEMONTID:0002229;CHEMONTID:0001334;CHEMONTID:0000341;CHEMONTID:0003086;CHEMONTID:0000298;CHEMONTID:0002949;CHEMONTID:0002951
Ontology: Long-chain fatty acids
OntologyID: CHEMONTID:0002949
RETENTIONTIME: -1
RETENTIONINDEX: -1
TotalBondEnergy: 22239
TotalScore: 6.7601
TotalHrRulesScore: 0.5
TotalBondCleavageScore: 0.5
TotalMassAccuracyScore: 0.491
TotalFragmentLinkageScore: 0.5
TotalBondDissociationEnergyScore: 0.5
DatabaseScore: 0.5238
SubstructureAssignmentScore: 0
RtSimilarityScore: -1
RiSimilarityScore: 0
Num Fragment VS2 (M/Z Intensity MatchedExactMass SaturatedExactMass Formula RearrangedHydrogen PPM MassDiff_mDa IsEvenElectronRule IsHrRule IsSolventAdductFragment AssignedAdductMass AdductString BondDissociationEnergy TreeDepth SMILES TotalScore HrLikelihood BcLikelihood MaLikelihood FlLikelihood BeLikelihood): 1
301.264193	103671.077513	301.273725429709	300.266448974609	C18H36O3	1	31.64	9.53	True	True	False	0		0	0	O=C(O)CCC(O)CCCCCCCCCCCCCC	4.98199069499969	1	1	0.981990694999695	1	1

NAME: 1-monopalmitoylethylene glycol
ID: BXCRLBBIZJSWNS
IsSpectrumSearch: False
INCHIKEY: BXCRLBBIZJSWNS-UHFFFAOYSA-N
SMILES: O=C(OCCO)CCCCCCCCCCCCCCC
RESOURCES: PlantCyc=CPD0-1811
SubstructureInChIKeys: VNWKTOKETHGBQD;XLYOFNOQVPJJNP;WSFSSNUMVMOOMR;OTMSDBZUPAUEDD;OKKJLVBELUTLKV;IKHGUXGNUITLKF;ATUOYWHBWRKTHZ;LCGLNKUTAGEVQW;LFQSCWFLJHTTHZ;NBBJYMSMWIIQGU;IJDNQMDRQITEOD;QTBSBXVTEAMEQO;TZIHFWKZFHZASV;BDERNNFJNOPAEC;XOBKSJJDNFUZPF;LYCAIKOWRPUZTN;ZTQSAGDEMFDKMZ;OFBQJSOFQDEBGM;KXKVLQRXCPHEJC;WBJINCZRORDGAQ;XBDQKXXYIPTUBI;LRHPLDYGYMQRHN;VNKYTQGIUYNRMY;XNWFRZJHXBZDAG;VIBDJEWPNNCFQO;HGBOYTHUEUWSSQ;VLKZOEOYAKHREP;FERIUCNNQQJTOY;XEKOWRVHYACXOJ;AMQJEAYHLZJPGS;ZNQVEEAIQZEUHB;JARKCYVAAOWBJS;IMNFDUFMRHMDMM;NQPDZGIKBAWPEJ;ZSIAUFGUXNUGDI;FXHGMKSSBGDXIY;TVMXDCGIABBOFY;FUZZWVXGSFPDMH;NUJGJRNETVAIRJ;MNWFXJYAOYHMED;GYHFUZHODSMOHU;WWZKQHOCKIZLMA;KSMVZQYAVGTKIV;FBUKVWPVBMHYJY;KMPQYAYAQWNLME;GHVNFZFCNZKVNT;HFJRKMMYBMWEAD;ZDPHROOEEOARMN;BGEHHAVMRVXCGR;POULHZVOKOAJMA;UHUFTBALEZWWIH;SZHOJFHSIKHZHA;XGQJZNCFDLXSIJ;TUNFSRHWOTWDNC;NIOYUNMRJMEDGI;WQEPLUUGTLDZJY;IPCSVZSSVZVIGE
SubstructureOntologies: CHEMONTID:0002500;NonID:H2O;CHEMONTID:0001831;CHEMONTID:0000286;CHEMONTID:0002230;CHEMONTID:0001167;CHEMONTID:0002434;CHEMONTID:0001205;CHEMONTID:0001238;CHEMONTID:0002467;CHEMONTID:0003416;CHEMONTID:0002286;CHEMONTID:0000333;CHEMONTID:0002229;CHEMONTID:0001334;CHEMONTID:0003086;CHEMONTID:0000298;CHEMONTID:0002949
Ontology: Fatty acid esters
OntologyID: CHEMONTID:0000324
RETENTIONTIME: -1
RETENTIONINDEX: -1
TotalBondEnergy: 22203
TotalScore: 6.7601
TotalHrRulesScore: 0.5
TotalBondCleavageScore: 0.5
TotalMassAccuracyScore: 0.491
TotalFragmentLinkageScore: 0.5
TotalBondDissociationEnergyScore: 0.5
DatabaseScore: 0.5238
SubstructureAssignmentScore: 0
RtSimilarityScore: -1
RiSimilarityScore: 0
Num Fragment VS2 (M/Z Intensity MatchedExactMass SaturatedExactMass Formula RearrangedHydrogen PPM MassDiff_mDa IsEvenElectronRule IsHrRule IsSolventAdductFragment AssignedAdductMass AdductString BondDissociationEnergy TreeDepth SMILES TotalScore HrLikelihood BcLikelihood MaLikelihood FlLikelihood BeLikelihood): 1
301.264193	103671.077513	301.273725429709	300.266448974609	C18H36O3	1	31.64	9.53	True	True	False	0		0	0	O=C(OCCO)CCCCCCCCCCCCCCC	4.98199069499969	1	1	0.981990694999695	1	1

NAME: UNPD11693
ID: IQHRUOSDBAXDKA
IsSpectrumSearch: False
INCHIKEY: IQHRUOSDBAXDKA-AGDOHHJYNA-N
SMILES: O=C(OC)C(OC)CCCCCCCCCCCCCC
RESOURCES: UNPD=UNPD11693
SubstructureInChIKeys: VNWKTOKETHGBQD;WSFSSNUMVMOOMR;OTMSDBZUPAUEDD;IKHGUXGNUITLKF;ATUOYWHBWRKTHZ;LCGLNKUTAGEVQW;NBBJYMSMWIIQGU;IJDNQMDRQITEOD;QTBSBXVTEAMEQO;TZIHFWKZFHZASV;WGCNASOHLSPBMP;BDERNNFJNOPAEC;XOBKSJJDNFUZPF;LYCAIKOWRPUZTN;ZTQSAGDEMFDKMZ;OFBQJSOFQDEBGM;AKXKFZDCRYJKTF;KXKVLQRXCPHEJC;XBDQKXXYIPTUBI;YSEFYOVWKJXNCH;LRHPLDYGYMQRHN;VNKYTQGIUYNRMY;AEMRFAOFKBGASW;XNWFRZJHXBZDAG;VIBDJEWPNNCFQO;HGBOYTHUEUWSSQ;VLKZOEOYAKHREP;FERIUCNNQQJTOY;PIAOXUVIBAKVSP;AMQJEAYHLZJPGS;FVNIMHIOIXPIQT;JYVLIDXNZAXMDK;ALRHLSYJTWAHJZ;JVTAAEKCZFNVCJ;BMRWNKZVCUKKSR;YTTFFPATQICAQN;JARKCYVAAOWBJS;IMNFDUFMRHMDMM;CNRGMQRNYAIBTN;ZSIAUFGUXNUGDI;AFENDNXGAFYKQO;SJZRECIVHVDYJC;WCVRQHFDJLLWFE;FXHGMKSSBGDXIY;TVMXDCGIABBOFY;YRMUTQRWVGDUBW;CETWDUZRCINIHU;PHOJOSOUIAQEDH;NUJGJRNETVAIRJ;UKFNNBXGHVJQMJ;YDCRNMJQROAWFT;QVGWQEOFNGJAOO;ICKVZOWXZYBERI;PBZLKHXTZLJSSO;LAWNVEFFZXVKAN;AASQBYVPOFXFGU;XYXANQCOUCDVRX;IOKPZOGAWQXXLF;LMHJFKYQYDSOQO;NGBPDDMTRGHYFM;KTPMCFLPGSCUKH;NAMFFBYYOKLDOM;LXNOENXQFNYMGT;ZTKXZDLAHNDYCJ;DEXVEASLUGBXDF;PXBOJWNZUUEBDU;RIOQEURNPLKGHG;GBOCFSKPHBCOCX;ZNZLXMVSALEVHW;GIEJMPHHFWMLHG
SubstructureOntologies: CHEMONTID:0002500;CHEMONTID:0001831;CHEMONTID:0002230;CHEMONTID:0001167;CHEMONTID:0002434;CHEMONTID:0001205;CHEMONTID:0001238;CHEMONTID:0000286;CHEMONTID:0002467;CHEMONTID:0003416;CHEMONTID:0001359;CHEMONTID:0002286;CHEMONTID:0000333;CHEMONTID:0001661;CHEMONTID:0001713;CHEMONTID:0002229;CHEMONTID:0001334;CHEMONTID:0000341;CHEMONTID:0003086;CHEMONTID:0000298;CHEMONTID:0002949
Ontology: Fatty acid esters
OntologyID: CHEMONTID:0000324
RETENTIONTIME: -1
RETENTIONINDEX: -1
TotalBondEnergy: 22167
TotalScore: 6.0101
TotalHrRulesScore: 0.5
TotalBondCleavageScore: 0.5
TotalMassAccuracyScore: 0.491
TotalFragmentLinkageScore: 0.5
TotalBondDissociationEnergyScore: 0.5
DatabaseScore: 0.2238
SubstructureAssignmentScore: 0
RtSimilarityScore: -1
RiSimilarityScore: 0
Num Fragment VS2 (M/Z Intensity MatchedExactMass SaturatedExactMass Formula RearrangedHydrogen PPM MassDiff_mDa IsEvenElectronRule IsHrRule IsSolventAdductFragment AssignedAdductMass AdductString BondDissociationEnergy TreeDepth SMILES TotalScore HrLikelihood BcLikelihood MaLikelihood FlLikelihood BeLikelihood): 1
301.264193	103671.077513	301.273725429709	300.266448974609	C18H36O3	1	31.64	9.53	True	True	False	0		0	0	O=C(OC)C(OC)CCCCCCCCCCCCCC	4.98199069499969	1	1	0.981990694999695	1	1

NAME: UNPD21158
ID: JJMCFVFRFNRJFL
IsSpectrumSearch: False
INCHIKEY: JJMCFVFRFNRJFL-AGDOHHJYNA-N
SMILES: O=C(OC)CCCCC(OC)CCCCCCCCCC
RESOURCES: UNPD=UNPD21158
SubstructureInChIKeys: VNWKTOKETHGBQD;WSFSSNUMVMOOMR;OTMSDBZUPAUEDD;IKHGUXGNUITLKF;ATUOYWHBWRKTHZ;LCGLNKUTAGEVQW;NBBJYMSMWIIQGU;IJDNQMDRQITEOD;QTBSBXVTEAMEQO;TZIHFWKZFHZASV;BDERNNFJNOPAEC;XOBKSJJDNFUZPF;ZTQSAGDEMFDKMZ;OFBQJSOFQDEBGM;KXKVLQRXCPHEJC;XBDQKXXYIPTUBI;LRHPLDYGYMQRHN;VNKYTQGIUYNRMY;HGBOYTHUEUWSSQ;VLKZOEOYAKHREP;FERIUCNNQQJTOY;AMQJEAYHLZJPGS;AQIXEPGDORPWBJ;FVNIMHIOIXPIQT;JYVLIDXNZAXMDK;JARKCYVAAOWBJS;IMNFDUFMRHMDMM;NQPDZGIKBAWPEJ;ZSIAUFGUXNUGDI;FXHGMKSSBGDXIY;TVMXDCGIABBOFY;YRMUTQRWVGDUBW;CETWDUZRCINIHU;NUJGJRNETVAIRJ;UKFNNBXGHVJQMJ;YDCRNMJQROAWFT;QVGWQEOFNGJAOO;ICKVZOWXZYBERI;PBZLKHXTZLJSSO;LAWNVEFFZXVKAN;AASQBYVPOFXFGU;XYXANQCOUCDVRX;IOKPZOGAWQXXLF;LMHJFKYQYDSOQO;NGBPDDMTRGHYFM;KTPMCFLPGSCUKH;NAMFFBYYOKLDOM;LXNOENXQFNYMGT;ZTKXZDLAHNDYCJ;DEXVEASLUGBXDF;PXBOJWNZUUEBDU;RIOQEURNPLKGHG;GBOCFSKPHBCOCX;ZNZLXMVSALEVHW;GIEJMPHHFWMLHG
SubstructureOntologies: CHEMONTID:0002500;CHEMONTID:0001831;CHEMONTID:0002230;CHEMONTID:0001167;CHEMONTID:0002434;CHEMONTID:0001205;CHEMONTID:0001238;CHEMONTID:0000286;CHEMONTID:0003416;CHEMONTID:0000333;CHEMONTID:0001661;CHEMONTID:0002229;CHEMONTID:0001334;CHEMONTID:0003086;CHEMONTID:0000298;CHEMONTID:0002949
Ontology: Fatty acid methyl esters
OntologyID: CHEMONTID:0003417
RETENTIONTIME: -1
RETENTIONINDEX: -1
TotalBondEnergy: 22167
TotalScore: 6.0101
TotalHrRulesScore: 0.5
TotalBondCleavageScore: 0.5
TotalMassAccuracyScore: 0.491
TotalFragmentLinkageScore: 0.5
TotalBondDissociationEnergyScore: 0.5
DatabaseScore: 0.2238
SubstructureAssignmentScore: 0
RtSimilarityScore: -1
RiSimilarityScore: 0
Num Fragment VS2 (M/Z Intensity MatchedExactMass SaturatedExactMass Formula RearrangedHydrogen PPM MassDiff_mDa IsEvenElectronRule IsHrRule IsSolventAdductFragment AssignedAdductMass AdductString BondDissociationEnergy TreeDepth SMILES TotalScore HrLikelihood BcLikelihood MaLikelihood FlLikelihood BeLikelihood): 1
301.264193	103671.077513	301.273725429709	300.266448974609	C18H36O3	1	31.64	9.53	True	True	False	0		0	0	O=C(OC)CCCCC(OC)CCCCCCCCCC	4.98199069499969	1	1	0.981990694999695	1	1

NAME: UNPD117051
ID: QAWYHXXAUSOCQO
IsSpectrumSearch: False
INCHIKEY: QAWYHXXAUSOCQO-AGDOHHJYNA-N
SMILES: O=C(OC)CCCCCCCC(OC)CCCCCCC
RESOURCES: UNPD=UNPD117051
SubstructureInChIKeys: VNWKTOKETHGBQD;WSFSSNUMVMOOMR;OTMSDBZUPAUEDD;IKHGUXGNUITLKF;ATUOYWHBWRKTHZ;LCGLNKUTAGEVQW;NBBJYMSMWIIQGU;IJDNQMDRQITEOD;QTBSBXVTEAMEQO;TZIHFWKZFHZASV;BDERNNFJNOPAEC;XOBKSJJDNFUZPF;ZTQSAGDEMFDKMZ;OFBQJSOFQDEBGM;KXKVLQRXCPHEJC;XBDQKXXYIPTUBI;LRHPLDYGYMQRHN;VNKYTQGIUYNRMY;HGBOYTHUEUWSSQ;VLKZOEOYAKHREP;FERIUCNNQQJTOY;AMQJEAYHLZJPGS;AQIXEPGDORPWBJ;FVNIMHIOIXPIQT;JYVLIDXNZAXMDK;JARKCYVAAOWBJS;IMNFDUFMRHMDMM;NQPDZGIKBAWPEJ;ZSIAUFGUXNUGDI;FXHGMKSSBGDXIY;TVMXDCGIABBOFY;FUZZWVXGSFPDMH;CETWDUZRCINIHU;NUJGJRNETVAIRJ;MNWFXJYAOYHMED;WWZKQHOCKIZLMA;PBZLKHXTZLJSSO;AASQBYVPOFXFGU;XYXANQCOUCDVRX;IOKPZOGAWQXXLF;LMHJFKYQYDSOQO;NGBPDDMTRGHYFM;KTPMCFLPGSCUKH;NAMFFBYYOKLDOM;LXNOENXQFNYMGT;ZTKXZDLAHNDYCJ;DEXVEASLUGBXDF;PXBOJWNZUUEBDU;RIOQEURNPLKGHG;GBOCFSKPHBCOCX;ZNZLXMVSALEVHW;GIEJMPHHFWMLHG
SubstructureOntologies: CHEMONTID:0002500;CHEMONTID:0001831;CHEMONTID:0002230;CHEMONTID:0001167;CHEMONTID:0002434;CHEMONTID:0001205;CHEMONTID:0001238;CHEMONTID:0000286;CHEMONTID:0003416;CHEMONTID:0000333;CHEMONTID:0001661;CHEMONTID:0002229;CHEMONTID:0001334;CHEMONTID:0003086;CHEMONTID:0000298;CHEMONTID:0002949
Ontology: Fatty acid methyl esters
OntologyID: CHEMONTID:0003417
RETENTIONTIME: -1
RETENTIONINDEX: -1
TotalBondEnergy: 22167
TotalScore: 6.0101
TotalHrRulesScore: 0.5
TotalBondCleavageScore: 0.5
TotalMassAccuracyScore: 0.491
TotalFragmentLinkageScore: 0.5
TotalBondDissociationEnergyScore: 0.5
DatabaseScore: 0.2238
SubstructureAssignmentScore: 0
RtSimilarityScore: -1
RiSimilarityScore: 0
Num Fragment VS2 (M/Z Intensity MatchedExactMass SaturatedExactMass Formula RearrangedHydrogen PPM MassDiff_mDa IsEvenElectronRule IsHrRule IsSolventAdductFragment AssignedAdductMass AdductString BondDissociationEnergy TreeDepth SMILES TotalScore HrLikelihood BcLikelihood MaLikelihood FlLikelihood BeLikelihood): 1
301.264193	103671.077513	301.273725429709	300.266448974609	C18H36O3	1	31.64	9.53	True	True	False	0		0	0	O=C(OC)CCCCCCCC(OC)CCCCCCC	4.98199069499969	1	1	0.981990694999695	1	1

NAME: UNPD183790
ID: RXRPTOHFHPKKAL
IsSpectrumSearch: False
INCHIKEY: RXRPTOHFHPKKAL-AGDOHHJYNA-N
SMILES: O=C(OC)CCCCCCCCC(OC)CCCCCC
RESOURCES: UNPD=UNPD183790
SubstructureInChIKeys: VNWKTOKETHGBQD;WSFSSNUMVMOOMR;OTMSDBZUPAUEDD;IKHGUXGNUITLKF;ATUOYWHBWRKTHZ;LCGLNKUTAGEVQW;NBBJYMSMWIIQGU;IJDNQMDRQITEOD;QTBSBXVTEAMEQO;TZIHFWKZFHZASV;BDERNNFJNOPAEC;XOBKSJJDNFUZPF;ZTQSAGDEMFDKMZ;OFBQJSOFQDEBGM;KXKVLQRXCPHEJC;XBDQKXXYIPTUBI;LRHPLDYGYMQRHN;VNKYTQGIUYNRMY;HGBOYTHUEUWSSQ;VLKZOEOYAKHREP;FERIUCNNQQJTOY;AMQJEAYHLZJPGS;AQIXEPGDORPWBJ;FVNIMHIOIXPIQT;JYVLIDXNZAXMDK;JARKCYVAAOWBJS;IMNFDUFMRHMDMM;NQPDZGIKBAWPEJ;ZSIAUFGUXNUGDI;FXHGMKSSBGDXIY;TVMXDCGIABBOFY;FUZZWVXGSFPDMH;CETWDUZRCINIHU;NUJGJRNETVAIRJ;MNWFXJYAOYHMED;GYHFUZHODSMOHU;WWZKQHOCKIZLMA;FBUKVWPVBMHYJY;AASQBYVPOFXFGU;IOKPZOGAWQXXLF;LMHJFKYQYDSOQO;NGBPDDMTRGHYFM;KTPMCFLPGSCUKH;NAMFFBYYOKLDOM;LXNOENXQFNYMGT;ZTKXZDLAHNDYCJ;DEXVEASLUGBXDF;PXBOJWNZUUEBDU;RIOQEURNPLKGHG;GBOCFSKPHBCOCX;ZNZLXMVSALEVHW;GIEJMPHHFWMLHG
SubstructureOntologies: CHEMONTID:0002500;CHEMONTID:0001831;CHEMONTID:0002230;CHEMONTID:0001167;CHEMONTID:0002434;CHEMONTID:0001205;CHEMONTID:0001238;CHEMONTID:0000286;CHEMONTID:0003416;CHEMONTID:0000333;CHEMONTID:0001661;CHEMONTID:0002229;CHEMONTID:0001334;CHEMONTID:0003086;CHEMONTID:0000298;CHEMONTID:0002949
Ontology: Fatty acid methyl esters
OntologyID: CHEMONTID:0003417
RETENTIONTIME: -1
RETENTIONINDEX: -1
TotalBondEnergy: 22167
TotalScore: 6.0101
TotalHrRulesScore: 0.5
TotalBondCleavageScore: 0.5
TotalMassAccuracyScore: 0.491
TotalFragmentLinkageScore: 0.5
TotalBondDissociationEnergyScore: 0.5
DatabaseScore: 0.2238
SubstructureAssignmentScore: 0
RtSimilarityScore: -1
RiSimilarityScore: 0
Num Fragment VS2 (M/Z Intensity MatchedExactMass SaturatedExactMass Formula RearrangedHydrogen PPM MassDiff_mDa IsEvenElectronRule IsHrRule IsSolventAdductFragment AssignedAdductMass AdductString BondDissociationEnergy TreeDepth SMILES TotalScore HrLikelihood BcLikelihood MaLikelihood FlLikelihood BeLikelihood): 1
301.264193	103671.077513	301.273725429709	300.266448974609	C18H36O3	1	31.64	9.53	True	True	False	0		0	0	O=C(OC)CCCCCCCCC(OC)CCCCCC	4.98199069499969	1	1	0.981990694999695	1	1

NAME: UNPD173395
ID: UVIQCJHXPJPAOJ
IsSpectrumSearch: False
INCHIKEY: UVIQCJHXPJPAOJ-UHFFFAOYSA-N
SMILES: O=C(OC)CCCCCCCCCCCCCCCCO
RESOURCES: UNPD=UNPD173395
SubstructureInChIKeys: VNWKTOKETHGBQD;XLYOFNOQVPJJNP;WSFSSNUMVMOOMR;OTMSDBZUPAUEDD;OKKJLVBELUTLKV;IKHGUXGNUITLKF;ATUOYWHBWRKTHZ;LCGLNKUTAGEVQW;LFQSCWFLJHTTHZ;NBBJYMSMWIIQGU;IJDNQMDRQITEOD;QTBSBXVTEAMEQO;TZIHFWKZFHZASV;BDERNNFJNOPAEC;XOBKSJJDNFUZPF;ZTQSAGDEMFDKMZ;OFBQJSOFQDEBGM;KXKVLQRXCPHEJC;XBDQKXXYIPTUBI;LRHPLDYGYMQRHN;VNKYTQGIUYNRMY;HGBOYTHUEUWSSQ;VLKZOEOYAKHREP;FERIUCNNQQJTOY;AMQJEAYHLZJPGS;JARKCYVAAOWBJS;IMNFDUFMRHMDMM;NQPDZGIKBAWPEJ;ZSIAUFGUXNUGDI;FXHGMKSSBGDXIY;TVMXDCGIABBOFY;FUZZWVXGSFPDMH;NUJGJRNETVAIRJ;MNWFXJYAOYHMED;GYHFUZHODSMOHU;WWZKQHOCKIZLMA;KSMVZQYAVGTKIV;FBUKVWPVBMHYJY;KMPQYAYAQWNLME;GHVNFZFCNZKVNT;HFJRKMMYBMWEAD;ZDPHROOEEOARMN;BGEHHAVMRVXCGR;POULHZVOKOAJMA;UHUFTBALEZWWIH;SZHOJFHSIKHZHA;XGQJZNCFDLXSIJ;TUNFSRHWOTWDNC;NIOYUNMRJMEDGI;WQEPLUUGTLDZJY;IPCSVZSSVZVIGE;XZNLDDNERIACTN;SUESMKJJGAOOGC
SubstructureOntologies: CHEMONTID:0002500;NonID:H2O;CHEMONTID:0001831;CHEMONTID:0000286;CHEMONTID:0002230;CHEMONTID:0001167;CHEMONTID:0002434;CHEMONTID:0001205;CHEMONTID:0001238;CHEMONTID:0003416;CHEMONTID:0000333;CHEMONTID:0002229;CHEMONTID:0001334;CHEMONTID:0003086;CHEMONTID:0000298;CHEMONTID:0002949;CHEMONTID:0002951
Ontology: Long-chain fatty alcohols
OntologyID: CHEMONTID:0002951
RETENTIONTIME: -1
RETENTIONINDEX: -1
TotalBondEnergy: 22203
TotalScore: 6.0101
TotalHrRulesScore: 0.5
TotalBondCleavageScore: 0.5
TotalMassAccuracyScore: 0.491
TotalFragmentLinkageScore: 0.5
TotalBondDissociationEnergyScore: 0.5
DatabaseScore: 0.2238
SubstructureAssignmentScore: 0
RtSimilarityScore: -1
RiSimilarityScore: 0
Num Fragment VS2 (M/Z Intensity MatchedExactMass SaturatedExactMass Formula RearrangedHydrogen PPM MassDiff_mDa IsEvenElectronRule IsHrRule IsSolventAdductFragment AssignedAdductMass AdductString BondDissociationEnergy TreeDepth SMILES TotalScore HrLikelihood BcLikelihood MaLikelihood FlLikelihood BeLikelihood): 1
301.264193	103671.077513	301.273725429709	300.266448974609	C18H36O3	1	31.64	9.53	True	True	False	0		0	0	O=C(OC)CCCCCCCCCCCCCCCCO	4.98199069499969	1	1	0.981990694999695	1	1

NAME: UNPD80747
ID: VKXCGTOIGZLMFH
IsSpectrumSearch: False
INCHIKEY: VKXCGTOIGZLMFH-AGDOHHJYNA-N
SMILES: O=C(OC)CCCCCC(OC)CCCCCCCCC
RESOURCES: UNPD=UNPD80747
SubstructureInChIKeys: VNWKTOKETHGBQD;WSFSSNUMVMOOMR;OTMSDBZUPAUEDD;IKHGUXGNUITLKF;ATUOYWHBWRKTHZ;LCGLNKUTAGEVQW;NBBJYMSMWIIQGU;IJDNQMDRQITEOD;QTBSBXVTEAMEQO;TZIHFWKZFHZASV;BDERNNFJNOPAEC;XOBKSJJDNFUZPF;ZTQSAGDEMFDKMZ;OFBQJSOFQDEBGM;KXKVLQRXCPHEJC;XBDQKXXYIPTUBI;LRHPLDYGYMQRHN;VNKYTQGIUYNRMY;HGBOYTHUEUWSSQ;VLKZOEOYAKHREP;FERIUCNNQQJTOY;AMQJEAYHLZJPGS;AQIXEPGDORPWBJ;FVNIMHIOIXPIQT;JYVLIDXNZAXMDK;JARKCYVAAOWBJS;IMNFDUFMRHMDMM;NQPDZGIKBAWPEJ;ZSIAUFGUXNUGDI;FXHGMKSSBGDXIY;TVMXDCGIABBOFY;FUZZWVXGSFPDMH;CETWDUZRCINIHU;NUJGJRNETVAIRJ;UKFNNBXGHVJQMJ;QVGWQEOFNGJAOO;ICKVZOWXZYBERI;PBZLKHXTZLJSSO;LAWNVEFFZXVKAN;AASQBYVPOFXFGU;XYXANQCOUCDVRX;IOKPZOGAWQXXLF;LMHJFKYQYDSOQO;NGBPDDMTRGHYFM;KTPMCFLPGSCUKH;NAMFFBYYOKLDOM;LXNOENXQFNYMGT;ZTKXZDLAHNDYCJ;DEXVEASLUGBXDF;PXBOJWNZUUEBDU;RIOQEURNPLKGHG;GBOCFSKPHBCOCX;ZNZLXMVSALEVHW;GIEJMPHHFWMLHG
SubstructureOntologies: CHEMONTID:0002500;CHEMONTID:0001831;CHEMONTID:0002230;CHEMONTID:0001167;CHEMONTID:0002434;CHEMONTID:0001205;CHEMONTID:0001238;CHEMONTID:0000286;CHEMONTID:0003416;CHEMONTID:0000333;CHEMONTID:0001661;CHEMONTID:0002229;CHEMONTID:0001334;CHEMONTID:0003086;CHEMONTID:0000298;CHEMONTID:0002949
Ontology: Fatty acid methyl esters
OntologyID: CHEMONTID:0003417
RETENTIONTIME: -1
RETENTIONINDEX: -1
TotalBondEnergy: 22167
TotalScore: 6.0101
TotalHrRulesScore: 0.5
TotalBondCleavageScore: 0.5
TotalMassAccuracyScore: 0.491
TotalFragmentLinkageScore: 0.5
TotalBondDissociationEnergyScore: 0.5
DatabaseScore: 0.2238
SubstructureAssignmentScore: 0
RtSimilarityScore: -1
RiSimilarityScore: 0
Num Fragment VS2 (M/Z Intensity MatchedExactMass SaturatedExactMass Formula RearrangedHydrogen PPM MassDiff_mDa IsEvenElectronRule IsHrRule IsSolventAdductFragment AssignedAdductMass AdductString BondDissociationEnergy TreeDepth SMILES TotalScore HrLikelihood BcLikelihood MaLikelihood FlLikelihood BeLikelihood): 1
301.264193	103671.077513	301.273725429709	300.266448974609	C18H36O3	1	31.64	9.53	True	True	False	0		0	0	O=C(OC)CCCCCC(OC)CCCCCCCCC	4.98199069499969	1	1	0.981990694999695	1	1

