NAME: NPTX 11;Nephilatoxin 11
ID: HARVYOOSMXGZBD
IsSpectrumSearch: False
INCHIKEY: HARVYOOSMXGZBD-MQEFSVKANA-N
SMILES: O=C(N)CC(NC(=O)CC2=CNC=1C=CC=CC=12)C(=O)NCCCCCNC(=O)C(N)CCCN
RESOURCES: KNApSAcK=C00025968,UNPD=UNPD41068
SubstructureInChIKeys: QGZKDVFQNNGYKY;WSFSSNUMVMOOMR;OTMSDBZUPAUEDD;BAVYZALUXZFZLV;IKHGUXGNUITLKF;ATUOYWHBWRKTHZ;QUSNBJAOOMFDIB;ROSDSFDQCJNGOL;NBBJYMSMWIIQGU;IJDNQMDRQITEOD;ATHHXGZTWNVVOU;LYIIBVSRGJSHAV;JJWLVOIRVHMVIS;LIWAQLJGPBVORC;WGYKZJWCGVVSQN;ZTQSAGDEMFDKMZ;OFBQJSOFQDEBGM;QPMCUNAXNMSGTK;GVWISOJSERXQBM;HPNMFZURTQLUMO;HQABUPZFAYXKJW;XHFGWHUWQXTGAT;UHOVQNZJYSORNB;HGBOYTHUEUWSSQ;DZQLQEYLEYWJIB;FGEPRNXUNITOCW;SUUDTPGCUKBECW;DPBLXKKOBLCELK;QCOGKXLOEWLIDC;VLSTXUUYLIALPB;VHRGRCVQAFMJIZ;FVRHIJPPPSYMGI;SKPCTMWFLGENTL;SIKJAQJRHWYJAI;DCDFYDJCNWNFFZ;ZFRKQXVRDFCRJG;GOVXKUCVZUROAN;APJYDQYYACXCRM;NCIKQJBVUNUXLW
SubstructureOntologies: NonID:NH2;CHEMONTID:0001831;CHEMONTID:0002500;CHEMONTID:0000469;CHEMONTID:0002230;CHEMONTID:0002228;CHEMONTID:0002434;CHEMONTID:0002484;CHEMONTID:0002279;CHEMONTID:0001663;CHEMONTID:0001878;CHEMONTID:0002309;CHEMONTID:0002497;CHEMONTID:0004529;CHEMONTID:0004196;CHEMONTID:0000183
Ontology: Asparagine and derivatives
OntologyID: CHEMONTID:0004312
RETENTIONTIME: -1
RETENTIONINDEX: -1
TotalBondEnergy: 29598
TotalScore: 6.5746
TotalHrRulesScore: 1
TotalBondCleavageScore: 1
TotalMassAccuracyScore: 0.9996
TotalFragmentLinkageScore: 1
TotalBondDissociationEnergyScore: 1
DatabaseScore: 0.5476
SubstructureAssignmentScore: 0
RtSimilarityScore: -1
RiSimilarityScore: 0
Num Fragment VS2 (M/Z Intensity MatchedExactMass SaturatedExactMass Formula RearrangedHydrogen PPM MassDiff_mDa IsEvenElectronRule IsHrRule IsSolventAdductFragment AssignedAdductMass AdductString BondDissociationEnergy TreeDepth SMILES TotalScore HrLikelihood BcLikelihood MaLikelihood FlLikelihood BeLikelihood): 1
488.299312	244999.867685	488.297986904319	487.290710449219	C24H37N7O4	1	2.71	1.32	True	True	False	0		0	0	O=C(N)CC(NC(=O)CC2=CNC=1C=CC=CC=12)C(=O)NCCCCCNC(=O)C(N)CCCN	4.99964886903763	1	1	0.999648869037628	1	1

