NAME: UNPD150213
ID: ILPPOJOLHIYAMU
IsSpectrumSearch: False
INCHIKEY: ILPPOJOLHIYAMU-QCONKOLYNA-N
SMILES: O=C(NC1C(O)C(OCC1(O)(C))OC3C(O)C(OC2OC(=CCC2(N))CN)C(N)C(O)C3(N))C
RESOURCES: UNPD=UNPD150213
SubstructureInChIKeys: VNWKTOKETHGBQD;QGZKDVFQNNGYKY;XLYOFNOQVPJJNP;VGGSQFUCUMXWEO;WSFSSNUMVMOOMR;BAVYZALUXZFZLV;OKKJLVBELUTLKV;IKHGUXGNUITLKF;IMROMDMJAWUWLK;ATUOYWHBWRKTHZ;QUSNBJAOOMFDIB;ROSDSFDQCJNGOL;LCGLNKUTAGEVQW;LFQSCWFLJHTTHZ;CKFGINPQOCXMAZ;IAQRGUVFOMOMEM;VXNZUUAINFGPBY;XJRBAMWJDBPFIM;IJDNQMDRQITEOD;NNPPMTNAJDCUHE;ATHHXGZTWNVVOU;JJWLVOIRVHMVIS;LIWAQLJGPBVORC;WGYKZJWCGVVSQN;BDERNNFJNOPAEC;KFZMGEQAYNKOFK;XOBKSJJDNFUZPF;HZAXFHJVJLSVMW;LYCAIKOWRPUZTN;QMMOXUPEWRXHJS;YWAKXRMUMFPDSH;OFBQJSOFQDEBGM;QWTDNUCVQCZILF;GVWISOJSERXQBM;HPNMFZURTQLUMO;HQABUPZFAYXKJW;KDSNLYIMUZNERS;XHFGWHUWQXTGAT;BEBCJVAWIBVWNZ;BTANRVKWQNVYAZ;LRHPLDYGYMQRHN;VNKYTQGIUYNRMY;ZXEKIIBDNHEJCQ;HXKKHQJGJAFBHI;WUGQZFFCHPXWKQ;DNIAPMSPPWPWGF;RRLWYLINGKISHN;XNWFRZJHXBZDAG;YPFDHNVEDLHUCE;VIBDJEWPNNCFQO;RYPKRALMXUUNKS;XDTMQSROBMDMFD;AFABGHUZZDYHJO;VLKZOEOYAKHREP;SUUDTPGCUKBECW;DPBLXKKOBLCELK;AMQJEAYHLZJPGS;AQIXEPGDORPWBJ;FVNIMHIOIXPIQT;JYVLIDXNZAXMDK;PHTQWCKDNZKARW;BMRWNKZVCUKKSR;CHCLGECDSSWNCP;JDFDHBSESGTDAL;PUPZLCDOIYMWBV;YTTFFPATQICAQN;ZNQVEEAIQZEUHB;PEDCQBHIVMGVHV;HPXRVTGHNJAIIH;ZSIAUFGUXNUGDI;VHRGRCVQAFMJIZ;KLKFAASOGCDTDT;QONBKISCDWCHKF;WCVRQHFDJLLWFE;XLMFDCKSFJWJTP;ARXKVVRQIIOZGF;MTHSVFCYNBDYFN;YAXKTBLXMTYWDQ;MQVRLONNONYDJP;MMQYUDBFDDEJBP;AALKGALVYCZETF;BXXXHBWYZKLUGM;GZXFYIDYTCWDDN;LOSWWGJGSSQDKH;UXUFMKFUJJLWKM;QXAMTEJJAZOINB;ZDAWZDFBPUUDAY;BJBURJZEESAQPG;QVNPTEPOWBEITR;QNKOVWCOVLYPKR;TVTGZVYLUHVBAJ;RLQSUKOOLWMMSY
SubstructureOntologies: CHEMONTID:0002500;NonID:NH2;NonID:H2O;CHEMONTID:0004476;CHEMONTID:0001831;CHEMONTID:0000469;CHEMONTID:0000286;CHEMONTID:0002230;CHEMONTID:0000132;CHEMONTID:0002228;CHEMONTID:0001167;CHEMONTID:0001605;CHEMONTID:0000323;CHEMONTID:0004620;CHEMONTID:0002484;CHEMONTID:0001661;CHEMONTID:0001897;CHEMONTID:0002467;CHEMONTID:0001852;CHEMONTID:0001092;CHEMONTID:0002286;CHEMONTID:0001016;CHEMONTID:0001663;CHEMONTID:0001656;CHEMONTID:0002210;CHEMONTID:0002647;CHEMONTID:0001334;CHEMONTID:0002012;CHEMONTID:0003263;CHEMONTID:0002207;CHEMONTID:0001498;CHEMONTID:0003861
Ontology: O-glycosyl compounds
OntologyID: CHEMONTID:0002207
RETENTIONTIME: -1
RETENTIONINDEX: -1
TotalBondEnergy: 28187
TotalScore: 5.5837
TotalHrRulesScore: 1
TotalBondCleavageScore: 0.828
TotalMassAccuracyScore: 0.9624
TotalFragmentLinkageScore: 1
TotalBondDissociationEnergyScore: 0.7823
DatabaseScore: 0.2238
SubstructureAssignmentScore: 0
RtSimilarityScore: -1
RiSimilarityScore: 0
Num Fragment VS2 (M/Z Intensity MatchedExactMass SaturatedExactMass Formula RearrangedHydrogen PPM MassDiff_mDa IsEvenElectronRule IsHrRule IsSolventAdductFragment AssignedAdductMass AdductString BondDissociationEnergy TreeDepth SMILES TotalScore HrLikelihood BcLikelihood MaLikelihood FlLikelihood BeLikelihood): 2
263.226264	13773.945429	263.207776943381	262.200500488281	C11H26N4O3	1	70.23	18.49	True	True	False	0		1408	2	OCC(OCC(N)CC=CCN)C(N)C(O)CN	4.15467055454085	1	0.656099915504456	0.933929562568665	1	0.564641076467732
492.27314	16771.378921	492.266401210959	491.259124755859	C20H37N5O9	1	13.69	6.74	True	True	False	0		0	0	O=C(NC1C(O)C(OCC1(O)(C))OC3C(O)C(OC2OC(=CCC2(N))CN)C(N)C(O)C3(N))C	4.99095886945724	1	1	0.990958869457245	1	1

