NAME: 5,6-Indolequinone-2-carboxylic acid
ID: FXURFKFOPCZEKG
IsSpectrumSearch: False
INCHIKEY: FXURFKFOPCZEKG-UHFFFAOYSA-N
SMILES: O=C(O)C1=CC2=CC(=O)C(=O)C=C2(N1)
RESOURCES: ChEBI=CHEBI:81394,PubChem=17796835,PlantCyc=CPD-12374
SubstructureInChIKeys: XLYOFNOQVPJJNP;WSFSSNUMVMOOMR;IKHGUXGNUITLKF;BDAGIHXWWSANSR;LFQSCWFLJHTTHZ;QTBSBXVTEAMEQO;UHOVQNZJYSORNB;IWDCLRJOBJJRNH;GHMLBKRAJCXXBS;SIKJAQJRHWYJAI;FUGYGGDSWSUORM;OIPPWFOQEKKFEE;ZBCATMYQYDCTIZ;FBTSUTGMWBDAAC
SubstructureOntologies: NonID:H2O;CHEMONTID:0001831;CHEMONTID:0002230;CHEMONTID:0001205;CHEMONTID:0000286;CHEMONTID:0002279;CHEMONTID:0001275;CHEMONTID:0000137;CHEMONTID:0002497;CHEMONTID:0000037;CHEMONTID:0000135
Ontology: Indoles and derivatives
OntologyID: CHEMONTID:0000211
RETENTIONTIME: -1
RETENTIONINDEX: -1
TotalBondEnergy: 9175
TotalScore: 5.4813
TotalHrRulesScore: 0.5
TotalBondCleavageScore: 0.5
TotalMassAccuracyScore: 0.4984
TotalFragmentLinkageScore: 0.5
TotalBondDissociationEnergyScore: 0.5
DatabaseScore: 0.5714
SubstructureAssignmentScore: 0
RtSimilarityScore: -1
RiSimilarityScore: 0
Num Fragment VS2 (M/Z Intensity MatchedExactMass SaturatedExactMass Formula RearrangedHydrogen PPM MassDiff_mDa IsEvenElectronRule IsHrRule IsSolventAdductFragment AssignedAdductMass AdductString BondDissociationEnergy TreeDepth SMILES TotalScore HrLikelihood BcLikelihood MaLikelihood FlLikelihood BeLikelihood): 1
192.033087	21430.794363	192.029142299827	191.021865844727	C9H5NO4	1	20.54	3.94	True	True	False	0		0	0	O=C(O)C1=CC2=CC(=O)C(=O)C=C2(N1)	4.99689269065857	1	1	0.996892690658569	1	1

