NAME: 3-(4-methylphenyl)-N-[3-(4-morpholinylsulfonyl)phenyl]-1-phenyl-4-pyrazolecarboxamide
ID: QQXGTKKFPYCAEN
IsSpectrumSearch: False
INCHIKEY: QQXGTKKFPYCAEN-UHFFFAOYSA-N
SMILES: O=C(NC=1C=CC=C(C=1)S(=O)(=O)N2CCOCC2)C4=CN(N=C4(C3=CC=C(C=C3)C))C5=CC=CC=C5
RESOURCES: ChEBI=CHEBI:120418
SubstructureInChIKeys: VNWKTOKETHGBQD;WSFSSNUMVMOOMR;OTMSDBZUPAUEDD;IKHGUXGNUITLKF;ROSDSFDQCJNGOL;LCGLNKUTAGEVQW;ATHHXGZTWNVVOU;LIWAQLJGPBVORC;XOBKSJJDNFUZPF;HZAXFHJVJLSVMW;RAHZWNYVWXNFOC;BOTYRLOGQKSOAE;HPNMFZURTQLUMO;BEBCJVAWIBVWNZ;UHOVQNZJYSORNB;KEIVLHIFSZBKGU;AHZVGADFMXTGBU;YNAVUWVOSKDBBP;YXFVVABEGXRONW;PAYRUJLWNCNPSJ;AFBPFSWMIHJQDM;DYDNPESBYVVLBO;FZERHIULMFGESH;DYHJCQLXZIELGG
SubstructureOntologies: CHEMONTID:0002500;CHEMONTID:0001831;CHEMONTID:0002230;CHEMONTID:0002228;CHEMONTID:0001167;CHEMONTID:0002484;CHEMONTID:0001897;NonID:SO2;CHEMONTID:0001212;CHEMONTID:0002279;NonID:Sulfonamide;CHEMONTID:0000392;CHEMONTID:0001091;CHEMONTID:0000284;CHEMONTID:0003924;CHEMONTID:0000285;CHEMONTID:0001141
Ontology: Aromatic anilides
OntologyID: CHEMONTID:0004712
RETENTIONTIME: -1
RETENTIONINDEX: -1
TotalBondEnergy: 27630
TotalScore: 6.2236
TotalHrRulesScore: 1
TotalBondCleavageScore: 0.5057
TotalMassAccuracyScore: 0.9985
TotalFragmentLinkageScore: 1
TotalBondDissociationEnergyScore: 0.7264
DatabaseScore: 0.5238
SubstructureAssignmentScore: 0
RtSimilarityScore: -1
RiSimilarityScore: 0
Num Fragment VS2 (M/Z Intensity MatchedExactMass SaturatedExactMass Formula RearrangedHydrogen PPM MassDiff_mDa IsEvenElectronRule IsHrRule IsSolventAdductFragment AssignedAdductMass AdductString BondDissociationEnergy TreeDepth SMILES TotalScore HrLikelihood BcLikelihood MaLikelihood FlLikelihood BeLikelihood): 2
299.109858	87648.958885	299.106000820334	298.098724365234	C13H18N2O4S	1	12.9	3.86	True	True	False	0		1563	2	O=C(NC=1C=CC=C(C=1)S(=O)(=O)N2CCOCC2)CC	3.46117185669776	1	0.0113906236365438	0.997028827667236	1	0.452752405393975
503.175346	126100.510225	503.17475692385	502.16748046875	C27H26N4O4S	1	1.17	0.59	True	True	False	0		0	0	O=C(NC=1C=CC=C(C=1)S(=O)(=O)N2CCOCC2)C4=CN(N=C4(C3=CC=C(C=C3)C))C5=CC=CC=C5	4.99993062019348	1	1	0.999930620193481	1	1

