NAME: Demethoxyisogemichalcone C;3'-(4-Coumaroyloxy-3-methylbutyl-2(E)-enyl)-2,4,2',4'-tetrahydroxychalcone
ID: XXQUTHYOIGFGPG
IsSpectrumSearch: False
INCHIKEY: XXQUTHYOIGFGPG-MPKNGZDBSA-N
SMILES: O=C(OCC(=CCC2=C(O)C=CC(C(=O)C=CC=1C=CC(O)=CC=1(O))=C2(O))C)C=CC3=CC=C(O)C=C3
RESOURCES: KNApSAcK=C00014481,LipidMAPS=LMPK12120122,UNPD=UNPD56512
SubstructureInChIKeys: VNWKTOKETHGBQD;XLYOFNOQVPJJNP;VGGSQFUCUMXWEO;WSFSSNUMVMOOMR;QQONPFPTGQHPMA;IKHGUXGNUITLKF;ATUOYWHBWRKTHZ;LCGLNKUTAGEVQW;HGINCPLSRVDWNT;IAQRGUVFOMOMEM;VQTUBCCKSQIDNK;VXNZUUAINFGPBY;CSCPPACGZOOCGX;XXROGKLTLUQVRX;QTBSBXVTEAMEQO;TZIHFWKZFHZASV;BDERNNFJNOPAEC;XOBKSJJDNFUZPF;MLUCVPSAIODCQM;BKOOMYPCSUNDGP;QMMOXUPEWRXHJS;NIXOWILDQLNWCW;KXKVLQRXCPHEJC;WBJINCZRORDGAQ;VNKYTQGIUYNRMY;UHOVQNZJYSORNB;BAPJBEWLBFYGME;NEJDKFPXHQRVMV;XEKOWRVHYACXOJ;YXFVVABEGXRONW;ISWSIDIOOBJBQZ;PPBRXRYQALVLMV;HUMNYLRZRPPJDN;YNQLUTRBYVCPMQ;IWDCLRJOBJJRNH;GHMLBKRAJCXXBS;QROGIFZRVHSFLM;FUGYGGDSWSUORM;JESXATFQYMPTNL;KWOLFJPFCHCOCG;SMQUZDBALVYZAC;HMNKTRSOROOSPP;HXDOZKJGKXYMEW;OIPPWFOQEKKFEE;ZBCATMYQYDCTIZ;KJPRLNWUNMBNBZ;FBTSUTGMWBDAAC;JECYUBVRTQDVAT;IUNJCFABHJZSKB;HFLGBNBLMBSXEM;VGMJYYDKPUPTID;CJXMVKYNVIGQBS;MDXYNRAMDATLBT;SULYEHHGGXARJS;AXMVYSVVTMKQSL;NGSWKAQJJWESNS;DXDRHHKMWQZJHT
SubstructureOntologies: CHEMONTID:0002500;NonID:H2O;CHEMONTID:0004476;CHEMONTID:0001831;CHEMONTID:0002230;CHEMONTID:0001167;CHEMONTID:0002436;CHEMONTID:0004622;CHEMONTID:0000118;CHEMONTID:0000286;CHEMONTID:0001205;CHEMONTID:0001238;CHEMONTID:0004451;CHEMONTID:0003416;CHEMONTID:0002279;CHEMONTID:0004452;CHEMONTID:0001091;CHEMONTID:0004647;CHEMONTID:0000037;CHEMONTID:0000321;CHEMONTID:0001275;CHEMONTID:0000137;CHEMONTID:0004298;CHEMONTID:0003978;CHEMONTID:0004646;CHEMONTID:0000135;CHEMONTID:0000029;CHEMONTID:0002503;CHEMONTID:0003472
Ontology: 3-prenylated chalcones
OntologyID: CHEMONTID:0003509
RETENTIONTIME: -1
RETENTIONINDEX: -1
TotalBondEnergy: 28382
TotalScore: 6.4074
TotalHrRulesScore: 1
TotalBondCleavageScore: 0.725
TotalMassAccuracyScore: 0.9642
TotalFragmentLinkageScore: 1
TotalBondDissociationEnergyScore: 0.911
DatabaseScore: 0.5714
SubstructureAssignmentScore: 0
RtSimilarityScore: -1
RiSimilarityScore: 0
Num Fragment VS2 (M/Z Intensity MatchedExactMass SaturatedExactMass Formula RearrangedHydrogen PPM MassDiff_mDa IsEvenElectronRule IsHrRule IsSolventAdductFragment AssignedAdductMass AdductString BondDissociationEnergy TreeDepth SMILES TotalScore HrLikelihood BcLikelihood MaLikelihood FlLikelihood BeLikelihood): 2
299.109858	87648.958885	299.091388347991	300.099761962891	C17H16O5	-1	61.75	18.47	True	True	False	0		602	1	O=C(C=CC=1C=CC(O)=CC=1(O))C=2C=CC(O)=C(C=2(O))CC	4.20602693453937	1	0.449999988079071	0.934049725532532	1	0.821977220927769
503.175346	126100.510225	503.170057216819	502.162780761719	C29H26O8	1	10.51	5.29	True	True	False	0		0	0	O=C(OCC(=CCC2=C(O)C=CC(C(=O)C=CC=1C=CC(O)=CC=1(O))=C2(O))C)C=CC3=CC=C(O)C=C3	4.99442136287689	1	1	0.994421362876892	1	1

NAME: Schisandrene
ID: VBNGAFROWJLPCL
IsSpectrumSearch: False
INCHIKEY: VBNGAFROWJLPCL-UHFFFAOYNA-N
SMILES: O=C(OC3C=5C=C1OCOC1=C(OC)C=5(C=2C(OC)=C4OCOC4(=CC=2CC(C3(=C))C)))C6=CC=CC=C6
RESOURCES: KNApSAcK=C00041854,UNPD=UNPD55040
SubstructureInChIKeys: VNWKTOKETHGBQD;VGGSQFUCUMXWEO;WSFSSNUMVMOOMR;IKHGUXGNUITLKF;ATUOYWHBWRKTHZ;LCGLNKUTAGEVQW;CKFGINPQOCXMAZ;VQTUBCCKSQIDNK;VXNZUUAINFGPBY;XXROGKLTLUQVRX;IJDNQMDRQITEOD;NNPPMTNAJDCUHE;QTBSBXVTEAMEQO;TZIHFWKZFHZASV;BDERNNFJNOPAEC;XOBKSJJDNFUZPF;YWAKXRMUMFPDSH;OFBQJSOFQDEBGM;QWTDNUCVQCZILF;KXKVLQRXCPHEJC;WBJINCZRORDGAQ;LRHPLDYGYMQRHN;VNKYTQGIUYNRMY;UHOVQNZJYSORNB;LDTAOIUHUHHCMU;AFABGHUZZDYHJO;PFEOZHBOMNWTJB;VLKZOEOYAKHREP;XEKOWRVHYACXOJ;AMQJEAYHLZJPGS;FVNIMHIOIXPIQT;JYVLIDXNZAXMDK;PHTQWCKDNZKARW;YXFVVABEGXRONW;ISWSIDIOOBJBQZ;ADHCYQWFCLQBFG;VLJXXKKOSFGPHI;HUMNYLRZRPPJDN;YNQLUTRBYVCPMQ;IWDCLRJOBJJRNH;RDOXTESZEPMUJZ;WVDDGKGOMKODPV;GHMLBKRAJCXXBS;YXLCVBVDFKWWRW;FUGYGGDSWSUORM;ODLMAHJVESYWTB;WPYMKLBDIGXBTP;CHLICZRVGGXEOD;HMNKTRSOROOSPP;HXDOZKJGKXYMEW;LHGVFZTZFXWLCP;OIPPWFOQEKKFEE;ZBCATMYQYDCTIZ;QCDYQQDYXPDABM;UAJRSHJHFRVGMG;FBTSUTGMWBDAAC;QPJVMBTYPHYUOC;DWLZULQNIPIABE;HDNRAPAFJLXKBV;MPWGZBWDLMDIHO;ABDKAPXRBAPSQN;DPZNOMCNRMUKPS;HFLGBNBLMBSXEM;IIGNZLVHOZEOPV;NOTCZLKDULMKBR;PETRWTHZSKVLRE;PMRFBLQVGJNGLU;VGMJYYDKPUPTID;BPHYZRNTQNPLFI;HDVRLUFGYQYLFJ;PCYGLFXKCBFGPC;YOMSJEATGXXYPX;MQSXUKPGWMJYBT;ZZMFDMIBZYLXQE;CAWZFQGJUGEKFU;GYPMBQZAVBFUIZ;RIZBLVRXRWHLFA;FALWUVSXNUUXQA;XQDNFAMOIPNVES;ZENOXNGFMSCLLL;NJXYTXADXSRFTJ;GEEXFDOMGJGVHC;NEBQMYHKOREVAL;AGIQIOSHSMJYJP;CRUILBNAQILVHZ;KCIZTNZGSBSSRM
SubstructureOntologies: CHEMONTID:0002500;CHEMONTID:0004476;CHEMONTID:0001831;CHEMONTID:0002230;CHEMONTID:0001167;CHEMONTID:0001605;CHEMONTID:0004622;CHEMONTID:0000286;CHEMONTID:0004620;CHEMONTID:0001205;CHEMONTID:0001238;CHEMONTID:0003416;CHEMONTID:0002279;CHEMONTID:0001661;CHEMONTID:0001091;CHEMONTID:0004647;CHEMONTID:0000321;CHEMONTID:0001275;CHEMONTID:0000138;CHEMONTID:0000033;CHEMONTID:0000137;CHEMONTID:0000037;CHEMONTID:0002811;CHEMONTID:0002565;CHEMONTID:0004646;CHEMONTID:0000190;CHEMONTID:0000135;CHEMONTID:0000382;CHEMONTID:0001350;CHEMONTID:0004111;CHEMONTID:0000397
Ontology: Hydrolyzable tannins
OntologyID: CHEMONTID:0001710
RETENTIONTIME: -1
RETENTIONINDEX: -1
TotalBondEnergy: 28349
TotalScore: 6.1749
TotalHrRulesScore: 1
TotalBondCleavageScore: 0.828
TotalMassAccuracyScore: 0.9661
TotalFragmentLinkageScore: 1
TotalBondDissociationEnergyScore: 0.5986
DatabaseScore: 0.5476
SubstructureAssignmentScore: 0
RtSimilarityScore: -1
RiSimilarityScore: 0
Num Fragment VS2 (M/Z Intensity MatchedExactMass SaturatedExactMass Formula RearrangedHydrogen PPM MassDiff_mDa IsEvenElectronRule IsHrRule IsSolventAdductFragment AssignedAdductMass AdductString BondDissociationEnergy TreeDepth SMILES TotalScore HrLikelihood BcLikelihood MaLikelihood FlLikelihood BeLikelihood): 2
299.109858	87648.958885	299.127790371116	298.120513916016	C18H18O4	1	59.95	17.93	True	True	False	0		1408	2	O=C(OC(C=C)C=1C=CC(OC)=C(OC)C=1)C2=CC=CC=C2	3.79106116744648	1	0.656099915504456	0.937710523605347	1	0.197250728336682
503.175346	126100.510225	503.170057216819	502.162780761719	C29H26O8	1	10.51	5.29	True	True	False	0		0	0	O=C(OC3C=5C=C1OCOC1=C(OC)C=5(C=2C(OC)=C4OCOC4(=CC=2CC(C3(=C))C)))C6=CC=CC=C6	4.99442136287689	1	1	0.994421362876892	1	1

NAME: UNPD202814
ID: BDCAJXIRTGMYFX
IsSpectrumSearch: False
INCHIKEY: BDCAJXIRTGMYFX-MWDGOOGINA-N
SMILES: OC1=CC=C(C=C1)C(OC)C5C=2C=C(O)C=C(O)C=2C(C3=CC(O)=CC(O)=C3)C5(C=4C=CC(O)=CC=4(O))
RESOURCES: UNPD=UNPD202814
SubstructureInChIKeys: VNWKTOKETHGBQD;XLYOFNOQVPJJNP;ATUOYWHBWRKTHZ;LCGLNKUTAGEVQW;IJDNQMDRQITEOD;NNPPMTNAJDCUHE;BDERNNFJNOPAEC;XOBKSJJDNFUZPF;OFBQJSOFQDEBGM;QWTDNUCVQCZILF;LRHPLDYGYMQRHN;VNKYTQGIUYNRMY;ZXEKIIBDNHEJCQ;UHOVQNZJYSORNB;AFABGHUZZDYHJO;PFEOZHBOMNWTJB;VLKZOEOYAKHREP;AMQJEAYHLZJPGS;FVNIMHIOIXPIQT;JYVLIDXNZAXMDK;MXLMTQWGSQIYOW;PHTQWCKDNZKARW;YXFVVABEGXRONW;ISWSIDIOOBJBQZ;BZHMBWZPUJHVEE;VLJXXKKOSFGPHI;YNQLUTRBYVCPMQ;IWDCLRJOBJJRNH;WVDDGKGOMKODPV;GHMLBKRAJCXXBS;OVOVDHYEOQJKMD;ODLMAHJVESYWTB;HMNKTRSOROOSPP;HXDOZKJGKXYMEW;WRMNZCZEMHIOCP;BVJSUAQZOZWCKN;OIPPWFOQEKKFEE;ZBCATMYQYDCTIZ;MPWGZBWDLMDIHO;HFLGBNBLMBSXEM;PMRFBLQVGJNGLU;VGMJYYDKPUPTID;YCCILVSKPBXVIP;MQSXUKPGWMJYBT;JUUBCHWRXWPFFH;DWGPKVSAWGQTPQ;CZZYITDELCSZES
SubstructureOntologies: CHEMONTID:0002500;NonID:H2O;CHEMONTID:0001167;CHEMONTID:0004620;CHEMONTID:0000286;CHEMONTID:0002279;CHEMONTID:0001661;CHEMONTID:0001091;CHEMONTID:0004647;CHEMONTID:0001275;CHEMONTID:0000033;CHEMONTID:0000137;CHEMONTID:0002811;CHEMONTID:0004646;CHEMONTID:0000135;CHEMONTID:0003698;CHEMONTID:0000369
Ontology: Stilbenes
OntologyID: CHEMONTID:0000253
RETENTIONTIME: -1
RETENTIONINDEX: -1
TotalBondEnergy: 28388
TotalScore: 5.5419
TotalHrRulesScore: 1
TotalBondCleavageScore: 0.905
TotalMassAccuracyScore: 0.9643
TotalFragmentLinkageScore: 1
TotalBondDissociationEnergyScore: 0.8566
DatabaseScore: 0.2238
SubstructureAssignmentScore: 0
RtSimilarityScore: -1
RiSimilarityScore: 0
Num Fragment VS2 (M/Z Intensity MatchedExactMass SaturatedExactMass Formula RearrangedHydrogen PPM MassDiff_mDa IsEvenElectronRule IsHrRule IsSolventAdductFragment AssignedAdductMass AdductString BondDissociationEnergy TreeDepth SMILES TotalScore HrLikelihood BcLikelihood MaLikelihood FlLikelihood BeLikelihood): 2
299.109858	87648.958885	299.091393795569	302.115417480469	C17H18O5	-3	61.73	18.46	True	True	False	0		692	2	OC1=CC(O)=CC(=C1)C3C=2C(O)=CC(O)=CC=2C(COC)C3	4.45719507383098	1	0.809999942779541	0.934087336063385	1	0.713107794988056
503.175346	126100.510225	503.170057216819	502.162780761719	C29H26O8	1	10.51	5.29	True	True	False	0		0	0	OC1=CC=C(C=C1)C(OC)C5C=2C=C(O)C=C(O)C=2C(C3=CC(O)=CC(O)=C3)C5(C=4C=CC(O)=CC=4(O))	4.99442136287689	1	1	0.994421362876892	1	1

