NAME: Semperviraminone
ID: PFPVVTHAALEJBE
IsSpectrumSearch: False
INCHIKEY: PFPVVTHAALEJBE-AOSYKMEZNA-N
SMILES: O=C(C1=CCC2(C)(C4C(=CCC12(C))CC3=CCC(N(C)C)C(C)(C)C3CC4))C
RESOURCES: KNApSAcK=C00028989,UNPD=UNPD187686
SubstructureInChIKeys: VNWKTOKETHGBQD;VGGSQFUCUMXWEO;WSFSSNUMVMOOMR;OTMSDBZUPAUEDD;IKHGUXGNUITLKF;ATUOYWHBWRKTHZ;ROSDSFDQCJNGOL;HGINCPLSRVDWNT;IAQRGUVFOMOMEM;VQTUBCCKSQIDNK;VXNZUUAINFGPBY;CSCPPACGZOOCGX;NBBJYMSMWIIQGU;IJDNQMDRQITEOD;NNPPMTNAJDCUHE;GETQZCLCWQTVFV;JJWLVOIRVHMVIS;LIWAQLJGPBVORC;MLUCVPSAIODCQM;BKOOMYPCSUNDGP;QMMOXUPEWRXHJS;YWAKXRMUMFPDSH;ZTQSAGDEMFDKMZ;OFBQJSOFQDEBGM;QWTDNUCVQCZILF;DAZXVJBJRMWXJP;GVWISOJSERXQBM;HQABUPZFAYXKJW;KDSNLYIMUZNERS;XHFGWHUWQXTGAT;PRBHEGAFLDMLAL;BEQGRRJLJLVQAQ;LDTAOIUHUHHCMU;LIKMAJRDDDTEIG;RYPKRALMXUUNKS;ZQDPJFUHLCOCRG;HGBOYTHUEUWSSQ;AFABGHUZZDYHJO;HNRMPXKDFBEGFZ;PFEOZHBOMNWTJB;VLKZOEOYAKHREP;BMFVGAAISNGQNM;DPBLXKKOBLCELK;QCOGKXLOEWLIDC;VJROPLWGFCORRM;ZUHZZVMEUAUWHY;FMAMSYPJXSEYSW;USLRUYZDOLMIRJ;ADHCYQWFCLQBFG;WZHKDGJSXCTSCK;ZGEGCLOFRBLKSE;JARKCYVAAOWBJS;BZHMBWZPUJHVEE;IMNFDUFMRHMDMM;VLJXXKKOSFGPHI;DJEQZVQFEPKLOY;GDDAJHJRAKOILH;UDOAKURRCZMWOJ;KWKAKUADMBZCLK;YXLCVBVDFKWWRW;CATSNJVOTSVZJV;FXHGMKSSBGDXIY;JVSWJIKNEAIKJW;TVMXDCGIABBOFY;NMFOAHIHPAPYJJ;ZUSUVEKHEZURSD;IICQZTQZQSBHBY;KPADFPAILITQBG;LEBVLOLOVGHEFE;NUJGJRNETVAIRJ;VWLITJGXNSANSN
SubstructureOntologies: CHEMONTID:0002500;CHEMONTID:0004476;CHEMONTID:0001831;CHEMONTID:0002230;CHEMONTID:0002228;CHEMONTID:0002436;CHEMONTID:0004622;CHEMONTID:0000118;CHEMONTID:0002434;CHEMONTID:0004620;CHEMONTID:0002239;CHEMONTID:0000469;CHEMONTID:0001019;CHEMONTID:0002229
Ontology: Diterpenoids
OntologyID: CHEMONTID:0001551
RETENTIONTIME: -1
RETENTIONINDEX: -1
TotalBondEnergy: 27803
TotalScore: 6.6889
TotalHrRulesScore: 0.5
TotalBondCleavageScore: 0.5
TotalMassAccuracyScore: 0.4987
TotalFragmentLinkageScore: 0.5
TotalBondDissociationEnergyScore: 0.5
DatabaseScore: 0.5476
SubstructureAssignmentScore: 0
RtSimilarityScore: -1
RiSimilarityScore: 0
Num Fragment VS2 (M/Z Intensity MatchedExactMass SaturatedExactMass Formula RearrangedHydrogen PPM MassDiff_mDa IsEvenElectronRule IsHrRule IsSolventAdductFragment AssignedAdductMass AdductString BondDissociationEnergy TreeDepth SMILES TotalScore HrLikelihood BcLikelihood MaLikelihood FlLikelihood BeLikelihood): 1
382.306885	62582.013654	382.310438076194	381.303161621094	C26H39NO	1	9.29	3.55	True	True	False	0		0	0	O=C(C1=CCC2(C)(C4C(=CCC12(C))CC3=CCC(N(C)C)C(C)(C)C3CC4))C	4.99747830629349	1	1	0.997478306293488	1	1

NAME: UNPD39497
ID: GEJQKLSEXMLKTQ
IsSpectrumSearch: False
INCHIKEY: GEJQKLSEXMLKTQ-OAQDMJGENA-N
SMILES: O=C3C=CC2=CC1=CCC4(C)(C(CCC4(C)(C1CCC2C3(C)C))C(N(C)C)C)
RESOURCES: UNPD=UNPD39497
SubstructureInChIKeys: VNWKTOKETHGBQD;VGGSQFUCUMXWEO;WSFSSNUMVMOOMR;OTMSDBZUPAUEDD;IKHGUXGNUITLKF;ATUOYWHBWRKTHZ;ROSDSFDQCJNGOL;HGINCPLSRVDWNT;IAQRGUVFOMOMEM;VQTUBCCKSQIDNK;VXNZUUAINFGPBY;CSCPPACGZOOCGX;NBBJYMSMWIIQGU;IJDNQMDRQITEOD;NNPPMTNAJDCUHE;GETQZCLCWQTVFV;JJWLVOIRVHMVIS;LIWAQLJGPBVORC;MLUCVPSAIODCQM;BKOOMYPCSUNDGP;QMMOXUPEWRXHJS;RGSFGYAAUTVSQA;YWAKXRMUMFPDSH;ZTQSAGDEMFDKMZ;OFBQJSOFQDEBGM;QWTDNUCVQCZILF;DAZXVJBJRMWXJP;GVWISOJSERXQBM;HQABUPZFAYXKJW;KDSNLYIMUZNERS;XHFGWHUWQXTGAT;BEQGRRJLJLVQAQ;GDOPTJXRTPNYNR;LDTAOIUHUHHCMU;LIKMAJRDDDTEIG;RYPKRALMXUUNKS;ZQDPJFUHLCOCRG;HGBOYTHUEUWSSQ;AFABGHUZZDYHJO;HNRMPXKDFBEGFZ;PFEOZHBOMNWTJB;VLKZOEOYAKHREP;BMFVGAAISNGQNM;DPBLXKKOBLCELK;QCOGKXLOEWLIDC;VJROPLWGFCORRM;ZUHZZVMEUAUWHY;FWFSEYBSWVRWGL;USLRUYZDOLMIRJ;QWHNJUXXYKPLQM;WZHKDGJSXCTSCK;ZGEGCLOFRBLKSE;JARKCYVAAOWBJS;BZHMBWZPUJHVEE;IMNFDUFMRHMDMM;VLJXXKKOSFGPHI;DJEQZVQFEPKLOY;RKSNPTXBQXBXDJ;KWKAKUADMBZCLK;LETYIFNDQBJGPJ;CATSNJVOTSVZJV;FXHGMKSSBGDXIY;JVSWJIKNEAIKJW;TVMXDCGIABBOFY;NDFYWJZFESRLBQ;NBFKNCBRFJKDDR;IICQZTQZQSBHBY;KPADFPAILITQBG;NUJGJRNETVAIRJ;KABCBIJVOXYNHG;RXFZCBZCGBDPDT
SubstructureOntologies: CHEMONTID:0002500;CHEMONTID:0004476;CHEMONTID:0001831;CHEMONTID:0002230;CHEMONTID:0002228;CHEMONTID:0002436;CHEMONTID:0004622;CHEMONTID:0000118;CHEMONTID:0002434;CHEMONTID:0004620;CHEMONTID:0002239;CHEMONTID:0000469;CHEMONTID:0001016;CHEMONTID:0004325;CHEMONTID:0002229
Ontology: Buxus alkaloids
OntologyID: CHEMONTID:0002726
RETENTIONTIME: -1
RETENTIONINDEX: -1
TotalBondEnergy: 27803
TotalScore: 6.5494
TotalHrRulesScore: 1
TotalBondCleavageScore: 0.5253
TotalMassAccuracyScore: 0.9966
TotalFragmentLinkageScore: 1
TotalBondDissociationEnergyScore: 0.8984
DatabaseScore: 0.2238
SubstructureAssignmentScore: 0
RtSimilarityScore: -1
RiSimilarityScore: 0
Num Fragment VS2 (M/Z Intensity MatchedExactMass SaturatedExactMass Formula RearrangedHydrogen PPM MassDiff_mDa IsEvenElectronRule IsHrRule IsSolventAdductFragment AssignedAdductMass AdductString BondDissociationEnergy TreeDepth SMILES TotalScore HrLikelihood BcLikelihood MaLikelihood FlLikelihood BeLikelihood): 2
250.257578	16768.577213	250.252927700217	249.245651245117	C17H31N	1	18.58	4.65	True	True	False	0		692	1	C1=CC(CC)C2(C)(CCC(C(N(C)C)C)C2(C)(C1))	3.84319137239387	1	0.0506249964237213	0.995684266090393	1	0.796882109879757
382.306885	62582.013654	382.310438076194	381.303161621094	C26H39NO	1	9.29	3.55	True	True	False	0		0	0	O=C3C=CC2=CC1=CCC4(C)(C(CCC4(C)(C1CCC2C3(C)C))C(N(C)C)C)	4.99747830629349	1	1	0.997478306293488	1	1

NAME: UNPD115351
ID: MIMZOPGRBINHSA
IsSpectrumSearch: False
INCHIKEY: MIMZOPGRBINHSA-PLFIGDDPNA-N
SMILES: O=C5C=C4CCC1C(CCC2(C)(C(CCC12)C(C)C3N=C(C)CC3))C4(C)CC5
RESOURCES: UNPD=UNPD115351;UNPD17746
SubstructureInChIKeys: VNWKTOKETHGBQD;VGGSQFUCUMXWEO;WDWDWGRYHDPSDS;WSFSSNUMVMOOMR;OTMSDBZUPAUEDD;IKHGUXGNUITLKF;ATUOYWHBWRKTHZ;HGINCPLSRVDWNT;IAQRGUVFOMOMEM;VQTUBCCKSQIDNK;VXNZUUAINFGPBY;CSCPPACGZOOCGX;NBBJYMSMWIIQGU;IJDNQMDRQITEOD;NNPPMTNAJDCUHE;JJWLVOIRVHMVIS;MLUCVPSAIODCQM;BKOOMYPCSUNDGP;QMMOXUPEWRXHJS;RGSFGYAAUTVSQA;YWAKXRMUMFPDSH;ZTQSAGDEMFDKMZ;OFBQJSOFQDEBGM;QWTDNUCVQCZILF;HQABUPZFAYXKJW;KDSNLYIMUZNERS;BEQGRRJLJLVQAQ;GDOPTJXRTPNYNR;LDTAOIUHUHHCMU;LIKMAJRDDDTEIG;RYPKRALMXUUNKS;XDTMQSROBMDMFD;ZQDPJFUHLCOCRG;HGBOYTHUEUWSSQ;AFABGHUZZDYHJO;HNRMPXKDFBEGFZ;PFEOZHBOMNWTJB;VLKZOEOYAKHREP;BMFVGAAISNGQNM;DPBLXKKOBLCELK;VJROPLWGFCORRM;FWFSEYBSWVRWGL;USLRUYZDOLMIRJ;ADHCYQWFCLQBFG;QWHNJUXXYKPLQM;UAEPNZWRGJTJPN;WZHKDGJSXCTSCK;ZGEGCLOFRBLKSE;JARKCYVAAOWBJS;BZHMBWZPUJHVEE;IMNFDUFMRHMDMM;VLJXXKKOSFGPHI;QJXCDRBHYIAFTH;KVZJLSYJROEPSQ;KWKAKUADMBZCLK;LETYIFNDQBJGPJ;QEGNUYASOUJEHD;SGVUHPSBDNVHKL;YXLCVBVDFKWWRW;CATSNJVOTSVZJV;FXHGMKSSBGDXIY;JVSWJIKNEAIKJW;TVMXDCGIABBOFY;NDFYWJZFESRLBQ;ILIUIABCBOXIRX;NUHCEMOQRZEGAQ;IICQZTQZQSBHBY;KPADFPAILITQBG;PYOLJOJPIPCRDP;XARGIVYWQPXRTC;NUJGJRNETVAIRJ;KABCBIJVOXYNHG;GGWBGCSGJCRVIQ;NYFHUVYMLLAQHH;BUOAKQCLRBVIOX;HIVFIUIKABOGIO;YLZKVXHQMPWDBJ;FOCKPZOFYCTNIA;GCLZXEJWFDSXJZ;KGBMCONWCCBLAE;VTXRDCQMLXABHJ;NXCPHYJTOJDSLE;IRXJZDLOCNJAHE;UNWNSYMIUBZKCZ;XBENKLBOLWZLNQ;OTBOAOSTJYUVHP
SubstructureOntologies: CHEMONTID:0002500;CHEMONTID:0004476;CHEMONTID:0000117;CHEMONTID:0001831;CHEMONTID:0002230;CHEMONTID:0002436;CHEMONTID:0004622;CHEMONTID:0000118;CHEMONTID:0002434;CHEMONTID:0004620;CHEMONTID:0000469;CHEMONTID:0001016;CHEMONTID:0004325;CHEMONTID:0002229;CHEMONTID:0004149;CHEMONTID:0001401
Ontology: Gluco/mineralocorticoids, progestogins and derivatives
OntologyID: CHEMONTID:0001468
RETENTIONTIME: -1
RETENTIONINDEX: -1
TotalBondEnergy: 27988
TotalScore: 6.4633
TotalHrRulesScore: 1
TotalBondCleavageScore: 0.5205
TotalMassAccuracyScore: 0.9966
TotalFragmentLinkageScore: 1
TotalBondDissociationEnergyScore: 0.7622
DatabaseScore: 0.2238
SubstructureAssignmentScore: 0
RtSimilarityScore: -1
RiSimilarityScore: 0
Num Fragment VS2 (M/Z Intensity MatchedExactMass SaturatedExactMass Formula RearrangedHydrogen PPM MassDiff_mDa IsEvenElectronRule IsHrRule IsSolventAdductFragment AssignedAdductMass AdductString BondDissociationEnergy TreeDepth SMILES TotalScore HrLikelihood BcLikelihood MaLikelihood FlLikelihood BeLikelihood): 2
250.257578	16768.577213	250.252927700217	249.245651245117	C17H31N	1	18.58	4.65	True	True	False	0		1384	2	N(=C(C)C)CC(C)C1CCC2C(C)CCCC12(C)	3.56110742116006	1	0.0410062447190285	0.995684266090393	1	0.524416910350637
382.306885	62582.013654	382.310438076194	381.303161621094	C26H39NO	1	9.29	3.55	True	True	False	0		0	0	O=C5C=C4CCC1C(CCC2(C)(C(CCC12)C(C)C3N=C(C)CC3))C4(C)CC5	4.99747830629349	1	1	0.997478306293488	1	1

NAME: UNPD188281
ID: BFMJDTYVYKLZHE
IsSpectrumSearch: False
INCHIKEY: BFMJDTYVYKLZHE-PLFIGDDPNA-N
SMILES: O=C5C=C4CCC1C(CCC2(C)(C(CCC12)C(C)C3NC(=CC3)C))C4(C)CC5
RESOURCES: UNPD=UNPD188281
SubstructureInChIKeys: VNWKTOKETHGBQD;VGGSQFUCUMXWEO;WSFSSNUMVMOOMR;OTMSDBZUPAUEDD;QQONPFPTGQHPMA;IKHGUXGNUITLKF;ATUOYWHBWRKTHZ;ROSDSFDQCJNGOL;HGINCPLSRVDWNT;IAQRGUVFOMOMEM;VQTUBCCKSQIDNK;VXNZUUAINFGPBY;CSCPPACGZOOCGX;NBBJYMSMWIIQGU;IJDNQMDRQITEOD;NNPPMTNAJDCUHE;JJWLVOIRVHMVIS;LIWAQLJGPBVORC;MLUCVPSAIODCQM;BKOOMYPCSUNDGP;QMMOXUPEWRXHJS;RGSFGYAAUTVSQA;YWAKXRMUMFPDSH;ZTQSAGDEMFDKMZ;OFBQJSOFQDEBGM;QWTDNUCVQCZILF;GVWISOJSERXQBM;HPNMFZURTQLUMO;HQABUPZFAYXKJW;KDSNLYIMUZNERS;XHFGWHUWQXTGAT;BEQGRRJLJLVQAQ;GDOPTJXRTPNYNR;LDTAOIUHUHHCMU;LIKMAJRDDDTEIG;RYPKRALMXUUNKS;XDTMQSROBMDMFD;ZQDPJFUHLCOCRG;HGBOYTHUEUWSSQ;AFABGHUZZDYHJO;HNRMPXKDFBEGFZ;PFEOZHBOMNWTJB;VLKZOEOYAKHREP;BMFVGAAISNGQNM;DPBLXKKOBLCELK;QCOGKXLOEWLIDC;VJROPLWGFCORRM;FWFSEYBSWVRWGL;USLRUYZDOLMIRJ;ADHCYQWFCLQBFG;QWHNJUXXYKPLQM;UAEPNZWRGJTJPN;WZHKDGJSXCTSCK;ZGEGCLOFRBLKSE;JARKCYVAAOWBJS;BZHMBWZPUJHVEE;IMNFDUFMRHMDMM;VLJXXKKOSFGPHI;QJXCDRBHYIAFTH;KVZJLSYJROEPSQ;KWKAKUADMBZCLK;LETYIFNDQBJGPJ;QEGNUYASOUJEHD;SGVUHPSBDNVHKL;YXLCVBVDFKWWRW;CATSNJVOTSVZJV;FXHGMKSSBGDXIY;JVSWJIKNEAIKJW;TVMXDCGIABBOFY;NDFYWJZFESRLBQ;ILIUIABCBOXIRX;NUHCEMOQRZEGAQ;IICQZTQZQSBHBY;KPADFPAILITQBG;PYOLJOJPIPCRDP;XARGIVYWQPXRTC;NUJGJRNETVAIRJ;KABCBIJVOXYNHG;GGWBGCSGJCRVIQ;NYFHUVYMLLAQHH;BUOAKQCLRBVIOX;HIVFIUIKABOGIO;YLZKVXHQMPWDBJ;FOCKPZOFYCTNIA;GCLZXEJWFDSXJZ;KGBMCONWCCBLAE;VTXRDCQMLXABHJ;NXCPHYJTOJDSLE;IRXJZDLOCNJAHE;UNWNSYMIUBZKCZ;XBENKLBOLWZLNQ;OTBOAOSTJYUVHP
SubstructureOntologies: CHEMONTID:0002500;CHEMONTID:0004476;CHEMONTID:0001831;CHEMONTID:0002230;CHEMONTID:0002228;CHEMONTID:0002436;CHEMONTID:0004622;CHEMONTID:0000118;CHEMONTID:0002434;CHEMONTID:0004620;CHEMONTID:0000469;CHEMONTID:0001016;CHEMONTID:0004325;CHEMONTID:0002229;CHEMONTID:0004149;CHEMONTID:0001401
Ontology: Gluco/mineralocorticoids, progestogins and derivatives
OntologyID: CHEMONTID:0001468
RETENTIONTIME: -1
RETENTIONINDEX: -1
TotalBondEnergy: 27909
TotalScore: 6.4618
TotalHrRulesScore: 1
TotalBondCleavageScore: 0.5205
TotalMassAccuracyScore: 0.9966
TotalFragmentLinkageScore: 1
TotalBondDissociationEnergyScore: 0.7598
DatabaseScore: 0.2238
SubstructureAssignmentScore: 0
RtSimilarityScore: -1
RiSimilarityScore: 0
Num Fragment VS2 (M/Z Intensity MatchedExactMass SaturatedExactMass Formula RearrangedHydrogen PPM MassDiff_mDa IsEvenElectronRule IsHrRule IsSolventAdductFragment AssignedAdductMass AdductString BondDissociationEnergy TreeDepth SMILES TotalScore HrLikelihood BcLikelihood MaLikelihood FlLikelihood BeLikelihood): 2
250.257578	16768.577213	250.252927700217	249.245651245117	C17H31N	1	18.58	4.65	True	True	False	0		1384	2	C=C(NCC(C)C1CCC2C(C)CCCC12(C))C	3.55634635277873	1	0.0410062447190285	0.995684266090393	1	0.519655841969305
382.306885	62582.013654	382.310438076194	381.303161621094	C26H39NO	1	9.29	3.55	True	True	False	0		0	0	O=C5C=C4CCC1C(CCC2(C)(C(CCC12)C(C)C3NC(=CC3)C))C4(C)CC5	4.99747830629349	1	1	0.997478306293488	1	1

NAME: UNPD115305
ID: XRAXOBMGDOKQGR
IsSpectrumSearch: False
INCHIKEY: XRAXOBMGDOKQGR-GXFQXFTFNA-N
SMILES: O3CN(C)C4CCC2=CC1=CCC5(C)(C(C=C)CCC5(C)(C1CCC2C4(C)(C3)))
RESOURCES: UNPD=UNPD115305
SubstructureInChIKeys: VNWKTOKETHGBQD;VGGSQFUCUMXWEO;OTMSDBZUPAUEDD;ATUOYWHBWRKTHZ;ROSDSFDQCJNGOL;LCGLNKUTAGEVQW;IAQRGUVFOMOMEM;VQTUBCCKSQIDNK;VXNZUUAINFGPBY;IJDNQMDRQITEOD;NNPPMTNAJDCUHE;GETQZCLCWQTVFV;JJWLVOIRVHMVIS;LIWAQLJGPBVORC;BDERNNFJNOPAEC;XOBKSJJDNFUZPF;BKOOMYPCSUNDGP;QMMOXUPEWRXHJS;RGSFGYAAUTVSQA;YWAKXRMUMFPDSH;OFBQJSOFQDEBGM;QWTDNUCVQCZILF;DAZXVJBJRMWXJP;GVWISOJSERXQBM;HQABUPZFAYXKJW;KDSNLYIMUZNERS;XHFGWHUWQXTGAT;LRHPLDYGYMQRHN;VNKYTQGIUYNRMY;ZXEKIIBDNHEJCQ;WUGQZFFCHPXWKQ;BEQGRRJLJLVQAQ;GDOPTJXRTPNYNR;LDTAOIUHUHHCMU;LIKMAJRDDDTEIG;RYPKRALMXUUNKS;XDTMQSROBMDMFD;ZQDPJFUHLCOCRG;AFABGHUZZDYHJO;HNRMPXKDFBEGFZ;PFEOZHBOMNWTJB;VLKZOEOYAKHREP;YNAVUWVOSKDBBP;BMFVGAAISNGQNM;DPBLXKKOBLCELK;QCOGKXLOEWLIDC;VJROPLWGFCORRM;ZUHZZVMEUAUWHY;AMQJEAYHLZJPGS;PHTQWCKDNZKARW;ADHCYQWFCLQBFG;QWHNJUXXYKPLQM;UAEPNZWRGJTJPN;WZHKDGJSXCTSCK;ZGEGCLOFRBLKSE;BZHMBWZPUJHVEE;IMNFDUFMRHMDMM;VLJXXKKOSFGPHI;DJEQZVQFEPKLOY;ZSIAUFGUXNUGDI;QJXCDRBHYIAFTH;KVZJLSYJROEPSQ;KWKAKUADMBZCLK;LETYIFNDQBJGPJ;QEGNUYASOUJEHD;SGVUHPSBDNVHKL;YXLCVBVDFKWWRW;JVSWJIKNEAIKJW;TVMXDCGIABBOFY;ILIUIABCBOXIRX;NUHCEMOQRZEGAQ;IICQZTQZQSBHBY;KPADFPAILITQBG;PYOLJOJPIPCRDP;XARGIVYWQPXRTC;NYFHUVYMLLAQHH;HIVFIUIKABOGIO;YLZKVXHQMPWDBJ;BQOAKIRTXKZTKD
SubstructureOntologies: CHEMONTID:0002500;CHEMONTID:0004476;CHEMONTID:0002228;CHEMONTID:0001167;CHEMONTID:0004622;CHEMONTID:0004620;CHEMONTID:0002239;CHEMONTID:0000469;CHEMONTID:0000286;CHEMONTID:0001016;CHEMONTID:0001852;CHEMONTID:0000392;CHEMONTID:0001334
Ontology: Sesquiterpenoids
OntologyID: CHEMONTID:0001550
RETENTIONTIME: -1
RETENTIONINDEX: -1
TotalBondEnergy: 27770
TotalScore: 6.4076
TotalHrRulesScore: 1
TotalBondCleavageScore: 0.5205
TotalMassAccuracyScore: 0.8557
TotalFragmentLinkageScore: 1
TotalBondDissociationEnergyScore: 0.7671
DatabaseScore: 0.2238
SubstructureAssignmentScore: 0
RtSimilarityScore: -1
RiSimilarityScore: 0
Num Fragment VS2 (M/Z Intensity MatchedExactMass SaturatedExactMass Formula RearrangedHydrogen PPM MassDiff_mDa IsEvenElectronRule IsHrRule IsSolventAdductFragment AssignedAdductMass AdductString BondDissociationEnergy TreeDepth SMILES TotalScore HrLikelihood BcLikelihood MaLikelihood FlLikelihood BeLikelihood): 2
250.257578	16768.577213	250.216535488303	249.209259033203	C16H27NO	1	164	41.04	True	True	False	0		1355	2	OCC2(C)(C(NC)CCC1=CC(=CC)CCCC12)	3.28915819692041	1	0.0410062447190285	0.713981986045837	1	0.534169966155545
382.306885	62582.013654	382.310438076194	381.303161621094	C26H39NO	1	9.29	3.55	True	True	False	0		0	0	O3CN(C)C4CCC2=CC1=CCC5(C)(C(C=C)CCC5(C)(C1CCC2C4(C)(C3)))	4.99747830629349	1	1	0.997478306293488	1	1

NAME: UNPD1162
ID: VQYUKPJSULPCRL
IsSpectrumSearch: False
INCHIKEY: VQYUKPJSULPCRL-ZXVIXQTINA-N
SMILES: O=C(C3=CCC4(C)(C2C(C=C1CCC(N(C)C)C(C)(C)C1CC2)=CCC34(C)))C
RESOURCES: UNPD=UNPD1162
SubstructureInChIKeys: VNWKTOKETHGBQD;VGGSQFUCUMXWEO;WSFSSNUMVMOOMR;OTMSDBZUPAUEDD;IKHGUXGNUITLKF;ATUOYWHBWRKTHZ;ROSDSFDQCJNGOL;HGINCPLSRVDWNT;IAQRGUVFOMOMEM;VQTUBCCKSQIDNK;VXNZUUAINFGPBY;CSCPPACGZOOCGX;NBBJYMSMWIIQGU;IJDNQMDRQITEOD;NNPPMTNAJDCUHE;GETQZCLCWQTVFV;JJWLVOIRVHMVIS;LIWAQLJGPBVORC;MLUCVPSAIODCQM;BKOOMYPCSUNDGP;QMMOXUPEWRXHJS;YWAKXRMUMFPDSH;ZTQSAGDEMFDKMZ;OFBQJSOFQDEBGM;QWTDNUCVQCZILF;DAZXVJBJRMWXJP;GVWISOJSERXQBM;HQABUPZFAYXKJW;KDSNLYIMUZNERS;XHFGWHUWQXTGAT;BEQGRRJLJLVQAQ;LDTAOIUHUHHCMU;LIKMAJRDDDTEIG;RYPKRALMXUUNKS;XDTMQSROBMDMFD;ZQDPJFUHLCOCRG;HGBOYTHUEUWSSQ;AFABGHUZZDYHJO;HNRMPXKDFBEGFZ;PFEOZHBOMNWTJB;VLKZOEOYAKHREP;BMFVGAAISNGQNM;DPBLXKKOBLCELK;QCOGKXLOEWLIDC;VJROPLWGFCORRM;ZUHZZVMEUAUWHY;USLRUYZDOLMIRJ;ADHCYQWFCLQBFG;UAEPNZWRGJTJPN;WZHKDGJSXCTSCK;ZGEGCLOFRBLKSE;JARKCYVAAOWBJS;BZHMBWZPUJHVEE;IMNFDUFMRHMDMM;VLJXXKKOSFGPHI;DJEQZVQFEPKLOY;QJXCDRBHYIAFTH;UDOAKURRCZMWOJ;KVZJLSYJROEPSQ;KWKAKUADMBZCLK;QEGNUYASOUJEHD;SGVUHPSBDNVHKL;YXLCVBVDFKWWRW;CATSNJVOTSVZJV;FXHGMKSSBGDXIY;JVSWJIKNEAIKJW;TVMXDCGIABBOFY;ILIUIABCBOXIRX;NUHCEMOQRZEGAQ;ZUSUVEKHEZURSD;IICQZTQZQSBHBY;KPADFPAILITQBG;PYOLJOJPIPCRDP;XARGIVYWQPXRTC;LEBVLOLOVGHEFE;NUJGJRNETVAIRJ;VWLITJGXNSANSN;NYFHUVYMLLAQHH;HIVFIUIKABOGIO;YLZKVXHQMPWDBJ
SubstructureOntologies: CHEMONTID:0002500;CHEMONTID:0004476;CHEMONTID:0001831;CHEMONTID:0002230;CHEMONTID:0002228;CHEMONTID:0002436;CHEMONTID:0004622;CHEMONTID:0000118;CHEMONTID:0002434;CHEMONTID:0004620;CHEMONTID:0002239;CHEMONTID:0000469;CHEMONTID:0001016;CHEMONTID:0002229
Ontology: Buxus alkaloids
OntologyID: CHEMONTID:0002726
RETENTIONTIME: -1
RETENTIONINDEX: -1
TotalBondEnergy: 27803
TotalScore: 6.3267
TotalHrRulesScore: 0.6
TotalBondCleavageScore: 0.5006
TotalMassAccuracyScore: 0.9966
TotalFragmentLinkageScore: 1
TotalBondDissociationEnergyScore: 0.6837
DatabaseScore: 0.2238
SubstructureAssignmentScore: 0
RtSimilarityScore: -1
RiSimilarityScore: 0
Num Fragment VS2 (M/Z Intensity MatchedExactMass SaturatedExactMass Formula RearrangedHydrogen PPM MassDiff_mDa IsEvenElectronRule IsHrRule IsSolventAdductFragment AssignedAdductMass AdductString BondDissociationEnergy TreeDepth SMILES TotalScore HrLikelihood BcLikelihood MaLikelihood FlLikelihood BeLikelihood): 2
250.257578	16768.577213	250.252930424006	250.253479003906	C17H32N	0	18.57	4.65	False	False	False	0		1640	2	CC=C1CCC(N(C)C)C(C)(C)C1CCCCC	2.5644229503526	0.200000002980232	0.00128144514746964	0.995689332485199	1	0.3674521697397
382.306885	62582.013654	382.310438076194	381.303161621094	C26H39NO	1	9.29	3.55	True	True	False	0		0	0	O=C(C3=CCC4(C)(C2C(C=C1CCC(N(C)C)C(C)(C)C1CC2)=CCC34(C)))C	4.99747830629349	1	1	0.997478306293488	1	1

