NAME: Dehydrocarpaine II
ID: OEDAQCLCHGASNH
IsSpectrumSearch: False
INCHIKEY: OEDAQCLCHGASNH-UHFFFAOYNA-N
SMILES: O=C1OC3C(=NC(CCCCCCCC(=O)OC2C(=NC(CCCCCCC1)CC2)C)CC3)C
RESOURCES: HMDB=HMDB0030273,FooDB=FDB002104,UNPD=UNPD108660
SubstructureInChIKeys: VNWKTOKETHGBQD;WDWDWGRYHDPSDS;WSFSSNUMVMOOMR;OTMSDBZUPAUEDD;IKHGUXGNUITLKF;ATUOYWHBWRKTHZ;LCGLNKUTAGEVQW;NBBJYMSMWIIQGU;IJDNQMDRQITEOD;JJWLVOIRVHMVIS;QTBSBXVTEAMEQO;TZIHFWKZFHZASV;BDERNNFJNOPAEC;XOBKSJJDNFUZPF;ZTQSAGDEMFDKMZ;OFBQJSOFQDEBGM;HQABUPZFAYXKJW;KXKVLQRXCPHEJC;WBJINCZRORDGAQ;XBDQKXXYIPTUBI;LRHPLDYGYMQRHN;VNKYTQGIUYNRMY;HGBOYTHUEUWSSQ;VLKZOEOYAKHREP;DPBLXKKOBLCELK;FERIUCNNQQJTOY;XEKOWRVHYACXOJ;AMQJEAYHLZJPGS;AQIXEPGDORPWBJ;FVNIMHIOIXPIQT;JYVLIDXNZAXMDK;JARKCYVAAOWBJS;IMNFDUFMRHMDMM;NQPDZGIKBAWPEJ;ZSIAUFGUXNUGDI;FXHGMKSSBGDXIY;TVMXDCGIABBOFY;FUZZWVXGSFPDMH;CETWDUZRCINIHU;NUJGJRNETVAIRJ;MNWFXJYAOYHMED;WWZKQHOCKIZLMA
SubstructureOntologies: CHEMONTID:0002500;CHEMONTID:0000117;CHEMONTID:0001831;CHEMONTID:0002230;CHEMONTID:0001167;CHEMONTID:0002434;CHEMONTID:0000469;CHEMONTID:0001205;CHEMONTID:0001238;CHEMONTID:0000286;CHEMONTID:0003416;CHEMONTID:0000333;CHEMONTID:0001661;CHEMONTID:0002229;CHEMONTID:0001334;CHEMONTID:0003086
Ontology: Macrolides and analogues
OntologyID: CHEMONTID:0000147
RETENTIONTIME: -1
RETENTIONINDEX: -1
TotalBondEnergy: 32672
TotalScore: 6.655
TotalHrRulesScore: 1
TotalBondCleavageScore: 1
TotalMassAccuracyScore: 0.9995
TotalFragmentLinkageScore: 1
TotalBondDissociationEnergyScore: 1
DatabaseScore: 0.5714
SubstructureAssignmentScore: 0
RtSimilarityScore: -1
RiSimilarityScore: 0
Num Fragment VS2 (M/Z Intensity MatchedExactMass SaturatedExactMass Formula RearrangedHydrogen PPM MassDiff_mDa IsEvenElectronRule IsHrRule IsSolventAdductFragment AssignedAdductMass AdductString BondDissociationEnergy TreeDepth SMILES TotalScore HrLikelihood BcLikelihood MaLikelihood FlLikelihood BeLikelihood): 1
475.351532	1083237.749698	475.353040615256	474.345764160156	C28H46N2O4	1	3.17	1.51	True	True	False	0		0	0	O=C1OC3C(=NC(CCCCCCCC(=O)OC2C(=NC(CCCCCCC1)CC2)C)CC3)C	4.99954491853714	1	1	0.99954491853714	1	1

