NAME: N-(2-furanylmethylideneamino)-2-[(1-oxo-2-phenoxyethyl)amino]acetamide
ID: DKBWQHKXQFZEAM
IsSpectrumSearch: False
INCHIKEY: DKBWQHKXQFZEAM-UHFFFAOYSA-N
SMILES: O=C(NN=CC=1OC=CC=1)CNC(=O)COC2=CC=CC=C2
RESOURCES: ChEBI=CHEBI:107112
SubstructureInChIKeys: WDWDWGRYHDPSDS;WSFSSNUMVMOOMR;IKHGUXGNUITLKF;ROSDSFDQCJNGOL;LCGLNKUTAGEVQW;ATHHXGZTWNVVOU;LYIIBVSRGJSHAV;LIWAQLJGPBVORC;WGCNASOHLSPBMP;XOBKSJJDNFUZPF;HZAXFHJVJLSVMW;HPNMFZURTQLUMO;YSEFYOVWKJXNCH;BEBCJVAWIBVWNZ;UHOVQNZJYSORNB;ISWSIDIOOBJBQZ;RDOXTESZEPMUJZ;DLRJIFUOBPOJNS
SubstructureOntologies: CHEMONTID:0000117;CHEMONTID:0001831;CHEMONTID:0002230;CHEMONTID:0002228;CHEMONTID:0001167;CHEMONTID:0002484;CHEMONTID:0000469;CHEMONTID:0001897;CHEMONTID:0002279;CHEMONTID:0004647;CHEMONTID:0000138;CHEMONTID:0002341
Ontology: N-acyl-alpha amino acids and derivatives
OntologyID: CHEMONTID:0001189
RETENTIONTIME: -1
RETENTIONINDEX: -1
TotalBondEnergy: 16174
TotalScore: 6.6485
TotalHrRulesScore: 1
TotalBondCleavageScore: 1
TotalMassAccuracyScore: 0.9959
TotalFragmentLinkageScore: 1
TotalBondDissociationEnergyScore: 1
DatabaseScore: 0.5238
SubstructureAssignmentScore: 0
RtSimilarityScore: -1
RiSimilarityScore: 0
Num Fragment VS2 (M/Z Intensity MatchedExactMass SaturatedExactMass Formula RearrangedHydrogen PPM MassDiff_mDa IsEvenElectronRule IsHrRule IsSolventAdductFragment AssignedAdductMass AdductString BondDissociationEnergy TreeDepth SMILES TotalScore HrLikelihood BcLikelihood MaLikelihood FlLikelihood BeLikelihood): 1
302.10902	24075.84299	302.113538662131	301.106262207031	C15H15N3O4	1	14.96	4.52	True	True	False	0		0	0	O=C(NN=CC=1OC=CC=1)CNC(=O)COC2=CC=CC=C2	4.99592465162277	1	1	0.995924651622772	1	1

NAME: 2,6-dimethoxybenzoic acid [[amino(pyridin-4-yl)methylidene]amino] ester
ID: OZEFPPKPFJGKSL
IsSpectrumSearch: False
INCHIKEY: OZEFPPKPFJGKSL-UHFFFAOYSA-N
SMILES: O=C(ON=C(N)C1=CC=NC=C1)C=2C(OC)=CC=CC=2(OC)
RESOURCES: ChEBI=CHEBI:121744
SubstructureInChIKeys: VNWKTOKETHGBQD;QGZKDVFQNNGYKY;WDWDWGRYHDPSDS;WSFSSNUMVMOOMR;IKHGUXGNUITLKF;PNKUSGQVOMIXLU;QUSNBJAOOMFDIB;LCGLNKUTAGEVQW;QTBSBXVTEAMEQO;UHOVQNZJYSORNB;JUJWROOIHBZHMG;YXFVVABEGXRONW;ITQTTZVARXURQS;ISWSIDIOOBJBQZ;HUMNYLRZRPPJDN;IWDCLRJOBJJRNH;RDOXTESZEPMUJZ;WVDDGKGOMKODPV;GHMLBKRAJCXXBS;SMQUZDBALVYZAC;WPYMKLBDIGXBTP;CHLICZRVGGXEOD;BVJSUAQZOZWCKN;LHGVFZTZFXWLCP;OIPPWFOQEKKFEE;ZBCATMYQYDCTIZ;IUNJCFABHJZSKB;ABDKAPXRBAPSQN;DPZNOMCNRMUKPS;IIGNZLVHOZEOPV;NOTCZLKDULMKBR;PETRWTHZSKVLRE;PCYGLFXKCBFGPC;DZJPDDVDKXHRLF;GYPMBQZAVBFUIZ;RIZBLVRXRWHLFA;ZENOXNGFMSCLLL
SubstructureOntologies: CHEMONTID:0002500;NonID:NH2;CHEMONTID:0000117;CHEMONTID:0001831;CHEMONTID:0002230;CHEMONTID:0001045;CHEMONTID:0000469;CHEMONTID:0001167;CHEMONTID:0001205;CHEMONTID:0002279;CHEMONTID:0000089;CHEMONTID:0001091;CHEMONTID:0004152;CHEMONTID:0004647;CHEMONTID:0000321;CHEMONTID:0001275;CHEMONTID:0000138;CHEMONTID:0000033;CHEMONTID:0000137;CHEMONTID:0003978;CHEMONTID:0002565;CHEMONTID:0000190;CHEMONTID:0000135;CHEMONTID:0004111
Ontology: O-methoxybenzoic acids and derivatives
OntologyID: CHEMONTID:0002345
RETENTIONTIME: -1
RETENTIONINDEX: -1
TotalBondEnergy: 16127
TotalScore: 6.6485
TotalHrRulesScore: 1
TotalBondCleavageScore: 1
TotalMassAccuracyScore: 0.9959
TotalFragmentLinkageScore: 1
TotalBondDissociationEnergyScore: 1
DatabaseScore: 0.5238
SubstructureAssignmentScore: 0
RtSimilarityScore: -1
RiSimilarityScore: 0
Num Fragment VS2 (M/Z Intensity MatchedExactMass SaturatedExactMass Formula RearrangedHydrogen PPM MassDiff_mDa IsEvenElectronRule IsHrRule IsSolventAdductFragment AssignedAdductMass AdductString BondDissociationEnergy TreeDepth SMILES TotalScore HrLikelihood BcLikelihood MaLikelihood FlLikelihood BeLikelihood): 1
302.10902	24075.84299	302.113538662131	301.106262207031	C15H15N3O4	1	14.96	4.52	True	True	False	0		0	0	O=C(ON=C(N)C1=CC=NC=C1)C=2C(OC)=CC=CC=2(OC)	4.99592465162277	1	1	0.995924651622772	1	1

NAME: 1-(3-methoxy-5-nitrophenyl)-3-(4-methylphenyl)urea
ID: RMAVCEAOKKMEAX
IsSpectrumSearch: False
INCHIKEY: RMAVCEAOKKMEAX-UHFFFAOYSA-N
SMILES: O=C(NC1=CC=C(C=C1)C)NC=2C=C(OC)C=C(C=2)[N+](=O)[O-]
RESOURCES: ChEBI=CHEBI:108453
SubstructureInChIKeys: VNWKTOKETHGBQD;XLYOFNOQVPJJNP;WSFSSNUMVMOOMR;ROSDSFDQCJNGOL;JCXJVPUVTGWSNB;LCGLNKUTAGEVQW;ATHHXGZTWNVVOU;XOTDURGROKNGTI;UHOVQNZJYSORNB;YXFVVABEGXRONW;PAYRUJLWNCNPSJ;ISWSIDIOOBJBQZ;AFBPFSWMIHJQDM;RNVCVTLRINQCPJ;RDOXTESZEPMUJZ;DYDNPESBYVVLBO
SubstructureOntologies: CHEMONTID:0002500;NonID:H2O;CHEMONTID:0001831;CHEMONTID:0002228;NonID:NO2;CHEMONTID:0001167;CHEMONTID:0002484;CHEMONTID:0000497;CHEMONTID:0002279;CHEMONTID:0001091;CHEMONTID:0000284;CHEMONTID:0004647;CHEMONTID:0003924;CHEMONTID:0003964;CHEMONTID:0000138;CHEMONTID:0000285
Ontology: Nitrophenyl ethers
OntologyID: CHEMONTID:0004671
RETENTIONTIME: -1
RETENTIONINDEX: -1
TotalBondEnergy: 15947
TotalScore: 6.6485
TotalHrRulesScore: 1
TotalBondCleavageScore: 1
TotalMassAccuracyScore: 0.9959
TotalFragmentLinkageScore: 1
TotalBondDissociationEnergyScore: 1
DatabaseScore: 0.5238
SubstructureAssignmentScore: 0
RtSimilarityScore: -1
RiSimilarityScore: 0
Num Fragment VS2 (M/Z Intensity MatchedExactMass SaturatedExactMass Formula RearrangedHydrogen PPM MassDiff_mDa IsEvenElectronRule IsHrRule IsSolventAdductFragment AssignedAdductMass AdductString BondDissociationEnergy TreeDepth SMILES TotalScore HrLikelihood BcLikelihood MaLikelihood FlLikelihood BeLikelihood): 1
302.10902	24075.84299	302.113538662131	301.106262207031	C15H15N3O4	1	14.96	4.52	True	True	False	0		0	0	O=C(NC1=CC=C(C=C1)C)NC=2C=C(OC)C=C(C=2)[N+](=O)[O-]	4.99592465162277	1	1	0.995924651622772	1	1

NAME: 2-[(4-methyl-2-quinolinyl)hydrazinylidene]pentanedioic acid
ID: UDHWXDSRBZYMPZ
IsSpectrumSearch: False
INCHIKEY: UDHWXDSRBZYMPZ-UHFFFAOYSA-N
SMILES: O=C(O)C(=NNC2=NC1=CC=CC=C1C(=C2)C)CCC(=O)O
RESOURCES: ChEBI=CHEBI:103831
SubstructureInChIKeys: VNWKTOKETHGBQD;XLYOFNOQVPJJNP;WDWDWGRYHDPSDS;WSFSSNUMVMOOMR;OTMSDBZUPAUEDD;IKHGUXGNUITLKF;ATUOYWHBWRKTHZ;BDAGIHXWWSANSR;LFQSCWFLJHTTHZ;NBBJYMSMWIIQGU;IJDNQMDRQITEOD;QTBSBXVTEAMEQO;BDERNNFJNOPAEC;ZTQSAGDEMFDKMZ;OFBQJSOFQDEBGM;XBDQKXXYIPTUBI;LRHPLDYGYMQRHN;UHOVQNZJYSORNB;JUJWROOIHBZHMG;HGBOYTHUEUWSSQ;FGEPRNXUNITOCW;FERIUCNNQQJTOY;AMQJEAYHLZJPGS;ITQTTZVARXURQS;SMWDFEZZVXVKRB;JFCQEDHGNNZCLN
SubstructureOntologies: CHEMONTID:0002500;NonID:H2O;CHEMONTID:0000117;CHEMONTID:0001831;CHEMONTID:0002230;CHEMONTID:0001205;CHEMONTID:0000286;CHEMONTID:0002434;CHEMONTID:0002279;CHEMONTID:0000089;CHEMONTID:0000469;CHEMONTID:0000333;CHEMONTID:0004152;CHEMONTID:0001253;CHEMONTID:0000346
Ontology: Quinolines and derivatives
OntologyID: CHEMONTID:0001253
RETENTIONTIME: -1
RETENTIONINDEX: -1
TotalBondEnergy: 16325
TotalScore: 6.6485
TotalHrRulesScore: 1
TotalBondCleavageScore: 1
TotalMassAccuracyScore: 0.9959
TotalFragmentLinkageScore: 1
TotalBondDissociationEnergyScore: 1
DatabaseScore: 0.5238
SubstructureAssignmentScore: 0
RtSimilarityScore: -1
RiSimilarityScore: 0
Num Fragment VS2 (M/Z Intensity MatchedExactMass SaturatedExactMass Formula RearrangedHydrogen PPM MassDiff_mDa IsEvenElectronRule IsHrRule IsSolventAdductFragment AssignedAdductMass AdductString BondDissociationEnergy TreeDepth SMILES TotalScore HrLikelihood BcLikelihood MaLikelihood FlLikelihood BeLikelihood): 1
302.10902	24075.84299	302.113538662131	301.106262207031	C15H15N3O4	1	14.96	4.52	True	True	False	0		0	0	O=C(O)C(=NNC2=NC1=CC=CC=C1C(=C2)C)CCC(=O)O	4.99592465162277	1	1	0.995924651622772	1	1

NAME: UNPD216435
ID: QPYZUFUUNHUIIL
IsSpectrumSearch: False
INCHIKEY: QPYZUFUUNHUIIL-OAHLLOKOSA-N
SMILES: O=C3NC(OC)(C(=O)NC3(=CC1=CNC2=CC=CC=C12))CO
RESOURCES: UNPD=UNPD216435
SubstructureInChIKeys: VNWKTOKETHGBQD;XLYOFNOQVPJJNP;VGGSQFUCUMXWEO;WSFSSNUMVMOOMR;OKKJLVBELUTLKV;IKHGUXGNUITLKF;ATUOYWHBWRKTHZ;ROSDSFDQCJNGOL;LCGLNKUTAGEVQW;LFQSCWFLJHTTHZ;HGINCPLSRVDWNT;IAQRGUVFOMOMEM;NBBJYMSMWIIQGU;ATHHXGZTWNVVOU;LYIIBVSRGJSHAV;JJWLVOIRVHMVIS;LIWAQLJGPBVORC;BDERNNFJNOPAEC;XOBKSJJDNFUZPF;HZAXFHJVJLSVMW;LYCAIKOWRPUZTN;MLUCVPSAIODCQM;GVWISOJSERXQBM;HPNMFZURTQLUMO;XHFGWHUWQXTGAT;AKXKFZDCRYJKTF;YSEFYOVWKJXNCH;BEBCJVAWIBVWNZ;WUGQZFFCHPXWKQ;XNWFRZJHXBZDAG;VIBDJEWPNNCFQO;UHOVQNZJYSORNB;UXPVGJOKPUABJV;MNQZXJOMYWMBOU;YTTFFPATQICAQN;SKPCTMWFLGENTL;SIKJAQJRHWYJAI;ZFRKQXVRDFCRJG
SubstructureOntologies: CHEMONTID:0002500;NonID:H2O;CHEMONTID:0004476;CHEMONTID:0001831;CHEMONTID:0000286;CHEMONTID:0002230;CHEMONTID:0002228;CHEMONTID:0001167;CHEMONTID:0002436;CHEMONTID:0002434;CHEMONTID:0002484;CHEMONTID:0000469;CHEMONTID:0001897;CHEMONTID:0002467;CHEMONTID:0001852;CHEMONTID:0002286;CHEMONTID:0002279;CHEMONTID:0001540;CHEMONTID:0002309;CHEMONTID:0002497;CHEMONTID:0004529
Ontology: Alpha amino acids and derivatives
OntologyID: CHEMONTID:0000060
RETENTIONTIME: -1
RETENTIONINDEX: -1
TotalBondEnergy: 16318
TotalScore: 5.8985
TotalHrRulesScore: 1
TotalBondCleavageScore: 1
TotalMassAccuracyScore: 0.9959
TotalFragmentLinkageScore: 1
TotalBondDissociationEnergyScore: 1
DatabaseScore: 0.2238
SubstructureAssignmentScore: 0
RtSimilarityScore: -1
RiSimilarityScore: 0
Num Fragment VS2 (M/Z Intensity MatchedExactMass SaturatedExactMass Formula RearrangedHydrogen PPM MassDiff_mDa IsEvenElectronRule IsHrRule IsSolventAdductFragment AssignedAdductMass AdductString BondDissociationEnergy TreeDepth SMILES TotalScore HrLikelihood BcLikelihood MaLikelihood FlLikelihood BeLikelihood): 1
302.10902	24075.84299	302.113538662131	301.106262207031	C15H15N3O4	1	14.96	4.52	True	True	False	0		0	0	O=C3NC(OC)(C(=O)NC3(=CC1=CNC2=CC=CC=C12))CO	4.99592465162277	1	1	0.995924651622772	1	1

