NAME: Citrusinine I
ID: UTEAJHNFBCLZHN
IsSpectrumSearch: False
INCHIKEY: UTEAJHNFBCLZHN-UHFFFAOYSA-N
SMILES: O=C2C=1C=CC=C(O)C=1N(C=3C(OC)=C(OC)C=C(O)C2=3)C
RESOURCES: HMDB=HMDB0030374,KNApSAcK=C00024249,FooDB=FDB002223,UNPD=UNPD41595
SubstructureInChIKeys: VNWKTOKETHGBQD;XLYOFNOQVPJJNP;WSFSSNUMVMOOMR;LCGLNKUTAGEVQW;UHOVQNZJYSORNB;JUJWROOIHBZHMG;ISWSIDIOOBJBQZ;IWDCLRJOBJJRNH;RDOXTESZEPMUJZ;AQSRRZGQRFFFGS;GHMLBKRAJCXXBS;SMQUZDBALVYZAC;CHLICZRVGGXEOD;HXDOZKJGKXYMEW;LHGVFZTZFXWLCP;OIPPWFOQEKKFEE;ZBCATMYQYDCTIZ;QCDYQQDYXPDABM;DWLZULQNIPIABE;HDNRAPAFJLXKBV;IUNJCFABHJZSKB;ABDKAPXRBAPSQN;DPZNOMCNRMUKPS;HFLGBNBLMBSXEM;NOTCZLKDULMKBR;PETRWTHZSKVLRE;BPHYZRNTQNPLFI;HDVRLUFGYQYLFJ;DZJPDDVDKXHRLF;SULYEHHGGXARJS;CAWZFQGJUGEKFU;GYPMBQZAVBFUIZ;RIZBLVRXRWHLFA;BTQAJGSMXCDDAJ;FALWUVSXNUUXQA;XQDNFAMOIPNVES;NEBQMYHKOREVAL;ABNNGIOYMQTQQO;FQRQWPNYJOFDLO
SubstructureOntologies: CHEMONTID:0002500;NonID:H2O;CHEMONTID:0001831;CHEMONTID:0001167;CHEMONTID:0002279;CHEMONTID:0000089;CHEMONTID:0004647;CHEMONTID:0001275;CHEMONTID:0000138;CHEMONTID:0004152;CHEMONTID:0000137;CHEMONTID:0003978;CHEMONTID:0004646;CHEMONTID:0000190;CHEMONTID:0000135;CHEMONTID:0000382;CHEMONTID:0004111;CHEMONTID:0004298;CHEMONTID:0002519
Ontology: Acridones
OntologyID: CHEMONTID:0001811
RETENTIONTIME: -1
RETENTIONINDEX: -1
TotalBondEnergy: 16453
TotalScore: 6.816
TotalHrRulesScore: 1
TotalBondCleavageScore: 1
TotalMassAccuracyScore: 0.991
TotalFragmentLinkageScore: 1
TotalBondDissociationEnergyScore: 1
DatabaseScore: 0.5952
SubstructureAssignmentScore: 0
RtSimilarityScore: -1
RiSimilarityScore: 0
Num Fragment VS2 (M/Z Intensity MatchedExactMass SaturatedExactMass Formula RearrangedHydrogen PPM MassDiff_mDa IsEvenElectronRule IsHrRule IsSolventAdductFragment AssignedAdductMass AdductString BondDissociationEnergy TreeDepth SMILES TotalScore HrLikelihood BcLikelihood MaLikelihood FlLikelihood BeLikelihood): 1
302.10902	24075.84299	302.102308193381	301.095031738281	C16H15NO5	1	22.22	6.71	True	True	False	0		0	0	O=C2C=1C=CC=C(O)C=1N(C=3C(OC)=C(OC)C=C(O)C2=3)C	4.99103081226349	1	1	0.991030812263489	1	1

NAME: Citpressine I
ID: OQMSMWRXIZYYNR
IsSpectrumSearch: False
INCHIKEY: OQMSMWRXIZYYNR-UHFFFAOYSA-N
SMILES: O=C2C=1C=CC(O)=C(OC)C=1N(C=3C=C(OC)C=C(O)C2=3)C
RESOURCES: HMDB=HMDB0029323,FooDB=FDB000384,UNPD=UNPD176403
SubstructureInChIKeys: VNWKTOKETHGBQD;XLYOFNOQVPJJNP;WSFSSNUMVMOOMR;LCGLNKUTAGEVQW;UHOVQNZJYSORNB;JUJWROOIHBZHMG;ISWSIDIOOBJBQZ;IWDCLRJOBJJRNH;RDOXTESZEPMUJZ;AQSRRZGQRFFFGS;GHMLBKRAJCXXBS;SMQUZDBALVYZAC;CHLICZRVGGXEOD;HXDOZKJGKXYMEW;LHGVFZTZFXWLCP;OIPPWFOQEKKFEE;ZBCATMYQYDCTIZ;DWLZULQNIPIABE;HDNRAPAFJLXKBV;IUNJCFABHJZSKB;HFLGBNBLMBSXEM;NOTCZLKDULMKBR;PETRWTHZSKVLRE;DZJPDDVDKXHRLF;SULYEHHGGXARJS;CAWZFQGJUGEKFU
SubstructureOntologies: CHEMONTID:0002500;NonID:H2O;CHEMONTID:0001831;CHEMONTID:0001167;CHEMONTID:0002279;CHEMONTID:0000089;CHEMONTID:0004647;CHEMONTID:0001275;CHEMONTID:0000138;CHEMONTID:0004152;CHEMONTID:0000137;CHEMONTID:0003978;CHEMONTID:0004646;CHEMONTID:0000190;CHEMONTID:0000135;CHEMONTID:0004298
Ontology: Acridones
OntologyID: CHEMONTID:0001811
RETENTIONTIME: -1
RETENTIONINDEX: -1
TotalBondEnergy: 16453
TotalScore: 6.7565
TotalHrRulesScore: 1
TotalBondCleavageScore: 1
TotalMassAccuracyScore: 0.991
TotalFragmentLinkageScore: 1
TotalBondDissociationEnergyScore: 1
DatabaseScore: 0.5714
SubstructureAssignmentScore: 0
RtSimilarityScore: -1
RiSimilarityScore: 0
Num Fragment VS2 (M/Z Intensity MatchedExactMass SaturatedExactMass Formula RearrangedHydrogen PPM MassDiff_mDa IsEvenElectronRule IsHrRule IsSolventAdductFragment AssignedAdductMass AdductString BondDissociationEnergy TreeDepth SMILES TotalScore HrLikelihood BcLikelihood MaLikelihood FlLikelihood BeLikelihood): 1
302.10902	24075.84299	302.102308193381	301.095031738281	C16H15NO5	1	22.22	6.71	True	True	False	0		0	0	O=C2C=1C=CC(O)=C(OC)C=1N(C=3C=C(OC)C=C(O)C2=3)C	4.99103081226349	1	1	0.991030812263489	1	1

NAME: 5-Hydroxyarborinine
ID: WUPPOLDDVHCHKK
IsSpectrumSearch: False
INCHIKEY: WUPPOLDDVHCHKK-UHFFFAOYSA-N
SMILES: O=C2C=1C=CC=C(O)C=1N(C=3C=C(OC)C(OC)=C(O)C2=3)C
RESOURCES: KNApSAcK=C00024232,ChEBI=CHEBI:69045,UNPD=UNPD72697
SubstructureInChIKeys: VNWKTOKETHGBQD;XLYOFNOQVPJJNP;WSFSSNUMVMOOMR;LCGLNKUTAGEVQW;UHOVQNZJYSORNB;JUJWROOIHBZHMG;ISWSIDIOOBJBQZ;IWDCLRJOBJJRNH;RDOXTESZEPMUJZ;AQSRRZGQRFFFGS;GHMLBKRAJCXXBS;SMQUZDBALVYZAC;CHLICZRVGGXEOD;HXDOZKJGKXYMEW;LHGVFZTZFXWLCP;OIPPWFOQEKKFEE;ZBCATMYQYDCTIZ;QCDYQQDYXPDABM;DWLZULQNIPIABE;HDNRAPAFJLXKBV;IUNJCFABHJZSKB;ABDKAPXRBAPSQN;DPZNOMCNRMUKPS;HFLGBNBLMBSXEM;NOTCZLKDULMKBR;PETRWTHZSKVLRE;BPHYZRNTQNPLFI;HDVRLUFGYQYLFJ;DZJPDDVDKXHRLF;SULYEHHGGXARJS;CAWZFQGJUGEKFU;GYPMBQZAVBFUIZ;RIZBLVRXRWHLFA;BTQAJGSMXCDDAJ;FALWUVSXNUUXQA;XQDNFAMOIPNVES;NEBQMYHKOREVAL;ABNNGIOYMQTQQO;FQRQWPNYJOFDLO
SubstructureOntologies: CHEMONTID:0002500;NonID:H2O;CHEMONTID:0001831;CHEMONTID:0001167;CHEMONTID:0002279;CHEMONTID:0000089;CHEMONTID:0004647;CHEMONTID:0001275;CHEMONTID:0000138;CHEMONTID:0004152;CHEMONTID:0000137;CHEMONTID:0003978;CHEMONTID:0004646;CHEMONTID:0000190;CHEMONTID:0000135;CHEMONTID:0000382;CHEMONTID:0004111;CHEMONTID:0004298;CHEMONTID:0002519
Ontology: Acridones
OntologyID: CHEMONTID:0001811
RETENTIONTIME: -1
RETENTIONINDEX: -1
TotalBondEnergy: 16453
TotalScore: 6.7565
TotalHrRulesScore: 1
TotalBondCleavageScore: 1
TotalMassAccuracyScore: 0.991
TotalFragmentLinkageScore: 1
TotalBondDissociationEnergyScore: 1
DatabaseScore: 0.5714
SubstructureAssignmentScore: 0
RtSimilarityScore: -1
RiSimilarityScore: 0
Num Fragment VS2 (M/Z Intensity MatchedExactMass SaturatedExactMass Formula RearrangedHydrogen PPM MassDiff_mDa IsEvenElectronRule IsHrRule IsSolventAdductFragment AssignedAdductMass AdductString BondDissociationEnergy TreeDepth SMILES TotalScore HrLikelihood BcLikelihood MaLikelihood FlLikelihood BeLikelihood): 1
302.10902	24075.84299	302.102308193381	301.095031738281	C16H15NO5	1	22.22	6.71	True	True	False	0		0	0	O=C2C=1C=CC=C(O)C=1N(C=3C=C(OC)C(OC)=C(O)C2=3)C	4.99103081226349	1	1	0.991030812263489	1	1

NAME: Natsucitrine-II
ID: BDQCAEJTZSIKFA
IsSpectrumSearch: False
INCHIKEY: BDQCAEJTZSIKFA-UHFFFAOYSA-N
SMILES: O=C1C=3C=CC(OC)=C(OC)C=3(NC=2C=C(OC)C=C(O)C1=2)
RESOURCES: KNApSAcK=C00024265,UNPD=UNPD193943
SubstructureInChIKeys: VNWKTOKETHGBQD;XLYOFNOQVPJJNP;WSFSSNUMVMOOMR;LCGLNKUTAGEVQW;UHOVQNZJYSORNB;JUJWROOIHBZHMG;ISWSIDIOOBJBQZ;IWDCLRJOBJJRNH;RDOXTESZEPMUJZ;AQSRRZGQRFFFGS;GHMLBKRAJCXXBS;SMQUZDBALVYZAC;CHLICZRVGGXEOD;HXDOZKJGKXYMEW;LHGVFZTZFXWLCP;OIPPWFOQEKKFEE;ZBCATMYQYDCTIZ;DWLZULQNIPIABE;HDNRAPAFJLXKBV;IUNJCFABHJZSKB;ABDKAPXRBAPSQN;DPZNOMCNRMUKPS;HFLGBNBLMBSXEM;NOTCZLKDULMKBR;PETRWTHZSKVLRE;DZJPDDVDKXHRLF;SULYEHHGGXARJS;CAWZFQGJUGEKFU;GYPMBQZAVBFUIZ;RIZBLVRXRWHLFA;NEBQMYHKOREVAL
SubstructureOntologies: CHEMONTID:0002500;NonID:H2O;CHEMONTID:0001831;CHEMONTID:0001167;CHEMONTID:0002279;CHEMONTID:0000089;CHEMONTID:0004647;CHEMONTID:0001275;CHEMONTID:0000138;CHEMONTID:0004152;CHEMONTID:0000137;CHEMONTID:0003978;CHEMONTID:0004646;CHEMONTID:0000190;CHEMONTID:0000135;CHEMONTID:0004111;CHEMONTID:0004298
Ontology: Acridones
OntologyID: CHEMONTID:0001811
RETENTIONTIME: -1
RETENTIONINDEX: -1
TotalBondEnergy: 16433
TotalScore: 6.697
TotalHrRulesScore: 1
TotalBondCleavageScore: 1
TotalMassAccuracyScore: 0.991
TotalFragmentLinkageScore: 1
TotalBondDissociationEnergyScore: 1
DatabaseScore: 0.5476
SubstructureAssignmentScore: 0
RtSimilarityScore: -1
RiSimilarityScore: 0
Num Fragment VS2 (M/Z Intensity MatchedExactMass SaturatedExactMass Formula RearrangedHydrogen PPM MassDiff_mDa IsEvenElectronRule IsHrRule IsSolventAdductFragment AssignedAdductMass AdductString BondDissociationEnergy TreeDepth SMILES TotalScore HrLikelihood BcLikelihood MaLikelihood FlLikelihood BeLikelihood): 1
302.10902	24075.84299	302.102308193381	301.095031738281	C16H15NO5	1	22.22	6.71	True	True	False	0		0	0	O=C1C=3C=CC(OC)=C(OC)C=3(NC=2C=C(OC)C=C(O)C1=2)	4.99103081226349	1	1	0.991030812263489	1	1

NAME: 4-Methoxydianthramide B
ID: BTFAZIPNJLVTAL
IsSpectrumSearch: False
INCHIKEY: BTFAZIPNJLVTAL-UHFFFAOYSA-N
SMILES: O=C(OC)C2=CC=C(OC)C=C2(NC(=O)C=1C=CC=CC=1(O))
RESOURCES: KNApSAcK=C00043205,UNPD=UNPD12959
SubstructureInChIKeys: VNWKTOKETHGBQD;XLYOFNOQVPJJNP;WSFSSNUMVMOOMR;IKHGUXGNUITLKF;ROSDSFDQCJNGOL;LCGLNKUTAGEVQW;ATHHXGZTWNVVOU;LIWAQLJGPBVORC;QTBSBXVTEAMEQO;TZIHFWKZFHZASV;XOBKSJJDNFUZPF;KXKVLQRXCPHEJC;UHOVQNZJYSORNB;YXFVVABEGXRONW;PAYRUJLWNCNPSJ;ISWSIDIOOBJBQZ;HUMNYLRZRPPJDN;AFBPFSWMIHJQDM;RNVCVTLRINQCPJ;IWDCLRJOBJJRNH;RDOXTESZEPMUJZ;WVDDGKGOMKODPV;DYDNPESBYVVLBO;FXWFZIRWWNPPOV;SMQUZDBALVYZAC;WPYMKLBDIGXBTP;CHLICZRVGGXEOD;BVJSUAQZOZWCKN;FZERHIULMFGESH;QPJVMBTYPHYUOC;ALYNCZNDIQEVRV;IIGNZLVHOZEOPV;NOTCZLKDULMKBR
SubstructureOntologies: CHEMONTID:0002500;NonID:H2O;CHEMONTID:0001831;CHEMONTID:0002230;CHEMONTID:0002228;CHEMONTID:0001167;CHEMONTID:0002484;CHEMONTID:0001205;CHEMONTID:0001238;CHEMONTID:0003416;CHEMONTID:0002279;CHEMONTID:0001091;CHEMONTID:0000284;CHEMONTID:0004647;CHEMONTID:0000321;CHEMONTID:0003924;CHEMONTID:0003964;CHEMONTID:0001275;CHEMONTID:0000138;CHEMONTID:0000033;CHEMONTID:0000285;CHEMONTID:0003978;CHEMONTID:0002565;CHEMONTID:0001350;CHEMONTID:0002948;CHEMONTID:0000190
Ontology: Benzanilides
OntologyID: CHEMONTID:0004713
RETENTIONTIME: -1
RETENTIONINDEX: -1
TotalBondEnergy: 16466
TotalScore: 6.697
TotalHrRulesScore: 1
TotalBondCleavageScore: 1
TotalMassAccuracyScore: 0.991
TotalFragmentLinkageScore: 1
TotalBondDissociationEnergyScore: 1
DatabaseScore: 0.5476
SubstructureAssignmentScore: 0
RtSimilarityScore: -1
RiSimilarityScore: 0
Num Fragment VS2 (M/Z Intensity MatchedExactMass SaturatedExactMass Formula RearrangedHydrogen PPM MassDiff_mDa IsEvenElectronRule IsHrRule IsSolventAdductFragment AssignedAdductMass AdductString BondDissociationEnergy TreeDepth SMILES TotalScore HrLikelihood BcLikelihood MaLikelihood FlLikelihood BeLikelihood): 1
302.10902	24075.84299	302.102308193381	301.095031738281	C16H15NO5	1	22.22	6.71	True	True	False	0		0	0	O=C(OC)C2=CC=C(OC)C=C2(NC(=O)C=1C=CC=CC=1(O))	4.99103081226349	1	1	0.991030812263489	1	1

NAME: Nanaomycin C
ID: VENLWOFOMJQPFA
IsSpectrumSearch: False
INCHIKEY: VENLWOFOMJQPFA-HGXVMFPFNA-N
SMILES: O=C(N)CC2OC(C=1C(=O)C=3C(O)=CC=CC=3(C(=O)C=1C2))C
RESOURCES: KNApSAcK=C00018068,UNPD=UNPD123455
SubstructureInChIKeys: VNWKTOKETHGBQD;QGZKDVFQNNGYKY;XLYOFNOQVPJJNP;WSFSSNUMVMOOMR;IKHGUXGNUITLKF;ATUOYWHBWRKTHZ;QUSNBJAOOMFDIB;LCGLNKUTAGEVQW;NBBJYMSMWIIQGU;IJDNQMDRQITEOD;WGYKZJWCGVVSQN;BDERNNFJNOPAEC;XOBKSJJDNFUZPF;ZTQSAGDEMFDKMZ;OFBQJSOFQDEBGM;HQABUPZFAYXKJW;AKXKFZDCRYJKTF;VNKYTQGIUYNRMY;WUGQZFFCHPXWKQ;UHOVQNZJYSORNB;HGBOYTHUEUWSSQ;DPBLXKKOBLCELK;AQIXEPGDORPWBJ;FVNIMHIOIXPIQT;ISWSIDIOOBJBQZ;YNQLUTRBYVCPMQ;IWDCLRJOBJJRNH;GHMLBKRAJCXXBS;FUGYGGDSWSUORM;ODLMAHJVESYWTB;SMQUZDBALVYZAC;HMNKTRSOROOSPP;HXDOZKJGKXYMEW;WRMNZCZEMHIOCP;OIPPWFOQEKKFEE;ZBCATMYQYDCTIZ;FBTSUTGMWBDAAC;MPWGZBWDLMDIHO;HFLGBNBLMBSXEM;PMRFBLQVGJNGLU;VGMJYYDKPUPTID;YCCILVSKPBXVIP;PCYGLFXKCBFGPC;MQSXUKPGWMJYBT;JUUBCHWRXWPFFH;DWGPKVSAWGQTPQ
SubstructureOntologies: CHEMONTID:0002500;NonID:NH2;NonID:H2O;CHEMONTID:0001831;CHEMONTID:0002230;CHEMONTID:0000469;CHEMONTID:0001167;CHEMONTID:0002434;CHEMONTID:0000286;CHEMONTID:0001852;CHEMONTID:0002279;CHEMONTID:0001661;CHEMONTID:0004647;CHEMONTID:0001275;CHEMONTID:0000137;CHEMONTID:0000037;CHEMONTID:0002811;CHEMONTID:0003978;CHEMONTID:0004646;CHEMONTID:0000135;CHEMONTID:0003698
Ontology: Benzoisochromanequinones
OntologyID: CHEMONTID:0002355
RETENTIONTIME: -1
RETENTIONINDEX: -1
TotalBondEnergy: 16695
TotalScore: 6.697
TotalHrRulesScore: 1
TotalBondCleavageScore: 1
TotalMassAccuracyScore: 0.991
TotalFragmentLinkageScore: 1
TotalBondDissociationEnergyScore: 1
DatabaseScore: 0.5476
SubstructureAssignmentScore: 0
RtSimilarityScore: -1
RiSimilarityScore: 0
Num Fragment VS2 (M/Z Intensity MatchedExactMass SaturatedExactMass Formula RearrangedHydrogen PPM MassDiff_mDa IsEvenElectronRule IsHrRule IsSolventAdductFragment AssignedAdductMass AdductString BondDissociationEnergy TreeDepth SMILES TotalScore HrLikelihood BcLikelihood MaLikelihood FlLikelihood BeLikelihood): 1
302.10902	24075.84299	302.102308193381	301.095031738281	C16H15NO5	1	22.22	6.71	True	True	False	0		0	0	O=C(N)CC2OC(C=1C(=O)C=3C(O)=CC=CC=3(C(=O)C=1C2))C	4.99103081226349	1	1	0.991030812263489	1	1

NAME: (-)-Cereoaldomine
ID: LCSBVTRDUJHTLY
IsSpectrumSearch: False
INCHIKEY: LCSBVTRDUJHTLY-MDOHGIEYNA-N
SMILES: O=CC=2C=C(O)C(O)=C3C(=N)C(=O)C1=C(OC(C)C1(C)C)C=23
RESOURCES: ChEBI=CHEBI:69036,UNPD=UNPD204131
SubstructureInChIKeys: VNWKTOKETHGBQD;XLYOFNOQVPJJNP;WDWDWGRYHDPSDS;WSFSSNUMVMOOMR;IKHGUXGNUITLKF;ATUOYWHBWRKTHZ;LCGLNKUTAGEVQW;IJDNQMDRQITEOD;NNPPMTNAJDCUHE;BDERNNFJNOPAEC;XOBKSJJDNFUZPF;QWTDNUCVQCZILF;VNKYTQGIUYNRMY;ZXEKIIBDNHEJCQ;UHOVQNZJYSORNB;JWUJQDFVADABEY;HNRMPXKDFBEGFZ;FVNIMHIOIXPIQT;MXLMTQWGSQIYOW;YXFVVABEGXRONW;ISWSIDIOOBJBQZ;HUMNYLRZRPPJDN;YNQLUTRBYVCPMQ;IWDCLRJOBJJRNH;RDOXTESZEPMUJZ;GHMLBKRAJCXXBS;FUGYGGDSWSUORM;ODLMAHJVESYWTB;SMQUZDBALVYZAC;CHLICZRVGGXEOD;DLRJIFUOBPOJNS;HMNKTRSOROOSPP;HXDOZKJGKXYMEW;WRMNZCZEMHIOCP;LHGVFZTZFXWLCP;OIPPWFOQEKKFEE;ZBCATMYQYDCTIZ;FBTSUTGMWBDAAC;DWLZULQNIPIABE;HDNRAPAFJLXKBV;MPWGZBWDLMDIHO;IUNJCFABHJZSKB;HFLGBNBLMBSXEM;NOTCZLKDULMKBR;PETRWTHZSKVLRE;VGMJYYDKPUPTID;YCCILVSKPBXVIP;PCYGLFXKCBFGPC;SULYEHHGGXARJS;CAWZFQGJUGEKFU;JUUBCHWRXWPFFH;DWGPKVSAWGQTPQ
SubstructureOntologies: CHEMONTID:0002500;NonID:H2O;CHEMONTID:0000117;CHEMONTID:0001831;CHEMONTID:0002230;CHEMONTID:0001167;CHEMONTID:0004620;CHEMONTID:0000286;CHEMONTID:0002279;CHEMONTID:0002648;CHEMONTID:0001661;CHEMONTID:0001091;CHEMONTID:0004647;CHEMONTID:0000321;CHEMONTID:0001275;CHEMONTID:0000138;CHEMONTID:0000137;CHEMONTID:0000037;CHEMONTID:0002811;CHEMONTID:0003978;CHEMONTID:0002341;CHEMONTID:0004646;CHEMONTID:0000190;CHEMONTID:0000135;CHEMONTID:0003698;CHEMONTID:0004298
Ontology: Naphthofurans
OntologyID: CHEMONTID:0001634
RETENTIONTIME: -1
RETENTIONINDEX: -1
TotalBondEnergy: 16687
TotalScore: 6.697
TotalHrRulesScore: 1
TotalBondCleavageScore: 1
TotalMassAccuracyScore: 0.991
TotalFragmentLinkageScore: 1
TotalBondDissociationEnergyScore: 1
DatabaseScore: 0.5476
SubstructureAssignmentScore: 0
RtSimilarityScore: -1
RiSimilarityScore: 0
Num Fragment VS2 (M/Z Intensity MatchedExactMass SaturatedExactMass Formula RearrangedHydrogen PPM MassDiff_mDa IsEvenElectronRule IsHrRule IsSolventAdductFragment AssignedAdductMass AdductString BondDissociationEnergy TreeDepth SMILES TotalScore HrLikelihood BcLikelihood MaLikelihood FlLikelihood BeLikelihood): 1
302.10902	24075.84299	302.102308193381	301.095031738281	C16H15NO5	1	22.22	6.71	True	True	False	0		0	0	O=CC=2C=C(O)C(O)=C3C(=N)C(=O)C1=C(OC(C)C1(C)C)C=23	4.99103081226349	1	1	0.991030812263489	1	1

NAME: acetic acid [4-[(4-hydroxyanilino)-oxomethyl]-2-methoxyphenyl] ester
ID: NRAXYEOTGBQZLX
IsSpectrumSearch: False
INCHIKEY: NRAXYEOTGBQZLX-UHFFFAOYSA-N
SMILES: O=C(OC=1C=CC(=CC=1(OC))C(=O)NC2=CC=C(O)C=C2)C
RESOURCES: ChEBI=CHEBI:119951
SubstructureInChIKeys: VNWKTOKETHGBQD;XLYOFNOQVPJJNP;WSFSSNUMVMOOMR;IKHGUXGNUITLKF;ROSDSFDQCJNGOL;LCGLNKUTAGEVQW;ATHHXGZTWNVVOU;LIWAQLJGPBVORC;QTBSBXVTEAMEQO;TZIHFWKZFHZASV;XOBKSJJDNFUZPF;KXKVLQRXCPHEJC;UHOVQNZJYSORNB;YXFVVABEGXRONW;PAYRUJLWNCNPSJ;ISWSIDIOOBJBQZ;HUMNYLRZRPPJDN;AFBPFSWMIHJQDM;IWDCLRJOBJJRNH;RDOXTESZEPMUJZ;GHMLBKRAJCXXBS;DYDNPESBYVVLBO;SMQUZDBALVYZAC;CHLICZRVGGXEOD;DLRJIFUOBPOJNS;LHGVFZTZFXWLCP;OIPPWFOQEKKFEE;ZBCATMYQYDCTIZ;FZERHIULMFGESH;IUNJCFABHJZSKB;ABDKAPXRBAPSQN;DPZNOMCNRMUKPS;NOTCZLKDULMKBR;PETRWTHZSKVLRE;DZJPDDVDKXHRLF;GYPMBQZAVBFUIZ;RIZBLVRXRWHLFA
SubstructureOntologies: CHEMONTID:0002500;NonID:H2O;CHEMONTID:0001831;CHEMONTID:0002230;CHEMONTID:0002228;CHEMONTID:0001167;CHEMONTID:0002484;CHEMONTID:0001205;CHEMONTID:0001238;CHEMONTID:0003416;CHEMONTID:0002279;CHEMONTID:0001091;CHEMONTID:0000284;CHEMONTID:0004647;CHEMONTID:0000321;CHEMONTID:0003924;CHEMONTID:0001275;CHEMONTID:0000138;CHEMONTID:0000137;CHEMONTID:0000285;CHEMONTID:0003978;CHEMONTID:0002341;CHEMONTID:0000190;CHEMONTID:0000135;CHEMONTID:0004111
Ontology: Benzanilides
OntologyID: CHEMONTID:0004713
RETENTIONTIME: -1
RETENTIONINDEX: -1
TotalBondEnergy: 16466
TotalScore: 6.6375
TotalHrRulesScore: 1
TotalBondCleavageScore: 1
TotalMassAccuracyScore: 0.991
TotalFragmentLinkageScore: 1
TotalBondDissociationEnergyScore: 1
DatabaseScore: 0.5238
SubstructureAssignmentScore: 0
RtSimilarityScore: -1
RiSimilarityScore: 0
Num Fragment VS2 (M/Z Intensity MatchedExactMass SaturatedExactMass Formula RearrangedHydrogen PPM MassDiff_mDa IsEvenElectronRule IsHrRule IsSolventAdductFragment AssignedAdductMass AdductString BondDissociationEnergy TreeDepth SMILES TotalScore HrLikelihood BcLikelihood MaLikelihood FlLikelihood BeLikelihood): 1
302.10902	24075.84299	302.102308193381	301.095031738281	C16H15NO5	1	22.22	6.71	True	True	False	0		0	0	O=C(OC=1C=CC(=CC=1(OC))C(=O)NC2=CC=C(O)C=C2)C	4.99103081226349	1	1	0.991030812263489	1	1

NAME: 2-(4-ethylphenoxy)acetic acid (4-nitrophenyl) ester
ID: RWFUKWUGXDQCGQ
IsSpectrumSearch: False
INCHIKEY: RWFUKWUGXDQCGQ-UHFFFAOYSA-N
SMILES: O=C(OC1=CC=C(C=C1)[N+](=O)[O-])COC2=CC=C(C=C2)CC
RESOURCES: ChEBI=CHEBI:108513
SubstructureInChIKeys: VNWKTOKETHGBQD;XLYOFNOQVPJJNP;WSFSSNUMVMOOMR;OTMSDBZUPAUEDD;IKHGUXGNUITLKF;ATUOYWHBWRKTHZ;JCXJVPUVTGWSNB;LCGLNKUTAGEVQW;QTBSBXVTEAMEQO;TZIHFWKZFHZASV;WGCNASOHLSPBMP;XOBKSJJDNFUZPF;LYCAIKOWRPUZTN;KXKVLQRXCPHEJC;YSEFYOVWKJXNCH;AEMRFAOFKBGASW;XNWFRZJHXBZDAG;VIBDJEWPNNCFQO;UHOVQNZJYSORNB;YXFVVABEGXRONW;PAYRUJLWNCNPSJ;ISWSIDIOOBJBQZ;YNQLUTRBYVCPMQ;IWDCLRJOBJJRNH;RDOXTESZEPMUJZ;CHLICZRVGGXEOD;DLRJIFUOBPOJNS;HMNKTRSOROOSPP;HXDOZKJGKXYMEW;DWLZULQNIPIABE;HDNRAPAFJLXKBV;NOTCZLKDULMKBR
SubstructureOntologies: CHEMONTID:0002500;NonID:H2O;CHEMONTID:0001831;CHEMONTID:0002230;NonID:NO2;CHEMONTID:0001167;CHEMONTID:0001205;CHEMONTID:0001238;CHEMONTID:0002467;CHEMONTID:0003416;CHEMONTID:0001359;CHEMONTID:0002286;CHEMONTID:0002279;CHEMONTID:0001091;CHEMONTID:0000284;CHEMONTID:0004647;CHEMONTID:0001275;CHEMONTID:0000138;CHEMONTID:0002341;CHEMONTID:0004646;CHEMONTID:0000190
Ontology: Phenoxyacetic acid derivatives
OntologyID: CHEMONTID:0000417
RETENTIONTIME: -1
RETENTIONINDEX: -1
TotalBondEnergy: 16185
TotalScore: 6.6375
TotalHrRulesScore: 1
TotalBondCleavageScore: 1
TotalMassAccuracyScore: 0.991
TotalFragmentLinkageScore: 1
TotalBondDissociationEnergyScore: 1
DatabaseScore: 0.5238
SubstructureAssignmentScore: 0
RtSimilarityScore: -1
RiSimilarityScore: 0
Num Fragment VS2 (M/Z Intensity MatchedExactMass SaturatedExactMass Formula RearrangedHydrogen PPM MassDiff_mDa IsEvenElectronRule IsHrRule IsSolventAdductFragment AssignedAdductMass AdductString BondDissociationEnergy TreeDepth SMILES TotalScore HrLikelihood BcLikelihood MaLikelihood FlLikelihood BeLikelihood): 1
302.10902	24075.84299	302.102308193381	301.095031738281	C16H15NO5	1	22.22	6.71	True	True	False	0		0	0	O=C(OC1=CC=C(C=C1)[N+](=O)[O-])COC2=CC=C(C=C2)CC	4.99103081226349	1	1	0.991030812263489	1	1

NAME: 3-[5-(2-nitropent-1-en-1-yl)furan-2-yl]benzoic acid
ID: IRHZCQDCMUWUKV
IsSpectrumSearch: False
INCHIKEY: IRHZCQDCMUWUKV-RAXLEYEMSA-N
SMILES: O=C(O)C1=CC=CC(=C1)C=2OC(=CC=2)C=C([N+](=O)[O-])CCC
RESOURCES: DrugBank=DB08302
SubstructureInChIKeys: VNWKTOKETHGBQD;XLYOFNOQVPJJNP;VGGSQFUCUMXWEO;WSFSSNUMVMOOMR;OTMSDBZUPAUEDD;IKHGUXGNUITLKF;ATUOYWHBWRKTHZ;JCXJVPUVTGWSNB;BDAGIHXWWSANSR;LFQSCWFLJHTTHZ;IAQRGUVFOMOMEM;VXNZUUAINFGPBY;IJDNQMDRQITEOD;QTBSBXVTEAMEQO;QMMOXUPEWRXHJS;YWAKXRMUMFPDSH;HQABUPZFAYXKJW;UHOVQNZJYSORNB;RYPKRALMXUUNKS;YXFVVABEGXRONW;HUMNYLRZRPPJDN;WVDDGKGOMKODPV;WPYMKLBDIGXBTP
SubstructureOntologies: CHEMONTID:0002500;NonID:H2O;CHEMONTID:0004476;CHEMONTID:0001831;CHEMONTID:0002230;NonID:NO2;CHEMONTID:0001205;CHEMONTID:0000286;CHEMONTID:0000469;CHEMONTID:0002279;CHEMONTID:0001091;CHEMONTID:0000321;CHEMONTID:0000033;CHEMONTID:0002565
Ontology: Benzoic acids
OntologyID: CHEMONTID:0002565
RETENTIONTIME: -1
RETENTIONINDEX: -1
TotalBondEnergy: 16221
TotalScore: 6.6375
TotalHrRulesScore: 1
TotalBondCleavageScore: 1
TotalMassAccuracyScore: 0.991
TotalFragmentLinkageScore: 1
TotalBondDissociationEnergyScore: 1
DatabaseScore: 0.5238
SubstructureAssignmentScore: 0
RtSimilarityScore: -1
RiSimilarityScore: 0
Num Fragment VS2 (M/Z Intensity MatchedExactMass SaturatedExactMass Formula RearrangedHydrogen PPM MassDiff_mDa IsEvenElectronRule IsHrRule IsSolventAdductFragment AssignedAdductMass AdductString BondDissociationEnergy TreeDepth SMILES TotalScore HrLikelihood BcLikelihood MaLikelihood FlLikelihood BeLikelihood): 1
302.10902	24075.84299	302.102308193381	301.095031738281	C16H15NO5	1	22.22	6.71	True	True	False	0		0	0	O=C(O)C1=CC=CC(=C1)C=2OC(=CC=2)C=C([N+](=O)[O-])CCC	4.99103081226349	1	1	0.991030812263489	1	1

NAME: UNPD184729
ID: MAZLTHBYATZOCX
IsSpectrumSearch: False
INCHIKEY: MAZLTHBYATZOCX-YVMONPNESA-N
SMILES: O=C(OC1=NC=CC=2C(=O)C(=C(OC)C(=O)C1=2)C)C(=CC)C
RESOURCES: UNPD=UNPD184729
SubstructureInChIKeys: VNWKTOKETHGBQD;VGGSQFUCUMXWEO;WSFSSNUMVMOOMR;QQONPFPTGQHPMA;IKHGUXGNUITLKF;ATUOYWHBWRKTHZ;LCGLNKUTAGEVQW;HGINCPLSRVDWNT;IAQRGUVFOMOMEM;VQTUBCCKSQIDNK;NBBJYMSMWIIQGU;XXROGKLTLUQVRX;QTBSBXVTEAMEQO;TZIHFWKZFHZASV;BDERNNFJNOPAEC;XOBKSJJDNFUZPF;MLUCVPSAIODCQM;BKOOMYPCSUNDGP;NIXOWILDQLNWCW;KXKVLQRXCPHEJC;XBDQKXXYIPTUBI;VNKYTQGIUYNRMY;UHOVQNZJYSORNB;JUJWROOIHBZHMG;BAPJBEWLBFYGME;CERQOIWHTDAKMF;NEJDKFPXHQRVMV;YXFVVABEGXRONW;ISWSIDIOOBJBQZ;IWDCLRJOBJJRNH;RDOXTESZEPMUJZ;AQSRRZGQRFFFGS;GHMLBKRAJCXXBS;FUGYGGDSWSUORM;CHLICZRVGGXEOD;LHGVFZTZFXWLCP;OIPPWFOQEKKFEE;ZBCATMYQYDCTIZ;QCDYQQDYXPDABM;UAJRSHJHFRVGMG;FBTSUTGMWBDAAC;IIGNZLVHOZEOPV;NOTCZLKDULMKBR;PETRWTHZSKVLRE;BPHYZRNTQNPLFI;HDVRLUFGYQYLFJ;PCYGLFXKCBFGPC;YOMSJEATGXXYPX;ZZMFDMIBZYLXQE;FALWUVSXNUUXQA;ZENOXNGFMSCLLL;GEEXFDOMGJGVHC
SubstructureOntologies: CHEMONTID:0002500;CHEMONTID:0004476;CHEMONTID:0001831;CHEMONTID:0002230;CHEMONTID:0001167;CHEMONTID:0002436;CHEMONTID:0004622;CHEMONTID:0002434;CHEMONTID:0000286;CHEMONTID:0001205;CHEMONTID:0001238;CHEMONTID:0004451;CHEMONTID:0003416;CHEMONTID:0002279;CHEMONTID:0000089;CHEMONTID:0004452;CHEMONTID:0001091;CHEMONTID:0004647;CHEMONTID:0001275;CHEMONTID:0000138;CHEMONTID:0004152;CHEMONTID:0000137;CHEMONTID:0000037;CHEMONTID:0000190;CHEMONTID:0000135;CHEMONTID:0000382;CHEMONTID:0000033;CHEMONTID:0000397
Ontology: Isoquinoline quinones
OntologyID: CHEMONTID:0002567
RETENTIONTIME: -1
RETENTIONINDEX: -1
TotalBondEnergy: 16632
TotalScore: 5.8875
TotalHrRulesScore: 1
TotalBondCleavageScore: 1
TotalMassAccuracyScore: 0.991
TotalFragmentLinkageScore: 1
TotalBondDissociationEnergyScore: 1
DatabaseScore: 0.2238
SubstructureAssignmentScore: 0
RtSimilarityScore: -1
RiSimilarityScore: 0
Num Fragment VS2 (M/Z Intensity MatchedExactMass SaturatedExactMass Formula RearrangedHydrogen PPM MassDiff_mDa IsEvenElectronRule IsHrRule IsSolventAdductFragment AssignedAdductMass AdductString BondDissociationEnergy TreeDepth SMILES TotalScore HrLikelihood BcLikelihood MaLikelihood FlLikelihood BeLikelihood): 1
302.10902	24075.84299	302.102308193381	301.095031738281	C16H15NO5	1	22.22	6.71	True	True	False	0		0	0	O=C(OC1=NC=CC=2C(=O)C(=C(OC)C(=O)C1=2)C)C(=CC)C	4.99103081226349	1	1	0.991030812263489	1	1

NAME: UNPD9374
ID: NSQSWGHMRDOITD
IsSpectrumSearch: False
INCHIKEY: NSQSWGHMRDOITD-YWEYNIOJSA-N
SMILES: O=C(OCC1=NC=CC=2C(=O)C(=C(O)C(=O)C1=2)C)C(=CC)C
RESOURCES: UNPD=UNPD9374
SubstructureInChIKeys: VNWKTOKETHGBQD;XLYOFNOQVPJJNP;VGGSQFUCUMXWEO;WSFSSNUMVMOOMR;QQONPFPTGQHPMA;IKHGUXGNUITLKF;ATUOYWHBWRKTHZ;LCGLNKUTAGEVQW;HGINCPLSRVDWNT;IAQRGUVFOMOMEM;VQTUBCCKSQIDNK;NBBJYMSMWIIQGU;XXROGKLTLUQVRX;QTBSBXVTEAMEQO;TZIHFWKZFHZASV;BDERNNFJNOPAEC;XOBKSJJDNFUZPF;MLUCVPSAIODCQM;BKOOMYPCSUNDGP;NIXOWILDQLNWCW;KXKVLQRXCPHEJC;WBJINCZRORDGAQ;XBDQKXXYIPTUBI;VNKYTQGIUYNRMY;UHOVQNZJYSORNB;JUJWROOIHBZHMG;BAPJBEWLBFYGME;CERQOIWHTDAKMF;NEJDKFPXHQRVMV;XEKOWRVHYACXOJ;YXFVVABEGXRONW;ITQTTZVARXURQS;ISWSIDIOOBJBQZ;IWDCLRJOBJJRNH;GHMLBKRAJCXXBS;SUPCQIBBMFXVTL;FUGYGGDSWSUORM;HXDOZKJGKXYMEW;OIPPWFOQEKKFEE;ZBCATMYQYDCTIZ;QCDYQQDYXPDABM;FBTSUTGMWBDAAC;HFLGBNBLMBSXEM;BPHYZRNTQNPLFI;ZZMFDMIBZYLXQE
SubstructureOntologies: CHEMONTID:0002500;NonID:H2O;CHEMONTID:0004476;CHEMONTID:0001831;CHEMONTID:0002230;CHEMONTID:0001167;CHEMONTID:0002436;CHEMONTID:0004622;CHEMONTID:0002434;CHEMONTID:0000286;CHEMONTID:0001205;CHEMONTID:0001238;CHEMONTID:0004451;CHEMONTID:0003416;CHEMONTID:0002279;CHEMONTID:0000089;CHEMONTID:0004452;CHEMONTID:0001091;CHEMONTID:0004152;CHEMONTID:0004647;CHEMONTID:0001275;CHEMONTID:0000137;CHEMONTID:0003626;CHEMONTID:0000037;CHEMONTID:0004646;CHEMONTID:0000135;CHEMONTID:0000382;CHEMONTID:0000397
Ontology: Isoquinoline quinones
OntologyID: CHEMONTID:0002567
RETENTIONTIME: -1
RETENTIONINDEX: -1
TotalBondEnergy: 16668
TotalScore: 5.8875
TotalHrRulesScore: 1
TotalBondCleavageScore: 1
TotalMassAccuracyScore: 0.991
TotalFragmentLinkageScore: 1
TotalBondDissociationEnergyScore: 1
DatabaseScore: 0.2238
SubstructureAssignmentScore: 0
RtSimilarityScore: -1
RiSimilarityScore: 0
Num Fragment VS2 (M/Z Intensity MatchedExactMass SaturatedExactMass Formula RearrangedHydrogen PPM MassDiff_mDa IsEvenElectronRule IsHrRule IsSolventAdductFragment AssignedAdductMass AdductString BondDissociationEnergy TreeDepth SMILES TotalScore HrLikelihood BcLikelihood MaLikelihood FlLikelihood BeLikelihood): 1
302.10902	24075.84299	302.102308193381	301.095031738281	C16H15NO5	1	22.22	6.71	True	True	False	0		0	0	O=C(OCC1=NC=CC=2C(=O)C(=C(O)C(=O)C1=2)C)C(=CC)C	4.99103081226349	1	1	0.991030812263489	1	1

NAME: UNPD153417
ID: RPXHTTDVHFFAHL
IsSpectrumSearch: False
INCHIKEY: RPXHTTDVHFFAHL-UHFFFAOYSA-N
SMILES: O=C2C=1C=CC(OC)=C(OC)C=1N(C=3C=C(O)C=C(O)C2=3)C
RESOURCES: UNPD=UNPD153417
SubstructureInChIKeys: VNWKTOKETHGBQD;XLYOFNOQVPJJNP;WSFSSNUMVMOOMR;LCGLNKUTAGEVQW;UHOVQNZJYSORNB;JUJWROOIHBZHMG;ISWSIDIOOBJBQZ;IWDCLRJOBJJRNH;RDOXTESZEPMUJZ;AQSRRZGQRFFFGS;GHMLBKRAJCXXBS;SMQUZDBALVYZAC;CHLICZRVGGXEOD;HXDOZKJGKXYMEW;LHGVFZTZFXWLCP;OIPPWFOQEKKFEE;ZBCATMYQYDCTIZ;DWLZULQNIPIABE;HDNRAPAFJLXKBV;IUNJCFABHJZSKB;ABDKAPXRBAPSQN;DPZNOMCNRMUKPS;HFLGBNBLMBSXEM;NOTCZLKDULMKBR;PETRWTHZSKVLRE;DZJPDDVDKXHRLF;SULYEHHGGXARJS;CAWZFQGJUGEKFU;GYPMBQZAVBFUIZ;RIZBLVRXRWHLFA;NEBQMYHKOREVAL
SubstructureOntologies: CHEMONTID:0002500;NonID:H2O;CHEMONTID:0001831;CHEMONTID:0001167;CHEMONTID:0002279;CHEMONTID:0000089;CHEMONTID:0004647;CHEMONTID:0001275;CHEMONTID:0000138;CHEMONTID:0004152;CHEMONTID:0000137;CHEMONTID:0003978;CHEMONTID:0004646;CHEMONTID:0000190;CHEMONTID:0000135;CHEMONTID:0004111;CHEMONTID:0004298
Ontology: Acridones
OntologyID: CHEMONTID:0001811
RETENTIONTIME: -1
RETENTIONINDEX: -1
TotalBondEnergy: 16453
TotalScore: 5.8875
TotalHrRulesScore: 1
TotalBondCleavageScore: 1
TotalMassAccuracyScore: 0.991
TotalFragmentLinkageScore: 1
TotalBondDissociationEnergyScore: 1
DatabaseScore: 0.2238
SubstructureAssignmentScore: 0
RtSimilarityScore: -1
RiSimilarityScore: 0
Num Fragment VS2 (M/Z Intensity MatchedExactMass SaturatedExactMass Formula RearrangedHydrogen PPM MassDiff_mDa IsEvenElectronRule IsHrRule IsSolventAdductFragment AssignedAdductMass AdductString BondDissociationEnergy TreeDepth SMILES TotalScore HrLikelihood BcLikelihood MaLikelihood FlLikelihood BeLikelihood): 1
302.10902	24075.84299	302.102308193381	301.095031738281	C16H15NO5	1	22.22	6.71	True	True	False	0		0	0	O=C2C=1C=CC(OC)=C(OC)C=1N(C=3C=C(O)C=C(O)C2=3)C	4.99103081226349	1	1	0.991030812263489	1	1

NAME: UNPD8121
ID: SUHIRCMTPMDNGD
IsSpectrumSearch: False
INCHIKEY: SUHIRCMTPMDNGD-AATRIKPKSA-N
SMILES: O=C(C=CC=1C=C(OC)C=2OCOC=2(C=1))N3C(=O)C=CCC3
RESOURCES: UNPD=UNPD8121
SubstructureInChIKeys: VNWKTOKETHGBQD;VGGSQFUCUMXWEO;WSFSSNUMVMOOMR;OTMSDBZUPAUEDD;IKHGUXGNUITLKF;ATUOYWHBWRKTHZ;ROSDSFDQCJNGOL;LCGLNKUTAGEVQW;CKFGINPQOCXMAZ;HGINCPLSRVDWNT;IAQRGUVFOMOMEM;VXNZUUAINFGPBY;ATHHXGZTWNVVOU;GETQZCLCWQTVFV;LIWAQLJGPBVORC;MLUCVPSAIODCQM;QMMOXUPEWRXHJS;DAZXVJBJRMWXJP;GVWISOJSERXQBM;HPNMFZURTQLUMO;UHOVQNZJYSORNB;SUUDTPGCUKBECW;GNVRJGIVDSQCOP;ZUHZZVMEUAUWHY;YXFVVABEGXRONW;ISWSIDIOOBJBQZ;SMBYUOXUISCLCF;ZMANZCXQSJIPKH;PPBRXRYQALVLMV;IWDCLRJOBJJRNH;RDOXTESZEPMUJZ;GHMLBKRAJCXXBS;QROGIFZRVHSFLM;FUGYGGDSWSUORM;JESXATFQYMPTNL;CHLICZRVGGXEOD;LHGVFZTZFXWLCP;OIPPWFOQEKKFEE;ZBCATMYQYDCTIZ;QCDYQQDYXPDABM;KJPRLNWUNMBNBZ;UAJRSHJHFRVGMG;FBTSUTGMWBDAAC;GHPODDMCSOYWNE;ABDKAPXRBAPSQN;DPZNOMCNRMUKPS;NOTCZLKDULMKBR;PETRWTHZSKVLRE;BPHYZRNTQNPLFI;HDVRLUFGYQYLFJ;CJXMVKYNVIGQBS;MDXYNRAMDATLBT;YOMSJEATGXXYPX;ZZMFDMIBZYLXQE;GYPMBQZAVBFUIZ;RIZBLVRXRWHLFA;FALWUVSXNUUXQA;XQDNFAMOIPNVES;AXCXHFKZHDEKTP;XHYAQFCRAQUBTD;AXMVYSVVTMKQSL;NJXYTXADXSRFTJ;GEEXFDOMGJGVHC;AGIQIOSHSMJYJP;CRUILBNAQILVHZ;KCIZTNZGSBSSRM;KNUFNLWDGZQKKJ;CDICDSOGTRCHMG
SubstructureOntologies: CHEMONTID:0002500;CHEMONTID:0004476;CHEMONTID:0001831;CHEMONTID:0002230;CHEMONTID:0002228;CHEMONTID:0001167;CHEMONTID:0001605;CHEMONTID:0002436;CHEMONTID:0002484;CHEMONTID:0002239;CHEMONTID:0002279;CHEMONTID:0001663;CHEMONTID:0001091;CHEMONTID:0004647;CHEMONTID:0000037;CHEMONTID:0001275;CHEMONTID:0000138;CHEMONTID:0000137;CHEMONTID:0000190;CHEMONTID:0000135;CHEMONTID:0000382;CHEMONTID:0000029;CHEMONTID:0000296;CHEMONTID:0004111;CHEMONTID:0000397
Ontology: Cinnamic acids and derivatives
OntologyID: CHEMONTID:0000476
RETENTIONTIME: -1
RETENTIONINDEX: -1
TotalBondEnergy: 16504
TotalScore: 5.8875
TotalHrRulesScore: 1
TotalBondCleavageScore: 1
TotalMassAccuracyScore: 0.991
TotalFragmentLinkageScore: 1
TotalBondDissociationEnergyScore: 1
DatabaseScore: 0.2238
SubstructureAssignmentScore: 0
RtSimilarityScore: -1
RiSimilarityScore: 0
Num Fragment VS2 (M/Z Intensity MatchedExactMass SaturatedExactMass Formula RearrangedHydrogen PPM MassDiff_mDa IsEvenElectronRule IsHrRule IsSolventAdductFragment AssignedAdductMass AdductString BondDissociationEnergy TreeDepth SMILES TotalScore HrLikelihood BcLikelihood MaLikelihood FlLikelihood BeLikelihood): 1
302.10902	24075.84299	302.102308193381	301.095031738281	C16H15NO5	1	22.22	6.71	True	True	False	0		0	0	O=C(C=CC=1C=C(OC)C=2OCOC=2(C=1))N3C(=O)C=CCC3	4.99103081226349	1	1	0.991030812263489	1	1

NAME: UNPD144743
ID: VPMIRWSZFAXDKP
IsSpectrumSearch: False
INCHIKEY: VPMIRWSZFAXDKP-UHFFFAOYSA-N
SMILES: O=C2C=1C=CC(OC)=C(O)C=1N(C=3C=C(OC)C=C(O)C2=3)C
RESOURCES: UNPD=UNPD144743
SubstructureInChIKeys: VNWKTOKETHGBQD;XLYOFNOQVPJJNP;WSFSSNUMVMOOMR;LCGLNKUTAGEVQW;UHOVQNZJYSORNB;JUJWROOIHBZHMG;ISWSIDIOOBJBQZ;IWDCLRJOBJJRNH;RDOXTESZEPMUJZ;AQSRRZGQRFFFGS;GHMLBKRAJCXXBS;SMQUZDBALVYZAC;CHLICZRVGGXEOD;HXDOZKJGKXYMEW;LHGVFZTZFXWLCP;OIPPWFOQEKKFEE;ZBCATMYQYDCTIZ;DWLZULQNIPIABE;HDNRAPAFJLXKBV;IUNJCFABHJZSKB;HFLGBNBLMBSXEM;NOTCZLKDULMKBR;PETRWTHZSKVLRE;DZJPDDVDKXHRLF;SULYEHHGGXARJS;CAWZFQGJUGEKFU
SubstructureOntologies: CHEMONTID:0002500;NonID:H2O;CHEMONTID:0001831;CHEMONTID:0001167;CHEMONTID:0002279;CHEMONTID:0000089;CHEMONTID:0004647;CHEMONTID:0001275;CHEMONTID:0000138;CHEMONTID:0004152;CHEMONTID:0000137;CHEMONTID:0003978;CHEMONTID:0004646;CHEMONTID:0000190;CHEMONTID:0000135;CHEMONTID:0004298
Ontology: Acridones
OntologyID: CHEMONTID:0001811
RETENTIONTIME: -1
RETENTIONINDEX: -1
TotalBondEnergy: 16453
TotalScore: 5.8875
TotalHrRulesScore: 1
TotalBondCleavageScore: 1
TotalMassAccuracyScore: 0.991
TotalFragmentLinkageScore: 1
TotalBondDissociationEnergyScore: 1
DatabaseScore: 0.2238
SubstructureAssignmentScore: 0
RtSimilarityScore: -1
RiSimilarityScore: 0
Num Fragment VS2 (M/Z Intensity MatchedExactMass SaturatedExactMass Formula RearrangedHydrogen PPM MassDiff_mDa IsEvenElectronRule IsHrRule IsSolventAdductFragment AssignedAdductMass AdductString BondDissociationEnergy TreeDepth SMILES TotalScore HrLikelihood BcLikelihood MaLikelihood FlLikelihood BeLikelihood): 1
302.10902	24075.84299	302.102308193381	301.095031738281	C16H15NO5	1	22.22	6.71	True	True	False	0		0	0	O=C2C=1C=CC(OC)=C(O)C=1N(C=3C=C(OC)C=C(O)C2=3)C	4.99103081226349	1	1	0.991030812263489	1	1

NAME: UNPD139488
ID: XZTUXMKQNGVVRF
IsSpectrumSearch: False
INCHIKEY: XZTUXMKQNGVVRF-UHFFFAOYSA-N
SMILES: O=C1C=3C=CC=CC=3(NC=2C(OC)=C(OC)C(OC)=C(O)C1=2)
RESOURCES: UNPD=UNPD139488
SubstructureInChIKeys: VNWKTOKETHGBQD;XLYOFNOQVPJJNP;WSFSSNUMVMOOMR;LCGLNKUTAGEVQW;UHOVQNZJYSORNB;JUJWROOIHBZHMG;ISWSIDIOOBJBQZ;IWDCLRJOBJJRNH;RDOXTESZEPMUJZ;AQSRRZGQRFFFGS;GHMLBKRAJCXXBS;SMQUZDBALVYZAC;CHLICZRVGGXEOD;HXDOZKJGKXYMEW;LHGVFZTZFXWLCP;OIPPWFOQEKKFEE;ZBCATMYQYDCTIZ;QCDYQQDYXPDABM;DWLZULQNIPIABE;HDNRAPAFJLXKBV;IUNJCFABHJZSKB;ABDKAPXRBAPSQN;DPZNOMCNRMUKPS;HFLGBNBLMBSXEM;NOTCZLKDULMKBR;PETRWTHZSKVLRE;BPHYZRNTQNPLFI;HDVRLUFGYQYLFJ;RDJUHLUBPADHNP;DZJPDDVDKXHRLF;SULYEHHGGXARJS;CAWZFQGJUGEKFU;GYPMBQZAVBFUIZ;RIZBLVRXRWHLFA;BTQAJGSMXCDDAJ;FALWUVSXNUUXQA;XQDNFAMOIPNVES;NEBQMYHKOREVAL;ABNNGIOYMQTQQO;AGIQIOSHSMJYJP;CRUILBNAQILVHZ;KUSIZNPTWCYZMX;FQRQWPNYJOFDLO;KCIZTNZGSBSSRM
SubstructureOntologies: CHEMONTID:0002500;NonID:H2O;CHEMONTID:0001831;CHEMONTID:0001167;CHEMONTID:0002279;CHEMONTID:0000089;CHEMONTID:0004647;CHEMONTID:0001275;CHEMONTID:0000138;CHEMONTID:0004152;CHEMONTID:0000137;CHEMONTID:0003978;CHEMONTID:0004646;CHEMONTID:0000190;CHEMONTID:0000135;CHEMONTID:0000382;CHEMONTID:0004111;CHEMONTID:0004298;CHEMONTID:0002519
Ontology: Acridones
OntologyID: CHEMONTID:0001811
RETENTIONTIME: -1
RETENTIONINDEX: -1
TotalBondEnergy: 16433
TotalScore: 5.8875
TotalHrRulesScore: 1
TotalBondCleavageScore: 1
TotalMassAccuracyScore: 0.991
TotalFragmentLinkageScore: 1
TotalBondDissociationEnergyScore: 1
DatabaseScore: 0.2238
SubstructureAssignmentScore: 0
RtSimilarityScore: -1
RiSimilarityScore: 0
Num Fragment VS2 (M/Z Intensity MatchedExactMass SaturatedExactMass Formula RearrangedHydrogen PPM MassDiff_mDa IsEvenElectronRule IsHrRule IsSolventAdductFragment AssignedAdductMass AdductString BondDissociationEnergy TreeDepth SMILES TotalScore HrLikelihood BcLikelihood MaLikelihood FlLikelihood BeLikelihood): 1
302.10902	24075.84299	302.102308193381	301.095031738281	C16H15NO5	1	22.22	6.71	True	True	False	0		0	0	O=C1C=3C=CC=CC=3(NC=2C(OC)=C(OC)C(OC)=C(O)C1=2)	4.99103081226349	1	1	0.991030812263489	1	1

NAME: UNPD216827
ID: YVYXQUTZASIIIA
IsSpectrumSearch: False
INCHIKEY: YVYXQUTZASIIIA-AWEZNQCLSA-N
SMILES: O=C(O)C(N)CC2=CC=C(OC(=O)C1=CC=C(O)C=C1)C=C2
RESOURCES: UNPD=UNPD216827
SubstructureInChIKeys: QGZKDVFQNNGYKY;XLYOFNOQVPJJNP;WSFSSNUMVMOOMR;BAVYZALUXZFZLV;IKHGUXGNUITLKF;ATUOYWHBWRKTHZ;QUSNBJAOOMFDIB;BDAGIHXWWSANSR;LCGLNKUTAGEVQW;LFQSCWFLJHTTHZ;NBBJYMSMWIIQGU;IJDNQMDRQITEOD;LYIIBVSRGJSHAV;JJWLVOIRVHMVIS;WGYKZJWCGVVSQN;QTBSBXVTEAMEQO;TZIHFWKZFHZASV;BDERNNFJNOPAEC;XOBKSJJDNFUZPF;HZAXFHJVJLSVMW;ZTQSAGDEMFDKMZ;QPMCUNAXNMSGTK;KXKVLQRXCPHEJC;XBDQKXXYIPTUBI;BEBCJVAWIBVWNZ;LRHPLDYGYMQRHN;DHMQDGOQFOQNFH;UHOVQNZJYSORNB;FGEPRNXUNITOCW;FERIUCNNQQJTOY;QNAYBMKLOCPYGJ;YXFVVABEGXRONW;ISWSIDIOOBJBQZ;QWCKQJZIFLGMSD;HUMNYLRZRPPJDN;YNQLUTRBYVCPMQ;IWDCLRJOBJJRNH;RDOXTESZEPMUJZ;WVDDGKGOMKODPV;ODLMAHJVESYWTB;BHHGXPLMPWCGHP;SMQUZDBALVYZAC;WPYMKLBDIGXBTP;CHLICZRVGGXEOD;DLRJIFUOBPOJNS;HMNKTRSOROOSPP;HXDOZKJGKXYMEW;BVJSUAQZOZWCKN;YGCZTXZTJXYWCO;QPJVMBTYPHYUOC;DWLZULQNIPIABE;HDNRAPAFJLXKBV;MPWGZBWDLMDIHO;DZGWFCGJZKJUFP;NOTCZLKDULMKBR;CQIUZHAQYHXKRY;AMQRNDIFPLIQBP;REEQXZCFSBLNDH;XMIIGOLPHOKFCH;ZOXCMZXXNOSBHU;COLNVLDHVKWLRT;DXGAIOIQACHYRK;NMHMNPHRMNGLLB;BOTNYLSAWDQNEX;PSBWSIWOVNCTKX;VYQNWZOUAUKGHI
SubstructureOntologies: NonID:NH2;NonID:H2O;CHEMONTID:0001831;CHEMONTID:0000469;CHEMONTID:0002230;CHEMONTID:0002500;CHEMONTID:0001205;CHEMONTID:0001167;CHEMONTID:0000286;CHEMONTID:0002434;CHEMONTID:0001238;CHEMONTID:0001897;CHEMONTID:0003416;CHEMONTID:0002484;CHEMONTID:0002404;CHEMONTID:0002279;CHEMONTID:0000333;CHEMONTID:0004314;CHEMONTID:0001091;CHEMONTID:0004647;CHEMONTID:0000321;CHEMONTID:0001275;CHEMONTID:0000138;CHEMONTID:0000033;CHEMONTID:0002811;CHEMONTID:0000186;CHEMONTID:0003978;CHEMONTID:0002565;CHEMONTID:0002341;CHEMONTID:0004646;CHEMONTID:0001350;CHEMONTID:0000190;CHEMONTID:0000188;CHEMONTID:0002551;CHEMONTID:0004321;CHEMONTID:0004628
Ontology: Depsides and depsidones
OntologyID: CHEMONTID:0001645
RETENTIONTIME: -1
RETENTIONINDEX: -1
TotalBondEnergy: 16518
TotalScore: 5.8875
TotalHrRulesScore: 1
TotalBondCleavageScore: 1
TotalMassAccuracyScore: 0.991
TotalFragmentLinkageScore: 1
TotalBondDissociationEnergyScore: 1
DatabaseScore: 0.2238
SubstructureAssignmentScore: 0
RtSimilarityScore: -1
RiSimilarityScore: 0
Num Fragment VS2 (M/Z Intensity MatchedExactMass SaturatedExactMass Formula RearrangedHydrogen PPM MassDiff_mDa IsEvenElectronRule IsHrRule IsSolventAdductFragment AssignedAdductMass AdductString BondDissociationEnergy TreeDepth SMILES TotalScore HrLikelihood BcLikelihood MaLikelihood FlLikelihood BeLikelihood): 1
302.10902	24075.84299	302.102308193381	301.095031738281	C16H15NO5	1	22.22	6.71	True	True	False	0		0	0	O=C(O)C(N)CC2=CC=C(OC(=O)C1=CC=C(O)C=C1)C=C2	4.99103081226349	1	1	0.991030812263489	1	1

