NAME: rel-(2R,5S,7S,10S)-10-Methyl-2-[(1-methyl-1-beta-D-fucopyranosyloxy)ethyl]-6-methylenespiro[4.5]decan-7-ol
ID: AVQARFHINIEEIO
IsSpectrumSearch: False
INCHIKEY: AVQARFHINIEEIO-PVNNDBMENA-N
SMILES: OC3C(=C)C1(CCC(C1)C(OC2OC(C)C(O)C(O)C2(O))(C)C)C(C)CC3
RESOURCES: ChEBI=CHEBI:68942,NANPDB=NANPDB_5399;NANPDB_5400,UNPD=UNPD205204
SubstructureInChIKeys: VNWKTOKETHGBQD;XLYOFNOQVPJJNP;VGGSQFUCUMXWEO;OTMSDBZUPAUEDD;OKKJLVBELUTLKV;ATUOYWHBWRKTHZ;LCGLNKUTAGEVQW;LFQSCWFLJHTTHZ;CKFGINPQOCXMAZ;VQTUBCCKSQIDNK;VXNZUUAINFGPBY;XXROGKLTLUQVRX;IJDNQMDRQITEOD;NNPPMTNAJDCUHE;BDERNNFJNOPAEC;KFZMGEQAYNKOFK;XOBKSJJDNFUZPF;LYCAIKOWRPUZTN;RGSFGYAAUTVSQA;YWAKXRMUMFPDSH;MKUWVMRNQOOSAT;OFBQJSOFQDEBGM;QWTDNUCVQCZILF;BTANRVKWQNVYAZ;LRHPLDYGYMQRHN;VNKYTQGIUYNRMY;ZXEKIIBDNHEJCQ;DNIAPMSPPWPWGF;RRLWYLINGKISHN;XNWFRZJHXBZDAG;YPFDHNVEDLHUCE;VIBDJEWPNNCFQO;GDOPTJXRTPNYNR;LDTAOIUHUHHCMU;LIKMAJRDDDTEIG;XDTMQSROBMDMFD;AFABGHUZZDYHJO;HNRMPXKDFBEGFZ;PFEOZHBOMNWTJB;VLKZOEOYAKHREP;AMQJEAYHLZJPGS;AQIXEPGDORPWBJ;FVNIMHIOIXPIQT;JYVLIDXNZAXMDK;MXLMTQWGSQIYOW;PHTQWCKDNZKARW;BMRWNKZVCUKKSR;CHCLGECDSSWNCP;JDFDHBSESGTDAL;PUPZLCDOIYMWBV;YTTFFPATQICAQN;ZNQVEEAIQZEUHB;PEDCQBHIVMGVHV;ADHCYQWFCLQBFG;UAEPNZWRGJTJPN;ZGEGCLOFRBLKSE;BVOSSZSHBZQJOI;HPXRVTGHNJAIIH;BZHMBWZPUJHVEE;IMNFDUFMRHMDMM;VLJXXKKOSFGPHI;ZSIAUFGUXNUGDI;KLKFAASOGCDTDT;QONBKISCDWCHKF;WCVRQHFDJLLWFE;XLMFDCKSFJWJTP;ARXKVVRQIIOZGF;MTHSVFCYNBDYFN;YAXKTBLXMTYWDQ;MQVRLONNONYDJP;QJXCDRBHYIAFTH;KVZJLSYJROEPSQ;KWKAKUADMBZCLK;LETYIFNDQBJGPJ;QEGNUYASOUJEHD;SGVUHPSBDNVHKL;YXLCVBVDFKWWRW;MQWCXKGKQLNYQG;PZKFYTOLVRCMOA;JVSWJIKNEAIKJW;TVMXDCGIABBOFY;CETWDUZRCINIHU;OVOVDHYEOQJKMD;MMQYUDBFDDEJBP;AALKGALVYCZETF;BXXXHBWYZKLUGM;GZXFYIDYTCWDDN;LOSWWGJGSSQDKH;UNXHWFMMPAWVPI;ILIUIABCBOXIRX;PYOLJOJPIPCRDP;XARGIVYWQPXRTC;VSMOENVRRABVKN;ZBAXJUPCYVIBSP;UXUFMKFUJJLWKM;QXAMTEJJAZOINB;FJGNTEKSQVNVTJ;ZDAWZDFBPUUDAY;JJMZVBNCCUWEDF;NYFHUVYMLLAQHH;HIVFIUIKABOGIO;YLZKVXHQMPWDBJ;SOUITUXPBGREAE;BJBURJZEESAQPG;QVNPTEPOWBEITR;SRBFZHDQGSBBOR;HEBKCHPVOIAQTA;QNKOVWCOVLYPKR;SHZGCJCMOBCMKK;ZBDGHWFPLXXWRD;SKCKOFZKJLZSFA;NXCPHYJTOJDSLE;IRXJZDLOCNJAHE;OHWCAVRRXKJCRB;UBUITGRMYNAZAX;HRWQYCOJZMKBGI;QTIFSOVGBSROEQ;BZQBQGKZJCGZCL;YHUSUSKGDGXWGS
SubstructureOntologies: CHEMONTID:0002500;NonID:H2O;CHEMONTID:0004476;CHEMONTID:0000286;CHEMONTID:0001167;CHEMONTID:0001605;CHEMONTID:0004622;CHEMONTID:0004620;CHEMONTID:0001661;CHEMONTID:0002467;CHEMONTID:0001016;CHEMONTID:0001092;CHEMONTID:0002286;CHEMONTID:0001656;CHEMONTID:0002210;CHEMONTID:0002647;CHEMONTID:0001334;CHEMONTID:0002012;CHEMONTID:0003263;CHEMONTID:0001497;CHEMONTID:0002207;CHEMONTID:0001498
Ontology: Terpene glycosides
OntologyID: CHEMONTID:0002049
RETENTIONTIME: -1
RETENTIONINDEX: -1
TotalBondEnergy: 25374
TotalScore: 5.5648
TotalHrRulesScore: 0.5
TotalBondCleavageScore: 0.5
TotalMassAccuracyScore: 0.4997
TotalFragmentLinkageScore: 0.5
TotalBondDissociationEnergyScore: 0.5
DatabaseScore: 0.5714
SubstructureAssignmentScore: 0
RtSimilarityScore: -1
RiSimilarityScore: 0
Num Fragment VS2 (M/Z Intensity MatchedExactMass SaturatedExactMass Formula RearrangedHydrogen PPM MassDiff_mDa IsEvenElectronRule IsHrRule IsSolventAdductFragment AssignedAdductMass AdductString BondDissociationEnergy TreeDepth SMILES TotalScore HrLikelihood BcLikelihood MaLikelihood FlLikelihood BeLikelihood): 1
385.260284	170672.179948	385.258466640647	384.251190185547	C21H36O6	1	4.72	1.82	True	True	False	0		0	0	OC3C(=C)C1(CCC(C1)C(OC2OC(C)C(O)C(O)C2(O))(C)C)C(C)CC3	4.99933964014053	1	1	0.999339640140533	1	1

NAME: Betaenone D
ID: GZZDPJWUAOGKFV
IsSpectrumSearch: False
INCHIKEY: GZZDPJWUAOGKFV-XOXIWMKGNA-N
SMILES: O=C(CCO)C1(C)(C2C(C(=O)C(O)(C)C1(C(C)CC))CC(O)(CO)CC2(C))
RESOURCES: KNApSAcK=C00000531,UNPD=UNPD104769;UNPD153556
SubstructureInChIKeys: VNWKTOKETHGBQD;XLYOFNOQVPJJNP;WSFSSNUMVMOOMR;OTMSDBZUPAUEDD;OKKJLVBELUTLKV;IKHGUXGNUITLKF;ATUOYWHBWRKTHZ;LFQSCWFLJHTTHZ;CSCPPACGZOOCGX;NBBJYMSMWIIQGU;IJDNQMDRQITEOD;NNPPMTNAJDCUHE;WGCNASOHLSPBMP;BDERNNFJNOPAEC;KFZMGEQAYNKOFK;LYCAIKOWRPUZTN;ZTQSAGDEMFDKMZ;OFBQJSOFQDEBGM;QWTDNUCVQCZILF;AKXKFZDCRYJKTF;BSABBBMNWQWLLU;BTANRVKWQNVYAZ;LRHPLDYGYMQRHN;ZXEKIIBDNHEJCQ;DNIAPMSPPWPWGF;VIBDJEWPNNCFQO;XDTMQSROBMDMFD;HGBOYTHUEUWSSQ;AFABGHUZZDYHJO;HNRMPXKDFBEGFZ;PFEOZHBOMNWTJB;VLKZOEOYAKHREP;AMQJEAYHLZJPGS;AQIXEPGDORPWBJ;JYVLIDXNZAXMDK;MXLMTQWGSQIYOW;PHTQWCKDNZKARW;BMRWNKZVCUKKSR;UAEPNZWRGJTJPN;HPXRVTGHNJAIIH;JARKCYVAAOWBJS;BZHMBWZPUJHVEE;IMNFDUFMRHMDMM;VLJXXKKOSFGPHI;ZSIAUFGUXNUGDI;WCVRQHFDJLLWFE;KVZJLSYJROEPSQ;QEGNUYASOUJEHD;SGVUHPSBDNVHKL;CATSNJVOTSVZJV;FXHGMKSSBGDXIY;MQWCXKGKQLNYQG;JVSWJIKNEAIKJW;TVMXDCGIABBOFY;CETWDUZRCINIHU;OVOVDHYEOQJKMD;PYOLJOJPIPCRDP;XARGIVYWQPXRTC;LEBVLOLOVGHEFE;NUJGJRNETVAIRJ;VWLITJGXNSANSN;ZBAXJUPCYVIBSP;BUOAKQCLRBVIOX;HIVFIUIKABOGIO;YLZKVXHQMPWDBJ;SOUITUXPBGREAE;VTXRDCQMLXABHJ;IRXJZDLOCNJAHE;QPEHZWXCQFKJQO;XBENKLBOLWZLNQ;OTBOAOSTJYUVHP
SubstructureOntologies: CHEMONTID:0002500;NonID:H2O;CHEMONTID:0001831;CHEMONTID:0000286;CHEMONTID:0002230;CHEMONTID:0000118;CHEMONTID:0002434;CHEMONTID:0004620;CHEMONTID:0001661;CHEMONTID:0002467;CHEMONTID:0003675;CHEMONTID:0002286;CHEMONTID:0001016;CHEMONTID:0002647;CHEMONTID:0002229;CHEMONTID:0001334;CHEMONTID:0001401;CHEMONTID:0004149
Ontology: Beta-hydroxy ketones
OntologyID: CHEMONTID:0002913
RETENTIONTIME: -1
RETENTIONINDEX: -1
TotalBondEnergy: 25530
TotalScore: 5.5052
TotalHrRulesScore: 0.5
TotalBondCleavageScore: 0.5
TotalMassAccuracyScore: 0.4997
TotalFragmentLinkageScore: 0.5
TotalBondDissociationEnergyScore: 0.5
DatabaseScore: 0.5476
SubstructureAssignmentScore: 0
RtSimilarityScore: -1
RiSimilarityScore: 0
Num Fragment VS2 (M/Z Intensity MatchedExactMass SaturatedExactMass Formula RearrangedHydrogen PPM MassDiff_mDa IsEvenElectronRule IsHrRule IsSolventAdductFragment AssignedAdductMass AdductString BondDissociationEnergy TreeDepth SMILES TotalScore HrLikelihood BcLikelihood MaLikelihood FlLikelihood BeLikelihood): 1
385.260284	170672.179948	385.258466640647	384.251190185547	C21H36O6	1	4.72	1.82	True	True	False	0		0	0	O=C(CCO)C1(C)(C2C(C(=O)C(O)(C)C1(C(C)CC))CC(O)(CO)CC2(C))	4.99933964014053	1	1	0.999339640140533	1	1

NAME: Sinuflexibilin;(-)-Sinuflexibilin
ID: XVIUENHSSMFKJB
IsSpectrumSearch: False
INCHIKEY: XVIUENHSSMFKJB-SQUNUGDCNA-N
SMILES: O=C(OC)C(=C)C1CCC(O)(C)C(O)CCC(=CCCC(O)(C)C(O)C1)C
RESOURCES: KNApSAcK=C00050233,UNPD=UNPD87789
SubstructureInChIKeys: VNWKTOKETHGBQD;XLYOFNOQVPJJNP;VGGSQFUCUMXWEO;WSFSSNUMVMOOMR;OTMSDBZUPAUEDD;OKKJLVBELUTLKV;QQONPFPTGQHPMA;IKHGUXGNUITLKF;ATUOYWHBWRKTHZ;LCGLNKUTAGEVQW;LFQSCWFLJHTTHZ;HGINCPLSRVDWNT;IAQRGUVFOMOMEM;VQTUBCCKSQIDNK;VXNZUUAINFGPBY;NBBJYMSMWIIQGU;XXROGKLTLUQVRX;IJDNQMDRQITEOD;NNPPMTNAJDCUHE;QTBSBXVTEAMEQO;TZIHFWKZFHZASV;BDERNNFJNOPAEC;KFZMGEQAYNKOFK;XOBKSJJDNFUZPF;LYCAIKOWRPUZTN;BKOOMYPCSUNDGP;QMMOXUPEWRXHJS;YWAKXRMUMFPDSH;NIXOWILDQLNWCW;ZTQSAGDEMFDKMZ;OFBQJSOFQDEBGM;QWTDNUCVQCZILF;KXKVLQRXCPHEJC;XBDQKXXYIPTUBI;BTANRVKWQNVYAZ;LRHPLDYGYMQRHN;VNKYTQGIUYNRMY;ZXEKIIBDNHEJCQ;DNIAPMSPPWPWGF;VIBDJEWPNNCFQO;BEQGRRJLJLVQAQ;LDTAOIUHUHHCMU;LIKMAJRDDDTEIG;RYPKRALMXUUNKS;ZQDPJFUHLCOCRG;BAPJBEWLBFYGME;CERQOIWHTDAKMF;HGBOYTHUEUWSSQ;AFABGHUZZDYHJO;PFEOZHBOMNWTJB;VLKZOEOYAKHREP;FERIUCNNQQJTOY;AMQJEAYHLZJPGS;AQIXEPGDORPWBJ;JYVLIDXNZAXMDK;MXLMTQWGSQIYOW;PHTQWCKDNZKARW;BMRWNKZVCUKKSR;WZHKDGJSXCTSCK;ZGEGCLOFRBLKSE;JARKCYVAAOWBJS;IMNFDUFMRHMDMM;VLJXXKKOSFGPHI;ZSIAUFGUXNUGDI;WCVRQHFDJLLWFE;XLMFDCKSFJWJTP;KWKAKUADMBZCLK;FXHGMKSSBGDXIY;JVSWJIKNEAIKJW;TVMXDCGIABBOFY;OQAGVSWESNCJJT;CETWDUZRCINIHU;IICQZTQZQSBHBY;KPADFPAILITQBG;LZHHQGKEJNRBAZ;NUJGJRNETVAIRJ;OHEFFKYYKJVVOX;NZQMQVJXSRMTCJ
SubstructureOntologies: CHEMONTID:0002500;NonID:H2O;CHEMONTID:0004476;CHEMONTID:0001831;CHEMONTID:0000286;CHEMONTID:0002230;CHEMONTID:0001167;CHEMONTID:0002436;CHEMONTID:0004622;CHEMONTID:0002434;CHEMONTID:0004620;CHEMONTID:0001205;CHEMONTID:0001238;CHEMONTID:0001661;CHEMONTID:0002467;CHEMONTID:0004451;CHEMONTID:0003416;CHEMONTID:0002286;CHEMONTID:0004452;CHEMONTID:0000333;CHEMONTID:0002229;CHEMONTID:0001334;CHEMONTID:0003417;CHEMONTID:0003086
Ontology: Cembrane diterpenoids
OntologyID: CHEMONTID:0000008
RETENTIONTIME: -1
RETENTIONINDEX: -1
TotalBondEnergy: 25317
TotalScore: 5.5052
TotalHrRulesScore: 0.5
TotalBondCleavageScore: 0.5
TotalMassAccuracyScore: 0.4997
TotalFragmentLinkageScore: 0.5
TotalBondDissociationEnergyScore: 0.5
DatabaseScore: 0.5476
SubstructureAssignmentScore: 0
RtSimilarityScore: -1
RiSimilarityScore: 0
Num Fragment VS2 (M/Z Intensity MatchedExactMass SaturatedExactMass Formula RearrangedHydrogen PPM MassDiff_mDa IsEvenElectronRule IsHrRule IsSolventAdductFragment AssignedAdductMass AdductString BondDissociationEnergy TreeDepth SMILES TotalScore HrLikelihood BcLikelihood MaLikelihood FlLikelihood BeLikelihood): 1
385.260284	170672.179948	385.258466640647	384.251190185547	C21H36O6	1	4.72	1.82	True	True	False	0		0	0	O=C(OC)C(=C)C1CCC(O)(C)C(O)CCC(=CCCC(O)(C)C(O)C1)C	4.99933964014053	1	1	0.999339640140533	1	1

NAME: alpha-bisabolone-beta-D-fucopyranoside
ID: MAMURXKKLQVDLN
IsSpectrumSearch: False
INCHIKEY: MAMURXKKLQVDLN-GZJNYRSUSA-N
SMILES: O=C1C=C(C)CCC1C(C)CCC(OC2OC(C)C(O)C(O)C2(O))C(C)C
RESOURCES: NANPDB=NANPDB_5491
SubstructureInChIKeys: VNWKTOKETHGBQD;XLYOFNOQVPJJNP;VGGSQFUCUMXWEO;WSFSSNUMVMOOMR;OTMSDBZUPAUEDD;OKKJLVBELUTLKV;QQONPFPTGQHPMA;IKHGUXGNUITLKF;ATUOYWHBWRKTHZ;LCGLNKUTAGEVQW;LFQSCWFLJHTTHZ;CKFGINPQOCXMAZ;HGINCPLSRVDWNT;IAQRGUVFOMOMEM;VQTUBCCKSQIDNK;VXNZUUAINFGPBY;CSCPPACGZOOCGX;NBBJYMSMWIIQGU;IJDNQMDRQITEOD;NNPPMTNAJDCUHE;BDERNNFJNOPAEC;KFZMGEQAYNKOFK;XOBKSJJDNFUZPF;LYCAIKOWRPUZTN;MLUCVPSAIODCQM;BKOOMYPCSUNDGP;QMMOXUPEWRXHJS;YWAKXRMUMFPDSH;ZTQSAGDEMFDKMZ;OFBQJSOFQDEBGM;QWTDNUCVQCZILF;BTANRVKWQNVYAZ;LRHPLDYGYMQRHN;VNKYTQGIUYNRMY;ZXEKIIBDNHEJCQ;DNIAPMSPPWPWGF;RRLWYLINGKISHN;XNWFRZJHXBZDAG;YPFDHNVEDLHUCE;VIBDJEWPNNCFQO;BEQGRRJLJLVQAQ;LIKMAJRDDDTEIG;RYPKRALMXUUNKS;ZQDPJFUHLCOCRG;HGBOYTHUEUWSSQ;AFABGHUZZDYHJO;PFEOZHBOMNWTJB;VLKZOEOYAKHREP;AMQJEAYHLZJPGS;AQIXEPGDORPWBJ;FVNIMHIOIXPIQT;JYVLIDXNZAXMDK;MXLMTQWGSQIYOW;BMRWNKZVCUKKSR;CHCLGECDSSWNCP;JDFDHBSESGTDAL;PUPZLCDOIYMWBV;YTTFFPATQICAQN;ZNQVEEAIQZEUHB;PEDCQBHIVMGVHV;FWFSEYBSWVRWGL;USLRUYZDOLMIRJ;WZHKDGJSXCTSCK;ZGEGCLOFRBLKSE;JARKCYVAAOWBJS;IMNFDUFMRHMDMM;VLJXXKKOSFGPHI;ZSIAUFGUXNUGDI;KLKFAASOGCDTDT;QONBKISCDWCHKF;WCVRQHFDJLLWFE;XLMFDCKSFJWJTP;ARXKVVRQIIOZGF;MTHSVFCYNBDYFN;YAXKTBLXMTYWDQ;MQVRLONNONYDJP;RKSNPTXBQXBXDJ;KWKAKUADMBZCLK;CATSNJVOTSVZJV;FXHGMKSSBGDXIY;JVSWJIKNEAIKJW;TVMXDCGIABBOFY;CETWDUZRCINIHU;MMQYUDBFDDEJBP;AALKGALVYCZETF;BXXXHBWYZKLUGM;GZXFYIDYTCWDDN;LOSWWGJGSSQDKH;UNXHWFMMPAWVPI;NDFYWJZFESRLBQ;IICQZTQZQSBHBY;KPADFPAILITQBG;NUJGJRNETVAIRJ;UXUFMKFUJJLWKM;QXAMTEJJAZOINB;FJGNTEKSQVNVTJ;ZDAWZDFBPUUDAY;JJMZVBNCCUWEDF;KABCBIJVOXYNHG;BJBURJZEESAQPG;QVNPTEPOWBEITR;SRBFZHDQGSBBOR;HEBKCHPVOIAQTA;QNKOVWCOVLYPKR;SHZGCJCMOBCMKK;ZBDGHWFPLXXWRD;SKCKOFZKJLZSFA;OHWCAVRRXKJCRB;UBUITGRMYNAZAX;HRWQYCOJZMKBGI;QTIFSOVGBSROEQ;BZQBQGKZJCGZCL;YHUSUSKGDGXWGS
SubstructureOntologies: CHEMONTID:0002500;NonID:H2O;CHEMONTID:0004476;CHEMONTID:0001831;CHEMONTID:0000286;CHEMONTID:0002230;CHEMONTID:0001167;CHEMONTID:0001605;CHEMONTID:0002436;CHEMONTID:0004622;CHEMONTID:0000118;CHEMONTID:0002434;CHEMONTID:0004620;CHEMONTID:0001661;CHEMONTID:0002467;CHEMONTID:0001092;CHEMONTID:0002286;CHEMONTID:0001656;CHEMONTID:0002210;CHEMONTID:0004325;CHEMONTID:0002229;CHEMONTID:0001334;CHEMONTID:0002012;CHEMONTID:0003263;CHEMONTID:0001497;CHEMONTID:0002207;CHEMONTID:0001498
Ontology: Terpene glycosides
OntologyID: CHEMONTID:0002049
RETENTIONTIME: -1
RETENTIONINDEX: -1
TotalBondEnergy: 25371
TotalScore: 5.4457
TotalHrRulesScore: 0.5
TotalBondCleavageScore: 0.5
TotalMassAccuracyScore: 0.4997
TotalFragmentLinkageScore: 0.5
TotalBondDissociationEnergyScore: 0.5
DatabaseScore: 0.5238
SubstructureAssignmentScore: 0
RtSimilarityScore: -1
RiSimilarityScore: 0
Num Fragment VS2 (M/Z Intensity MatchedExactMass SaturatedExactMass Formula RearrangedHydrogen PPM MassDiff_mDa IsEvenElectronRule IsHrRule IsSolventAdductFragment AssignedAdductMass AdductString BondDissociationEnergy TreeDepth SMILES TotalScore HrLikelihood BcLikelihood MaLikelihood FlLikelihood BeLikelihood): 1
385.260284	170672.179948	385.258466640647	384.251190185547	C21H36O6	1	4.72	1.82	True	True	False	0		0	0	O=C1C=C(C)CCC1C(C)CCC(OC2OC(C)C(O)C(O)C2(O))C(C)C	4.99933964014053	1	1	0.999339640140533	1	1

NAME: UNPD73985
ID: IHSQDIIMVYAHGK
IsSpectrumSearch: False
INCHIKEY: IHSQDIIMVYAHGK-OALIHSKTNA-N
SMILES: O=C(OCCCCCCCC=CC(OC(=O)C)CCCCCC(=O)OC)C
RESOURCES: UNPD=UNPD73985
SubstructureInChIKeys: VNWKTOKETHGBQD;VGGSQFUCUMXWEO;WSFSSNUMVMOOMR;OTMSDBZUPAUEDD;IKHGUXGNUITLKF;ATUOYWHBWRKTHZ;LCGLNKUTAGEVQW;IAQRGUVFOMOMEM;VXNZUUAINFGPBY;NBBJYMSMWIIQGU;XXROGKLTLUQVRX;IJDNQMDRQITEOD;QTBSBXVTEAMEQO;TZIHFWKZFHZASV;BDERNNFJNOPAEC;XOBKSJJDNFUZPF;QMMOXUPEWRXHJS;YWAKXRMUMFPDSH;ZTQSAGDEMFDKMZ;OFBQJSOFQDEBGM;KXKVLQRXCPHEJC;WBJINCZRORDGAQ;XBDQKXXYIPTUBI;LRHPLDYGYMQRHN;VNKYTQGIUYNRMY;LIKMAJRDDDTEIG;RYPKRALMXUUNKS;ZQDPJFUHLCOCRG;GJYMQFMQRRNLCY;HGBOYTHUEUWSSQ;VLKZOEOYAKHREP;FERIUCNNQQJTOY;XEKOWRVHYACXOJ;AMQJEAYHLZJPGS;FVNIMHIOIXPIQT;JYVLIDXNZAXMDK;WZHKDGJSXCTSCK;ZGEGCLOFRBLKSE;BVOSSZSHBZQJOI;JARKCYVAAOWBJS;IMNFDUFMRHMDMM;NQPDZGIKBAWPEJ;ZSIAUFGUXNUGDI;KWKAKUADMBZCLK;FXHGMKSSBGDXIY;PZKFYTOLVRCMOA;TVMXDCGIABBOFY;FUZZWVXGSFPDMH;CETWDUZRCINIHU;IICQZTQZQSBHBY;KPADFPAILITQBG;NUJGJRNETVAIRJ;VSMOENVRRABVKN;UKFNNBXGHVJQMJ;ZIWXVGHUDKNNSH;QVGWQEOFNGJAOO;ICKVZOWXZYBERI;LAWNVEFFZXVKAN;UYTDVOAIGROZFX;OELPASIFBUUFIQ;WPCPWFUUUOIOPR;JQYGCQRQGRVLDN;YTOUXRDHJPZMFE;IKEWYFJJKSVXOH
SubstructureOntologies: CHEMONTID:0002500;CHEMONTID:0004476;CHEMONTID:0001831;CHEMONTID:0002230;CHEMONTID:0001167;CHEMONTID:0002434;CHEMONTID:0000286;CHEMONTID:0001205;CHEMONTID:0001238;CHEMONTID:0003416;CHEMONTID:0001661;CHEMONTID:0000333;CHEMONTID:0002229;CHEMONTID:0001334;CHEMONTID:0003086;CHEMONTID:0000298;CHEMONTID:0002949
Ontology: Fatty alcohol esters
OntologyID: CHEMONTID:0001722
RETENTIONTIME: -1
RETENTIONINDEX: -1
TotalBondEnergy: 25329
TotalScore: 4.6957
TotalHrRulesScore: 0.5
TotalBondCleavageScore: 0.5
TotalMassAccuracyScore: 0.4997
TotalFragmentLinkageScore: 0.5
TotalBondDissociationEnergyScore: 0.5
DatabaseScore: 0.2238
SubstructureAssignmentScore: 0
RtSimilarityScore: -1
RiSimilarityScore: 0
Num Fragment VS2 (M/Z Intensity MatchedExactMass SaturatedExactMass Formula RearrangedHydrogen PPM MassDiff_mDa IsEvenElectronRule IsHrRule IsSolventAdductFragment AssignedAdductMass AdductString BondDissociationEnergy TreeDepth SMILES TotalScore HrLikelihood BcLikelihood MaLikelihood FlLikelihood BeLikelihood): 1
385.260284	170672.179948	385.258466640647	384.251190185547	C21H36O6	1	4.72	1.82	True	True	False	0		0	0	O=C(OCCCCCCCC=CC(OC(=O)C)CCCCCC(=O)OC)C	4.99933964014053	1	1	0.999339640140533	1	1

NAME: UNPD31720
ID: GASLMESBWZWBPN
IsSpectrumSearch: False
INCHIKEY: GASLMESBWZWBPN-AEUURAPJNA-N
SMILES: OC1C(O)(CC=C(C)C)C(O)C(O)(CC=C(C)C)C(O)C1(O)(CC=C(C)C)
RESOURCES: UNPD=UNPD31720
SubstructureInChIKeys: VNWKTOKETHGBQD;XLYOFNOQVPJJNP;VGGSQFUCUMXWEO;OKKJLVBELUTLKV;QQONPFPTGQHPMA;ATUOYWHBWRKTHZ;LFQSCWFLJHTTHZ;IAQRGUVFOMOMEM;VQTUBCCKSQIDNK;VXNZUUAINFGPBY;IJDNQMDRQITEOD;NNPPMTNAJDCUHE;BDERNNFJNOPAEC;KFZMGEQAYNKOFK;LYCAIKOWRPUZTN;BKOOMYPCSUNDGP;QMMOXUPEWRXHJS;YWAKXRMUMFPDSH;ZSPTYLOMNJNZNG;OFBQJSOFQDEBGM;QWTDNUCVQCZILF;BTANRVKWQNVYAZ;LRHPLDYGYMQRHN;ZXEKIIBDNHEJCQ;DNIAPMSPPWPWGF;YPFDHNVEDLHUCE;VIBDJEWPNNCFQO;LIKMAJRDDDTEIG;RYPKRALMXUUNKS;XDTMQSROBMDMFD;FSUXYWPILZJGCC;AFABGHUZZDYHJO;PFEOZHBOMNWTJB;VLKZOEOYAKHREP;AMQJEAYHLZJPGS;AQIXEPGDORPWBJ;JYVLIDXNZAXMDK;MXLMTQWGSQIYOW;PHTQWCKDNZKARW;BMRWNKZVCUKKSR;PUPZLCDOIYMWBV;QWGRWMMWNDWRQN;PEDCQBHIVMGVHV;UAEPNZWRGJTJPN;ZGEGCLOFRBLKSE;HPXRVTGHNJAIIH;BZHMBWZPUJHVEE;IMNFDUFMRHMDMM;VLJXXKKOSFGPHI;ZSIAUFGUXNUGDI;WCVRQHFDJLLWFE;XLMFDCKSFJWJTP;ARXKVVRQIIOZGF;YAXKTBLXMTYWDQ;MQVRLONNONYDJP;KVZJLSYJROEPSQ;KWKAKUADMBZCLK;SGVUHPSBDNVHKL;MQWCXKGKQLNYQG;JVSWJIKNEAIKJW;TVMXDCGIABBOFY;CETWDUZRCINIHU;OVOVDHYEOQJKMD;AALKGALVYCZETF;UNXHWFMMPAWVPI;IICQZTQZQSBHBY;XARGIVYWQPXRTC;OHEFFKYYKJVVOX;ZBAXJUPCYVIBSP;FJGNTEKSQVNVTJ;ZDAWZDFBPUUDAY;JJMZVBNCCUWEDF;SOUITUXPBGREAE;HEBKCHPVOIAQTA;LWWIYCLYWKAKRR;RUIACMUVCHMOMF;SKCKOFZKJLZSFA
SubstructureOntologies: CHEMONTID:0002500;NonID:H2O;CHEMONTID:0004476;CHEMONTID:0000286;CHEMONTID:0004622;CHEMONTID:0004620;CHEMONTID:0001661;CHEMONTID:0002467;CHEMONTID:0002286;CHEMONTID:0001016;CHEMONTID:0002210;CHEMONTID:0002647;CHEMONTID:0001334;CHEMONTID:0001498
Ontology: Cyclohexanols
OntologyID: CHEMONTID:0002647
RETENTIONTIME: -1
RETENTIONINDEX: -1
TotalBondEnergy: 25266
TotalScore: 4.6957
TotalHrRulesScore: 0.5
TotalBondCleavageScore: 0.5
TotalMassAccuracyScore: 0.4997
TotalFragmentLinkageScore: 0.5
TotalBondDissociationEnergyScore: 0.5
DatabaseScore: 0.2238
SubstructureAssignmentScore: 0
RtSimilarityScore: -1
RiSimilarityScore: 0
Num Fragment VS2 (M/Z Intensity MatchedExactMass SaturatedExactMass Formula RearrangedHydrogen PPM MassDiff_mDa IsEvenElectronRule IsHrRule IsSolventAdductFragment AssignedAdductMass AdductString BondDissociationEnergy TreeDepth SMILES TotalScore HrLikelihood BcLikelihood MaLikelihood FlLikelihood BeLikelihood): 1
385.260284	170672.179948	385.258466640647	384.251190185547	C21H36O6	1	4.72	1.82	True	True	False	0		0	0	OC1C(O)(CC=C(C)C)C(O)C(O)(CC=C(C)C)C(O)C1(O)(CC=C(C)C)	4.99933964014053	1	1	0.999339640140533	1	1

NAME: UNPD146239
ID: BFPPCOBUKUWWOH
IsSpectrumSearch: False
INCHIKEY: BFPPCOBUKUWWOH-GGMXMCMONA-N
SMILES: O=C1OC(CC)C(C)C(O)C(C(=O)C(C)CC(C(=O)C(C)C(O)C1C)C)C
RESOURCES: UNPD=UNPD146239;UNPD98993
SubstructureInChIKeys: VNWKTOKETHGBQD;XLYOFNOQVPJJNP;WSFSSNUMVMOOMR;OTMSDBZUPAUEDD;OKKJLVBELUTLKV;IKHGUXGNUITLKF;ATUOYWHBWRKTHZ;LCGLNKUTAGEVQW;LFQSCWFLJHTTHZ;CSCPPACGZOOCGX;NBBJYMSMWIIQGU;IJDNQMDRQITEOD;NNPPMTNAJDCUHE;QTBSBXVTEAMEQO;TZIHFWKZFHZASV;BDERNNFJNOPAEC;KFZMGEQAYNKOFK;XOBKSJJDNFUZPF;ZTQSAGDEMFDKMZ;OFBQJSOFQDEBGM;QWTDNUCVQCZILF;AKXKFZDCRYJKTF;KXKVLQRXCPHEJC;WBJINCZRORDGAQ;XBDQKXXYIPTUBI;BTANRVKWQNVYAZ;LRHPLDYGYMQRHN;VNKYTQGIUYNRMY;ZXEKIIBDNHEJCQ;YPFDHNVEDLHUCE;HGBOYTHUEUWSSQ;AFABGHUZZDYHJO;PFEOZHBOMNWTJB;VLKZOEOYAKHREP;FERIUCNNQQJTOY;KQNPFQTWMSNSAP;XEKOWRVHYACXOJ;AMQJEAYHLZJPGS;AQIXEPGDORPWBJ;FVNIMHIOIXPIQT;JYVLIDXNZAXMDK;MXLMTQWGSQIYOW;JVTAAEKCZFNVCJ;JDFDHBSESGTDAL;PUPZLCDOIYMWBV;QWGRWMMWNDWRQN;JARKCYVAAOWBJS;BZHMBWZPUJHVEE;IMNFDUFMRHMDMM;VLJXXKKOSFGPHI;WLAMNBDJUVNPJU;ZSIAUFGUXNUGDI;CATSNJVOTSVZJV;FXHGMKSSBGDXIY;JVSWJIKNEAIKJW;TVMXDCGIABBOFY;WDAXFOBOLVPGLV;CETWDUZRCINIHU;OVOVDHYEOQJKMD;NUJGJRNETVAIRJ;YFBDMUJOFKYAGE;HYHMOIFJBNVOTK
SubstructureOntologies: CHEMONTID:0002500;NonID:H2O;CHEMONTID:0001831;CHEMONTID:0000286;CHEMONTID:0002230;CHEMONTID:0001167;CHEMONTID:0000118;CHEMONTID:0002434;CHEMONTID:0004620;CHEMONTID:0001205;CHEMONTID:0001238;CHEMONTID:0001661;CHEMONTID:0003416;CHEMONTID:0000333;CHEMONTID:0001359;CHEMONTID:0002229;CHEMONTID:0003544;CHEMONTID:0001334
Ontology: Macrolides and analogues
OntologyID: CHEMONTID:0000147
RETENTIONTIME: -1
RETENTIONINDEX: -1
TotalBondEnergy: 25491
TotalScore: 4.6957
TotalHrRulesScore: 0.5
TotalBondCleavageScore: 0.5
TotalMassAccuracyScore: 0.4997
TotalFragmentLinkageScore: 0.5
TotalBondDissociationEnergyScore: 0.5
DatabaseScore: 0.2238
SubstructureAssignmentScore: 0
RtSimilarityScore: -1
RiSimilarityScore: 0
Num Fragment VS2 (M/Z Intensity MatchedExactMass SaturatedExactMass Formula RearrangedHydrogen PPM MassDiff_mDa IsEvenElectronRule IsHrRule IsSolventAdductFragment AssignedAdductMass AdductString BondDissociationEnergy TreeDepth SMILES TotalScore HrLikelihood BcLikelihood MaLikelihood FlLikelihood BeLikelihood): 1
385.260284	170672.179948	385.258466640647	384.251190185547	C21H36O6	1	4.72	1.82	True	True	False	0		0	0	O=C1OC(CC)C(C)C(O)C(C(=O)C(C)CC(C(=O)C(C)C(O)C1C)C)C	4.99933964014053	1	1	0.999339640140533	1	1

NAME: UNPD10390
ID: HZEFDCHHTPMSIO
IsSpectrumSearch: False
INCHIKEY: HZEFDCHHTPMSIO-TVKFMYNMNA-N
SMILES: OCC2OC(OC1(C=CC(CCC(=CCC1)C)C(C)C)(C))C(O)C(O)C2(O)
RESOURCES: UNPD=UNPD10390
SubstructureInChIKeys: VNWKTOKETHGBQD;XLYOFNOQVPJJNP;VGGSQFUCUMXWEO;OTMSDBZUPAUEDD;OKKJLVBELUTLKV;QQONPFPTGQHPMA;ATUOYWHBWRKTHZ;LCGLNKUTAGEVQW;LFQSCWFLJHTTHZ;CKFGINPQOCXMAZ;IAQRGUVFOMOMEM;VQTUBCCKSQIDNK;VXNZUUAINFGPBY;XXROGKLTLUQVRX;IJDNQMDRQITEOD;NNPPMTNAJDCUHE;BDERNNFJNOPAEC;KFZMGEQAYNKOFK;XOBKSJJDNFUZPF;LYCAIKOWRPUZTN;BKOOMYPCSUNDGP;QMMOXUPEWRXHJS;YWAKXRMUMFPDSH;OFBQJSOFQDEBGM;QWTDNUCVQCZILF;BTANRVKWQNVYAZ;LRHPLDYGYMQRHN;VNKYTQGIUYNRMY;DNIAPMSPPWPWGF;RRLWYLINGKISHN;XNWFRZJHXBZDAG;YPFDHNVEDLHUCE;VIBDJEWPNNCFQO;BEQGRRJLJLVQAQ;LDTAOIUHUHHCMU;LIKMAJRDDDTEIG;RYPKRALMXUUNKS;ZQDPJFUHLCOCRG;GJYMQFMQRRNLCY;AFABGHUZZDYHJO;PFEOZHBOMNWTJB;VLKZOEOYAKHREP;AMQJEAYHLZJPGS;AQIXEPGDORPWBJ;FVNIMHIOIXPIQT;JYVLIDXNZAXMDK;BMRWNKZVCUKKSR;CHCLGECDSSWNCP;JDFDHBSESGTDAL;PUPZLCDOIYMWBV;YTTFFPATQICAQN;ZNQVEEAIQZEUHB;PEDCQBHIVMGVHV;WZHKDGJSXCTSCK;ZGEGCLOFRBLKSE;BVOSSZSHBZQJOI;IMNFDUFMRHMDMM;VLJXXKKOSFGPHI;ZSIAUFGUXNUGDI;KLKFAASOGCDTDT;WCVRQHFDJLLWFE;XLMFDCKSFJWJTP;ARXKVVRQIIOZGF;MTHSVFCYNBDYFN;RKOGJKGQMPZCGG;YAXKTBLXMTYWDQ;MQVRLONNONYDJP;JVSWJIKNEAIKJW;MMQYUDBFDDEJBP;AALKGALVYCZETF;BXXXHBWYZKLUGM;GZXFYIDYTCWDDN;LOSWWGJGSSQDKH;UNXHWFMMPAWVPI;KPADFPAILITQBG;LZHHQGKEJNRBAZ;OHEFFKYYKJVVOX;UXUFMKFUJJLWKM;QXAMTEJJAZOINB;FJGNTEKSQVNVTJ;ZDAWZDFBPUUDAY;JJMZVBNCCUWEDF;BJBURJZEESAQPG;QFHKFGOUFKUPNX;QVNPTEPOWBEITR;SRBFZHDQGSBBOR;QYZAWZFNVOMDEF;HEBKCHPVOIAQTA;QNKOVWCOVLYPKR;MPCAJMNYNOGXPB;PMMURAAUARKVCB;SHZGCJCMOBCMKK;ZBDGHWFPLXXWRD;LWWIYCLYWKAKRR;RUIACMUVCHMOMF;SKCKOFZKJLZSFA;OHWCAVRRXKJCRB;UBUITGRMYNAZAX;WQZGKKKJIJFFOK;HRWQYCOJZMKBGI;HOVAGTYPODGVJG;QTIFSOVGBSROEQ;WYUFTYLVLQZQNH;FRMCCLBYAFUKSG;BZQBQGKZJCGZCL;YHUSUSKGDGXWGS;ADKODQNXEFIOIC;NHJUPBDCSOGIKX;DUUKYOAVWFMSKJ
SubstructureOntologies: CHEMONTID:0002500;NonID:H2O;CHEMONTID:0004476;CHEMONTID:0000286;CHEMONTID:0001167;CHEMONTID:0001605;CHEMONTID:0004622;CHEMONTID:0004620;CHEMONTID:0001661;CHEMONTID:0002467;CHEMONTID:0001092;CHEMONTID:0002286;CHEMONTID:0001656;CHEMONTID:0002210;CHEMONTID:0001334;CHEMONTID:0002391;CHEMONTID:0002012;CHEMONTID:0003263;CHEMONTID:0001497;CHEMONTID:0000175;CHEMONTID:0002207;CHEMONTID:0001540;CHEMONTID:0001498;CHEMONTID:0000637
Ontology: Germacrane sesquiterpenoids
OntologyID: CHEMONTID:0002456
RETENTIONTIME: -1
RETENTIONINDEX: -1
TotalBondEnergy: 25284
TotalScore: 4.6957
TotalHrRulesScore: 0.5
TotalBondCleavageScore: 0.5
TotalMassAccuracyScore: 0.4997
TotalFragmentLinkageScore: 0.5
TotalBondDissociationEnergyScore: 0.5
DatabaseScore: 0.2238
SubstructureAssignmentScore: 0
RtSimilarityScore: -1
RiSimilarityScore: 0
Num Fragment VS2 (M/Z Intensity MatchedExactMass SaturatedExactMass Formula RearrangedHydrogen PPM MassDiff_mDa IsEvenElectronRule IsHrRule IsSolventAdductFragment AssignedAdductMass AdductString BondDissociationEnergy TreeDepth SMILES TotalScore HrLikelihood BcLikelihood MaLikelihood FlLikelihood BeLikelihood): 1
385.260284	170672.179948	385.258466640647	384.251190185547	C21H36O6	1	4.72	1.82	True	True	False	0		0	0	OCC2OC(OC1(C=CC(CCC(=CCC1)C)C(C)C)(C))C(O)C(O)C2(O)	4.99933964014053	1	1	0.999339640140533	1	1

NAME: UNPD106831
ID: YYGRXNOXOVZIKE
IsSpectrumSearch: False
INCHIKEY: YYGRXNOXOVZIKE-UGVMCFJINA-N
SMILES: O=C2OCC(CC1CCC(OC)C(OC)C1)C2CC3CCC(O)C(OC)C3
RESOURCES: UNPD=UNPD106831
SubstructureInChIKeys: VNWKTOKETHGBQD;XLYOFNOQVPJJNP;WSFSSNUMVMOOMR;OTMSDBZUPAUEDD;OKKJLVBELUTLKV;IKHGUXGNUITLKF;ATUOYWHBWRKTHZ;LCGLNKUTAGEVQW;LFQSCWFLJHTTHZ;NBBJYMSMWIIQGU;IJDNQMDRQITEOD;NNPPMTNAJDCUHE;QTBSBXVTEAMEQO;TZIHFWKZFHZASV;BDERNNFJNOPAEC;KFZMGEQAYNKOFK;XOBKSJJDNFUZPF;LYCAIKOWRPUZTN;ZTQSAGDEMFDKMZ;OFBQJSOFQDEBGM;QWTDNUCVQCZILF;KXKVLQRXCPHEJC;WBJINCZRORDGAQ;XBDQKXXYIPTUBI;BTANRVKWQNVYAZ;LRHPLDYGYMQRHN;VNKYTQGIUYNRMY;ZXEKIIBDNHEJCQ;DNIAPMSPPWPWGF;XNWFRZJHXBZDAG;VIBDJEWPNNCFQO;XDTMQSROBMDMFD;YEJRWHAVMIAJKC;HGBOYTHUEUWSSQ;JWUJQDFVADABEY;AFABGHUZZDYHJO;PFEOZHBOMNWTJB;VLKZOEOYAKHREP;FERIUCNNQQJTOY;KQNPFQTWMSNSAP;XEKOWRVHYACXOJ;AMQJEAYHLZJPGS;AQIXEPGDORPWBJ;FVNIMHIOIXPIQT;JYVLIDXNZAXMDK;PHTQWCKDNZKARW;BMRWNKZVCUKKSR;YTTFFPATQICAQN;UAEPNZWRGJTJPN;HPXRVTGHNJAIIH;JARKCYVAAOWBJS;BZHMBWZPUJHVEE;IMNFDUFMRHMDMM;VLJXXKKOSFGPHI;WLAMNBDJUVNPJU;ZSIAUFGUXNUGDI;WCVRQHFDJLLWFE;XLMFDCKSFJWJTP;FXHGMKSSBGDXIY;MQWCXKGKQLNYQG;JVSWJIKNEAIKJW;TVMXDCGIABBOFY;OQAGVSWESNCJJT;WDAXFOBOLVPGLV;CETWDUZRCINIHU;OVOVDHYEOQJKMD;NUJGJRNETVAIRJ;VWLITJGXNSANSN;BSTCHFGEIXFVRN;MHPUGCYGQWGLJL;NZQMQVJXSRMTCJ
SubstructureOntologies: CHEMONTID:0002500;NonID:H2O;CHEMONTID:0001831;CHEMONTID:0000286;CHEMONTID:0002230;CHEMONTID:0001167;CHEMONTID:0002434;CHEMONTID:0004620;CHEMONTID:0001205;CHEMONTID:0001238;CHEMONTID:0001661;CHEMONTID:0002467;CHEMONTID:0003416;CHEMONTID:0002286;CHEMONTID:0001016;CHEMONTID:0001245;CHEMONTID:0002648;CHEMONTID:0000333;CHEMONTID:0002647;CHEMONTID:0002229;CHEMONTID:0003544;CHEMONTID:0001334;CHEMONTID:0003417;CHEMONTID:0003086
Ontology: Cyclohexanols
OntologyID: CHEMONTID:0002647
RETENTIONTIME: -1
RETENTIONINDEX: -1
TotalBondEnergy: 25389
TotalScore: 4.6957
TotalHrRulesScore: 0.5
TotalBondCleavageScore: 0.5
TotalMassAccuracyScore: 0.4997
TotalFragmentLinkageScore: 0.5
TotalBondDissociationEnergyScore: 0.5
DatabaseScore: 0.2238
SubstructureAssignmentScore: 0
RtSimilarityScore: -1
RiSimilarityScore: 0
Num Fragment VS2 (M/Z Intensity MatchedExactMass SaturatedExactMass Formula RearrangedHydrogen PPM MassDiff_mDa IsEvenElectronRule IsHrRule IsSolventAdductFragment AssignedAdductMass AdductString BondDissociationEnergy TreeDepth SMILES TotalScore HrLikelihood BcLikelihood MaLikelihood FlLikelihood BeLikelihood): 1
385.260284	170672.179948	385.258466640647	384.251190185547	C21H36O6	1	4.72	1.82	True	True	False	0		0	0	O=C2OCC(CC1CCC(OC)C(OC)C1)C2CC3CCC(O)C(OC)C3	4.99933964014053	1	1	0.999339640140533	1	1

NAME: UNPD108188
ID: NPWXZOLWSBVAIL
IsSpectrumSearch: False
INCHIKEY: NPWXZOLWSBVAIL-WFEMIRLLNA-N
SMILES: OCC4OC(OC1(C)(CCC23(C(C)CCC(C(C)C)C3(C12))))C(O)C(O)C4(O)
RESOURCES: UNPD=UNPD108188
SubstructureInChIKeys: VNWKTOKETHGBQD;XLYOFNOQVPJJNP;OTMSDBZUPAUEDD;OKKJLVBELUTLKV;LVZWSLJZHVFIQJ;ATUOYWHBWRKTHZ;LCGLNKUTAGEVQW;LFQSCWFLJHTTHZ;CKFGINPQOCXMAZ;IJDNQMDRQITEOD;NNPPMTNAJDCUHE;BDERNNFJNOPAEC;KFZMGEQAYNKOFK;XOBKSJJDNFUZPF;LYCAIKOWRPUZTN;RGSFGYAAUTVSQA;OFBQJSOFQDEBGM;QWTDNUCVQCZILF;BTANRVKWQNVYAZ;LRHPLDYGYMQRHN;VNKYTQGIUYNRMY;ZXEKIIBDNHEJCQ;DNIAPMSPPWPWGF;RRLWYLINGKISHN;XNWFRZJHXBZDAG;YPFDHNVEDLHUCE;VIBDJEWPNNCFQO;GDOPTJXRTPNYNR;XDTMQSROBMDMFD;AFABGHUZZDYHJO;HNRMPXKDFBEGFZ;PFEOZHBOMNWTJB;VLKZOEOYAKHREP;AMQJEAYHLZJPGS;AQIXEPGDORPWBJ;FVNIMHIOIXPIQT;JYVLIDXNZAXMDK;MXLMTQWGSQIYOW;PHTQWCKDNZKARW;BMRWNKZVCUKKSR;CHCLGECDSSWNCP;JDFDHBSESGTDAL;PUPZLCDOIYMWBV;YTTFFPATQICAQN;ZNQVEEAIQZEUHB;PEDCQBHIVMGVHV;UAEPNZWRGJTJPN;BVIJQMCYYASIFP;BZHMBWZPUJHVEE;IMNFDUFMRHMDMM;VLJXXKKOSFGPHI;ZSIAUFGUXNUGDI;KLKFAASOGCDTDT;QONBKISCDWCHKF;WCVRQHFDJLLWFE;XLMFDCKSFJWJTP;ARXKVVRQIIOZGF;MTHSVFCYNBDYFN;RKOGJKGQMPZCGG;YAXKTBLXMTYWDQ;MQVRLONNONYDJP;KVZJLSYJROEPSQ;LETYIFNDQBJGPJ;QEGNUYASOUJEHD;SGVUHPSBDNVHKL;JVSWJIKNEAIKJW;TVMXDCGIABBOFY;CETWDUZRCINIHU;OVOVDHYEOQJKMD;MMQYUDBFDDEJBP;AALKGALVYCZETF;BXXXHBWYZKLUGM;GZXFYIDYTCWDDN;LOSWWGJGSSQDKH;UNXHWFMMPAWVPI;PYOLJOJPIPCRDP;XARGIVYWQPXRTC;UXUFMKFUJJLWKM;QXAMTEJJAZOINB;FJGNTEKSQVNVTJ;ZDAWZDFBPUUDAY;JJMZVBNCCUWEDF;GGWBGCSGJCRVIQ;BUOAKQCLRBVIOX;HIVFIUIKABOGIO;YLZKVXHQMPWDBJ;BJBURJZEESAQPG;QFHKFGOUFKUPNX;QVNPTEPOWBEITR;SRBFZHDQGSBBOR;QYZAWZFNVOMDEF;HEBKCHPVOIAQTA;KGBMCONWCCBLAE;VTXRDCQMLXABHJ;QNKOVWCOVLYPKR;MPCAJMNYNOGXPB;PMMURAAUARKVCB;SHZGCJCMOBCMKK;ZBDGHWFPLXXWRD;LWWIYCLYWKAKRR;RUIACMUVCHMOMF;SKCKOFZKJLZSFA;IRXJZDLOCNJAHE;QPEHZWXCQFKJQO;OHWCAVRRXKJCRB;UBUITGRMYNAZAX;WQZGKKKJIJFFOK;OTBOAOSTJYUVHP;HRWQYCOJZMKBGI;HOVAGTYPODGVJG;QTIFSOVGBSROEQ;WYUFTYLVLQZQNH;FRMCCLBYAFUKSG;BZQBQGKZJCGZCL;YHUSUSKGDGXWGS;ADKODQNXEFIOIC;NHJUPBDCSOGIKX;DUUKYOAVWFMSKJ
SubstructureOntologies: CHEMONTID:0002500;NonID:H2O;CHEMONTID:0000286;CHEMONTID:0001016;CHEMONTID:0001167;CHEMONTID:0001605;CHEMONTID:0004620;CHEMONTID:0001661;CHEMONTID:0002467;CHEMONTID:0001092;CHEMONTID:0002286;CHEMONTID:0001656;CHEMONTID:0002210;CHEMONTID:0002938;CHEMONTID:0001334;CHEMONTID:0002391;CHEMONTID:0002012;CHEMONTID:0003263;CHEMONTID:0004149;CHEMONTID:0001497;CHEMONTID:0000175;CHEMONTID:0002207;CHEMONTID:0001540;CHEMONTID:0001498;CHEMONTID:0001401;CHEMONTID:0000637
Ontology: Sesquiterpenoids
OntologyID: CHEMONTID:0001550
RETENTIONTIME: -1
RETENTIONINDEX: -1
TotalBondEnergy: 25464
TotalScore: 4.6957
TotalHrRulesScore: 0.5
TotalBondCleavageScore: 0.5
TotalMassAccuracyScore: 0.4997
TotalFragmentLinkageScore: 0.5
TotalBondDissociationEnergyScore: 0.5
DatabaseScore: 0.2238
SubstructureAssignmentScore: 0
RtSimilarityScore: -1
RiSimilarityScore: 0
Num Fragment VS2 (M/Z Intensity MatchedExactMass SaturatedExactMass Formula RearrangedHydrogen PPM MassDiff_mDa IsEvenElectronRule IsHrRule IsSolventAdductFragment AssignedAdductMass AdductString BondDissociationEnergy TreeDepth SMILES TotalScore HrLikelihood BcLikelihood MaLikelihood FlLikelihood BeLikelihood): 1
385.260284	170672.179948	385.258466640647	384.251190185547	C21H36O6	1	4.72	1.82	True	True	False	0		0	0	OCC4OC(OC1(C)(CCC23(C(C)CCC(C(C)C)C3(C12))))C(O)C(O)C4(O)	4.99933964014053	1	1	0.999339640140533	1	1

NAME: UNPD196874
ID: LBGADTVQTAECKI
IsSpectrumSearch: False
INCHIKEY: LBGADTVQTAECKI-DQDUHKPNNA-N
SMILES: OC4CCC3(C)(C(CCC1(O)(C3(CC(O)C2(C)(C(O)(CCC12(O))C(O)C))))C4)
RESOURCES: UNPD=UNPD196874
SubstructureInChIKeys: VNWKTOKETHGBQD;XLYOFNOQVPJJNP;OTMSDBZUPAUEDD;OKKJLVBELUTLKV;ATUOYWHBWRKTHZ;LFQSCWFLJHTTHZ;IJDNQMDRQITEOD;NNPPMTNAJDCUHE;BDERNNFJNOPAEC;KFZMGEQAYNKOFK;LYCAIKOWRPUZTN;RGSFGYAAUTVSQA;OFBQJSOFQDEBGM;QWTDNUCVQCZILF;BTANRVKWQNVYAZ;LRHPLDYGYMQRHN;ZXEKIIBDNHEJCQ;DNIAPMSPPWPWGF;YPFDHNVEDLHUCE;VIBDJEWPNNCFQO;GDOPTJXRTPNYNR;XDTMQSROBMDMFD;AFABGHUZZDYHJO;HNRMPXKDFBEGFZ;PFEOZHBOMNWTJB;VLKZOEOYAKHREP;AMQJEAYHLZJPGS;AQIXEPGDORPWBJ;JYVLIDXNZAXMDK;MXLMTQWGSQIYOW;PHTQWCKDNZKARW;BMRWNKZVCUKKSR;PUPZLCDOIYMWBV;QWGRWMMWNDWRQN;QWHNJUXXYKPLQM;UAEPNZWRGJTJPN;BVIJQMCYYASIFP;HPXRVTGHNJAIIH;BZHMBWZPUJHVEE;IMNFDUFMRHMDMM;VLJXXKKOSFGPHI;ZSIAUFGUXNUGDI;SLCVBVWXLSEKPL;WCVRQHFDJLLWFE;XLMFDCKSFJWJTP;ARXKVVRQIIOZGF;KVZJLSYJROEPSQ;LETYIFNDQBJGPJ;QEGNUYASOUJEHD;SGVUHPSBDNVHKL;MQWCXKGKQLNYQG;JVSWJIKNEAIKJW;TVMXDCGIABBOFY;CETWDUZRCINIHU;OVOVDHYEOQJKMD;PYOLJOJPIPCRDP;XARGIVYWQPXRTC;ZBAXJUPCYVIBSP;ZDAWZDFBPUUDAY;GGWBGCSGJCRVIQ;BUOAKQCLRBVIOX;HIVFIUIKABOGIO;YLZKVXHQMPWDBJ;SOUITUXPBGREAE;KGBMCONWCCBLAE;VTXRDCQMLXABHJ;IRXJZDLOCNJAHE;XBENKLBOLWZLNQ;OTBOAOSTJYUVHP;HZNDJPAXRXLIOU
SubstructureOntologies: CHEMONTID:0002500;NonID:H2O;CHEMONTID:0000286;CHEMONTID:0004620;CHEMONTID:0001661;CHEMONTID:0002467;CHEMONTID:0001016;CHEMONTID:0002286;CHEMONTID:0002938;CHEMONTID:0002647;CHEMONTID:0001334;CHEMONTID:0004149;CHEMONTID:0001401
Ontology: Gluco/mineralocorticoids, progestogins and derivatives
OntologyID: CHEMONTID:0001468
RETENTIONTIME: -1
RETENTIONINDEX: -1
TotalBondEnergy: 25536
TotalScore: 4.6957
TotalHrRulesScore: 0.5
TotalBondCleavageScore: 0.5
TotalMassAccuracyScore: 0.4997
TotalFragmentLinkageScore: 0.5
TotalBondDissociationEnergyScore: 0.5
DatabaseScore: 0.2238
SubstructureAssignmentScore: 0
RtSimilarityScore: -1
RiSimilarityScore: 0
Num Fragment VS2 (M/Z Intensity MatchedExactMass SaturatedExactMass Formula RearrangedHydrogen PPM MassDiff_mDa IsEvenElectronRule IsHrRule IsSolventAdductFragment AssignedAdductMass AdductString BondDissociationEnergy TreeDepth SMILES TotalScore HrLikelihood BcLikelihood MaLikelihood FlLikelihood BeLikelihood): 1
385.260284	170672.179948	385.258466640647	384.251190185547	C21H36O6	1	4.72	1.82	True	True	False	0		0	0	OC4CCC3(C)(C(CCC1(O)(C3(CC(O)C2(C)(C(O)(CCC12(O))C(O)C))))C4)	4.99933964014053	1	1	0.999339640140533	1	1

