NAME: Buxamine E
ID: UVGUDMTZIJXYDY
IsSpectrumSearch: False
INCHIKEY: UVGUDMTZIJXYDY-FCPIDUFNNA-N
SMILES: NC(C)C3CCC4(C)(C2C(C=C1CCC(N(C)C)C(C)(C)C1CC2)=CCC34(C))
RESOURCES: KNApSAcK=C00002241,ChEBI=CHEBI:3249,UNPD=UNPD52416
SubstructureInChIKeys: VNWKTOKETHGBQD;QGZKDVFQNNGYKY;VGGSQFUCUMXWEO;OTMSDBZUPAUEDD;BAVYZALUXZFZLV;ATUOYWHBWRKTHZ;QUSNBJAOOMFDIB;ROSDSFDQCJNGOL;IAQRGUVFOMOMEM;VQTUBCCKSQIDNK;VXNZUUAINFGPBY;IJDNQMDRQITEOD;NNPPMTNAJDCUHE;GETQZCLCWQTVFV;JJWLVOIRVHMVIS;LIWAQLJGPBVORC;WGYKZJWCGVVSQN;BKOOMYPCSUNDGP;QMMOXUPEWRXHJS;RGSFGYAAUTVSQA;YWAKXRMUMFPDSH;OFBQJSOFQDEBGM;QWTDNUCVQCZILF;DAZXVJBJRMWXJP;GVWISOJSERXQBM;HQABUPZFAYXKJW;KDSNLYIMUZNERS;XHFGWHUWQXTGAT;BEQGRRJLJLVQAQ;GDOPTJXRTPNYNR;LDTAOIUHUHHCMU;LIKMAJRDDDTEIG;RYPKRALMXUUNKS;XDTMQSROBMDMFD;ZQDPJFUHLCOCRG;AFABGHUZZDYHJO;HNRMPXKDFBEGFZ;PFEOZHBOMNWTJB;VLKZOEOYAKHREP;BMFVGAAISNGQNM;DPBLXKKOBLCELK;QCOGKXLOEWLIDC;VJROPLWGFCORRM;ZUHZZVMEUAUWHY;ADHCYQWFCLQBFG;QWHNJUXXYKPLQM;UAEPNZWRGJTJPN;WZHKDGJSXCTSCK;ZGEGCLOFRBLKSE;BZHMBWZPUJHVEE;IMNFDUFMRHMDMM;VLJXXKKOSFGPHI;DJEQZVQFEPKLOY;QJXCDRBHYIAFTH;KVZJLSYJROEPSQ;KWKAKUADMBZCLK;LETYIFNDQBJGPJ;QEGNUYASOUJEHD;SGVUHPSBDNVHKL;YXLCVBVDFKWWRW;JVSWJIKNEAIKJW;TVMXDCGIABBOFY;ILIUIABCBOXIRX;NUHCEMOQRZEGAQ;IICQZTQZQSBHBY;KPADFPAILITQBG;PYOLJOJPIPCRDP;XARGIVYWQPXRTC;NYFHUVYMLLAQHH;HIVFIUIKABOGIO;YLZKVXHQMPWDBJ
SubstructureOntologies: CHEMONTID:0002500;NonID:NH2;CHEMONTID:0004476;CHEMONTID:0000469;CHEMONTID:0002228;CHEMONTID:0004622;CHEMONTID:0004620;CHEMONTID:0002239;CHEMONTID:0001016
Ontology: Buxus alkaloids
OntologyID: CHEMONTID:0002726
RETENTIONTIME: -1
RETENTIONINDEX: -1
TotalBondEnergy: 29108
TotalScore: 6.2856
TotalHrRulesScore: 1
TotalBondCleavageScore: 1
TotalMassAccuracyScore: 0.9816
TotalFragmentLinkageScore: 1
TotalBondDissociationEnergyScore: 1
DatabaseScore: 0.5714
SubstructureAssignmentScore: 0
RtSimilarityScore: -1
RiSimilarityScore: 0
Num Fragment VS2 (M/Z Intensity MatchedExactMass SaturatedExactMass Formula RearrangedHydrogen PPM MassDiff_mDa IsEvenElectronRule IsHrRule IsSolventAdductFragment AssignedAdductMass AdductString BondDissociationEnergy TreeDepth SMILES TotalScore HrLikelihood BcLikelihood MaLikelihood FlLikelihood BeLikelihood): 1
385.348063	674104.18088	385.357709804709	384.350433349609	C26H44N2	1	25.03	9.65	True	True	False	0		0	0	NC(C)C3CCC4(C)(C2C(C=C1CCC(N(C)C)C(C)(C)C1CC2)=CCC34(C))	4.98155999183655	1	1	0.981559991836548	1	1

NAME: Papilamine
ID: IPKKOHWMHMKNLP
IsSpectrumSearch: False
INCHIKEY: IPKKOHWMHMKNLP-FCPIDUFNNA-N
SMILES: C=2C1=CCC4(C)(C(CCC4(C)(C1CCC3C=2CCC(NC)C3(C)(C)))C(NC)C)
RESOURCES: KNApSAcK=C00025528,UNPD=UNPD2825;UNPD48620
SubstructureInChIKeys: VNWKTOKETHGBQD;VGGSQFUCUMXWEO;OTMSDBZUPAUEDD;ATUOYWHBWRKTHZ;ROSDSFDQCJNGOL;IAQRGUVFOMOMEM;VQTUBCCKSQIDNK;VXNZUUAINFGPBY;IJDNQMDRQITEOD;NNPPMTNAJDCUHE;JJWLVOIRVHMVIS;LIWAQLJGPBVORC;BKOOMYPCSUNDGP;QMMOXUPEWRXHJS;RGSFGYAAUTVSQA;YWAKXRMUMFPDSH;OFBQJSOFQDEBGM;QWTDNUCVQCZILF;GVWISOJSERXQBM;HQABUPZFAYXKJW;KDSNLYIMUZNERS;XHFGWHUWQXTGAT;BEQGRRJLJLVQAQ;GDOPTJXRTPNYNR;LDTAOIUHUHHCMU;LIKMAJRDDDTEIG;RYPKRALMXUUNKS;XDTMQSROBMDMFD;ZQDPJFUHLCOCRG;AFABGHUZZDYHJO;HNRMPXKDFBEGFZ;PFEOZHBOMNWTJB;VLKZOEOYAKHREP;BMFVGAAISNGQNM;DPBLXKKOBLCELK;QCOGKXLOEWLIDC;VJROPLWGFCORRM;ADHCYQWFCLQBFG;QWHNJUXXYKPLQM;UAEPNZWRGJTJPN;WZHKDGJSXCTSCK;ZGEGCLOFRBLKSE;BZHMBWZPUJHVEE;IMNFDUFMRHMDMM;VLJXXKKOSFGPHI;QJXCDRBHYIAFTH;KVZJLSYJROEPSQ;KWKAKUADMBZCLK;LETYIFNDQBJGPJ;QEGNUYASOUJEHD;SGVUHPSBDNVHKL;YXLCVBVDFKWWRW;JVSWJIKNEAIKJW;TVMXDCGIABBOFY;ILIUIABCBOXIRX;NUHCEMOQRZEGAQ;IICQZTQZQSBHBY;KPADFPAILITQBG;PYOLJOJPIPCRDP;XARGIVYWQPXRTC;NYFHUVYMLLAQHH;HIVFIUIKABOGIO;YLZKVXHQMPWDBJ
SubstructureOntologies: CHEMONTID:0002500;CHEMONTID:0004476;CHEMONTID:0002228;CHEMONTID:0004622;CHEMONTID:0004620;CHEMONTID:0000469;CHEMONTID:0001016
Ontology: Buxus alkaloids
OntologyID: CHEMONTID:0002726
RETENTIONTIME: -1
RETENTIONINDEX: -1
TotalBondEnergy: 29108
TotalScore: 6.226
TotalHrRulesScore: 1
TotalBondCleavageScore: 1
TotalMassAccuracyScore: 0.9816
TotalFragmentLinkageScore: 1
TotalBondDissociationEnergyScore: 1
DatabaseScore: 0.5476
SubstructureAssignmentScore: 0
RtSimilarityScore: -1
RiSimilarityScore: 0
Num Fragment VS2 (M/Z Intensity MatchedExactMass SaturatedExactMass Formula RearrangedHydrogen PPM MassDiff_mDa IsEvenElectronRule IsHrRule IsSolventAdductFragment AssignedAdductMass AdductString BondDissociationEnergy TreeDepth SMILES TotalScore HrLikelihood BcLikelihood MaLikelihood FlLikelihood BeLikelihood): 1
385.348063	674104.18088	385.357709804709	384.350433349609	C26H44N2	1	25.03	9.65	True	True	False	0		0	0	C=2C1=CCC4(C)(C(CCC4(C)(C1CCC3C=2CCC(NC)C3(C)(C)))C(NC)C)	4.98155999183655	1	1	0.981559991836548	1	1

NAME: (+)-Buxamine F
ID: JLRWQHLWCXUJEL
IsSpectrumSearch: False
INCHIKEY: JLRWQHLWCXUJEL-FCPIDUFNNA-N
SMILES: NC3CCC2=CC1=CCC4(C)(C(CCC4(C)(C1CCC2C3(C)(C)))C(N(C)C)C)
RESOURCES: KNApSAcK=C00049055,UNPD=UNPD3329
SubstructureInChIKeys: VNWKTOKETHGBQD;QGZKDVFQNNGYKY;VGGSQFUCUMXWEO;OTMSDBZUPAUEDD;BAVYZALUXZFZLV;ATUOYWHBWRKTHZ;QUSNBJAOOMFDIB;ROSDSFDQCJNGOL;IAQRGUVFOMOMEM;VQTUBCCKSQIDNK;VXNZUUAINFGPBY;IJDNQMDRQITEOD;NNPPMTNAJDCUHE;GETQZCLCWQTVFV;JJWLVOIRVHMVIS;LIWAQLJGPBVORC;WGYKZJWCGVVSQN;BKOOMYPCSUNDGP;QMMOXUPEWRXHJS;RGSFGYAAUTVSQA;YWAKXRMUMFPDSH;OFBQJSOFQDEBGM;QWTDNUCVQCZILF;DAZXVJBJRMWXJP;GVWISOJSERXQBM;HQABUPZFAYXKJW;KDSNLYIMUZNERS;XHFGWHUWQXTGAT;BEQGRRJLJLVQAQ;GDOPTJXRTPNYNR;LDTAOIUHUHHCMU;LIKMAJRDDDTEIG;RYPKRALMXUUNKS;XDTMQSROBMDMFD;ZQDPJFUHLCOCRG;AFABGHUZZDYHJO;HNRMPXKDFBEGFZ;PFEOZHBOMNWTJB;VLKZOEOYAKHREP;BMFVGAAISNGQNM;DPBLXKKOBLCELK;QCOGKXLOEWLIDC;VJROPLWGFCORRM;ZUHZZVMEUAUWHY;ADHCYQWFCLQBFG;QWHNJUXXYKPLQM;UAEPNZWRGJTJPN;WZHKDGJSXCTSCK;ZGEGCLOFRBLKSE;BZHMBWZPUJHVEE;IMNFDUFMRHMDMM;VLJXXKKOSFGPHI;DJEQZVQFEPKLOY;QJXCDRBHYIAFTH;KVZJLSYJROEPSQ;KWKAKUADMBZCLK;LETYIFNDQBJGPJ;QEGNUYASOUJEHD;SGVUHPSBDNVHKL;YXLCVBVDFKWWRW;JVSWJIKNEAIKJW;TVMXDCGIABBOFY;ILIUIABCBOXIRX;NUHCEMOQRZEGAQ;IICQZTQZQSBHBY;KPADFPAILITQBG;PYOLJOJPIPCRDP;XARGIVYWQPXRTC;NYFHUVYMLLAQHH;HIVFIUIKABOGIO;YLZKVXHQMPWDBJ
SubstructureOntologies: CHEMONTID:0002500;NonID:NH2;CHEMONTID:0004476;CHEMONTID:0000469;CHEMONTID:0002228;CHEMONTID:0004622;CHEMONTID:0004620;CHEMONTID:0002239;CHEMONTID:0001016
Ontology: Buxus alkaloids
OntologyID: CHEMONTID:0002726
RETENTIONTIME: -1
RETENTIONINDEX: -1
TotalBondEnergy: 29108
TotalScore: 6.226
TotalHrRulesScore: 1
TotalBondCleavageScore: 1
TotalMassAccuracyScore: 0.9816
TotalFragmentLinkageScore: 1
TotalBondDissociationEnergyScore: 1
DatabaseScore: 0.5476
SubstructureAssignmentScore: 0
RtSimilarityScore: -1
RiSimilarityScore: 0
Num Fragment VS2 (M/Z Intensity MatchedExactMass SaturatedExactMass Formula RearrangedHydrogen PPM MassDiff_mDa IsEvenElectronRule IsHrRule IsSolventAdductFragment AssignedAdductMass AdductString BondDissociationEnergy TreeDepth SMILES TotalScore HrLikelihood BcLikelihood MaLikelihood FlLikelihood BeLikelihood): 1
385.348063	674104.18088	385.357709804709	384.350433349609	C26H44N2	1	25.03	9.65	True	True	False	0		0	0	NC3CCC2=CC1=CCC4(C)(C(CCC4(C)(C1CCC2C3(C)(C)))C(N(C)C)C)	4.98155999183655	1	1	0.981559991836548	1	1

NAME: UNPD146534
ID: KNMRNMYCNDTDGB
IsSpectrumSearch: False
INCHIKEY: KNMRNMYCNDTDGB-JWXIKISANA-N
SMILES: NC(C)C1CCC2(C)(C3C=CC5C(C)(C)C(N(C)C)CCC45(CC34(CCC12(C))))
RESOURCES: UNPD=UNPD146534
SubstructureInChIKeys: VNWKTOKETHGBQD;QGZKDVFQNNGYKY;VGGSQFUCUMXWEO;OTMSDBZUPAUEDD;BAVYZALUXZFZLV;LVZWSLJZHVFIQJ;ATUOYWHBWRKTHZ;QUSNBJAOOMFDIB;ROSDSFDQCJNGOL;IAQRGUVFOMOMEM;VXNZUUAINFGPBY;IJDNQMDRQITEOD;NNPPMTNAJDCUHE;GETQZCLCWQTVFV;JJWLVOIRVHMVIS;LIWAQLJGPBVORC;WGYKZJWCGVVSQN;QMMOXUPEWRXHJS;RGSFGYAAUTVSQA;YWAKXRMUMFPDSH;OFBQJSOFQDEBGM;QWTDNUCVQCZILF;DAZXVJBJRMWXJP;GVWISOJSERXQBM;HQABUPZFAYXKJW;KDSNLYIMUZNERS;XHFGWHUWQXTGAT;GDOPTJXRTPNYNR;LDTAOIUHUHHCMU;LIKMAJRDDDTEIG;RYPKRALMXUUNKS;XDTMQSROBMDMFD;ZQDPJFUHLCOCRG;AFABGHUZZDYHJO;HNRMPXKDFBEGFZ;PFEOZHBOMNWTJB;VLKZOEOYAKHREP;BMFVGAAISNGQNM;DPBLXKKOBLCELK;QCOGKXLOEWLIDC;VJROPLWGFCORRM;ZUHZZVMEUAUWHY;QWHNJUXXYKPLQM;UAEPNZWRGJTJPN;WZHKDGJSXCTSCK;ZGEGCLOFRBLKSE;BZHMBWZPUJHVEE;IMNFDUFMRHMDMM;VLJXXKKOSFGPHI;DJEQZVQFEPKLOY;KVZJLSYJROEPSQ;KWKAKUADMBZCLK;LETYIFNDQBJGPJ;QEGNUYASOUJEHD;SGVUHPSBDNVHKL;JVSWJIKNEAIKJW;TVMXDCGIABBOFY;IICQZTQZQSBHBY;KPADFPAILITQBG;PYOLJOJPIPCRDP;XARGIVYWQPXRTC;GGWBGCSGJCRVIQ;BUOAKQCLRBVIOX;HIVFIUIKABOGIO;YLZKVXHQMPWDBJ;KGBMCONWCCBLAE;VTXRDCQMLXABHJ;IRXJZDLOCNJAHE;OTBOAOSTJYUVHP
SubstructureOntologies: CHEMONTID:0002500;NonID:NH2;CHEMONTID:0004476;CHEMONTID:0000469;CHEMONTID:0001016;CHEMONTID:0002228;CHEMONTID:0004620;CHEMONTID:0002239;CHEMONTID:0004149;CHEMONTID:0001401
Ontology: Triterpenoids
OntologyID: CHEMONTID:0001553
RETENTIONTIME: -1
RETENTIONINDEX: -1
TotalBondEnergy: 29198
TotalScore: 5.4165
TotalHrRulesScore: 1
TotalBondCleavageScore: 1
TotalMassAccuracyScore: 0.9816
TotalFragmentLinkageScore: 1
TotalBondDissociationEnergyScore: 1
DatabaseScore: 0.2238
SubstructureAssignmentScore: 0
RtSimilarityScore: -1
RiSimilarityScore: 0
Num Fragment VS2 (M/Z Intensity MatchedExactMass SaturatedExactMass Formula RearrangedHydrogen PPM MassDiff_mDa IsEvenElectronRule IsHrRule IsSolventAdductFragment AssignedAdductMass AdductString BondDissociationEnergy TreeDepth SMILES TotalScore HrLikelihood BcLikelihood MaLikelihood FlLikelihood BeLikelihood): 1
385.348063	674104.18088	385.357709804709	384.350433349609	C26H44N2	1	25.03	9.65	True	True	False	0		0	0	NC(C)C1CCC2(C)(C3C=CC5C(C)(C)C(N(C)C)CCC45(CC34(CCC12(C))))	4.98155999183655	1	1	0.981559991836548	1	1

NAME: UNPD178300
ID: BIPMILCOLMOWOY
IsSpectrumSearch: False
INCHIKEY: BIPMILCOLMOWOY-VOFZHXIINA-N
SMILES: NC(C)C3CCC4(C)(C2C(=CC1=CCC(N(C)C)C(C)(C)C1CC2)CCC34(C))
RESOURCES: UNPD=UNPD178300
SubstructureInChIKeys: VNWKTOKETHGBQD;QGZKDVFQNNGYKY;VGGSQFUCUMXWEO;OTMSDBZUPAUEDD;BAVYZALUXZFZLV;ATUOYWHBWRKTHZ;QUSNBJAOOMFDIB;ROSDSFDQCJNGOL;IAQRGUVFOMOMEM;VQTUBCCKSQIDNK;VXNZUUAINFGPBY;IJDNQMDRQITEOD;NNPPMTNAJDCUHE;GETQZCLCWQTVFV;JJWLVOIRVHMVIS;LIWAQLJGPBVORC;WGYKZJWCGVVSQN;BKOOMYPCSUNDGP;QMMOXUPEWRXHJS;RGSFGYAAUTVSQA;YWAKXRMUMFPDSH;OFBQJSOFQDEBGM;QWTDNUCVQCZILF;DAZXVJBJRMWXJP;GVWISOJSERXQBM;HQABUPZFAYXKJW;KDSNLYIMUZNERS;XHFGWHUWQXTGAT;BEQGRRJLJLVQAQ;GDOPTJXRTPNYNR;LDTAOIUHUHHCMU;LIKMAJRDDDTEIG;RYPKRALMXUUNKS;XDTMQSROBMDMFD;ZQDPJFUHLCOCRG;AFABGHUZZDYHJO;HNRMPXKDFBEGFZ;PFEOZHBOMNWTJB;VLKZOEOYAKHREP;BMFVGAAISNGQNM;DPBLXKKOBLCELK;QCOGKXLOEWLIDC;VJROPLWGFCORRM;ZUHZZVMEUAUWHY;ADHCYQWFCLQBFG;QWHNJUXXYKPLQM;WZHKDGJSXCTSCK;ZGEGCLOFRBLKSE;BZHMBWZPUJHVEE;IMNFDUFMRHMDMM;VLJXXKKOSFGPHI;DJEQZVQFEPKLOY;QJXCDRBHYIAFTH;KVZJLSYJROEPSQ;KWKAKUADMBZCLK;LETYIFNDQBJGPJ;QEGNUYASOUJEHD;YXLCVBVDFKWWRW;JVSWJIKNEAIKJW;TVMXDCGIABBOFY;NUHCEMOQRZEGAQ;IICQZTQZQSBHBY;KPADFPAILITQBG;GGWBGCSGJCRVIQ;NYFHUVYMLLAQHH;HIVFIUIKABOGIO;KGBMCONWCCBLAE;NXCPHYJTOJDSLE;IRXJZDLOCNJAHE;OTBOAOSTJYUVHP
SubstructureOntologies: CHEMONTID:0002500;NonID:NH2;CHEMONTID:0004476;CHEMONTID:0000469;CHEMONTID:0002228;CHEMONTID:0004622;CHEMONTID:0004620;CHEMONTID:0002239;CHEMONTID:0001016;CHEMONTID:0004149;CHEMONTID:0001401
Ontology: Diterpenoids
OntologyID: CHEMONTID:0001551
RETENTIONTIME: -1
RETENTIONINDEX: -1
TotalBondEnergy: 29108
TotalScore: 5.4165
TotalHrRulesScore: 1
TotalBondCleavageScore: 1
TotalMassAccuracyScore: 0.9816
TotalFragmentLinkageScore: 1
TotalBondDissociationEnergyScore: 1
DatabaseScore: 0.2238
SubstructureAssignmentScore: 0
RtSimilarityScore: -1
RiSimilarityScore: 0
Num Fragment VS2 (M/Z Intensity MatchedExactMass SaturatedExactMass Formula RearrangedHydrogen PPM MassDiff_mDa IsEvenElectronRule IsHrRule IsSolventAdductFragment AssignedAdductMass AdductString BondDissociationEnergy TreeDepth SMILES TotalScore HrLikelihood BcLikelihood MaLikelihood FlLikelihood BeLikelihood): 1
385.348063	674104.18088	385.357709804709	384.350433349609	C26H44N2	1	25.03	9.65	True	True	False	0		0	0	NC(C)C3CCC4(C)(C2C(=CC1=CCC(N(C)C)C(C)(C)C1CC2)CCC34(C))	4.98155999183655	1	1	0.981559991836548	1	1

