NAME: Cyclovirobuxeine A
ID: UVWOWJBPZRXVCO
IsSpectrumSearch: False
INCHIKEY: UVWOWJBPZRXVCO-XNIUDBTQNA-N
SMILES: OC1CC2(C)(C3C=CC5C(C)(C)C(N(C)C)CCC45(CC34(CCC2(C)(C1C(N(C)C)C))))
RESOURCES: KNApSAcK=C00036990,UNPD=UNPD67279;UNPD76906;UNPD82928
SubstructureInChIKeys: VNWKTOKETHGBQD;XLYOFNOQVPJJNP;VGGSQFUCUMXWEO;OTMSDBZUPAUEDD;OKKJLVBELUTLKV;LVZWSLJZHVFIQJ;ATUOYWHBWRKTHZ;ROSDSFDQCJNGOL;LFQSCWFLJHTTHZ;IAQRGUVFOMOMEM;VXNZUUAINFGPBY;IJDNQMDRQITEOD;NNPPMTNAJDCUHE;GETQZCLCWQTVFV;JJWLVOIRVHMVIS;LIWAQLJGPBVORC;BDERNNFJNOPAEC;KFZMGEQAYNKOFK;QMMOXUPEWRXHJS;RGSFGYAAUTVSQA;YWAKXRMUMFPDSH;OFBQJSOFQDEBGM;QWTDNUCVQCZILF;DAZXVJBJRMWXJP;GVWISOJSERXQBM;HQABUPZFAYXKJW;KDSNLYIMUZNERS;XHFGWHUWQXTGAT;BTANRVKWQNVYAZ;LRHPLDYGYMQRHN;ZXEKIIBDNHEJCQ;WUGQZFFCHPXWKQ;GDOPTJXRTPNYNR;LDTAOIUHUHHCMU;LIKMAJRDDDTEIG;RYPKRALMXUUNKS;XDTMQSROBMDMFD;ZQDPJFUHLCOCRG;AFABGHUZZDYHJO;HNRMPXKDFBEGFZ;PFEOZHBOMNWTJB;VLKZOEOYAKHREP;BMFVGAAISNGQNM;DPBLXKKOBLCELK;QCOGKXLOEWLIDC;VJROPLWGFCORRM;ZUHZZVMEUAUWHY;AMQJEAYHLZJPGS;AQIXEPGDORPWBJ;JYVLIDXNZAXMDK;MXLMTQWGSQIYOW;PHTQWCKDNZKARW;QWHNJUXXYKPLQM;UAEPNZWRGJTJPN;WZHKDGJSXCTSCK;ZGEGCLOFRBLKSE;BVIJQMCYYASIFP;BZHMBWZPUJHVEE;IMNFDUFMRHMDMM;VLJXXKKOSFGPHI;DJEQZVQFEPKLOY;ZSIAUFGUXNUGDI;KVZJLSYJROEPSQ;KWKAKUADMBZCLK;LETYIFNDQBJGPJ;QEGNUYASOUJEHD;SGVUHPSBDNVHKL;JVSWJIKNEAIKJW;TVMXDCGIABBOFY;CETWDUZRCINIHU;OVOVDHYEOQJKMD;IICQZTQZQSBHBY;KPADFPAILITQBG;PYOLJOJPIPCRDP;XARGIVYWQPXRTC;GGWBGCSGJCRVIQ;BUOAKQCLRBVIOX;HIVFIUIKABOGIO;YLZKVXHQMPWDBJ;KGBMCONWCCBLAE;VTXRDCQMLXABHJ;IRXJZDLOCNJAHE;OTBOAOSTJYUVHP
SubstructureOntologies: CHEMONTID:0002500;NonID:H2O;CHEMONTID:0004476;CHEMONTID:0000286;CHEMONTID:0001016;CHEMONTID:0002228;CHEMONTID:0004620;CHEMONTID:0002239;CHEMONTID:0000469;CHEMONTID:0001661;CHEMONTID:0001852;CHEMONTID:0002938;CHEMONTID:0001334;CHEMONTID:0004149;CHEMONTID:0001401
Ontology: Triterpenoids
OntologyID: CHEMONTID:0001553
RETENTIONTIME: -1
RETENTIONINDEX: -1
TotalBondEnergy: 31908
TotalScore: 6.4581
TotalHrRulesScore: 1
TotalBondCleavageScore: 1
TotalMassAccuracyScore: 0.9937
TotalFragmentLinkageScore: 1
TotalBondDissociationEnergyScore: 1
DatabaseScore: 0.5476
SubstructureAssignmentScore: 0
RtSimilarityScore: -1
RiSimilarityScore: 0
Num Fragment VS2 (M/Z Intensity MatchedExactMass SaturatedExactMass Formula RearrangedHydrogen PPM MassDiff_mDa IsEvenElectronRule IsHrRule IsSolventAdductFragment AssignedAdductMass AdductString BondDissociationEnergy TreeDepth SMILES TotalScore HrLikelihood BcLikelihood MaLikelihood FlLikelihood BeLikelihood): 1
429.378314	923087.670213	429.383924404319	428.376647949219	C28H48N2O	1	13.07	5.61	True	True	False	0		0	0	OC1CC2(C)(C3C=CC5C(C)(C)C(N(C)C)CCC45(CC34(CCC2(C)(C1C(N(C)C)C))))	4.99372446537018	1	1	0.993724465370178	1	1

NAME: buxaminol A
ID: MALAIGCWTXNVKA
IsSpectrumSearch: False
INCHIKEY: MALAIGCWTXNVKA-VIXJWYOHNA-N
SMILES: OC3CC4(C)(C2C(C=C1CCC(N(C)C)C(C)(C)C1CC2)=CCC4(C)(C3C(N(C)C)C))
RESOURCES: ChEBI=CHEBI:70425,UNPD=UNPD65427
SubstructureInChIKeys: VNWKTOKETHGBQD;XLYOFNOQVPJJNP;VGGSQFUCUMXWEO;OTMSDBZUPAUEDD;OKKJLVBELUTLKV;ATUOYWHBWRKTHZ;ROSDSFDQCJNGOL;LFQSCWFLJHTTHZ;IAQRGUVFOMOMEM;VQTUBCCKSQIDNK;VXNZUUAINFGPBY;IJDNQMDRQITEOD;NNPPMTNAJDCUHE;GETQZCLCWQTVFV;JJWLVOIRVHMVIS;LIWAQLJGPBVORC;BDERNNFJNOPAEC;KFZMGEQAYNKOFK;BKOOMYPCSUNDGP;QMMOXUPEWRXHJS;RGSFGYAAUTVSQA;YWAKXRMUMFPDSH;OFBQJSOFQDEBGM;QWTDNUCVQCZILF;DAZXVJBJRMWXJP;GVWISOJSERXQBM;HQABUPZFAYXKJW;KDSNLYIMUZNERS;XHFGWHUWQXTGAT;BTANRVKWQNVYAZ;LRHPLDYGYMQRHN;ZXEKIIBDNHEJCQ;WUGQZFFCHPXWKQ;BEQGRRJLJLVQAQ;GDOPTJXRTPNYNR;LDTAOIUHUHHCMU;LIKMAJRDDDTEIG;RYPKRALMXUUNKS;XDTMQSROBMDMFD;ZQDPJFUHLCOCRG;AFABGHUZZDYHJO;HNRMPXKDFBEGFZ;PFEOZHBOMNWTJB;VLKZOEOYAKHREP;BMFVGAAISNGQNM;DPBLXKKOBLCELK;QCOGKXLOEWLIDC;VJROPLWGFCORRM;ZUHZZVMEUAUWHY;AMQJEAYHLZJPGS;AQIXEPGDORPWBJ;JYVLIDXNZAXMDK;MXLMTQWGSQIYOW;PHTQWCKDNZKARW;ADHCYQWFCLQBFG;QWHNJUXXYKPLQM;UAEPNZWRGJTJPN;WZHKDGJSXCTSCK;ZGEGCLOFRBLKSE;BVIJQMCYYASIFP;BZHMBWZPUJHVEE;IMNFDUFMRHMDMM;VLJXXKKOSFGPHI;DJEQZVQFEPKLOY;ZSIAUFGUXNUGDI;QJXCDRBHYIAFTH;KVZJLSYJROEPSQ;KWKAKUADMBZCLK;LETYIFNDQBJGPJ;QEGNUYASOUJEHD;SGVUHPSBDNVHKL;YXLCVBVDFKWWRW;JVSWJIKNEAIKJW;TVMXDCGIABBOFY;CETWDUZRCINIHU;OVOVDHYEOQJKMD;ILIUIABCBOXIRX;NUHCEMOQRZEGAQ;IICQZTQZQSBHBY;KPADFPAILITQBG;PYOLJOJPIPCRDP;XARGIVYWQPXRTC;NYFHUVYMLLAQHH;HIVFIUIKABOGIO;YLZKVXHQMPWDBJ
SubstructureOntologies: CHEMONTID:0002500;NonID:H2O;CHEMONTID:0004476;CHEMONTID:0000286;CHEMONTID:0002228;CHEMONTID:0004622;CHEMONTID:0004620;CHEMONTID:0002239;CHEMONTID:0000469;CHEMONTID:0001661;CHEMONTID:0001016;CHEMONTID:0001852;CHEMONTID:0002938;CHEMONTID:0001334
Ontology: Buxus alkaloids
OntologyID: CHEMONTID:0002726
RETENTIONTIME: -1
RETENTIONINDEX: -1
TotalBondEnergy: 31818
TotalScore: 6.4581
TotalHrRulesScore: 1
TotalBondCleavageScore: 1
TotalMassAccuracyScore: 0.9937
TotalFragmentLinkageScore: 1
TotalBondDissociationEnergyScore: 1
DatabaseScore: 0.5476
SubstructureAssignmentScore: 0
RtSimilarityScore: -1
RiSimilarityScore: 0
Num Fragment VS2 (M/Z Intensity MatchedExactMass SaturatedExactMass Formula RearrangedHydrogen PPM MassDiff_mDa IsEvenElectronRule IsHrRule IsSolventAdductFragment AssignedAdductMass AdductString BondDissociationEnergy TreeDepth SMILES TotalScore HrLikelihood BcLikelihood MaLikelihood FlLikelihood BeLikelihood): 1
429.378314	923087.670213	429.383924404319	428.376647949219	C28H48N2O	1	13.07	5.61	True	True	False	0		0	0	OC3CC4(C)(C2C(C=C1CCC(N(C)C)C(C)(C)C1CC2)=CCC4(C)(C3C(N(C)C)C))	4.99372446537018	1	1	0.993724465370178	1	1

NAME: UNPD25525
ID: DZYNUQJIWZWXRL
IsSpectrumSearch: False
INCHIKEY: DZYNUQJIWZWXRL-WJSACVMSNA-N
SMILES: O=C(NC4CCC2(C)(C(CCC1C3CCC(C(N(C)C)C)C3(C)(CCC12))C4))C(=CC)C
RESOURCES: UNPD=UNPD25525
SubstructureInChIKeys: VNWKTOKETHGBQD;VGGSQFUCUMXWEO;WSFSSNUMVMOOMR;OTMSDBZUPAUEDD;QQONPFPTGQHPMA;IKHGUXGNUITLKF;ATUOYWHBWRKTHZ;ROSDSFDQCJNGOL;HGINCPLSRVDWNT;IAQRGUVFOMOMEM;VQTUBCCKSQIDNK;NBBJYMSMWIIQGU;IJDNQMDRQITEOD;NNPPMTNAJDCUHE;ATHHXGZTWNVVOU;GETQZCLCWQTVFV;JJWLVOIRVHMVIS;LIWAQLJGPBVORC;MLUCVPSAIODCQM;BKOOMYPCSUNDGP;RGSFGYAAUTVSQA;OFBQJSOFQDEBGM;QWTDNUCVQCZILF;DAZXVJBJRMWXJP;GVWISOJSERXQBM;HPNMFZURTQLUMO;HQABUPZFAYXKJW;KDSNLYIMUZNERS;XHFGWHUWQXTGAT;GDOPTJXRTPNYNR;XDTMQSROBMDMFD;AFABGHUZZDYHJO;HNRMPXKDFBEGFZ;PFEOZHBOMNWTJB;VLKZOEOYAKHREP;SUUDTPGCUKBECW;BMFVGAAISNGQNM;DPBLXKKOBLCELK;QCOGKXLOEWLIDC;VJROPLWGFCORRM;ZUHZZVMEUAUWHY;QWHNJUXXYKPLQM;UAEPNZWRGJTJPN;BZHMBWZPUJHVEE;IMNFDUFMRHMDMM;VLJXXKKOSFGPHI;DJEQZVQFEPKLOY;VLSTXUUYLIALPB;KVZJLSYJROEPSQ;LETYIFNDQBJGPJ;QEGNUYASOUJEHD;SGVUHPSBDNVHKL;JVSWJIKNEAIKJW;TVMXDCGIABBOFY;PYOLJOJPIPCRDP;XARGIVYWQPXRTC;GGWBGCSGJCRVIQ;BUOAKQCLRBVIOX;HIVFIUIKABOGIO;YLZKVXHQMPWDBJ;KGBMCONWCCBLAE;VTXRDCQMLXABHJ;IRXJZDLOCNJAHE;XBENKLBOLWZLNQ;OTBOAOSTJYUVHP
SubstructureOntologies: CHEMONTID:0002500;CHEMONTID:0004476;CHEMONTID:0001831;CHEMONTID:0002230;CHEMONTID:0002228;CHEMONTID:0002436;CHEMONTID:0004622;CHEMONTID:0002434;CHEMONTID:0004620;CHEMONTID:0002484;CHEMONTID:0002239;CHEMONTID:0000469;CHEMONTID:0001016;CHEMONTID:0001663;CHEMONTID:0004149;CHEMONTID:0001401
Ontology: Azasteroids and derivatives
OntologyID: CHEMONTID:0002340
RETENTIONTIME: -1
RETENTIONINDEX: -1
TotalBondEnergy: 31921
TotalScore: 5.6486
TotalHrRulesScore: 1
TotalBondCleavageScore: 1
TotalMassAccuracyScore: 0.9937
TotalFragmentLinkageScore: 1
TotalBondDissociationEnergyScore: 1
DatabaseScore: 0.2238
SubstructureAssignmentScore: 0
RtSimilarityScore: -1
RiSimilarityScore: 0
Num Fragment VS2 (M/Z Intensity MatchedExactMass SaturatedExactMass Formula RearrangedHydrogen PPM MassDiff_mDa IsEvenElectronRule IsHrRule IsSolventAdductFragment AssignedAdductMass AdductString BondDissociationEnergy TreeDepth SMILES TotalScore HrLikelihood BcLikelihood MaLikelihood FlLikelihood BeLikelihood): 1
429.378314	923087.670213	429.383924404319	428.376647949219	C28H48N2O	1	13.07	5.61	True	True	False	0		0	0	O=C(NC4CCC2(C)(C(CCC1C3CCC(C(N(C)C)C)C3(C)(CCC12))C4))C(=CC)C	4.99372446537018	1	1	0.993724465370178	1	1

NAME: UNPD14621
ID: LYUZGGHRAQSPJK
IsSpectrumSearch: False
INCHIKEY: LYUZGGHRAQSPJK-RZMTWCNANA-N
SMILES: O1CN(C)C2CCC36(CC46(CCC5(C)(C(CCC5(C)(C4(CCC3(C2(C)(C1)))))C(N(C)C)C)))
RESOURCES: UNPD=UNPD14621;UNPD57637
SubstructureInChIKeys: VNWKTOKETHGBQD;OTMSDBZUPAUEDD;LVZWSLJZHVFIQJ;ATUOYWHBWRKTHZ;ROSDSFDQCJNGOL;LCGLNKUTAGEVQW;IJDNQMDRQITEOD;NNPPMTNAJDCUHE;GETQZCLCWQTVFV;JJWLVOIRVHMVIS;LIWAQLJGPBVORC;BDERNNFJNOPAEC;XOBKSJJDNFUZPF;RGSFGYAAUTVSQA;OFBQJSOFQDEBGM;QWTDNUCVQCZILF;DAZXVJBJRMWXJP;GVWISOJSERXQBM;HQABUPZFAYXKJW;KDSNLYIMUZNERS;XHFGWHUWQXTGAT;LRHPLDYGYMQRHN;VNKYTQGIUYNRMY;ZXEKIIBDNHEJCQ;WUGQZFFCHPXWKQ;GDOPTJXRTPNYNR;XDTMQSROBMDMFD;AFABGHUZZDYHJO;HNRMPXKDFBEGFZ;PFEOZHBOMNWTJB;VLKZOEOYAKHREP;YNAVUWVOSKDBBP;BMFVGAAISNGQNM;DPBLXKKOBLCELK;QCOGKXLOEWLIDC;VJROPLWGFCORRM;ZUHZZVMEUAUWHY;AMQJEAYHLZJPGS;PHTQWCKDNZKARW;QWHNJUXXYKPLQM;UAEPNZWRGJTJPN;BZHMBWZPUJHVEE;IMNFDUFMRHMDMM;VLJXXKKOSFGPHI;DJEQZVQFEPKLOY;ZSIAUFGUXNUGDI;KVZJLSYJROEPSQ;LETYIFNDQBJGPJ;QEGNUYASOUJEHD;SGVUHPSBDNVHKL;JVSWJIKNEAIKJW;TVMXDCGIABBOFY;OVOVDHYEOQJKMD;PYOLJOJPIPCRDP;XARGIVYWQPXRTC;GGWBGCSGJCRVIQ;BUOAKQCLRBVIOX;HIVFIUIKABOGIO;YLZKVXHQMPWDBJ;KGBMCONWCCBLAE;VTXRDCQMLXABHJ;IRXJZDLOCNJAHE;XBENKLBOLWZLNQ;OTBOAOSTJYUVHP;HZNDJPAXRXLIOU
SubstructureOntologies: CHEMONTID:0002500;CHEMONTID:0001016;CHEMONTID:0002228;CHEMONTID:0001167;CHEMONTID:0004620;CHEMONTID:0002239;CHEMONTID:0000469;CHEMONTID:0000286;CHEMONTID:0001852;CHEMONTID:0000392;CHEMONTID:0001334;CHEMONTID:0004149;CHEMONTID:0001401
Ontology: Azasteroids and derivatives
OntologyID: CHEMONTID:0002340
RETENTIONTIME: -1
RETENTIONINDEX: -1
TotalBondEnergy: 31962
TotalScore: 5.6486
TotalHrRulesScore: 1
TotalBondCleavageScore: 1
TotalMassAccuracyScore: 0.9937
TotalFragmentLinkageScore: 1
TotalBondDissociationEnergyScore: 1
DatabaseScore: 0.2238
SubstructureAssignmentScore: 0
RtSimilarityScore: -1
RiSimilarityScore: 0
Num Fragment VS2 (M/Z Intensity MatchedExactMass SaturatedExactMass Formula RearrangedHydrogen PPM MassDiff_mDa IsEvenElectronRule IsHrRule IsSolventAdductFragment AssignedAdductMass AdductString BondDissociationEnergy TreeDepth SMILES TotalScore HrLikelihood BcLikelihood MaLikelihood FlLikelihood BeLikelihood): 1
429.378314	923087.670213	429.383924404319	428.376647949219	C28H48N2O	1	13.07	5.61	True	True	False	0		0	0	O1CN(C)C2CCC36(CC46(CCC5(C)(C(CCC5(C)(C4(CCC3(C2(C)(C1)))))C(N(C)C)C)))	4.99372446537018	1	1	0.993724465370178	1	1

NAME: UNPD180016
ID: RNEXTVLSSKNSJB
IsSpectrumSearch: False
INCHIKEY: RNEXTVLSSKNSJB-XYVHPMRVNA-N
SMILES: O=C(N(C)C(C)C1CCC2(C)(C3CCC5C(C)(C)C(NC)CCC45(CC34(CCC12(C)))))C
RESOURCES: UNPD=UNPD180016;UNPD46730
SubstructureInChIKeys: VNWKTOKETHGBQD;WSFSSNUMVMOOMR;OTMSDBZUPAUEDD;LVZWSLJZHVFIQJ;IKHGUXGNUITLKF;ATUOYWHBWRKTHZ;ROSDSFDQCJNGOL;IJDNQMDRQITEOD;NNPPMTNAJDCUHE;ATHHXGZTWNVVOU;GETQZCLCWQTVFV;JJWLVOIRVHMVIS;LIWAQLJGPBVORC;RGSFGYAAUTVSQA;OFBQJSOFQDEBGM;QWTDNUCVQCZILF;DAZXVJBJRMWXJP;GVWISOJSERXQBM;HPNMFZURTQLUMO;HQABUPZFAYXKJW;KDSNLYIMUZNERS;XHFGWHUWQXTGAT;GDOPTJXRTPNYNR;XDTMQSROBMDMFD;AFABGHUZZDYHJO;HNRMPXKDFBEGFZ;PFEOZHBOMNWTJB;VLKZOEOYAKHREP;SUUDTPGCUKBECW;BMFVGAAISNGQNM;DPBLXKKOBLCELK;GNVRJGIVDSQCOP;QCOGKXLOEWLIDC;VJROPLWGFCORRM;ZUHZZVMEUAUWHY;QWHNJUXXYKPLQM;UAEPNZWRGJTJPN;BZHMBWZPUJHVEE;IMNFDUFMRHMDMM;VLJXXKKOSFGPHI;DJEQZVQFEPKLOY;SMBYUOXUISCLCF;KVZJLSYJROEPSQ;LETYIFNDQBJGPJ;QEGNUYASOUJEHD;SGVUHPSBDNVHKL;JVSWJIKNEAIKJW;TVMXDCGIABBOFY;PYOLJOJPIPCRDP;XARGIVYWQPXRTC;GGWBGCSGJCRVIQ;BUOAKQCLRBVIOX;HIVFIUIKABOGIO;YLZKVXHQMPWDBJ;KGBMCONWCCBLAE;VTXRDCQMLXABHJ;IRXJZDLOCNJAHE;XBENKLBOLWZLNQ;OTBOAOSTJYUVHP
SubstructureOntologies: CHEMONTID:0002500;CHEMONTID:0001831;CHEMONTID:0001016;CHEMONTID:0002230;CHEMONTID:0002228;CHEMONTID:0004620;CHEMONTID:0002484;CHEMONTID:0002239;CHEMONTID:0000469;CHEMONTID:0001663;CHEMONTID:0004149;CHEMONTID:0001401
Ontology: Triterpenoids
OntologyID: CHEMONTID:0001553
RETENTIONTIME: -1
RETENTIONINDEX: -1
TotalBondEnergy: 32011
TotalScore: 5.6486
TotalHrRulesScore: 1
TotalBondCleavageScore: 1
TotalMassAccuracyScore: 0.9937
TotalFragmentLinkageScore: 1
TotalBondDissociationEnergyScore: 1
DatabaseScore: 0.2238
SubstructureAssignmentScore: 0
RtSimilarityScore: -1
RiSimilarityScore: 0
Num Fragment VS2 (M/Z Intensity MatchedExactMass SaturatedExactMass Formula RearrangedHydrogen PPM MassDiff_mDa IsEvenElectronRule IsHrRule IsSolventAdductFragment AssignedAdductMass AdductString BondDissociationEnergy TreeDepth SMILES TotalScore HrLikelihood BcLikelihood MaLikelihood FlLikelihood BeLikelihood): 1
429.378314	923087.670213	429.383924404319	428.376647949219	C28H48N2O	1	13.07	5.61	True	True	False	0		0	0	O=C(N(C)C(C)C1CCC2(C)(C3CCC5C(C)(C)C(NC)CCC45(CC34(CCC12(C)))))C	4.99372446537018	1	1	0.993724465370178	1	1

NAME: UNPD197142
ID: MGEUOPIPYIANSI
IsSpectrumSearch: False
INCHIKEY: MGEUOPIPYIANSI-LAZLFVJCNA-N
SMILES: O=C(C=C(C)C)NC4CCC2(C)(C(CCC1C3CCC(C(N(C)C)C)C3(C)(CCC12))C4)
RESOURCES: UNPD=UNPD197142;UNPD38724;UNPD50260;UNPD51559
SubstructureInChIKeys: VNWKTOKETHGBQD;VGGSQFUCUMXWEO;WSFSSNUMVMOOMR;OTMSDBZUPAUEDD;QQONPFPTGQHPMA;IKHGUXGNUITLKF;ATUOYWHBWRKTHZ;ROSDSFDQCJNGOL;HGINCPLSRVDWNT;IAQRGUVFOMOMEM;VQTUBCCKSQIDNK;IJDNQMDRQITEOD;NNPPMTNAJDCUHE;ATHHXGZTWNVVOU;GETQZCLCWQTVFV;JJWLVOIRVHMVIS;LIWAQLJGPBVORC;MLUCVPSAIODCQM;BKOOMYPCSUNDGP;RGSFGYAAUTVSQA;OFBQJSOFQDEBGM;QWTDNUCVQCZILF;DAZXVJBJRMWXJP;GVWISOJSERXQBM;HPNMFZURTQLUMO;HQABUPZFAYXKJW;KDSNLYIMUZNERS;XHFGWHUWQXTGAT;GDOPTJXRTPNYNR;XDTMQSROBMDMFD;AFABGHUZZDYHJO;HNRMPXKDFBEGFZ;PFEOZHBOMNWTJB;VLKZOEOYAKHREP;SUUDTPGCUKBECW;BMFVGAAISNGQNM;DPBLXKKOBLCELK;QCOGKXLOEWLIDC;VJROPLWGFCORRM;ZUHZZVMEUAUWHY;QWHNJUXXYKPLQM;UAEPNZWRGJTJPN;BZHMBWZPUJHVEE;IMNFDUFMRHMDMM;VLJXXKKOSFGPHI;DJEQZVQFEPKLOY;KVZJLSYJROEPSQ;LETYIFNDQBJGPJ;QEGNUYASOUJEHD;SGVUHPSBDNVHKL;JVSWJIKNEAIKJW;TVMXDCGIABBOFY;PYOLJOJPIPCRDP;XARGIVYWQPXRTC;GGWBGCSGJCRVIQ;BUOAKQCLRBVIOX;HIVFIUIKABOGIO;YLZKVXHQMPWDBJ;KGBMCONWCCBLAE;VTXRDCQMLXABHJ;IRXJZDLOCNJAHE;XBENKLBOLWZLNQ;OTBOAOSTJYUVHP
SubstructureOntologies: CHEMONTID:0002500;CHEMONTID:0004476;CHEMONTID:0001831;CHEMONTID:0002230;CHEMONTID:0002228;CHEMONTID:0002436;CHEMONTID:0004622;CHEMONTID:0004620;CHEMONTID:0002484;CHEMONTID:0002239;CHEMONTID:0000469;CHEMONTID:0001016;CHEMONTID:0001663;CHEMONTID:0004149;CHEMONTID:0001401
Ontology: Azasteroids and derivatives
OntologyID: CHEMONTID:0002340
RETENTIONTIME: -1
RETENTIONINDEX: -1
TotalBondEnergy: 31921
TotalScore: 5.6486
TotalHrRulesScore: 1
TotalBondCleavageScore: 1
TotalMassAccuracyScore: 0.9937
TotalFragmentLinkageScore: 1
TotalBondDissociationEnergyScore: 1
DatabaseScore: 0.2238
SubstructureAssignmentScore: 0
RtSimilarityScore: -1
RiSimilarityScore: 0
Num Fragment VS2 (M/Z Intensity MatchedExactMass SaturatedExactMass Formula RearrangedHydrogen PPM MassDiff_mDa IsEvenElectronRule IsHrRule IsSolventAdductFragment AssignedAdductMass AdductString BondDissociationEnergy TreeDepth SMILES TotalScore HrLikelihood BcLikelihood MaLikelihood FlLikelihood BeLikelihood): 1
429.378314	923087.670213	429.383924404319	428.376647949219	C28H48N2O	1	13.07	5.61	True	True	False	0		0	0	O=C(C=C(C)C)NC4CCC2(C)(C(CCC1C3CCC(C(N(C)C)C)C3(C)(CCC12))C4)	4.99372446537018	1	1	0.993724465370178	1	1

NAME: UNPD170751
ID: MUFZARSYFKWQNK
IsSpectrumSearch: False
INCHIKEY: MUFZARSYFKWQNK-NHJNURNBNA-N
SMILES: OCC4(C)(C2C(=CC1=CCC3(C)(C(CCC3(C)(C1CC2))C(N(C)C)C))CCC4(N(C)C))
RESOURCES: UNPD=UNPD170751
SubstructureInChIKeys: VNWKTOKETHGBQD;XLYOFNOQVPJJNP;VGGSQFUCUMXWEO;OTMSDBZUPAUEDD;OKKJLVBELUTLKV;ATUOYWHBWRKTHZ;ROSDSFDQCJNGOL;LFQSCWFLJHTTHZ;IAQRGUVFOMOMEM;VQTUBCCKSQIDNK;VXNZUUAINFGPBY;IJDNQMDRQITEOD;NNPPMTNAJDCUHE;GETQZCLCWQTVFV;JJWLVOIRVHMVIS;LIWAQLJGPBVORC;BDERNNFJNOPAEC;BKOOMYPCSUNDGP;QMMOXUPEWRXHJS;RGSFGYAAUTVSQA;YWAKXRMUMFPDSH;OFBQJSOFQDEBGM;QWTDNUCVQCZILF;DAZXVJBJRMWXJP;GVWISOJSERXQBM;HQABUPZFAYXKJW;KDSNLYIMUZNERS;XHFGWHUWQXTGAT;LRHPLDYGYMQRHN;ZXEKIIBDNHEJCQ;WUGQZFFCHPXWKQ;BEQGRRJLJLVQAQ;GDOPTJXRTPNYNR;LDTAOIUHUHHCMU;LIKMAJRDDDTEIG;RYPKRALMXUUNKS;XDTMQSROBMDMFD;ZQDPJFUHLCOCRG;AFABGHUZZDYHJO;HNRMPXKDFBEGFZ;PFEOZHBOMNWTJB;VLKZOEOYAKHREP;BMFVGAAISNGQNM;DPBLXKKOBLCELK;QCOGKXLOEWLIDC;VJROPLWGFCORRM;ZUHZZVMEUAUWHY;AMQJEAYHLZJPGS;PHTQWCKDNZKARW;ADHCYQWFCLQBFG;QWHNJUXXYKPLQM;UAEPNZWRGJTJPN;WZHKDGJSXCTSCK;ZGEGCLOFRBLKSE;BZHMBWZPUJHVEE;IMNFDUFMRHMDMM;VLJXXKKOSFGPHI;DJEQZVQFEPKLOY;ZSIAUFGUXNUGDI;QJXCDRBHYIAFTH;KVZJLSYJROEPSQ;KWKAKUADMBZCLK;LETYIFNDQBJGPJ;QEGNUYASOUJEHD;SGVUHPSBDNVHKL;YXLCVBVDFKWWRW;JVSWJIKNEAIKJW;TVMXDCGIABBOFY;ILIUIABCBOXIRX;NUHCEMOQRZEGAQ;IICQZTQZQSBHBY;KPADFPAILITQBG;PYOLJOJPIPCRDP;XARGIVYWQPXRTC;NYFHUVYMLLAQHH;HIVFIUIKABOGIO;YLZKVXHQMPWDBJ;BQOAKIRTXKZTKD
SubstructureOntologies: CHEMONTID:0002500;NonID:H2O;CHEMONTID:0004476;CHEMONTID:0000286;CHEMONTID:0002228;CHEMONTID:0004622;CHEMONTID:0004620;CHEMONTID:0002239;CHEMONTID:0000469;CHEMONTID:0001016;CHEMONTID:0001852;CHEMONTID:0001334
Ontology: Buxus alkaloids
OntologyID: CHEMONTID:0002726
RETENTIONTIME: -1
RETENTIONINDEX: -1
TotalBondEnergy: 31818
TotalScore: 5.6486
TotalHrRulesScore: 1
TotalBondCleavageScore: 1
TotalMassAccuracyScore: 0.9937
TotalFragmentLinkageScore: 1
TotalBondDissociationEnergyScore: 1
DatabaseScore: 0.2238
SubstructureAssignmentScore: 0
RtSimilarityScore: -1
RiSimilarityScore: 0
Num Fragment VS2 (M/Z Intensity MatchedExactMass SaturatedExactMass Formula RearrangedHydrogen PPM MassDiff_mDa IsEvenElectronRule IsHrRule IsSolventAdductFragment AssignedAdductMass AdductString BondDissociationEnergy TreeDepth SMILES TotalScore HrLikelihood BcLikelihood MaLikelihood FlLikelihood BeLikelihood): 1
429.378314	923087.670213	429.383924404319	428.376647949219	C28H48N2O	1	13.07	5.61	True	True	False	0		0	0	OCC4(C)(C2C(=CC1=CCC3(C)(C(CCC3(C)(C1CC2))C(N(C)C)C))CCC4(N(C)C))	4.99372446537018	1	1	0.993724465370178	1	1

