NAME: albendazole S-oxide
ID: VXTGHWHFYNYFFV
IsSpectrumSearch: False
INCHIKEY: VXTGHWHFYNYFFV-UHFFFAOYNA-N
SMILES: O=S(C=1C=CC=2N=C(N=C(O)OC)NC=2(C=1))CCC
RESOURCES: HMDB=HMDB0059609;HMDB0060560,ChEBI=CHEBI:16959;CHEBI:40763;CHEBI:38950,Urine=HMDB0060560,Serum=HMDB0060560
SubstructureInChIKeys: VNWKTOKETHGBQD;XLYOFNOQVPJJNP;WDWDWGRYHDPSDS;OTMSDBZUPAUEDD;ATUOYWHBWRKTHZ;ZHNUHDYFZUAESO;LCGLNKUTAGEVQW;CKFGINPQOCXMAZ;DNJIEGIFACGWOD;QMMFVYPAHWMCMS;BOTYRLOGQKSOAE;RAXXELZNTBOGNW;PAWYOSHGFARYKR;UHOVQNZJYSORNB;GDIPMASOJOFGKK
SubstructureOntologies: CHEMONTID:0002500;NonID:H2O;CHEMONTID:0000117;CHEMONTID:0002484;CHEMONTID:0001167;CHEMONTID:0001605;CHEMONTID:0001212;CHEMONTID:0003862;CHEMONTID:0000078;CHEMONTID:0002279
Ontology: Benzimidazoles
OntologyID: CHEMONTID:0000294
RETENTIONTIME: -1
RETENTIONINDEX: -1
TotalBondEnergy: 14324
TotalScore: 6.7731
TotalHrRulesScore: 1
TotalBondCleavageScore: 1
TotalMassAccuracyScore: 0.9912
TotalFragmentLinkageScore: 1
TotalBondDissociationEnergyScore: 1
DatabaseScore: 0.5952
SubstructureAssignmentScore: 0
RtSimilarityScore: -1
RiSimilarityScore: 0
Num Fragment VS2 (M/Z Intensity MatchedExactMass SaturatedExactMass Formula RearrangedHydrogen PPM MassDiff_mDa IsEvenElectronRule IsHrRule IsSolventAdductFragment AssignedAdductMass AdductString BondDissociationEnergy TreeDepth SMILES TotalScore HrLikelihood BcLikelihood MaLikelihood FlLikelihood BeLikelihood): 1
282.097321	3962425.042089	282.090680996116	281.083404541016	C12H15N3O3S	1	23.54	6.64	True	True	False	0		0	0	O=S(C=1C=CC=2N=C(N=C(O)OC)NC=2(C=1))CCC	4.99122083187103	1	1	0.991220831871033	1	1

NAME: N-(1-cyano-3-pyrrolidinyl)-3-methoxybenzenesulfonamide
ID: OYPCPJBAOPUYOB
IsSpectrumSearch: False
INCHIKEY: OYPCPJBAOPUYOB-UHFFFAOYNA-N
SMILES: N#CN2CCC(NS(=O)(=O)C1=CC=CC(OC)=C1)C2
RESOURCES: ChEBI=CHEBI:91489
SubstructureInChIKeys: VNWKTOKETHGBQD;LELOWRISYMNNSU;OTMSDBZUPAUEDD;ATUOYWHBWRKTHZ;ROSDSFDQCJNGOL;LCGLNKUTAGEVQW;IJDNQMDRQITEOD;GETQZCLCWQTVFV;JJWLVOIRVHMVIS;LIWAQLJGPBVORC;RAHZWNYVWXNFOC;BOTYRLOGQKSOAE;RWRDLPDLKQPQOW;DAZXVJBJRMWXJP;GVWISOJSERXQBM;HPNMFZURTQLUMO;HQABUPZFAYXKJW;UHOVQNZJYSORNB;KEIVLHIFSZBKGU;AHZVGADFMXTGBU;AVFZOVWCLRSYKC;GNVRJGIVDSQCOP;QCOGKXLOEWLIDC;ZUHZZVMEUAUWHY;ISWSIDIOOBJBQZ;DJEQZVQFEPKLOY;RDOXTESZEPMUJZ
SubstructureOntologies: CHEMONTID:0002500;CHEMONTID:0000362;CHEMONTID:0002228;CHEMONTID:0001167;CHEMONTID:0002239;CHEMONTID:0000469;NonID:SO2;CHEMONTID:0001212;CHEMONTID:0000218;CHEMONTID:0002279;NonID:Sulfonamide;CHEMONTID:0003449;CHEMONTID:0004647;CHEMONTID:0000138
Ontology: Benzenesulfonamides
OntologyID: CHEMONTID:0000031
RETENTIONTIME: -1
RETENTIONINDEX: -1
TotalBondEnergy: 14527
TotalScore: 6.5945
TotalHrRulesScore: 1
TotalBondCleavageScore: 1
TotalMassAccuracyScore: 0.9912
TotalFragmentLinkageScore: 1
TotalBondDissociationEnergyScore: 1
DatabaseScore: 0.5238
SubstructureAssignmentScore: 0
RtSimilarityScore: -1
RiSimilarityScore: 0
Num Fragment VS2 (M/Z Intensity MatchedExactMass SaturatedExactMass Formula RearrangedHydrogen PPM MassDiff_mDa IsEvenElectronRule IsHrRule IsSolventAdductFragment AssignedAdductMass AdductString BondDissociationEnergy TreeDepth SMILES TotalScore HrLikelihood BcLikelihood MaLikelihood FlLikelihood BeLikelihood): 1
282.097321	3962425.042089	282.090680996116	281.083404541016	C12H15N3O3S	1	23.54	6.64	True	True	False	0		0	0	N#CN2CCC(NS(=O)(=O)C1=CC=CC(OC)=C1)C2	4.99122083187103	1	1	0.991220831871033	1	1

