NAME: 4-Hydroxyphenylacetylglutamine
ID: CYRKYXZJUIBBJX
IsSpectrumSearch: False
INCHIKEY: CYRKYXZJUIBBJX-UHFFFAOYNA-N
SMILES: O=C(O)CCC(NC(=O)CC1=CC=C(O)C=C1)C(=O)O
RESOURCES: HMDB=HMDB0006061,ChEBI=CHEBI:28036,FooDB=FDB023825,BMDB=BMDB06061,PubChem=440731
SubstructureInChIKeys: XLYOFNOQVPJJNP;WSFSSNUMVMOOMR;OTMSDBZUPAUEDD;IKHGUXGNUITLKF;ATUOYWHBWRKTHZ;ROSDSFDQCJNGOL;BDAGIHXWWSANSR;LFQSCWFLJHTTHZ;NBBJYMSMWIIQGU;IJDNQMDRQITEOD;ATHHXGZTWNVVOU;LYIIBVSRGJSHAV;JJWLVOIRVHMVIS;LIWAQLJGPBVORC;QTBSBXVTEAMEQO;BDERNNFJNOPAEC;HZAXFHJVJLSVMW;ZTQSAGDEMFDKMZ;OFBQJSOFQDEBGM;GVWISOJSERXQBM;HPNMFZURTQLUMO;HQABUPZFAYXKJW;XHFGWHUWQXTGAT;XBDQKXXYIPTUBI;BEBCJVAWIBVWNZ;LRHPLDYGYMQRHN;DHMQDGOQFOQNFH;UHOVQNZJYSORNB;HGBOYTHUEUWSSQ;DZQLQEYLEYWJIB;FGEPRNXUNITOCW;SUUDTPGCUKBECW;QCOGKXLOEWLIDC;FERIUCNNQQJTOY;AMQJEAYHLZJPGS;QNAYBMKLOCPYGJ;YXFVVABEGXRONW;ISWSIDIOOBJBQZ;VLSTXUUYLIALPB;BTCSSZJGUNDROE;QWCKQJZIFLGMSD;YNQLUTRBYVCPMQ;IWDCLRJOBJJRNH;SNDPXSYFESPGGJ;BHHGXPLMPWCGHP;HMNKTRSOROOSPP;HXDOZKJGKXYMEW;KABXUUFDPUOJMW;MPUUQNGXJSEWTF;JFCQEDHGNNZCLN;CZWARROQQFCFJB;SASNBVQSOZSTPD;DZGWFCGJZKJUFP;WHUUTDBJXJRKMK
SubstructureOntologies: NonID:H2O;CHEMONTID:0001831;CHEMONTID:0002500;CHEMONTID:0002230;CHEMONTID:0002228;CHEMONTID:0001205;CHEMONTID:0000286;CHEMONTID:0002434;CHEMONTID:0002484;CHEMONTID:0000469;CHEMONTID:0001897;CHEMONTID:0002404;CHEMONTID:0002279;CHEMONTID:0001663;CHEMONTID:0000333;CHEMONTID:0004314;CHEMONTID:0001091;CHEMONTID:0004647;CHEMONTID:0001880;CHEMONTID:0001275;CHEMONTID:0000186;CHEMONTID:0004646;CHEMONTID:0000346;CHEMONTID:0004323
Ontology: Glutamic acid and derivatives
OntologyID: CHEMONTID:0004323
RETENTIONTIME: -1
RETENTIONINDEX: -1
TotalBondEnergy: 15135
TotalScore: 7.1043
TotalHrRulesScore: 1
TotalBondCleavageScore: 1
TotalMassAccuracyScore: 1
TotalFragmentLinkageScore: 1
TotalBondDissociationEnergyScore: 1
DatabaseScore: 0.619
SubstructureAssignmentScore: 0
RtSimilarityScore: -1
RiSimilarityScore: 0
Num Fragment VS2 (M/Z Intensity MatchedExactMass SaturatedExactMass Formula RearrangedHydrogen PPM MassDiff_mDa IsEvenElectronRule IsHrRule IsSolventAdductFragment AssignedAdductMass AdductString BondDissociationEnergy TreeDepth SMILES TotalScore HrLikelihood BcLikelihood MaLikelihood FlLikelihood BeLikelihood): 1
282.097321	3962425.042089	282.097211757834	281.089935302734	C13H15NO6	1	0.39	0.11	True	True	False	0		0	0	O=C(O)CCC(NC(=O)CC1=CC=C(O)C=C1)C(=O)O	4.99999761581421	1	1	0.999997615814209	1	1

NAME: Fenitropan
ID: AYBALPYBYZFKDS
IsSpectrumSearch: False
INCHIKEY: AYBALPYBYZFKDS-OLZOCXBDSA-N
SMILES: O=C(OCC([N+](=O)[O-])C(OC(=O)C)C1=CC=CC=C1)C
RESOURCES: ChEBI=CHEBI:82079
SubstructureInChIKeys: VNWKTOKETHGBQD;XLYOFNOQVPJJNP;WSFSSNUMVMOOMR;IKHGUXGNUITLKF;ATUOYWHBWRKTHZ;JCXJVPUVTGWSNB;LCGLNKUTAGEVQW;IJDNQMDRQITEOD;JJWLVOIRVHMVIS;QTBSBXVTEAMEQO;TZIHFWKZFHZASV;BDERNNFJNOPAEC;XOBKSJJDNFUZPF;HZAXFHJVJLSVMW;KXKVLQRXCPHEJC;WBJINCZRORDGAQ;BEBCJVAWIBVWNZ;LRHPLDYGYMQRHN;VNKYTQGIUYNRMY;YPFDHNVEDLHUCE;UHOVQNZJYSORNB;XEKOWRVHYACXOJ;FVNIMHIOIXPIQT;JDFDHBSESGTDAL;PUPZLCDOIYMWBV;YXFVVABEGXRONW;YNQLUTRBYVCPMQ;WVDDGKGOMKODPV;ODLMAHJVESYWTB;BHHGXPLMPWCGHP
SubstructureOntologies: CHEMONTID:0002500;NonID:H2O;CHEMONTID:0001831;CHEMONTID:0002230;NonID:NO2;CHEMONTID:0001167;CHEMONTID:0000469;CHEMONTID:0001205;CHEMONTID:0001238;CHEMONTID:0000286;CHEMONTID:0001897;CHEMONTID:0003416;CHEMONTID:0002484;CHEMONTID:0002279;CHEMONTID:0001661;CHEMONTID:0001091;CHEMONTID:0000033;CHEMONTID:0002811;CHEMONTID:0000186
Ontology: Benzyloxycarbonyls
OntologyID: CHEMONTID:0001097
RETENTIONTIME: -1
RETENTIONINDEX: -1
TotalBondEnergy: 14782
TotalScore: 6.8662
TotalHrRulesScore: 1
TotalBondCleavageScore: 1
TotalMassAccuracyScore: 1
TotalFragmentLinkageScore: 1
TotalBondDissociationEnergyScore: 1
DatabaseScore: 0.5238
SubstructureAssignmentScore: 0
RtSimilarityScore: -1
RiSimilarityScore: 0
Num Fragment VS2 (M/Z Intensity MatchedExactMass SaturatedExactMass Formula RearrangedHydrogen PPM MassDiff_mDa IsEvenElectronRule IsHrRule IsSolventAdductFragment AssignedAdductMass AdductString BondDissociationEnergy TreeDepth SMILES TotalScore HrLikelihood BcLikelihood MaLikelihood FlLikelihood BeLikelihood): 1
282.097321	3962425.042089	282.097211757834	281.089935302734	C13H15NO6	1	0.39	0.11	True	True	False	0		0	0	O=C(OCC([N+](=O)[O-])C(OC(=O)C)C1=CC=CC=C1)C	4.99999761581421	1	1	0.999997615814209	1	1

NAME: Hexanoic acid, 2-(2-formyl-4-nitrophenoxy)-
ID: BQZBIATZHUXDFL
IsSpectrumSearch: False
INCHIKEY: BQZBIATZHUXDFL-UHFFFAOYNA-N
SMILES: O=CC1=CC(=CC=C1(OC(C(=O)O)CCCC))N(=O)=O
RESOURCES: STOFF=STOFF_1109
SubstructureInChIKeys: VNWKTOKETHGBQD;XLYOFNOQVPJJNP;WSFSSNUMVMOOMR;OTMSDBZUPAUEDD;IKHGUXGNUITLKF;ATUOYWHBWRKTHZ;BDAGIHXWWSANSR;LCGLNKUTAGEVQW;LFQSCWFLJHTTHZ;NBBJYMSMWIIQGU;IJDNQMDRQITEOD;QTBSBXVTEAMEQO;WGCNASOHLSPBMP;BDERNNFJNOPAEC;XOBKSJJDNFUZPF;LYCAIKOWRPUZTN;ZTQSAGDEMFDKMZ;OFBQJSOFQDEBGM;AKXKFZDCRYJKTF;XBDQKXXYIPTUBI;YSEFYOVWKJXNCH;LRHPLDYGYMQRHN;VNKYTQGIUYNRMY;AEMRFAOFKBGASW;XNWFRZJHXBZDAG;VIBDJEWPNNCFQO;UHOVQNZJYSORNB;HGBOYTHUEUWSSQ;VLKZOEOYAKHREP;FERIUCNNQQJTOY;PIAOXUVIBAKVSP;AMQJEAYHLZJPGS;FVNIMHIOIXPIQT;JYVLIDXNZAXMDK;ALRHLSYJTWAHJZ;JVTAAEKCZFNVCJ;BMRWNKZVCUKKSR;YTTFFPATQICAQN;YXFVVABEGXRONW;PAYRUJLWNCNPSJ;ISWSIDIOOBJBQZ;JARKCYVAAOWBJS;CNRGMQRNYAIBTN;ZSIAUFGUXNUGDI;AFENDNXGAFYKQO;SJZRECIVHVDYJC;WCVRQHFDJLLWFE;HUMNYLRZRPPJDN;RNVCVTLRINQCPJ;IWDCLRJOBJJRNH;RDOXTESZEPMUJZ;YRMUTQRWVGDUBW;PHOJOSOUIAQEDH;FXWFZIRWWNPPOV;SMQUZDBALVYZAC;CHLICZRVGGXEOD;DLRJIFUOBPOJNS;YDCRNMJQROAWFT;NOTCZLKDULMKBR
SubstructureOntologies: CHEMONTID:0002500;NonID:H2O;CHEMONTID:0001831;CHEMONTID:0002230;CHEMONTID:0001205;CHEMONTID:0001167;CHEMONTID:0000286;CHEMONTID:0002434;CHEMONTID:0002467;CHEMONTID:0001359;CHEMONTID:0002286;CHEMONTID:0002279;CHEMONTID:0000333;CHEMONTID:0001661;CHEMONTID:0001713;CHEMONTID:0001091;CHEMONTID:0000284;CHEMONTID:0004647;CHEMONTID:0002229;CHEMONTID:0001334;CHEMONTID:0000341;CHEMONTID:0000321;CHEMONTID:0003964;CHEMONTID:0001275;CHEMONTID:0000138;CHEMONTID:0003978;CHEMONTID:0002341;CHEMONTID:0003086;CHEMONTID:0000190
Ontology: Phenoxyacetic acid derivatives
OntologyID: CHEMONTID:0000417
RETENTIONTIME: -1
RETENTIONINDEX: -1
TotalBondEnergy: 15224
TotalScore: 6.8662
TotalHrRulesScore: 1
TotalBondCleavageScore: 1
TotalMassAccuracyScore: 1
TotalFragmentLinkageScore: 1
TotalBondDissociationEnergyScore: 1
DatabaseScore: 0.5238
SubstructureAssignmentScore: 0
RtSimilarityScore: -1
RiSimilarityScore: 0
Num Fragment VS2 (M/Z Intensity MatchedExactMass SaturatedExactMass Formula RearrangedHydrogen PPM MassDiff_mDa IsEvenElectronRule IsHrRule IsSolventAdductFragment AssignedAdductMass AdductString BondDissociationEnergy TreeDepth SMILES TotalScore HrLikelihood BcLikelihood MaLikelihood FlLikelihood BeLikelihood): 1
282.097321	3962425.042089	282.097211757834	281.089935302734	C13H15NO6	1	0.39	0.11	True	True	False	0		0	0	O=CC1=CC(=CC=C1(OC(C(=O)O)CCCC))N(=O)=O	4.99999761581421	1	1	0.999997615814209	1	1

NAME: UNPD183453
ID: LZLSTORCTUAAEH
IsSpectrumSearch: False
INCHIKEY: LZLSTORCTUAAEH-UTHHSLFPNA-N
SMILES: O=C(OCCC(N)C(=O)O)C=CC=1C=CC(O)=C(O)C=1
RESOURCES: UNPD=UNPD183453
SubstructureInChIKeys: QGZKDVFQNNGYKY;XLYOFNOQVPJJNP;VGGSQFUCUMXWEO;WSFSSNUMVMOOMR;OTMSDBZUPAUEDD;BAVYZALUXZFZLV;IKHGUXGNUITLKF;ATUOYWHBWRKTHZ;QUSNBJAOOMFDIB;BDAGIHXWWSANSR;LCGLNKUTAGEVQW;LFQSCWFLJHTTHZ;HGINCPLSRVDWNT;IAQRGUVFOMOMEM;NBBJYMSMWIIQGU;XXROGKLTLUQVRX;IJDNQMDRQITEOD;LYIIBVSRGJSHAV;JJWLVOIRVHMVIS;WGYKZJWCGVVSQN;QTBSBXVTEAMEQO;TZIHFWKZFHZASV;BDERNNFJNOPAEC;XOBKSJJDNFUZPF;HZAXFHJVJLSVMW;MLUCVPSAIODCQM;NIXOWILDQLNWCW;ZTQSAGDEMFDKMZ;QPMCUNAXNMSGTK;KXKVLQRXCPHEJC;WBJINCZRORDGAQ;XBDQKXXYIPTUBI;BEBCJVAWIBVWNZ;LRHPLDYGYMQRHN;VNKYTQGIUYNRMY;DHMQDGOQFOQNFH;WUGQZFFCHPXWKQ;UHOVQNZJYSORNB;BAPJBEWLBFYGME;FGEPRNXUNITOCW;FERIUCNNQQJTOY;XEKOWRVHYACXOJ;QNAYBMKLOCPYGJ;YXFVVABEGXRONW;ISWSIDIOOBJBQZ;QWCKQJZIFLGMSD;PPBRXRYQALVLMV;IWDCLRJOBJJRNH;GHMLBKRAJCXXBS;QROGIFZRVHSFLM;FUGYGGDSWSUORM;JESXATFQYMPTNL;OIPPWFOQEKKFEE;ZBCATMYQYDCTIZ;KJPRLNWUNMBNBZ;FBTSUTGMWBDAAC;CJXMVKYNVIGQBS;MDXYNRAMDATLBT;AXMVYSVVTMKQSL;NGSWKAQJJWESNS;QAIPRVGONGVQAS
SubstructureOntologies: NonID:NH2;NonID:H2O;CHEMONTID:0004476;CHEMONTID:0001831;CHEMONTID:0002500;CHEMONTID:0000469;CHEMONTID:0002230;CHEMONTID:0001205;CHEMONTID:0001167;CHEMONTID:0000286;CHEMONTID:0002436;CHEMONTID:0002434;CHEMONTID:0001238;CHEMONTID:0001897;CHEMONTID:0004451;CHEMONTID:0003416;CHEMONTID:0002484;CHEMONTID:0002404;CHEMONTID:0001852;CHEMONTID:0002279;CHEMONTID:0004452;CHEMONTID:0000333;CHEMONTID:0004314;CHEMONTID:0001091;CHEMONTID:0004647;CHEMONTID:0000037;CHEMONTID:0001275;CHEMONTID:0000137;CHEMONTID:0000135;CHEMONTID:0000029;CHEMONTID:0002503
Ontology: Coumaric acids and derivatives
OntologyID: CHEMONTID:0000059
RETENTIONTIME: -1
RETENTIONINDEX: -1
TotalBondEnergy: 15028
TotalScore: 6.1162
TotalHrRulesScore: 1
TotalBondCleavageScore: 1
TotalMassAccuracyScore: 1
TotalFragmentLinkageScore: 1
TotalBondDissociationEnergyScore: 1
DatabaseScore: 0.2238
SubstructureAssignmentScore: 0
RtSimilarityScore: -1
RiSimilarityScore: 0
Num Fragment VS2 (M/Z Intensity MatchedExactMass SaturatedExactMass Formula RearrangedHydrogen PPM MassDiff_mDa IsEvenElectronRule IsHrRule IsSolventAdductFragment AssignedAdductMass AdductString BondDissociationEnergy TreeDepth SMILES TotalScore HrLikelihood BcLikelihood MaLikelihood FlLikelihood BeLikelihood): 1
282.097321	3962425.042089	282.097211757834	281.089935302734	C13H15NO6	1	0.39	0.11	True	True	False	0		0	0	O=C(OCCC(N)C(=O)O)C=CC=1C=CC(O)=C(O)C=1	4.99999761581421	1	1	0.999997615814209	1	1

NAME: UNPD65330
ID: UJJUUOQJYAUBKD
IsSpectrumSearch: False
INCHIKEY: UJJUUOQJYAUBKD-IMWMWJONNA-N
SMILES: O=C(O)CCC1=CC(O)=C2N(C1(=O))C(C(=O)O)CCC2
RESOURCES: UNPD=UNPD65330
SubstructureInChIKeys: XLYOFNOQVPJJNP;WSFSSNUMVMOOMR;OTMSDBZUPAUEDD;IKHGUXGNUITLKF;ATUOYWHBWRKTHZ;BDAGIHXWWSANSR;LFQSCWFLJHTTHZ;NBBJYMSMWIIQGU;IJDNQMDRQITEOD;LYIIBVSRGJSHAV;JJWLVOIRVHMVIS;QTBSBXVTEAMEQO;BDERNNFJNOPAEC;HZAXFHJVJLSVMW;ZTQSAGDEMFDKMZ;OFBQJSOFQDEBGM;HQABUPZFAYXKJW;XBDQKXXYIPTUBI;BEBCJVAWIBVWNZ;LRHPLDYGYMQRHN;DHMQDGOQFOQNFH;JUJWROOIHBZHMG;NQRYJNQNLNOLGT;HGBOYTHUEUWSSQ;VLKZOEOYAKHREP;FGEPRNXUNITOCW;DPBLXKKOBLCELK;FERIUCNNQQJTOY;AMQJEAYHLZJPGS;QNAYBMKLOCPYGJ;ITQTTZVARXURQS;UBQKCCHYAOITMY;JARKCYVAAOWBJS;ZSIAUFGUXNUGDI;QWCKQJZIFLGMSD;AQSRRZGQRFFFGS;HRVXPXCISZSDCC;SNDPXSYFESPGGJ;MLAXEZHEGARMPE;CDEBRYPYJRWMDC;KDXKERNSBIXSRK;COPYQTHBVCHZHI
SubstructureOntologies: NonID:H2O;CHEMONTID:0001831;CHEMONTID:0002500;CHEMONTID:0002230;CHEMONTID:0001205;CHEMONTID:0000286;CHEMONTID:0002434;CHEMONTID:0000469;CHEMONTID:0001897;CHEMONTID:0002484;CHEMONTID:0002404;CHEMONTID:0000089;CHEMONTID:0000195;CHEMONTID:0000333;CHEMONTID:0004314;CHEMONTID:0004152;CHEMONTID:0001160;CHEMONTID:0002229;CHEMONTID:0001334;CHEMONTID:0000222
Ontology: Quinolizines
OntologyID: CHEMONTID:0000222
RETENTIONTIME: -1
RETENTIONINDEX: -1
TotalBondEnergy: 15209
TotalScore: 6.1162
TotalHrRulesScore: 1
TotalBondCleavageScore: 1
TotalMassAccuracyScore: 1
TotalFragmentLinkageScore: 1
TotalBondDissociationEnergyScore: 1
DatabaseScore: 0.2238
SubstructureAssignmentScore: 0
RtSimilarityScore: -1
RiSimilarityScore: 0
Num Fragment VS2 (M/Z Intensity MatchedExactMass SaturatedExactMass Formula RearrangedHydrogen PPM MassDiff_mDa IsEvenElectronRule IsHrRule IsSolventAdductFragment AssignedAdductMass AdductString BondDissociationEnergy TreeDepth SMILES TotalScore HrLikelihood BcLikelihood MaLikelihood FlLikelihood BeLikelihood): 1
282.097321	3962425.042089	282.097211757834	281.089935302734	C13H15NO6	1	0.39	0.11	True	True	False	0		0	0	O=C(O)CCC1=CC(O)=C2N(C1(=O))C(C(=O)O)CCC2	4.99999761581421	1	1	0.999997615814209	1	1

