NAME: 3-(4-methylphenyl)-6-phenyl-1,4-dihydro-1,3,5-triazine-2-thione
ID: AIMWEBWUEILSCH
IsSpectrumSearch: False
INCHIKEY: AIMWEBWUEILSCH-UHFFFAOYSA-N
SMILES: N2=C(NC(N(C1=CC=C(C=C1)C)C2)=S)C3=CC=CC=C3
RESOURCES: ChEBI=CHEBI:106019
SubstructureInChIKeys: VNWKTOKETHGBQD;WDWDWGRYHDPSDS;ROSDSFDQCJNGOL;GETQZCLCWQTVFV;LIWAQLJGPBVORC;XOTDURGROKNGTI;UHOVQNZJYSORNB;YXFVVABEGXRONW;PAYRUJLWNCNPSJ;AFBPFSWMIHJQDM;RNVCVTLRINQCPJ;RIWRFSMVIUAEBX
SubstructureOntologies: CHEMONTID:0002500;CHEMONTID:0000117;CHEMONTID:0002228;CHEMONTID:0002239;CHEMONTID:0000497;CHEMONTID:0002279;CHEMONTID:0001091;CHEMONTID:0000284;CHEMONTID:0003924;CHEMONTID:0003964;CHEMONTID:0000185
Ontology: N-phenylthioureas
OntologyID: CHEMONTID:0002980
RETENTIONTIME: -1
RETENTIONINDEX: -1
TotalBondEnergy: 15538
TotalScore: 6.183
TotalHrRulesScore: 1
TotalBondCleavageScore: 1
TotalMassAccuracyScore: 0.9853
TotalFragmentLinkageScore: 1
TotalBondDissociationEnergyScore: 1
DatabaseScore: 0.5238
SubstructureAssignmentScore: 0
RtSimilarityScore: -1
RiSimilarityScore: 0
Num Fragment VS2 (M/Z Intensity MatchedExactMass SaturatedExactMass Formula RearrangedHydrogen PPM MassDiff_mDa IsEvenElectronRule IsHrRule IsSolventAdductFragment AssignedAdductMass AdductString BondDissociationEnergy TreeDepth SMILES TotalScore HrLikelihood BcLikelihood MaLikelihood FlLikelihood BeLikelihood): 1
282.097321	3962425.042089	282.105939785178	281.098663330078	C16H15N3S	1	30.55	8.62	True	True	False	0		0	0	N2=C(NC(N(C1=CC=C(C=C1)C)C2)=S)C3=CC=CC=C3	4.98525309562683	1	1	0.985253095626831	1	1

NAME: 2-cyano-3-[1-methyl-5-(4-methylphenyl)-2-pyrrolyl]-2-propenethioamide
ID: IRQWOJMMSKLDJQ
IsSpectrumSearch: False
INCHIKEY: IRQWOJMMSKLDJQ-UHFFFAOYSA-N
SMILES: N#CC(=CC2=CC=C(C1=CC=C(C=C1)C)N2C)C(N)=S
RESOURCES: ChEBI=CHEBI:120487
SubstructureInChIKeys: VNWKTOKETHGBQD;QGZKDVFQNNGYKY;LELOWRISYMNNSU;VGGSQFUCUMXWEO;ATUOYWHBWRKTHZ;QUSNBJAOOMFDIB;IAQRGUVFOMOMEM;VQTUBCCKSQIDNK;WGYKZJWCGVVSQN;BKOOMYPCSUNDGP;UHOVQNZJYSORNB;YXFVVABEGXRONW
SubstructureOntologies: CHEMONTID:0002500;NonID:NH2;CHEMONTID:0000362;CHEMONTID:0004476;CHEMONTID:0000469;CHEMONTID:0004622;CHEMONTID:0002279;CHEMONTID:0001091
Ontology: Phenylpyrroles
OntologyID: CHEMONTID:0002334
RETENTIONTIME: -1
RETENTIONINDEX: -1
TotalBondEnergy: 15521
TotalScore: 6.183
TotalHrRulesScore: 1
TotalBondCleavageScore: 1
TotalMassAccuracyScore: 0.9853
TotalFragmentLinkageScore: 1
TotalBondDissociationEnergyScore: 1
DatabaseScore: 0.5238
SubstructureAssignmentScore: 0
RtSimilarityScore: -1
RiSimilarityScore: 0
Num Fragment VS2 (M/Z Intensity MatchedExactMass SaturatedExactMass Formula RearrangedHydrogen PPM MassDiff_mDa IsEvenElectronRule IsHrRule IsSolventAdductFragment AssignedAdductMass AdductString BondDissociationEnergy TreeDepth SMILES TotalScore HrLikelihood BcLikelihood MaLikelihood FlLikelihood BeLikelihood): 1
282.097321	3962425.042089	282.105939785178	281.098663330078	C16H15N3S	1	30.55	8.62	True	True	False	0		0	0	N#CC(=CC2=CC=C(C1=CC=C(C=C1)C)N2C)C(N)=S	4.98525309562683	1	1	0.985253095626831	1	1

NAME: 5-methyl-3-phenyl-7-(prop-2-enylthio)pyrazolo[1,5-a]pyrimidine
ID: YNVGNAPNOMDMII
IsSpectrumSearch: False
INCHIKEY: YNVGNAPNOMDMII-UHFFFAOYSA-N
SMILES: N1=C(C=C(N2N=CC(=C12)C3=CC=CC=C3)SCC=C)C
RESOURCES: ChEBI=CHEBI:105191
SubstructureInChIKeys: VNWKTOKETHGBQD;VGGSQFUCUMXWEO;DNJIEGIFACGWOD;QMMFVYPAHWMCMS;UHOVQNZJYSORNB;YXFVVABEGXRONW
SubstructureOntologies: CHEMONTID:0002500;CHEMONTID:0004476;CHEMONTID:0001212;CHEMONTID:0003862;CHEMONTID:0002279;CHEMONTID:0001091
Ontology: Phenylpyrazoles
OntologyID: CHEMONTID:0002019
RETENTIONTIME: -1
RETENTIONINDEX: -1
TotalBondEnergy: 15401
TotalScore: 6.183
TotalHrRulesScore: 1
TotalBondCleavageScore: 1
TotalMassAccuracyScore: 0.9853
TotalFragmentLinkageScore: 1
TotalBondDissociationEnergyScore: 1
DatabaseScore: 0.5238
SubstructureAssignmentScore: 0
RtSimilarityScore: -1
RiSimilarityScore: 0
Num Fragment VS2 (M/Z Intensity MatchedExactMass SaturatedExactMass Formula RearrangedHydrogen PPM MassDiff_mDa IsEvenElectronRule IsHrRule IsSolventAdductFragment AssignedAdductMass AdductString BondDissociationEnergy TreeDepth SMILES TotalScore HrLikelihood BcLikelihood MaLikelihood FlLikelihood BeLikelihood): 1
282.097321	3962425.042089	282.105939785178	281.098663330078	C16H15N3S	1	30.55	8.62	True	True	False	0		0	0	N1=C(C=C(N2N=CC(=C12)C3=CC=CC=C3)SCC=C)C	4.98525309562683	1	1	0.985253095626831	1	1

