NAME: Incarvine A
ID: SNACZJFGFSJVFX
IsSpectrumSearch: False
INCHIKEY: SNACZJFGFSJVFX-LMHZAMKUNA-N
SMILES: O=C(OC1CC2C(C)CN(C)CC2(C1(C)))C=C(C)CCC=C(C(=O)OC3CC4C(C)CN(C)CC4(C3(C)))C
RESOURCES: KNApSAcK=C00031882,UNPD=UNPD127262;UNPD82102
SubstructureInChIKeys: VNWKTOKETHGBQD;VGGSQFUCUMXWEO;WSFSSNUMVMOOMR;OTMSDBZUPAUEDD;QQONPFPTGQHPMA;IKHGUXGNUITLKF;ATUOYWHBWRKTHZ;ROSDSFDQCJNGOL;LCGLNKUTAGEVQW;HGINCPLSRVDWNT;IAQRGUVFOMOMEM;VQTUBCCKSQIDNK;VXNZUUAINFGPBY;NBBJYMSMWIIQGU;XXROGKLTLUQVRX;IJDNQMDRQITEOD;NNPPMTNAJDCUHE;GETQZCLCWQTVFV;LIWAQLJGPBVORC;QTBSBXVTEAMEQO;TZIHFWKZFHZASV;BDERNNFJNOPAEC;XOBKSJJDNFUZPF;MLUCVPSAIODCQM;BKOOMYPCSUNDGP;QMMOXUPEWRXHJS;RGSFGYAAUTVSQA;YWAKXRMUMFPDSH;NIXOWILDQLNWCW;OFBQJSOFQDEBGM;QWTDNUCVQCZILF;DAZXVJBJRMWXJP;GVWISOJSERXQBM;HPNMFZURTQLUMO;HQABUPZFAYXKJW;KDSNLYIMUZNERS;KXKVLQRXCPHEJC;WBJINCZRORDGAQ;XBDQKXXYIPTUBI;LRHPLDYGYMQRHN;VNKYTQGIUYNRMY;ZXEKIIBDNHEJCQ;BEQGRRJLJLVQAQ;GDOPTJXRTPNYNR;LIKMAJRDDDTEIG;RYPKRALMXUUNKS;NQRYJNQNLNOLGT;BAPJBEWLBFYGME;CERQOIWHTDAKMF;NEJDKFPXHQRVMV;AFABGHUZZDYHJO;PFEOZHBOMNWTJB;VLKZOEOYAKHREP;BMFVGAAISNGQNM;DPBLXKKOBLCELK;GNVRJGIVDSQCOP;QCOGKXLOEWLIDC;VJROPLWGFCORRM;ZUHZZVMEUAUWHY;XEKOWRVHYACXOJ;AMQJEAYHLZJPGS;AQIXEPGDORPWBJ;FVNIMHIOIXPIQT;JYVLIDXNZAXMDK;MXLMTQWGSQIYOW;PHTQWCKDNZKARW;PAMIQIKDUOTOBW;BVIJQMCYYASIFP;BZHMBWZPUJHVEE;IMNFDUFMRHMDMM;VLJXXKKOSFGPHI;DJEQZVQFEPKLOY;SMBYUOXUISCLCF;ZSIAUFGUXNUGDI;ONQLCPDIXPYJSS;SUPCQIBBMFXVTL;JVSWJIKNEAIKJW;TVMXDCGIABBOFY;CETWDUZRCINIHU;OVOVDHYEOQJKMD;FMETWOPSCIOJSL
SubstructureOntologies: CHEMONTID:0002500;CHEMONTID:0004476;CHEMONTID:0001831;CHEMONTID:0002230;CHEMONTID:0002228;CHEMONTID:0001167;CHEMONTID:0002436;CHEMONTID:0004622;CHEMONTID:0002434;CHEMONTID:0000286;CHEMONTID:0004620;CHEMONTID:0002239;CHEMONTID:0001205;CHEMONTID:0001238;CHEMONTID:0001016;CHEMONTID:0004451;CHEMONTID:0000469;CHEMONTID:0003416;CHEMONTID:0000195;CHEMONTID:0004452;CHEMONTID:0001661;CHEMONTID:0002938;CHEMONTID:0001334;CHEMONTID:0003626
Ontology: Monoterpenoids
OntologyID: CHEMONTID:0001549
RETENTIONTIME: -1
RETENTIONINDEX: -1
TotalBondEnergy: 36678
TotalScore: 6.2686
TotalHrRulesScore: 1
TotalBondCleavageScore: 1
TotalMassAccuracyScore: 0.9854
TotalFragmentLinkageScore: 1
TotalBondDissociationEnergyScore: 1
DatabaseScore: 0.5476
SubstructureAssignmentScore: 0
RtSimilarityScore: -1
RiSimilarityScore: 0
Num Fragment VS2 (M/Z Intensity MatchedExactMass SaturatedExactMass Formula RearrangedHydrogen PPM MassDiff_mDa IsEvenElectronRule IsHrRule IsSolventAdductFragment AssignedAdductMass AdductString BondDissociationEnergy TreeDepth SMILES TotalScore HrLikelihood BcLikelihood MaLikelihood FlLikelihood BeLikelihood): 1
529.391387	124966.875178	529.399976650412	528.392700195313	C32H52N2O4	1	16.23	8.59	True	True	False	0		0	0	O=C(OC1CC2C(C)CN(C)CC2(C1(C)))C=C(C)CCC=C(C(=O)OC3CC4C(C)CN(C)CC4(C3(C)))C	4.98535192012787	1	1	0.985351920127869	1	1

