NAME: UNPD135294
ID: INHLMBBFOCETFZ
IsSpectrumSearch: False
INCHIKEY: INHLMBBFOCETFZ-JGXFXYLHNA-N
SMILES: O=C(C=C(C)C)N(C)C4CCC3(C)(C(CCC1C3(CCC2(C)(C(CCC12(C))C(N(C)C)C)))C4)
RESOURCES: UNPD=UNPD135294
SubstructureInChIKeys: VNWKTOKETHGBQD;VGGSQFUCUMXWEO;WSFSSNUMVMOOMR;OTMSDBZUPAUEDD;QQONPFPTGQHPMA;IKHGUXGNUITLKF;ATUOYWHBWRKTHZ;ROSDSFDQCJNGOL;HGINCPLSRVDWNT;IAQRGUVFOMOMEM;VQTUBCCKSQIDNK;IJDNQMDRQITEOD;NNPPMTNAJDCUHE;ATHHXGZTWNVVOU;GETQZCLCWQTVFV;JJWLVOIRVHMVIS;LIWAQLJGPBVORC;MLUCVPSAIODCQM;BKOOMYPCSUNDGP;RGSFGYAAUTVSQA;OFBQJSOFQDEBGM;QWTDNUCVQCZILF;DAZXVJBJRMWXJP;GVWISOJSERXQBM;HPNMFZURTQLUMO;HQABUPZFAYXKJW;KDSNLYIMUZNERS;XHFGWHUWQXTGAT;GDOPTJXRTPNYNR;XDTMQSROBMDMFD;AFABGHUZZDYHJO;HNRMPXKDFBEGFZ;PFEOZHBOMNWTJB;VLKZOEOYAKHREP;SUUDTPGCUKBECW;BMFVGAAISNGQNM;DPBLXKKOBLCELK;GNVRJGIVDSQCOP;QCOGKXLOEWLIDC;VJROPLWGFCORRM;ZUHZZVMEUAUWHY;QWHNJUXXYKPLQM;UAEPNZWRGJTJPN;BZHMBWZPUJHVEE;IMNFDUFMRHMDMM;VLJXXKKOSFGPHI;DJEQZVQFEPKLOY;SMBYUOXUISCLCF;KVZJLSYJROEPSQ;LETYIFNDQBJGPJ;QEGNUYASOUJEHD;SGVUHPSBDNVHKL;JVSWJIKNEAIKJW;TVMXDCGIABBOFY;PYOLJOJPIPCRDP;XARGIVYWQPXRTC;GGWBGCSGJCRVIQ;BUOAKQCLRBVIOX;HIVFIUIKABOGIO;YLZKVXHQMPWDBJ;KGBMCONWCCBLAE;VTXRDCQMLXABHJ;IRXJZDLOCNJAHE;XBENKLBOLWZLNQ;OTBOAOSTJYUVHP
SubstructureOntologies: CHEMONTID:0002500;CHEMONTID:0004476;CHEMONTID:0001831;CHEMONTID:0002230;CHEMONTID:0002228;CHEMONTID:0002436;CHEMONTID:0004622;CHEMONTID:0004620;CHEMONTID:0002484;CHEMONTID:0002239;CHEMONTID:0000469;CHEMONTID:0001016;CHEMONTID:0001663;CHEMONTID:0004149;CHEMONTID:0001401
Ontology: Azasteroids and derivatives
OntologyID: CHEMONTID:0002340
RETENTIONTIME: -1
RETENTIONINDEX: -1
TotalBondEnergy: 34241
TotalScore: 6.714
TotalHrRulesScore: 1
TotalBondCleavageScore: 0.95
TotalMassAccuracyScore: 0.9931
TotalFragmentLinkageScore: 1
TotalBondDissociationEnergyScore: 0.9439
DatabaseScore: 0.2238
SubstructureAssignmentScore: 0.0625
RtSimilarityScore: -1
RiSimilarityScore: 0
Num Fragment VS2 (M/Z Intensity MatchedExactMass SaturatedExactMass Formula RearrangedHydrogen PPM MassDiff_mDa IsEvenElectronRule IsHrRule IsSolventAdductFragment AssignedAdductMass AdductString BondDissociationEnergy TreeDepth SMILES TotalScore HrLikelihood BcLikelihood MaLikelihood FlLikelihood BeLikelihood): 2
443.391785	477096.743577	443.399579921897	442.392303466797	C29H50N2O	1	17.58	7.8	True	True	False	0		305	1	O=C(C=C(C)C)NC4CCC3(C)(C(CCC1C3(CCC2(C)(C(CCC12(C))C(N(C)C)C)))C4)	4.77580726605593	1	0.899999976158142	0.987921357154846	1	0.887885932742942
457.412384	814324.837469	457.415235439475	456.407958984375	C30H52N2O	1	6.23	2.85	True	True	False	0		0	0	O=C(C=C(C)C)N(C)C4CCC3(C)(C(CCC1C3(CCC2(C)(C(CCC12(C))C(N(C)C)C)))C4)	4.99837517738342	1	1	0.998375177383423	1	1

NAME: UNPD117871
ID: GQPGTQPICSXROA
IsSpectrumSearch: False
INCHIKEY: GQPGTQPICSXROA-RALUJAFFNA-N
SMILES: O=C(C=C(C)C(C)C)NC4CCC2(C)(C(CCC1C3CCC(C(N(C)C)C)C3(C)(CCC12))C4)
RESOURCES: UNPD=UNPD117871
SubstructureInChIKeys: VNWKTOKETHGBQD;VGGSQFUCUMXWEO;WSFSSNUMVMOOMR;OTMSDBZUPAUEDD;QQONPFPTGQHPMA;IKHGUXGNUITLKF;ATUOYWHBWRKTHZ;ROSDSFDQCJNGOL;HGINCPLSRVDWNT;IAQRGUVFOMOMEM;VQTUBCCKSQIDNK;VXNZUUAINFGPBY;IJDNQMDRQITEOD;NNPPMTNAJDCUHE;ATHHXGZTWNVVOU;GETQZCLCWQTVFV;JJWLVOIRVHMVIS;LIWAQLJGPBVORC;MLUCVPSAIODCQM;BKOOMYPCSUNDGP;QMMOXUPEWRXHJS;RGSFGYAAUTVSQA;OFBQJSOFQDEBGM;QWTDNUCVQCZILF;DAZXVJBJRMWXJP;GVWISOJSERXQBM;HPNMFZURTQLUMO;HQABUPZFAYXKJW;KDSNLYIMUZNERS;XHFGWHUWQXTGAT;BEQGRRJLJLVQAQ;GDOPTJXRTPNYNR;XDTMQSROBMDMFD;AFABGHUZZDYHJO;HNRMPXKDFBEGFZ;PFEOZHBOMNWTJB;VLKZOEOYAKHREP;SUUDTPGCUKBECW;BMFVGAAISNGQNM;DPBLXKKOBLCELK;QCOGKXLOEWLIDC;VJROPLWGFCORRM;ZUHZZVMEUAUWHY;QWHNJUXXYKPLQM;UAEPNZWRGJTJPN;BZHMBWZPUJHVEE;IMNFDUFMRHMDMM;VLJXXKKOSFGPHI;DJEQZVQFEPKLOY;KVZJLSYJROEPSQ;LETYIFNDQBJGPJ;QEGNUYASOUJEHD;SGVUHPSBDNVHKL;JVSWJIKNEAIKJW;TVMXDCGIABBOFY;PYOLJOJPIPCRDP;XARGIVYWQPXRTC;GGWBGCSGJCRVIQ;HIVFIUIKABOGIO;YLZKVXHQMPWDBJ;KGBMCONWCCBLAE;IRXJZDLOCNJAHE;OTBOAOSTJYUVHP
SubstructureOntologies: CHEMONTID:0002500;CHEMONTID:0004476;CHEMONTID:0001831;CHEMONTID:0002230;CHEMONTID:0002228;CHEMONTID:0002436;CHEMONTID:0004622;CHEMONTID:0004620;CHEMONTID:0002484;CHEMONTID:0002239;CHEMONTID:0000469;CHEMONTID:0001016;CHEMONTID:0001663;CHEMONTID:0004149;CHEMONTID:0001401
Ontology: Azasteroids and derivatives
OntologyID: CHEMONTID:0002340
RETENTIONTIME: -1
RETENTIONINDEX: -1
TotalBondEnergy: 34257
TotalScore: 6.7089
TotalHrRulesScore: 1
TotalBondCleavageScore: 0.95
TotalMassAccuracyScore: 0.9931
TotalFragmentLinkageScore: 1
TotalBondDissociationEnergyScore: 0.9359
DatabaseScore: 0.2238
SubstructureAssignmentScore: 0.0625
RtSimilarityScore: -1
RiSimilarityScore: 0
Num Fragment VS2 (M/Z Intensity MatchedExactMass SaturatedExactMass Formula RearrangedHydrogen PPM MassDiff_mDa IsEvenElectronRule IsHrRule IsSolventAdductFragment AssignedAdductMass AdductString BondDissociationEnergy TreeDepth SMILES TotalScore HrLikelihood BcLikelihood MaLikelihood FlLikelihood BeLikelihood): 2
443.391785	477096.743577	443.399579921897	442.392303466797	C29H50N2O	1	17.58	7.8	True	True	False	0		346	1	O=C(C=C(C)C(C)C)NC4CCC2(C)(C(CCC1C3CCC(CN(C)C)C3(C)(CCC12))C4)	4.75963743732612	1	0.899999976158142	0.987921357154846	1	0.871716104013133
457.412384	814324.837469	457.415235439475	456.407958984375	C30H52N2O	1	6.23	2.85	True	True	False	0		0	0	O=C(C=C(C)C(C)C)NC4CCC2(C)(C(CCC1C3CCC(C(N(C)C)C)C3(C)(CCC12))C4)	4.99837517738342	1	1	0.998375177383423	1	1

