NAME: Holantosine B
ID: WBFUKUDNJLPCFA
IsSpectrumSearch: False
INCHIKEY: WBFUKUDNJLPCFA-IQLJYWBMNA-N
SMILES: O(C)C7CC(OC6CCC5(C)(C(CCC3C5(CCC24(COC1(OC34(CCC12))(C))))C6))OC(C)C7(N)
RESOURCES: KNApSAcK=C00025501;C00025503;C00025505,UNPD=UNPD75953;UNPD86731
SubstructureInChIKeys: VNWKTOKETHGBQD;QGZKDVFQNNGYKY;OTMSDBZUPAUEDD;BAVYZALUXZFZLV;ATUOYWHBWRKTHZ;QUSNBJAOOMFDIB;LCGLNKUTAGEVQW;CKFGINPQOCXMAZ;IJDNQMDRQITEOD;NNPPMTNAJDCUHE;JJWLVOIRVHMVIS;WGYKZJWCGVVSQN;BDERNNFJNOPAEC;XOBKSJJDNFUZPF;HZAXFHJVJLSVMW;RGSFGYAAUTVSQA;OFBQJSOFQDEBGM;QWTDNUCVQCZILF;HQABUPZFAYXKJW;BEBCJVAWIBVWNZ;LRHPLDYGYMQRHN;VNKYTQGIUYNRMY;ZXEKIIBDNHEJCQ;RRLWYLINGKISHN;YPFDHNVEDLHUCE;XDTMQSROBMDMFD;JWUJQDFVADABEY;AFABGHUZZDYHJO;HNRMPXKDFBEGFZ;PFEOZHBOMNWTJB;VLKZOEOYAKHREP;AMQJEAYHLZJPGS;AQIXEPGDORPWBJ;FVNIMHIOIXPIQT;JYVLIDXNZAXMDK;MXLMTQWGSQIYOW;PHTQWCKDNZKARW;CHCLGECDSSWNCP;JDFDHBSESGTDAL;PUPZLCDOIYMWBV;QWGRWMMWNDWRQN;UAEPNZWRGJTJPN;HPXRVTGHNJAIIH;BZHMBWZPUJHVEE;IMNFDUFMRHMDMM;VLJXXKKOSFGPHI;ZSIAUFGUXNUGDI;KLKFAASOGCDTDT;QONBKISCDWCHKF;SLCVBVWXLSEKPL;KVZJLSYJROEPSQ;QEGNUYASOUJEHD;SGVUHPSBDNVHKL;MQWCXKGKQLNYQG;JVSWJIKNEAIKJW;TVMXDCGIABBOFY;CETWDUZRCINIHU;OVOVDHYEOQJKMD;MMQYUDBFDDEJBP;PYOLJOJPIPCRDP;XARGIVYWQPXRTC;ZBAXJUPCYVIBSP;UXUFMKFUJJLWKM;GGWBGCSGJCRVIQ;BUOAKQCLRBVIOX;HIVFIUIKABOGIO;YLZKVXHQMPWDBJ;SOUITUXPBGREAE;KGBMCONWCCBLAE;VTXRDCQMLXABHJ;IRXJZDLOCNJAHE;XBENKLBOLWZLNQ;OTBOAOSTJYUVHP;HZNDJPAXRXLIOU
SubstructureOntologies: CHEMONTID:0002500;NonID:NH2;CHEMONTID:0000469;CHEMONTID:0001167;CHEMONTID:0001605;CHEMONTID:0004620;CHEMONTID:0000286;CHEMONTID:0001897;CHEMONTID:0001016;CHEMONTID:0002484;CHEMONTID:0001092;CHEMONTID:0002648;CHEMONTID:0001661;CHEMONTID:0001656;CHEMONTID:0002647;CHEMONTID:0001334;CHEMONTID:0002012;CHEMONTID:0004149;CHEMONTID:0001401
Ontology: Aminoglycosides
OntologyID: CHEMONTID:0000282
RETENTIONTIME: -1
RETENTIONINDEX: -1
TotalBondEnergy: 32364
TotalScore: 7.4498
TotalHrRulesScore: 1
TotalBondCleavageScore: 0.828
TotalMassAccuracyScore: 0.9894
TotalFragmentLinkageScore: 1
TotalBondDissociationEnergyScore: 0.7254
DatabaseScore: 0.5476
SubstructureAssignmentScore: 0
RtSimilarityScore: -1
RiSimilarityScore: 0
Num Fragment VS2 (M/Z Intensity MatchedExactMass SaturatedExactMass Formula RearrangedHydrogen PPM MassDiff_mDa IsEvenElectronRule IsHrRule IsSolventAdductFragment AssignedAdductMass AdductString BondDissociationEnergy TreeDepth SMILES TotalScore HrLikelihood BcLikelihood MaLikelihood FlLikelihood BeLikelihood): 2
393.291238	72289.204606	393.299940029319	392.292663574219	C24H40O4	1	22.13	8.7	True	True	False	0		1384	2	O(CC)C(OCCC5CCC3C(CCC24(COC1(OC34(CCC12))(C)))C5(C)(C))C	4.09187260589614	1	0.656099915504456	0.984969019889832	1	0.450803670501848
476.342651	335461.26131	476.337049404319	475.329772949219	C28H45NO5	1	11.76	5.6	True	True	False	0		0	0	O(C)C7CC(OC6CCC5(C)(C(CCC3C5(CCC24(COC1(OC34(CCC12))(C))))C6))OC(C)C7(N)	4.99374407529831	1	1	0.993744075298309	1	1

