NAME: UNPD142766
ID: KGIBGHABTNQVJX
IsSpectrumSearch: False
INCHIKEY: KGIBGHABTNQVJX-UHFFFAOYSA-M
SMILES: O=S(=O)(O)OCCCCCCCCCCCCCCCCC
RESOURCES: UNPD=UNPD142766
SubstructureInChIKeys: VNWKTOKETHGBQD;XLYOFNOQVPJJNP;OTMSDBZUPAUEDD;ATUOYWHBWRKTHZ;IJDNQMDRQITEOD;BDERNNFJNOPAEC;RAHZWNYVWXNFOC;OFBQJSOFQDEBGM;LRHPLDYGYMQRHN;BDHFUVZGWQCTTF;VLKZOEOYAKHREP;AMQJEAYHLZJPGS;QAOWNCQODCNURD;IMNFDUFMRHMDMM;ZSIAUFGUXNUGDI;TVMXDCGIABBOFY
SubstructureOntologies: CHEMONTID:0002500;NonID:H2O;CHEMONTID:0000286;NonID:SO2;NonID:SO3;NonID:SO4;CHEMONTID:0001334
Ontology: Sulfuric acid monoesters
OntologyID: CHEMONTID:0001185
RETENTIONTIME: -1
RETENTIONINDEX: -1
TotalBondEnergy: 22494
TotalScore: 4.4027
TotalHrRulesScore: 0.5
TotalBondCleavageScore: 0.5
TotalMassAccuracyScore: 0.4997
TotalFragmentLinkageScore: 0.5
TotalBondDissociationEnergyScore: 0.5
DatabaseScore: 0.2238
SubstructureAssignmentScore: 0
RtSimilarityScore: -1
RiSimilarityScore: 0
Num Fragment VS2 (M/Z Intensity MatchedExactMass SaturatedExactMass Formula RearrangedHydrogen PPM MassDiff_mDa IsEvenElectronRule IsHrRule IsSolventAdductFragment AssignedAdductMass AdductString BondDissociationEnergy TreeDepth SMILES TotalScore HrLikelihood BcLikelihood MaLikelihood FlLikelihood BeLikelihood): 1
337.239009	43071.204473	337.240705410178	336.233428955078	C17H36O4S	1	5.03	1.7	True	True	False	0		0	0	O=S(=O)(O)OCCCCCCCCCCCCCCCCC	4.99942457675934	1	1	0.999424576759338	1	1

