NAME: ADP
ID: XTWYTFMLZFPYCI
IsSpectrumSearch: False
INCHIKEY: XTWYTFMLZFPYCI-KQYNXXCUSA-N
SMILES: O=P(O)(O)OP(=O)(O)OCC3OC(N2C=NC=1C(=NC=NC=12)N)C(O)C3(O)
RESOURCES: HMDB=HMDB0001341,KNApSAcK=C00019353,ChEBI=CHEBI:16761;CHEBI:87518;CHEBI:456216,SMPDB=PW_C001034,YMDB=YMDB00914,FooDB=FDB021817,BMDB=BMDB01341,Urine=HMDB0001341,Saliva=HMDB0001341,ECMDB=ECMDB01341,CSF=HMDB0001341,Serum=HMDB0001341,PubChem=7058055;6022,PlantCyc=ADP,UNPD=UNPD106879;UNPD181906
SubstructureInChIKeys: QGZKDVFQNNGYKY;XLYOFNOQVPJJNP;OKKJLVBELUTLKV;ATUOYWHBWRKTHZ;LCGLNKUTAGEVQW;LFQSCWFLJHTTHZ;IJDNQMDRQITEOD;BDERNNFJNOPAEC;KFZMGEQAYNKOFK;XOBKSJJDNFUZPF;HZAXFHJVJLSVMW;LYCAIKOWRPUZTN;RAXXELZNTBOGNW;OFBQJSOFQDEBGM;HQABUPZFAYXKJW;BEBCJVAWIBVWNZ;BTANRVKWQNVYAZ;LRHPLDYGYMQRHN;VNKYTQGIUYNRMY;HXKKHQJGJAFBHI;WUGQZFFCHPXWKQ;DNIAPMSPPWPWGF;XNWFRZJHXBZDAG;YPFDHNVEDLHUCE;VIBDJEWPNNCFQO;ABLZXFCXXLZCGV;JWUJQDFVADABEY;DPBLXKKOBLCELK;AMQJEAYHLZJPGS;AQIXEPGDORPWBJ;FVNIMHIOIXPIQT;JYVLIDXNZAXMDK;BMRWNKZVCUKKSR;JDFDHBSESGTDAL;PUPZLCDOIYMWBV;YTTFFPATQICAQN;ZNQVEEAIQZEUHB;PEDCQBHIVMGVHV;HQNBJNDMPLEUDS;NBIIXXVUZAFLBC;KSTOUTVBGBEWOS;WCVRQHFDJLLWFE;XLMFDCKSFJWJTP;ARXKVVRQIIOZGF;MTHSVFCYNBDYFN;RKOGJKGQMPZCGG;YAXKTBLXMTYWDQ;MQVRLONNONYDJP;MISVBCMQSJUHMH;NSMOSDAEGJTOIQ;VVDIZWFSGJERMA;XIRBXKMCQNAYAT;KDCGOANMDULRCW;AALKGALVYCZETF;GZXFYIDYTCWDDN;LOSWWGJGSSQDKH;UNXHWFMMPAWVPI;ACXJKDUFAXMPOM;KZVAAIRBJJYZOW;GFFGJBXGBJISGV;FJGNTEKSQVNVTJ;ZDAWZDFBPUUDAY;JJMZVBNCCUWEDF;PCIBVZXUNDZWRL;HEBKCHPVOIAQTA;HYCSHFLKPSMPGO;VSFDKTSQZYFUOP;PAXPHUUREDAUGV;XPPKVPWEQAFLFU;IZKQBJLVIODBSO;BVOBPNSQIRMLCA;QRDCEYBRRFPBMZ;CYZZKTRFOOKUMT;FFHPXOJTVQDVMO;OFEZSBMBBKLLBJ;XGYIMTFOTBMPFP;OIRDTQYFTABQOQ;CVOOKAVYLTYIQE;JOAKUIIGLMLEGB;HNPYBPXXPMVWIY;PLLPSKJIVDRMFI;UDMBCSSLTHHNCD
SubstructureOntologies: NonID:NH2;NonID:H2O;CHEMONTID:0000286;CHEMONTID:0002500;CHEMONTID:0001167;CHEMONTID:0001661;CHEMONTID:0001897;CHEMONTID:0002467;CHEMONTID:0000078;CHEMONTID:0000469;CHEMONTID:0002484;CHEMONTID:0001852;CHEMONTID:0002286;NonID:PO3;CHEMONTID:0002648;CHEMONTID:0002210;CHEMONTID:0002311;NonID:PO4;CHEMONTID:0002391;CHEMONTID:0001262;CHEMONTID:0001967;CHEMONTID:0001497;CHEMONTID:0000245;CHEMONTID:0003263;CHEMONTID:0002987;CHEMONTID:0003458;NonID:Diphosphate;CHEMONTID:0002259;CHEMONTID:0004799;CHEMONTID:0002178;CHEMONTID:0004502;CHEMONTID:0000479;CHEMONTID:0001804;CHEMONTID:0001617
Ontology: Purine ribonucleoside diphosphates
OntologyID: CHEMONTID:0001618
RETENTIONTIME: -1
RETENTIONINDEX: -1
TotalBondEnergy: 17555
TotalScore: 7.7693
TotalHrRulesScore: 1
TotalBondCleavageScore: 0.905
TotalMassAccuracyScore: 0.9937
TotalFragmentLinkageScore: 1
TotalBondDissociationEnergyScore: 0.9315
DatabaseScore: 0.8571
SubstructureAssignmentScore: 0
RtSimilarityScore: -1
RiSimilarityScore: 0
Num Fragment VS2 (M/Z Intensity MatchedExactMass SaturatedExactMass Formula RearrangedHydrogen PPM MassDiff_mDa IsEvenElectronRule IsHrRule IsSolventAdductFragment AssignedAdductMass AdductString BondDissociationEnergy TreeDepth SMILES TotalScore HrLikelihood BcLikelihood MaLikelihood FlLikelihood BeLikelihood): 2
213.009064	29604.90306	213.01587260092	214.02424621582	C5H11O7P	-1	31.96	6.81	True	True	False	0		640	2	O=P(O)(O)OCC1OCC(O)C1(O)	4.66379892582696	1	0.809999942779541	0.990771412849426	1	0.863027570197992
428.040765	40951.414636	428.036695400413	427.029418945313	C10H15N5O10P2	1	9.51	4.07	True	True	False	0		0	0	O=P(O)(O)OP(=O)(O)OCC3OC(N2C=NC=1C(=NC=NC=12)N)C(O)C3(O)	4.99669313430786	1	1	0.996693134307861	1	1

NAME: Adenosine 3',5'-diphosphate
ID: WHTCPDAXWFLDIH
IsSpectrumSearch: False
INCHIKEY: WHTCPDAXWFLDIH-YPLCUDRINA-N
SMILES: O=P(O)(O)OCC3OC(N2C=NC=1C(=NC=NC=12)N)C(O)C3(OP(=O)(O)O)
RESOURCES: HMDB=HMDB0000061,KNApSAcK=C00019352,ChEBI=CHEBI:17985;CHEBI:58343,DrugBank=DB01812,SMPDB=PW_C000043,YMDB=YMDB00349,FooDB=FDB021887;FDB030650,BMDB=BMDB00061,ECMDB=ECMDB00061;ECMDB04006,PubChem=23615194;159296,PlantCyc=3-5-ADP,UNPD=UNPD109426;UNPD67306
SubstructureInChIKeys: QGZKDVFQNNGYKY;XLYOFNOQVPJJNP;OKKJLVBELUTLKV;ATUOYWHBWRKTHZ;LCGLNKUTAGEVQW;LFQSCWFLJHTTHZ;IJDNQMDRQITEOD;BDERNNFJNOPAEC;KFZMGEQAYNKOFK;XOBKSJJDNFUZPF;HZAXFHJVJLSVMW;LYCAIKOWRPUZTN;RAXXELZNTBOGNW;OFBQJSOFQDEBGM;HQABUPZFAYXKJW;BEBCJVAWIBVWNZ;BTANRVKWQNVYAZ;LRHPLDYGYMQRHN;VNKYTQGIUYNRMY;HXKKHQJGJAFBHI;WUGQZFFCHPXWKQ;DNIAPMSPPWPWGF;XNWFRZJHXBZDAG;YPFDHNVEDLHUCE;VIBDJEWPNNCFQO;ABLZXFCXXLZCGV;JWUJQDFVADABEY;DPBLXKKOBLCELK;AMQJEAYHLZJPGS;AQIXEPGDORPWBJ;FVNIMHIOIXPIQT;JYVLIDXNZAXMDK;BMRWNKZVCUKKSR;JDFDHBSESGTDAL;PUPZLCDOIYMWBV;YTTFFPATQICAQN;ZNQVEEAIQZEUHB;PEDCQBHIVMGVHV;HQNBJNDMPLEUDS;NBIIXXVUZAFLBC;KSTOUTVBGBEWOS;WCVRQHFDJLLWFE;XLMFDCKSFJWJTP;ARXKVVRQIIOZGF;MTHSVFCYNBDYFN;RKOGJKGQMPZCGG;YAXKTBLXMTYWDQ;MQVRLONNONYDJP;MISVBCMQSJUHMH;NSMOSDAEGJTOIQ;VVDIZWFSGJERMA;XIRBXKMCQNAYAT;KDCGOANMDULRCW;AALKGALVYCZETF;GZXFYIDYTCWDDN;LOSWWGJGSSQDKH;UNXHWFMMPAWVPI;ACXJKDUFAXMPOM;KZVAAIRBJJYZOW;GFFGJBXGBJISGV;FJGNTEKSQVNVTJ;ZDAWZDFBPUUDAY;JJMZVBNCCUWEDF;PCIBVZXUNDZWRL;HEBKCHPVOIAQTA;HYCSHFLKPSMPGO;VSFDKTSQZYFUOP;IZKQBJLVIODBSO;BVOBPNSQIRMLCA;QRDCEYBRRFPBMZ;CYZZKTRFOOKUMT;JPBCCNVSNVZSQL;FFHPXOJTVQDVMO;OFEZSBMBBKLLBJ;XGYIMTFOTBMPFP;OIRDTQYFTABQOQ;WMISJDZYUVCWEJ;PLLPSKJIVDRMFI;UDMBCSSLTHHNCD;XLIAWOGMZGYPCO
SubstructureOntologies: NonID:NH2;NonID:H2O;CHEMONTID:0000286;CHEMONTID:0002500;CHEMONTID:0001167;CHEMONTID:0001661;CHEMONTID:0001897;CHEMONTID:0002467;CHEMONTID:0000078;CHEMONTID:0000469;CHEMONTID:0002484;CHEMONTID:0001852;CHEMONTID:0002286;NonID:PO3;CHEMONTID:0002648;CHEMONTID:0002210;CHEMONTID:0002311;NonID:PO4;CHEMONTID:0002391;CHEMONTID:0001262;CHEMONTID:0001967;CHEMONTID:0001497;CHEMONTID:0000245;CHEMONTID:0003263;CHEMONTID:0002987;CHEMONTID:0003458;CHEMONTID:0002259;CHEMONTID:0004799;CHEMONTID:0002178;CHEMONTID:0004502;CHEMONTID:0000479;CHEMONTID:0001617;CHEMONTID:0004404
Ontology: Purine ribonucleoside 3',5'-bisphosphates
OntologyID: CHEMONTID:0002209
RETENTIONTIME: -1
RETENTIONINDEX: -1
TotalBondEnergy: 17555
TotalScore: 7.5907
TotalHrRulesScore: 1
TotalBondCleavageScore: 0.905
TotalMassAccuracyScore: 0.9937
TotalFragmentLinkageScore: 1
TotalBondDissociationEnergyScore: 0.9315
DatabaseScore: 0.7857
SubstructureAssignmentScore: 0
RtSimilarityScore: -1
RiSimilarityScore: 0
Num Fragment VS2 (M/Z Intensity MatchedExactMass SaturatedExactMass Formula RearrangedHydrogen PPM MassDiff_mDa IsEvenElectronRule IsHrRule IsSolventAdductFragment AssignedAdductMass AdductString BondDissociationEnergy TreeDepth SMILES TotalScore HrLikelihood BcLikelihood MaLikelihood FlLikelihood BeLikelihood): 2
213.009064	29604.90306	213.01587260092	214.02424621582	C5H11O7P	-1	31.96	6.81	True	True	False	0		640	2	O=P(O)(O)OC1C(O)COC1(CO)	4.66379892582696	1	0.809999942779541	0.990771412849426	1	0.863027570197992
428.040765	40951.414636	428.036695400413	427.029418945313	C10H15N5O10P2	1	9.51	4.07	True	True	False	0		0	0	O=P(O)(O)OCC3OC(N2C=NC=1C(=NC=NC=12)N)C(O)C3(OP(=O)(O)O)	4.99669313430786	1	1	0.996693134307861	1	1

NAME: dGDP
ID: CIKGWCTVFSRMJU
IsSpectrumSearch: False
INCHIKEY: CIKGWCTVFSRMJU-KVQBGUIXSA-N
SMILES: O=C3NC(=NC1=C3(N=CN1C2OC(COP(=O)(O)OP(=O)(O)O)C(O)C2))N
RESOURCES: HMDB=HMDB0000960,KNApSAcK=C00019355,ChEBI=CHEBI:28862;CHEBI:58595,DrugBank=DB03491,SMPDB=PW_C000767,YMDB=YMDB00898,FooDB=FDB022338,BMDB=BMDB00960,ECMDB=ECMDB00960,PubChem=25245673;439220,PlantCyc=DGDP
SubstructureInChIKeys: QGZKDVFQNNGYKY;XLYOFNOQVPJJNP;WSFSSNUMVMOOMR;OKKJLVBELUTLKV;ATUOYWHBWRKTHZ;LCGLNKUTAGEVQW;LFQSCWFLJHTTHZ;IJDNQMDRQITEOD;BDERNNFJNOPAEC;KFZMGEQAYNKOFK;XOBKSJJDNFUZPF;LYCAIKOWRPUZTN;RAXXELZNTBOGNW;OFBQJSOFQDEBGM;HQABUPZFAYXKJW;BTANRVKWQNVYAZ;LRHPLDYGYMQRHN;VNKYTQGIUYNRMY;WUGQZFFCHPXWKQ;DNIAPMSPPWPWGF;XNWFRZJHXBZDAG;YPFDHNVEDLHUCE;VIBDJEWPNNCFQO;ABLZXFCXXLZCGV;JWUJQDFVADABEY;DPBLXKKOBLCELK;AMQJEAYHLZJPGS;AQIXEPGDORPWBJ;FVNIMHIOIXPIQT;JYVLIDXNZAXMDK;BMRWNKZVCUKKSR;JDFDHBSESGTDAL;PUPZLCDOIYMWBV;YTTFFPATQICAQN;ZNQVEEAIQZEUHB;PEDCQBHIVMGVHV;HQNBJNDMPLEUDS;NBIIXXVUZAFLBC;KSTOUTVBGBEWOS;WCVRQHFDJLLWFE;XLMFDCKSFJWJTP;RKOGJKGQMPZCGG;YAXKTBLXMTYWDQ;MQVRLONNONYDJP;MISVBCMQSJUHMH;NSMOSDAEGJTOIQ;KDCGOANMDULRCW;AALKGALVYCZETF;ACXJKDUFAXMPOM;GFFGJBXGBJISGV;FDGQSTZJBFJUBT;ZDAWZDFBPUUDAY;PCIBVZXUNDZWRL;HYCSHFLKPSMPGO;VSFDKTSQZYFUOP;PAXPHUUREDAUGV;XPPKVPWEQAFLFU;IZKQBJLVIODBSO;BVOBPNSQIRMLCA;FFHPXOJTVQDVMO;BGYISLAFYPDORJ;CPSONQHMTCQJJX;OFEZSBMBBKLLBJ;RWRBHYBHSXNVPD;YKBGVTZYEHREMT;JOAKUIIGLMLEGB
SubstructureOntologies: NonID:NH2;NonID:H2O;CHEMONTID:0001831;CHEMONTID:0000286;CHEMONTID:0002500;CHEMONTID:0001167;CHEMONTID:0001661;CHEMONTID:0002467;CHEMONTID:0000078;CHEMONTID:0000469;CHEMONTID:0001852;CHEMONTID:0002286;NonID:PO3;CHEMONTID:0002648;CHEMONTID:0002210;CHEMONTID:0002311;NonID:PO4;CHEMONTID:0002391;CHEMONTID:0001262;CHEMONTID:0001967;CHEMONTID:0000245;CHEMONTID:0002987;CHEMONTID:0000246;CHEMONTID:0003458;NonID:Diphosphate;CHEMONTID:0004799;CHEMONTID:0002178;CHEMONTID:0002177;CHEMONTID:0001804
Ontology: Purine 2'-deoxyribonucleoside diphosphates
OntologyID: CHEMONTID:0002139
RETENTIONTIME: -1
RETENTIONINDEX: -1
TotalBondEnergy: 17563
TotalScore: 7.3898
TotalHrRulesScore: 1
TotalBondCleavageScore: 0.828
TotalMassAccuracyScore: 0.8739
TotalFragmentLinkageScore: 1
TotalBondDissociationEnergyScore: 0.8108
DatabaseScore: 0.7619
SubstructureAssignmentScore: 0
RtSimilarityScore: -1
RiSimilarityScore: 0
Num Fragment VS2 (M/Z Intensity MatchedExactMass SaturatedExactMass Formula RearrangedHydrogen PPM MassDiff_mDa IsEvenElectronRule IsHrRule IsSolventAdductFragment AssignedAdductMass AdductString BondDissociationEnergy TreeDepth SMILES TotalScore HrLikelihood BcLikelihood MaLikelihood FlLikelihood BeLikelihood): 2
213.009064	29604.90306	212.97123627928	218.01091003418	C4H12O6P2	-5	177.59	37.83	True	True	False	0		1374	3	O=P(O)OP(=O)OCCC(O)C	4.02877891825518	1	0.656099915504456	0.751121938228607	1	0.621557064522114
428.040765	40951.414636	428.036695400413	427.029418945313	C10H15N5O10P2	1	9.51	4.07	True	True	False	0		0	0	O=C3NC(=NC1=C3(N=CN1C2OC(COP(=O)(O)OP(=O)(O)O)C(O)C2))N	4.99669313430786	1	1	0.996693134307861	1	1

NAME: Adenosine-2'-5'-Diphosphate
ID: AEOBEOJCBAYXBA
IsSpectrumSearch: False
INCHIKEY: AEOBEOJCBAYXBA-FCIPNVEPSA-N
SMILES: O=P(O)(O)OCC3OC(N2C=NC=1C(=NC=NC=12)N)C(OP(=O)(O)O)C3(O)
RESOURCES: DrugBank=DB02098,UNPD=UNPD164549;UNPD61990
SubstructureInChIKeys: QGZKDVFQNNGYKY;XLYOFNOQVPJJNP;OKKJLVBELUTLKV;ATUOYWHBWRKTHZ;LCGLNKUTAGEVQW;LFQSCWFLJHTTHZ;IJDNQMDRQITEOD;BDERNNFJNOPAEC;KFZMGEQAYNKOFK;XOBKSJJDNFUZPF;HZAXFHJVJLSVMW;LYCAIKOWRPUZTN;RAXXELZNTBOGNW;OFBQJSOFQDEBGM;HQABUPZFAYXKJW;BEBCJVAWIBVWNZ;BTANRVKWQNVYAZ;LRHPLDYGYMQRHN;VNKYTQGIUYNRMY;WUGQZFFCHPXWKQ;DNIAPMSPPWPWGF;XNWFRZJHXBZDAG;YPFDHNVEDLHUCE;VIBDJEWPNNCFQO;ABLZXFCXXLZCGV;JWUJQDFVADABEY;DPBLXKKOBLCELK;AMQJEAYHLZJPGS;AQIXEPGDORPWBJ;FVNIMHIOIXPIQT;JYVLIDXNZAXMDK;BMRWNKZVCUKKSR;JDFDHBSESGTDAL;PUPZLCDOIYMWBV;YTTFFPATQICAQN;ZNQVEEAIQZEUHB;PEDCQBHIVMGVHV;HQNBJNDMPLEUDS;NBIIXXVUZAFLBC;KSTOUTVBGBEWOS;WCVRQHFDJLLWFE;XLMFDCKSFJWJTP;ARXKVVRQIIOZGF;MTHSVFCYNBDYFN;RKOGJKGQMPZCGG;YAXKTBLXMTYWDQ;MQVRLONNONYDJP;MISVBCMQSJUHMH;NSMOSDAEGJTOIQ;VVDIZWFSGJERMA;XIRBXKMCQNAYAT;KDCGOANMDULRCW;AALKGALVYCZETF;GZXFYIDYTCWDDN;LOSWWGJGSSQDKH;UNXHWFMMPAWVPI;ACXJKDUFAXMPOM;KZVAAIRBJJYZOW;GFFGJBXGBJISGV;FJGNTEKSQVNVTJ;ZDAWZDFBPUUDAY;JJMZVBNCCUWEDF;SUHOOTKUPISOBE;PCIBVZXUNDZWRL;HEBKCHPVOIAQTA;HYCSHFLKPSMPGO;VSFDKTSQZYFUOP;IZKQBJLVIODBSO;BVOBPNSQIRMLCA;QRDCEYBRRFPBMZ;CYZZKTRFOOKUMT;FFHPXOJTVQDVMO;OFEZSBMBBKLLBJ;XGYIMTFOTBMPFP;OIRDTQYFTABQOQ;PLLPSKJIVDRMFI;UDMBCSSLTHHNCD;XLIAWOGMZGYPCO
SubstructureOntologies: NonID:NH2;NonID:H2O;CHEMONTID:0000286;CHEMONTID:0002500;CHEMONTID:0001167;CHEMONTID:0001661;CHEMONTID:0001897;CHEMONTID:0002467;CHEMONTID:0000078;CHEMONTID:0000469;CHEMONTID:0002484;CHEMONTID:0001852;CHEMONTID:0002286;NonID:PO3;CHEMONTID:0002648;CHEMONTID:0002210;CHEMONTID:0002311;NonID:PO4;CHEMONTID:0002391;CHEMONTID:0001262;CHEMONTID:0001967;CHEMONTID:0001497;CHEMONTID:0000245;CHEMONTID:0003263;CHEMONTID:0002987;NonID:PE-lipid head;CHEMONTID:0003458;CHEMONTID:0002259;CHEMONTID:0004799;CHEMONTID:0002178;CHEMONTID:0004502;CHEMONTID:0000479;CHEMONTID:0001617;CHEMONTID:0004404
Ontology: Purine ribonucleoside 2',5'-bisphosphates
OntologyID: CHEMONTID:0002208
RETENTIONTIME: -1
RETENTIONINDEX: -1
TotalBondEnergy: 17555
TotalScore: 6.9955
TotalHrRulesScore: 1
TotalBondCleavageScore: 0.905
TotalMassAccuracyScore: 0.9937
TotalFragmentLinkageScore: 1
TotalBondDissociationEnergyScore: 0.9315
DatabaseScore: 0.5476
SubstructureAssignmentScore: 0
RtSimilarityScore: -1
RiSimilarityScore: 0
Num Fragment VS2 (M/Z Intensity MatchedExactMass SaturatedExactMass Formula RearrangedHydrogen PPM MassDiff_mDa IsEvenElectronRule IsHrRule IsSolventAdductFragment AssignedAdductMass AdductString BondDissociationEnergy TreeDepth SMILES TotalScore HrLikelihood BcLikelihood MaLikelihood FlLikelihood BeLikelihood): 2
213.009064	29604.90306	213.01587260092	214.02424621582	C5H11O7P	-1	31.96	6.81	True	True	False	0		640	2	O=P(O)(O)OC1COC(CO)C1(O)	4.66379892582696	1	0.809999942779541	0.990771412849426	1	0.863027570197992
428.040765	40951.414636	428.036695400413	427.029418945313	C10H15N5O10P2	1	9.51	4.07	True	True	False	0		0	0	O=P(O)(O)OCC3OC(N2C=NC=1C(=NC=NC=12)N)C(OP(=O)(O)O)C3(O)	4.99669313430786	1	1	0.996693134307861	1	1

NAME: 8-hydroxy-dADP
ID: FEPFWQCDWZFLGY
IsSpectrumSearch: False
INCHIKEY: FEPFWQCDWZFLGY-KVQBGUIXSA-N
SMILES: O=P(O)(O)OP(=O)(O)OCC3OC(N2C(O)=NC=1C(=NC=NC=12)N)CC3(O)
RESOURCES: ChEBI=CHEBI:70963;CHEBI:71362;CHEBI:71397,PubChem=49835951
SubstructureInChIKeys: QGZKDVFQNNGYKY;XLYOFNOQVPJJNP;OKKJLVBELUTLKV;ATUOYWHBWRKTHZ;LCGLNKUTAGEVQW;LFQSCWFLJHTTHZ;IJDNQMDRQITEOD;BDERNNFJNOPAEC;KFZMGEQAYNKOFK;XOBKSJJDNFUZPF;LYCAIKOWRPUZTN;RAXXELZNTBOGNW;OFBQJSOFQDEBGM;HQABUPZFAYXKJW;BTANRVKWQNVYAZ;LRHPLDYGYMQRHN;VNKYTQGIUYNRMY;WUGQZFFCHPXWKQ;DNIAPMSPPWPWGF;XNWFRZJHXBZDAG;YPFDHNVEDLHUCE;VIBDJEWPNNCFQO;ABLZXFCXXLZCGV;JWUJQDFVADABEY;DPBLXKKOBLCELK;AMQJEAYHLZJPGS;AQIXEPGDORPWBJ;FVNIMHIOIXPIQT;JYVLIDXNZAXMDK;BMRWNKZVCUKKSR;JDFDHBSESGTDAL;PUPZLCDOIYMWBV;YTTFFPATQICAQN;ZNQVEEAIQZEUHB;PEDCQBHIVMGVHV;HQNBJNDMPLEUDS;NBIIXXVUZAFLBC;KSTOUTVBGBEWOS;WCVRQHFDJLLWFE;XLMFDCKSFJWJTP;RKOGJKGQMPZCGG;YAXKTBLXMTYWDQ;MQVRLONNONYDJP;MISVBCMQSJUHMH;NSMOSDAEGJTOIQ;KDCGOANMDULRCW;AALKGALVYCZETF;ACXJKDUFAXMPOM;GFFGJBXGBJISGV;ZDAWZDFBPUUDAY;PCIBVZXUNDZWRL;HYCSHFLKPSMPGO;VSFDKTSQZYFUOP;PAXPHUUREDAUGV;XPPKVPWEQAFLFU;IZKQBJLVIODBSO;BVOBPNSQIRMLCA;FFHPXOJTVQDVMO;OFEZSBMBBKLLBJ;JOAKUIIGLMLEGB;XKFCKNDXVMFENB
SubstructureOntologies: NonID:NH2;NonID:H2O;CHEMONTID:0000286;CHEMONTID:0002500;CHEMONTID:0001167;CHEMONTID:0001661;CHEMONTID:0002467;CHEMONTID:0000078;CHEMONTID:0000469;CHEMONTID:0001852;CHEMONTID:0002286;NonID:PO3;CHEMONTID:0002648;CHEMONTID:0002210;CHEMONTID:0002311;NonID:PO4;CHEMONTID:0002391;CHEMONTID:0001262;CHEMONTID:0001967;CHEMONTID:0000245;CHEMONTID:0002987;CHEMONTID:0003458;NonID:Diphosphate;CHEMONTID:0004799;CHEMONTID:0002178;CHEMONTID:0001804;CHEMONTID:0002142
Ontology: Purine 2'-deoxyribonucleoside diphosphates
OntologyID: CHEMONTID:0002139
RETENTIONTIME: -1
RETENTIONINDEX: -1
TotalBondEnergy: 17555
TotalScore: 6.8182
TotalHrRulesScore: 1
TotalBondCleavageScore: 0.5185
TotalMassAccuracyScore: 0.9668
TotalFragmentLinkageScore: 1
TotalBondDissociationEnergyScore: 0.7947
DatabaseScore: 0.5476
SubstructureAssignmentScore: 0
RtSimilarityScore: -1
RiSimilarityScore: 0
Num Fragment VS2 (M/Z Intensity MatchedExactMass SaturatedExactMass Formula RearrangedHydrogen PPM MassDiff_mDa IsEvenElectronRule IsHrRule IsSolventAdductFragment AssignedAdductMass AdductString BondDissociationEnergy TreeDepth SMILES TotalScore HrLikelihood BcLikelihood MaLikelihood FlLikelihood BeLikelihood): 2
213.009064	29604.90306	213.02710306967	214.03547668457	C4H11N2O6P	-1	84.69	18.04	True	True	False	0		1637	3	O=P(O)(O)OCCOCNC(=N)O	3.56320863297237	1	0.0369056202471256	0.936990976333618	1	0.589312036391626
428.040765	40951.414636	428.036695400413	427.029418945313	C10H15N5O10P2	1	9.51	4.07	True	True	False	0		0	0	O=P(O)(O)OP(=O)(O)OCC3OC(N2C(O)=NC=1C(=NC=NC=12)N)CC3(O)	4.99669313430786	1	1	0.996693134307861	1	1

NAME: 3'-Azido-3'-Deoxythymidine-5'-Diphosphate
ID: QOYVAFWJURKBJG
IsSpectrumSearch: False
INCHIKEY: QOYVAFWJURKBJG-GJMOJQLCSA-N
SMILES: [N-]=[N+]=NC1CC(OC1(COP(=O)(O)OP(=O)(O)O))N2C=C(C(=O)NC2(=O))C
RESOURCES: DrugBank=DB04542
SubstructureInChIKeys: VNWKTOKETHGBQD;XLYOFNOQVPJJNP;WSFSSNUMVMOOMR;ATUOYWHBWRKTHZ;LCGLNKUTAGEVQW;IJDNQMDRQITEOD;JJWLVOIRVHMVIS;BDERNNFJNOPAEC;XOBKSJJDNFUZPF;HZAXFHJVJLSVMW;LYCAIKOWRPUZTN;OFBQJSOFQDEBGM;HQABUPZFAYXKJW;BEBCJVAWIBVWNZ;LRHPLDYGYMQRHN;VNKYTQGIUYNRMY;WUGQZFFCHPXWKQ;XNWFRZJHXBZDAG;VIBDJEWPNNCFQO;ABLZXFCXXLZCGV;JWUJQDFVADABEY;DPBLXKKOBLCELK;AMQJEAYHLZJPGS;FVNIMHIOIXPIQT;JYVLIDXNZAXMDK;BMRWNKZVCUKKSR;YTTFFPATQICAQN;ZNQVEEAIQZEUHB;NBIIXXVUZAFLBC;WCVRQHFDJLLWFE;ISAKRJDGNUQOIC;ACXJKDUFAXMPOM;RWQNBRDOKXIBIV;ZDAWZDFBPUUDAY;PCIBVZXUNDZWRL;PAXPHUUREDAUGV;XPPKVPWEQAFLFU
SubstructureOntologies: CHEMONTID:0002500;NonID:H2O;CHEMONTID:0001831;CHEMONTID:0001167;CHEMONTID:0000469;CHEMONTID:0000286;CHEMONTID:0001897;CHEMONTID:0002467;CHEMONTID:0002484;CHEMONTID:0001852;CHEMONTID:0002286;NonID:PO3;CHEMONTID:0002648;CHEMONTID:0001661;NonID:PO4;CHEMONTID:0000291;CHEMONTID:0004161;CHEMONTID:0003458;NonID:Diphosphate
Ontology: Organic pyrophosphates
OntologyID: CHEMONTID:0001804
RETENTIONTIME: -1
RETENTIONINDEX: -1
TotalBondEnergy: 17298
TotalScore: 6.7822
TotalHrRulesScore: 1
TotalBondCleavageScore: 0.828
TotalMassAccuracyScore: 0.8739
TotalFragmentLinkageScore: 1
TotalBondDissociationEnergyScore: 0.7909
DatabaseScore: 0.5238
SubstructureAssignmentScore: 0
RtSimilarityScore: -1
RiSimilarityScore: 0
Num Fragment VS2 (M/Z Intensity MatchedExactMass SaturatedExactMass Formula RearrangedHydrogen PPM MassDiff_mDa IsEvenElectronRule IsHrRule IsSolventAdductFragment AssignedAdductMass AdductString BondDissociationEnergy TreeDepth SMILES TotalScore HrLikelihood BcLikelihood MaLikelihood FlLikelihood BeLikelihood): 2
213.009064	29604.90306	212.97123627928	218.01091003418	C4H12O6P2	-5	177.59	37.83	True	True	False	0		1344	3	O=P(OCCCC)OP(=O)(O)O	3.9891004296966	1	0.656099915504456	0.751121938228607	1	0.581878575963538
428.040765	40951.414636	428.036695400413	427.029418945313	C10H15N5O10P2	1	9.51	4.07	True	True	False	0		0	0	[N-]=[N+]=NC1CC(OC1(COP(=O)(O)OP(=O)(O)O))N2C=C(C(=O)NC2(=O))C	4.99669313430786	1	1	0.996693134307861	1	1

NAME: 2-oxo-dADP(3-)
ID: JYHPIPMSJVTYAP
IsSpectrumSearch: False
INCHIKEY: JYHPIPMSJVTYAP-KVQBGUIXSA-K
SMILES: O=C1N=C(N)C=2N=CN(C=2(N1))C3OC(COP(=O)(O)OP(=O)(O)O)C(O)C3
RESOURCES: ChEBI=CHEBI:71363
SubstructureInChIKeys: QGZKDVFQNNGYKY;XLYOFNOQVPJJNP;WSFSSNUMVMOOMR;OKKJLVBELUTLKV;ATUOYWHBWRKTHZ;LCGLNKUTAGEVQW;LFQSCWFLJHTTHZ;IJDNQMDRQITEOD;BDERNNFJNOPAEC;KFZMGEQAYNKOFK;XOBKSJJDNFUZPF;LYCAIKOWRPUZTN;RAXXELZNTBOGNW;OFBQJSOFQDEBGM;HQABUPZFAYXKJW;BTANRVKWQNVYAZ;LRHPLDYGYMQRHN;VNKYTQGIUYNRMY;WUGQZFFCHPXWKQ;DNIAPMSPPWPWGF;XNWFRZJHXBZDAG;YPFDHNVEDLHUCE;VIBDJEWPNNCFQO;ABLZXFCXXLZCGV;JWUJQDFVADABEY;DPBLXKKOBLCELK;AMQJEAYHLZJPGS;AQIXEPGDORPWBJ;FVNIMHIOIXPIQT;JYVLIDXNZAXMDK;BMRWNKZVCUKKSR;JDFDHBSESGTDAL;PUPZLCDOIYMWBV;YTTFFPATQICAQN;ZNQVEEAIQZEUHB;PEDCQBHIVMGVHV;HQNBJNDMPLEUDS;NBIIXXVUZAFLBC;KSTOUTVBGBEWOS;WCVRQHFDJLLWFE;XLMFDCKSFJWJTP;RKOGJKGQMPZCGG;YAXKTBLXMTYWDQ;MQVRLONNONYDJP;MISVBCMQSJUHMH;OPTASPLRGRRNAP;NSMOSDAEGJTOIQ;KDCGOANMDULRCW;AALKGALVYCZETF;ACXJKDUFAXMPOM;GFFGJBXGBJISGV;FDGQSTZJBFJUBT;ZDAWZDFBPUUDAY;PCIBVZXUNDZWRL;HYCSHFLKPSMPGO;VSFDKTSQZYFUOP;PAXPHUUREDAUGV;XPPKVPWEQAFLFU;IZKQBJLVIODBSO;BVOBPNSQIRMLCA;FFHPXOJTVQDVMO;BGYISLAFYPDORJ;CPSONQHMTCQJJX;OFEZSBMBBKLLBJ;RWRBHYBHSXNVPD;YKBGVTZYEHREMT;JOAKUIIGLMLEGB
SubstructureOntologies: NonID:NH2;NonID:H2O;CHEMONTID:0001831;CHEMONTID:0000286;CHEMONTID:0002500;CHEMONTID:0001167;CHEMONTID:0001661;CHEMONTID:0002467;CHEMONTID:0000078;CHEMONTID:0000469;CHEMONTID:0001852;CHEMONTID:0002286;NonID:PO3;CHEMONTID:0002648;CHEMONTID:0002210;CHEMONTID:0002311;NonID:PO4;CHEMONTID:0002391;CHEMONTID:0001262;CHEMONTID:0000291;CHEMONTID:0001967;CHEMONTID:0000245;CHEMONTID:0002987;CHEMONTID:0000246;CHEMONTID:0003458;NonID:Diphosphate;CHEMONTID:0004799;CHEMONTID:0002178;CHEMONTID:0002177;CHEMONTID:0001804
Ontology: Purine 2'-deoxyribonucleoside diphosphates
OntologyID: CHEMONTID:0002139
RETENTIONTIME: -1
RETENTIONINDEX: -1
TotalBondEnergy: 17563
TotalScore: 6.7437
TotalHrRulesScore: 1
TotalBondCleavageScore: 0.5185
TotalMassAccuracyScore: 0.9974
TotalFragmentLinkageScore: 1
TotalBondDissociationEnergyScore: 0.7503
DatabaseScore: 0.5238
SubstructureAssignmentScore: 0
RtSimilarityScore: -1
RiSimilarityScore: 0
Num Fragment VS2 (M/Z Intensity MatchedExactMass SaturatedExactMass Formula RearrangedHydrogen PPM MassDiff_mDa IsEvenElectronRule IsHrRule IsSolventAdductFragment AssignedAdductMass AdductString BondDissociationEnergy TreeDepth SMILES TotalScore HrLikelihood BcLikelihood MaLikelihood FlLikelihood BeLikelihood): 2
213.009064	29604.90306	213.005970730764	220.061294555664	C7H13N2O4P	-7	14.52	3.09	True	True	False	0		1678	3	O=P(O)OCCOC(N1C=NC=C1)C	3.53555177488004	1	0.0369056202471256	0.998088181018829	1	0.500557973614084
428.040765	40951.414636	428.036695400413	427.029418945313	C10H15N5O10P2	1	9.51	4.07	True	True	False	0		0	0	O=C1N=C(N)C=2N=CN(C=2(N1))C3OC(COP(=O)(O)OP(=O)(O)O)C(O)C3	4.99669313430786	1	1	0.996693134307861	1	1

NAME: UNPD47246
ID: OPKRDZWOEPBNBL
IsSpectrumSearch: False
INCHIKEY: OPKRDZWOEPBNBL-YPLCUDRINA-N
SMILES: O=P(O)(O)OC1C(OC(CO)C1(OP(=O)(O)O))N3C=NC2=C(N=CN=C23)N
RESOURCES: UNPD=UNPD47246
SubstructureInChIKeys: QGZKDVFQNNGYKY;XLYOFNOQVPJJNP;OKKJLVBELUTLKV;ATUOYWHBWRKTHZ;LCGLNKUTAGEVQW;LFQSCWFLJHTTHZ;IJDNQMDRQITEOD;BDERNNFJNOPAEC;XOBKSJJDNFUZPF;HZAXFHJVJLSVMW;LYCAIKOWRPUZTN;RAXXELZNTBOGNW;OFBQJSOFQDEBGM;HQABUPZFAYXKJW;BEBCJVAWIBVWNZ;LRHPLDYGYMQRHN;VNKYTQGIUYNRMY;WUGQZFFCHPXWKQ;XNWFRZJHXBZDAG;YPFDHNVEDLHUCE;VIBDJEWPNNCFQO;ABLZXFCXXLZCGV;JWUJQDFVADABEY;DPBLXKKOBLCELK;AMQJEAYHLZJPGS;AQIXEPGDORPWBJ;FVNIMHIOIXPIQT;JYVLIDXNZAXMDK;BMRWNKZVCUKKSR;JDFDHBSESGTDAL;PUPZLCDOIYMWBV;YTTFFPATQICAQN;ZNQVEEAIQZEUHB;PEDCQBHIVMGVHV;NBIIXXVUZAFLBC;KSTOUTVBGBEWOS;WCVRQHFDJLLWFE;XLMFDCKSFJWJTP;ARXKVVRQIIOZGF;MTHSVFCYNBDYFN;RKOGJKGQMPZCGG;YAXKTBLXMTYWDQ;MQVRLONNONYDJP;MISVBCMQSJUHMH;NSMOSDAEGJTOIQ;VVDIZWFSGJERMA;XIRBXKMCQNAYAT;KDCGOANMDULRCW;AALKGALVYCZETF;GZXFYIDYTCWDDN;LOSWWGJGSSQDKH;UNXHWFMMPAWVPI;ACXJKDUFAXMPOM;KZVAAIRBJJYZOW;GFFGJBXGBJISGV;FJGNTEKSQVNVTJ;ZDAWZDFBPUUDAY;JJMZVBNCCUWEDF;SUHOOTKUPISOBE;PCIBVZXUNDZWRL;HEBKCHPVOIAQTA;HYCSHFLKPSMPGO;VSFDKTSQZYFUOP;IZKQBJLVIODBSO;BVOBPNSQIRMLCA;QRDCEYBRRFPBMZ;CYZZKTRFOOKUMT;JPBCCNVSNVZSQL;FFHPXOJTVQDVMO;OFEZSBMBBKLLBJ;XGYIMTFOTBMPFP;OIRDTQYFTABQOQ;PLLPSKJIVDRMFI;UDMBCSSLTHHNCD;XLIAWOGMZGYPCO
SubstructureOntologies: NonID:NH2;NonID:H2O;CHEMONTID:0000286;CHEMONTID:0002500;CHEMONTID:0001167;CHEMONTID:0001897;CHEMONTID:0002467;CHEMONTID:0000078;CHEMONTID:0000469;CHEMONTID:0002484;CHEMONTID:0001852;CHEMONTID:0002286;NonID:PO3;CHEMONTID:0002648;CHEMONTID:0001661;CHEMONTID:0002210;NonID:PO4;CHEMONTID:0002391;CHEMONTID:0001262;CHEMONTID:0001967;CHEMONTID:0001497;CHEMONTID:0000245;CHEMONTID:0003263;CHEMONTID:0002987;NonID:PE-lipid head;CHEMONTID:0003458;CHEMONTID:0002259;CHEMONTID:0004799;CHEMONTID:0002178;CHEMONTID:0004502;CHEMONTID:0000479;CHEMONTID:0001617;CHEMONTID:0004404
Ontology: Ribonucleoside 3'-phosphates
OntologyID: CHEMONTID:0004404
RETENTIONTIME: -1
RETENTIONINDEX: -1
TotalBondEnergy: 17555
TotalScore: 6.186
TotalHrRulesScore: 1
TotalBondCleavageScore: 0.905
TotalMassAccuracyScore: 0.9937
TotalFragmentLinkageScore: 1
TotalBondDissociationEnergyScore: 0.9315
DatabaseScore: 0.2238
SubstructureAssignmentScore: 0
RtSimilarityScore: -1
RiSimilarityScore: 0
Num Fragment VS2 (M/Z Intensity MatchedExactMass SaturatedExactMass Formula RearrangedHydrogen PPM MassDiff_mDa IsEvenElectronRule IsHrRule IsSolventAdductFragment AssignedAdductMass AdductString BondDissociationEnergy TreeDepth SMILES TotalScore HrLikelihood BcLikelihood MaLikelihood FlLikelihood BeLikelihood): 2
213.009064	29604.90306	213.01587260092	214.02424621582	C5H11O7P	-1	31.96	6.81	True	True	False	0		640	2	O=P(O)(O)OC1COC(CO)C1(O)	4.66379892582696	1	0.809999942779541	0.990771412849426	1	0.863027570197992
428.040765	40951.414636	428.036695400413	427.029418945313	C10H15N5O10P2	1	9.51	4.07	True	True	False	0		0	0	O=P(O)(O)OC1C(OC(CO)C1(OP(=O)(O)O))N3C=NC2=C(N=CN=C23)N	4.99669313430786	1	1	0.996693134307861	1	1

