NAME: UNPD226961
ID: VJLHELRUYJJGSU
IsSpectrumSearch: False
INCHIKEY: VJLHELRUYJJGSU-HYXLZFNJSA-N
SMILES: [O-][N+]23(CCCC1(O)(CCCCCCC4OC5C(O)(CCCCCCC(OC12)CC3)CCC[N+]5([O-])(CC4)))
RESOURCES: UNPD=UNPD226961
SubstructureInChIKeys: XLYOFNOQVPJJNP;OTMSDBZUPAUEDD;OKKJLVBELUTLKV;ATUOYWHBWRKTHZ;ROSDSFDQCJNGOL;LCGLNKUTAGEVQW;LFQSCWFLJHTTHZ;IJDNQMDRQITEOD;NNPPMTNAJDCUHE;INXJOSXEHHMQQF;GETQZCLCWQTVFV;LIWAQLJGPBVORC;BDERNNFJNOPAEC;KFZMGEQAYNKOFK;XOBKSJJDNFUZPF;HZAXFHJVJLSVMW;LYCAIKOWRPUZTN;OFBQJSOFQDEBGM;QWTDNUCVQCZILF;DAZXVJBJRMWXJP;GVWISOJSERXQBM;HPNMFZURTQLUMO;HQABUPZFAYXKJW;KDSNLYIMUZNERS;BEBCJVAWIBVWNZ;BTANRVKWQNVYAZ;LRHPLDYGYMQRHN;VNKYTQGIUYNRMY;ZXEKIIBDNHEJCQ;HXKKHQJGJAFBHI;WUGQZFFCHPXWKQ;DNIAPMSPPWPWGF;XNWFRZJHXBZDAG;VIBDJEWPNNCFQO;NQRYJNQNLNOLGT;AFABGHUZZDYHJO;PFEOZHBOMNWTJB;VLKZOEOYAKHREP;YNAVUWVOSKDBBP;DPBLXKKOBLCELK;GNVRJGIVDSQCOP;QCOGKXLOEWLIDC;VJROPLWGFCORRM;ZUHZZVMEUAUWHY;AMQJEAYHLZJPGS;AQIXEPGDORPWBJ;FVNIMHIOIXPIQT;JYVLIDXNZAXMDK;UEEJHVSXFDXPFK;BMRWNKZVCUKKSR;ZNQVEEAIQZEUHB;IMNFDUFMRHMDMM;VLJXXKKOSFGPHI;DJEQZVQFEPKLOY;SMBYUOXUISCLCF;ZMANZCXQSJIPKH;ZSIAUFGUXNUGDI;WCVRQHFDJLLWFE;JVSWJIKNEAIKJW;TVMXDCGIABBOFY;CETWDUZRCINIHU;BFSVOASYOCHEOV;LJPZHJUSICYOIX
SubstructureOntologies: NonID:H2O;CHEMONTID:0002500;CHEMONTID:0000286;CHEMONTID:0002228;CHEMONTID:0001167;CHEMONTID:0004620;CHEMONTID:0000278;CHEMONTID:0002239;CHEMONTID:0001661;CHEMONTID:0001897;CHEMONTID:0002467;CHEMONTID:0000469;CHEMONTID:0002484;CHEMONTID:0001852;CHEMONTID:0002286;CHEMONTID:0000195;CHEMONTID:0000392;CHEMONTID:0001334;CHEMONTID:0000222
Ontology: Piperidines
OntologyID: CHEMONTID:0000195
RETENTIONTIME: -1
RETENTIONINDEX: -1
TotalBondEnergy: 34022
TotalScore: 6.1298
TotalHrRulesScore: 0.5
TotalBondCleavageScore: 0.5
TotalMassAccuracyScore: 0.4999
TotalFragmentLinkageScore: 0.5
TotalBondDissociationEnergyScore: 0.5
DatabaseScore: 0.2238
SubstructureAssignmentScore: 0
RtSimilarityScore: -1
RiSimilarityScore: 0
Num Fragment VS2 (M/Z Intensity MatchedExactMass SaturatedExactMass Formula RearrangedHydrogen PPM MassDiff_mDa IsEvenElectronRule IsHrRule IsSolventAdductFragment AssignedAdductMass AdductString BondDissociationEnergy TreeDepth SMILES TotalScore HrLikelihood BcLikelihood MaLikelihood FlLikelihood BeLikelihood): 1
533.354601	3123337.930738	533.355554445319	510.366882324219	C28H50N2O6	0	1.79	0.95	True	True	True	22.989220701	+Na	0	0	[O-][N+]23(CCCC1(O)(CCCCCCC4OC5C(O)(CCCCCCC(OC12)CC3)CCC[N+]5([O-])(CC4)))	4.99981820583344	1	1	0.999818205833435	1	1

