NAME: gentamycin C1a
ID: VEGXETMJINRLTH
IsSpectrumSearch: False
INCHIKEY: VEGXETMJINRLTH-BOZYPMBZSA-N
SMILES: OC1C(OCC(O)(C)C1(NC))OC3C(O)C(OC2OC(CN)CCC2(N))C(N)CC3(N)
RESOURCES: ChEBI=CHEBI:27784;CHEBI:58530,DrugBank=DB04729,PubChem=25200338;72396
SubstructureInChIKeys: VNWKTOKETHGBQD;QGZKDVFQNNGYKY;XLYOFNOQVPJJNP;OTMSDBZUPAUEDD;BAVYZALUXZFZLV;OKKJLVBELUTLKV;ATUOYWHBWRKTHZ;QUSNBJAOOMFDIB;ROSDSFDQCJNGOL;LCGLNKUTAGEVQW;LFQSCWFLJHTTHZ;CKFGINPQOCXMAZ;IJDNQMDRQITEOD;NNPPMTNAJDCUHE;JJWLVOIRVHMVIS;LIWAQLJGPBVORC;WGYKZJWCGVVSQN;BDERNNFJNOPAEC;KFZMGEQAYNKOFK;XOBKSJJDNFUZPF;HZAXFHJVJLSVMW;LYCAIKOWRPUZTN;OFBQJSOFQDEBGM;QWTDNUCVQCZILF;GVWISOJSERXQBM;HQABUPZFAYXKJW;KDSNLYIMUZNERS;XHFGWHUWQXTGAT;BEBCJVAWIBVWNZ;BTANRVKWQNVYAZ;LRHPLDYGYMQRHN;VNKYTQGIUYNRMY;ZXEKIIBDNHEJCQ;HXKKHQJGJAFBHI;WUGQZFFCHPXWKQ;DNIAPMSPPWPWGF;RRLWYLINGKISHN;XNWFRZJHXBZDAG;YPFDHNVEDLHUCE;VIBDJEWPNNCFQO;XDTMQSROBMDMFD;AFABGHUZZDYHJO;VLKZOEOYAKHREP;DPBLXKKOBLCELK;AMQJEAYHLZJPGS;AQIXEPGDORPWBJ;FVNIMHIOIXPIQT;JYVLIDXNZAXMDK;PHTQWCKDNZKARW;BMRWNKZVCUKKSR;CHCLGECDSSWNCP;JDFDHBSESGTDAL;PUPZLCDOIYMWBV;YTTFFPATQICAQN;ZNQVEEAIQZEUHB;PEDCQBHIVMGVHV;HPXRVTGHNJAIIH;ZSIAUFGUXNUGDI;VHRGRCVQAFMJIZ;KLKFAASOGCDTDT;QONBKISCDWCHKF;WCVRQHFDJLLWFE;XLMFDCKSFJWJTP;ARXKVVRQIIOZGF;MTHSVFCYNBDYFN;YAXKTBLXMTYWDQ;MQVRLONNONYDJP;MMQYUDBFDDEJBP;AALKGALVYCZETF;BXXXHBWYZKLUGM;GZXFYIDYTCWDDN;LOSWWGJGSSQDKH;UXUFMKFUJJLWKM;QXAMTEJJAZOINB;ZDAWZDFBPUUDAY;BJBURJZEESAQPG;QVNPTEPOWBEITR;QNKOVWCOVLYPKR;TVTGZVYLUHVBAJ
SubstructureOntologies: CHEMONTID:0002500;NonID:NH2;NonID:H2O;CHEMONTID:0000469;CHEMONTID:0000286;CHEMONTID:0002228;CHEMONTID:0001167;CHEMONTID:0001605;CHEMONTID:0004620;CHEMONTID:0001661;CHEMONTID:0001897;CHEMONTID:0002467;CHEMONTID:0002484;CHEMONTID:0001852;CHEMONTID:0001092;CHEMONTID:0002286;CHEMONTID:0001016;CHEMONTID:0001656;CHEMONTID:0002210;CHEMONTID:0002647;CHEMONTID:0001334;CHEMONTID:0002012;CHEMONTID:0003263;CHEMONTID:0002207;CHEMONTID:0001498
Ontology: Aminocyclitol glycosides
OntologyID: CHEMONTID:0001675
RETENTIONTIME: -1
RETENTIONINDEX: -1
TotalBondEnergy: 27252
TotalScore: 6.8145
TotalHrRulesScore: 1
TotalBondCleavageScore: 1
TotalMassAccuracyScore: 0.9959
TotalFragmentLinkageScore: 1
TotalBondDissociationEnergyScore: 1
DatabaseScore: 0.5714
SubstructureAssignmentScore: 0
RtSimilarityScore: -1
RiSimilarityScore: 0
Num Fragment VS2 (M/Z Intensity MatchedExactMass SaturatedExactMass Formula RearrangedHydrogen PPM MassDiff_mDa IsEvenElectronRule IsHrRule IsSolventAdductFragment AssignedAdductMass AdductString BondDissociationEnergy TreeDepth SMILES TotalScore HrLikelihood BcLikelihood MaLikelihood FlLikelihood BeLikelihood): 1
450.29677	44560.059634	450.292219082053	449.284942626953	C19H39N5O7	1	10.11	4.55	True	True	False	0		0	0	OC1C(OCC(O)(C)C1(NC))OC3C(O)C(OC2OC(CN)CCC2(N))C(N)CC3(N)	4.99586641788483	1	1	0.995866417884827	1	1

NAME: UNPD119313
ID: HHHQNSZMERXRKE
IsSpectrumSearch: False
INCHIKEY: HHHQNSZMERXRKE-VUDDKEFSNA-N
SMILES: OC1C(OCC(O)(C)C1(N))OC3C(O)C(OC2OC(CCC2(N))C(N)C)C(N)CC3(N)
RESOURCES: UNPD=UNPD119313;UNPD209061;UNPD52311
SubstructureInChIKeys: VNWKTOKETHGBQD;QGZKDVFQNNGYKY;XLYOFNOQVPJJNP;OTMSDBZUPAUEDD;BAVYZALUXZFZLV;OKKJLVBELUTLKV;ATUOYWHBWRKTHZ;QUSNBJAOOMFDIB;LCGLNKUTAGEVQW;LFQSCWFLJHTTHZ;CKFGINPQOCXMAZ;IJDNQMDRQITEOD;NNPPMTNAJDCUHE;JJWLVOIRVHMVIS;WGYKZJWCGVVSQN;BDERNNFJNOPAEC;KFZMGEQAYNKOFK;XOBKSJJDNFUZPF;HZAXFHJVJLSVMW;LYCAIKOWRPUZTN;OFBQJSOFQDEBGM;QWTDNUCVQCZILF;HQABUPZFAYXKJW;KDSNLYIMUZNERS;BEBCJVAWIBVWNZ;BTANRVKWQNVYAZ;LRHPLDYGYMQRHN;VNKYTQGIUYNRMY;ZXEKIIBDNHEJCQ;HXKKHQJGJAFBHI;WUGQZFFCHPXWKQ;DNIAPMSPPWPWGF;RRLWYLINGKISHN;XNWFRZJHXBZDAG;YPFDHNVEDLHUCE;VIBDJEWPNNCFQO;XDTMQSROBMDMFD;AFABGHUZZDYHJO;VLKZOEOYAKHREP;DPBLXKKOBLCELK;AMQJEAYHLZJPGS;AQIXEPGDORPWBJ;FVNIMHIOIXPIQT;JYVLIDXNZAXMDK;PHTQWCKDNZKARW;BMRWNKZVCUKKSR;CHCLGECDSSWNCP;JDFDHBSESGTDAL;PUPZLCDOIYMWBV;YTTFFPATQICAQN;ZNQVEEAIQZEUHB;PEDCQBHIVMGVHV;HPXRVTGHNJAIIH;IMNFDUFMRHMDMM;ZSIAUFGUXNUGDI;VHRGRCVQAFMJIZ;KLKFAASOGCDTDT;QONBKISCDWCHKF;WCVRQHFDJLLWFE;XLMFDCKSFJWJTP;ARXKVVRQIIOZGF;MTHSVFCYNBDYFN;YAXKTBLXMTYWDQ;MQVRLONNONYDJP;MMQYUDBFDDEJBP;AALKGALVYCZETF;BXXXHBWYZKLUGM;GZXFYIDYTCWDDN;LOSWWGJGSSQDKH;UXUFMKFUJJLWKM;QXAMTEJJAZOINB;ZDAWZDFBPUUDAY;BJBURJZEESAQPG;QVNPTEPOWBEITR;QNKOVWCOVLYPKR;TVTGZVYLUHVBAJ
SubstructureOntologies: CHEMONTID:0002500;NonID:NH2;NonID:H2O;CHEMONTID:0000469;CHEMONTID:0000286;CHEMONTID:0001167;CHEMONTID:0001605;CHEMONTID:0004620;CHEMONTID:0001661;CHEMONTID:0001897;CHEMONTID:0002467;CHEMONTID:0002484;CHEMONTID:0001852;CHEMONTID:0001092;CHEMONTID:0002286;CHEMONTID:0001016;CHEMONTID:0001656;CHEMONTID:0002210;CHEMONTID:0002647;CHEMONTID:0001334;CHEMONTID:0002012;CHEMONTID:0003263;CHEMONTID:0002207;CHEMONTID:0001498
Ontology: Aminocyclitol glycosides
OntologyID: CHEMONTID:0001675
RETENTIONTIME: -1
RETENTIONINDEX: -1
TotalBondEnergy: 27268
TotalScore: 5.9455
TotalHrRulesScore: 1
TotalBondCleavageScore: 1
TotalMassAccuracyScore: 0.9959
TotalFragmentLinkageScore: 1
TotalBondDissociationEnergyScore: 1
DatabaseScore: 0.2238
SubstructureAssignmentScore: 0
RtSimilarityScore: -1
RiSimilarityScore: 0
Num Fragment VS2 (M/Z Intensity MatchedExactMass SaturatedExactMass Formula RearrangedHydrogen PPM MassDiff_mDa IsEvenElectronRule IsHrRule IsSolventAdductFragment AssignedAdductMass AdductString BondDissociationEnergy TreeDepth SMILES TotalScore HrLikelihood BcLikelihood MaLikelihood FlLikelihood BeLikelihood): 1
450.29677	44560.059634	450.292219082053	449.284942626953	C19H39N5O7	1	10.11	4.55	True	True	False	0		0	0	OC1C(OCC(O)(C)C1(N))OC3C(O)C(OC2OC(CCC2(N))C(N)C)C(N)CC3(N)	4.99586641788483	1	1	0.995866417884827	1	1

