NAME: Rhamnoveracintine
ID: NTRZKWHATZJBLQ
IsSpectrumSearch: False
INCHIKEY: NTRZKWHATZJBLQ-AFSLOYHDNA-N
SMILES: OC1C(OC(C)C(O)C1(O))OC6CC5=CCC2C(CCC3(C)(C(CCC23)C(C)C4N=C(C)CC4))C5(C)CC6
RESOURCES: KNApSAcK=C00028901
SubstructureInChIKeys: VNWKTOKETHGBQD;XLYOFNOQVPJJNP;VGGSQFUCUMXWEO;WDWDWGRYHDPSDS;OTMSDBZUPAUEDD;OKKJLVBELUTLKV;ATUOYWHBWRKTHZ;LCGLNKUTAGEVQW;LFQSCWFLJHTTHZ;CKFGINPQOCXMAZ;IAQRGUVFOMOMEM;VQTUBCCKSQIDNK;VXNZUUAINFGPBY;IJDNQMDRQITEOD;NNPPMTNAJDCUHE;JJWLVOIRVHMVIS;BDERNNFJNOPAEC;KFZMGEQAYNKOFK;XOBKSJJDNFUZPF;LYCAIKOWRPUZTN;BKOOMYPCSUNDGP;QMMOXUPEWRXHJS;RGSFGYAAUTVSQA;YWAKXRMUMFPDSH;ZSPTYLOMNJNZNG;OFBQJSOFQDEBGM;QWTDNUCVQCZILF;HQABUPZFAYXKJW;KDSNLYIMUZNERS;BTANRVKWQNVYAZ;LRHPLDYGYMQRHN;VNKYTQGIUYNRMY;DNIAPMSPPWPWGF;RRLWYLINGKISHN;XNWFRZJHXBZDAG;YPFDHNVEDLHUCE;VIBDJEWPNNCFQO;BEQGRRJLJLVQAQ;GDOPTJXRTPNYNR;LDTAOIUHUHHCMU;LIKMAJRDDDTEIG;RYPKRALMXUUNKS;XDTMQSROBMDMFD;ZQDPJFUHLCOCRG;FSUXYWPILZJGCC;AFABGHUZZDYHJO;HNRMPXKDFBEGFZ;PFEOZHBOMNWTJB;VLKZOEOYAKHREP;BMFVGAAISNGQNM;DPBLXKKOBLCELK;VJROPLWGFCORRM;AMQJEAYHLZJPGS;AQIXEPGDORPWBJ;FVNIMHIOIXPIQT;JYVLIDXNZAXMDK;BMRWNKZVCUKKSR;CHCLGECDSSWNCP;JDFDHBSESGTDAL;PUPZLCDOIYMWBV;YTTFFPATQICAQN;ZNQVEEAIQZEUHB;PEDCQBHIVMGVHV;ADHCYQWFCLQBFG;QWHNJUXXYKPLQM;UAEPNZWRGJTJPN;WZHKDGJSXCTSCK;ZGEGCLOFRBLKSE;HPXRVTGHNJAIIH;UFLHIIWVXFIJGU;BZHMBWZPUJHVEE;IMNFDUFMRHMDMM;VLJXXKKOSFGPHI;ZSIAUFGUXNUGDI;KLKFAASOGCDTDT;WCVRQHFDJLLWFE;XLMFDCKSFJWJTP;ARXKVVRQIIOZGF;MTHSVFCYNBDYFN;YAXKTBLXMTYWDQ;MQVRLONNONYDJP;QJXCDRBHYIAFTH;KVZJLSYJROEPSQ;KWKAKUADMBZCLK;LETYIFNDQBJGPJ;QEGNUYASOUJEHD;SGVUHPSBDNVHKL;YXLCVBVDFKWWRW;MQWCXKGKQLNYQG;JVSWJIKNEAIKJW;TVMXDCGIABBOFY;CETWDUZRCINIHU;MMQYUDBFDDEJBP;AALKGALVYCZETF;BXXXHBWYZKLUGM;GZXFYIDYTCWDDN;LOSWWGJGSSQDKH;UNXHWFMMPAWVPI;ILIUIABCBOXIRX;NUHCEMOQRZEGAQ;IICQZTQZQSBHBY;KPADFPAILITQBG;XARGIVYWQPXRTC;ZBAXJUPCYVIBSP;UXUFMKFUJJLWKM;QXAMTEJJAZOINB;FJGNTEKSQVNVTJ;ZDAWZDFBPUUDAY;JJMZVBNCCUWEDF;GGWBGCSGJCRVIQ;NYFHUVYMLLAQHH;HIVFIUIKABOGIO;SOUITUXPBGREAE;BJBURJZEESAQPG;QVNPTEPOWBEITR;SRBFZHDQGSBBOR;HEBKCHPVOIAQTA;KGBMCONWCCBLAE;QNKOVWCOVLYPKR;SHZGCJCMOBCMKK;ZBDGHWFPLXXWRD;SKCKOFZKJLZSFA;IRXJZDLOCNJAHE;OHWCAVRRXKJCRB;UBUITGRMYNAZAX;OTBOAOSTJYUVHP;HRWQYCOJZMKBGI;QTIFSOVGBSROEQ;BZQBQGKZJCGZCL;YHUSUSKGDGXWGS
SubstructureOntologies: CHEMONTID:0002500;NonID:H2O;CHEMONTID:0004476;CHEMONTID:0000117;CHEMONTID:0000286;CHEMONTID:0001167;CHEMONTID:0001605;CHEMONTID:0004622;CHEMONTID:0004620;CHEMONTID:0000469;CHEMONTID:0001661;CHEMONTID:0002467;CHEMONTID:0001016;CHEMONTID:0001092;CHEMONTID:0002286;CHEMONTID:0001656;CHEMONTID:0002210;CHEMONTID:0002647;CHEMONTID:0001334;CHEMONTID:0002012;CHEMONTID:0003263;CHEMONTID:0004149;CHEMONTID:0001497;CHEMONTID:0002207;CHEMONTID:0001498;CHEMONTID:0001401
Ontology: Steroidal glycosides
OntologyID: CHEMONTID:0001013
RETENTIONTIME: -1
RETENTIONINDEX: -1
TotalBondEnergy: 36551
TotalScore: 5.2231
TotalHrRulesScore: 0.5
TotalBondCleavageScore: 0.5
TotalMassAccuracyScore: 0.4958
TotalFragmentLinkageScore: 0.5
TotalBondDissociationEnergyScore: 0.5
DatabaseScore: 0.5238
SubstructureAssignmentScore: 0
RtSimilarityScore: -1
RiSimilarityScore: 0
Num Fragment VS2 (M/Z Intensity MatchedExactMass SaturatedExactMass Formula RearrangedHydrogen PPM MassDiff_mDa IsEvenElectronRule IsHrRule IsSolventAdductFragment AssignedAdductMass AdductString BondDissociationEnergy TreeDepth SMILES TotalScore HrLikelihood BcLikelihood MaLikelihood FlLikelihood BeLikelihood): 1
530.390479	1250240.315085	530.383985439475	529.376708984375	C32H51NO5	1	12.24	6.49	True	True	False	0		0	0	OC1C(OC(C)C(O)C1(O))OC6CC5=CCC2C(CCC3(C)(C(CCC23)C(C)C4N=C(C)CC4))C5(C)CC6	4.99160218238831	1	1	0.991602182388306	1	1

NAME: UNPD77726
ID: YGGLFLYOEHJHSC
IsSpectrumSearch: False
INCHIKEY: YGGLFLYOEHJHSC-BMMXCBFBNA-N
SMILES: O=C(OC3C(OC(=O)CC(=C(C)C)C)C2C(CCC1CC(N(C)C)CCC12(C))C4CCC(C(=O)C)C34(C))C
RESOURCES: UNPD=UNPD77726
SubstructureInChIKeys: VNWKTOKETHGBQD;VGGSQFUCUMXWEO;WSFSSNUMVMOOMR;OTMSDBZUPAUEDD;QQONPFPTGQHPMA;IKHGUXGNUITLKF;ATUOYWHBWRKTHZ;ROSDSFDQCJNGOL;LCGLNKUTAGEVQW;IAQRGUVFOMOMEM;VQTUBCCKSQIDNK;VXNZUUAINFGPBY;CSCPPACGZOOCGX;NBBJYMSMWIIQGU;IJDNQMDRQITEOD;NNPPMTNAJDCUHE;GETQZCLCWQTVFV;JJWLVOIRVHMVIS;LIWAQLJGPBVORC;QTBSBXVTEAMEQO;TZIHFWKZFHZASV;BDERNNFJNOPAEC;XOBKSJJDNFUZPF;LYCAIKOWRPUZTN;BKOOMYPCSUNDGP;QMMOXUPEWRXHJS;RGSFGYAAUTVSQA;ZSPTYLOMNJNZNG;ZTQSAGDEMFDKMZ;OFBQJSOFQDEBGM;QWTDNUCVQCZILF;DAZXVJBJRMWXJP;GVWISOJSERXQBM;HQABUPZFAYXKJW;XHFGWHUWQXTGAT;KXKVLQRXCPHEJC;WBJINCZRORDGAQ;XBDQKXXYIPTUBI;LRHPLDYGYMQRHN;VNKYTQGIUYNRMY;ZXEKIIBDNHEJCQ;XNWFRZJHXBZDAG;VIBDJEWPNNCFQO;BEQGRRJLJLVQAQ;GDOPTJXRTPNYNR;XDTMQSROBMDMFD;FSUXYWPILZJGCC;HGBOYTHUEUWSSQ;AFABGHUZZDYHJO;HNRMPXKDFBEGFZ;PFEOZHBOMNWTJB;VLKZOEOYAKHREP;BMFVGAAISNGQNM;DPBLXKKOBLCELK;QCOGKXLOEWLIDC;ZUHZZVMEUAUWHY;FERIUCNNQQJTOY;XEKOWRVHYACXOJ;AMQJEAYHLZJPGS;AQIXEPGDORPWBJ;FVNIMHIOIXPIQT;JYVLIDXNZAXMDK;MXLMTQWGSQIYOW;PHTQWCKDNZKARW;BMRWNKZVCUKKSR;YTTFFPATQICAQN;ZNQVEEAIQZEUHB;QWHNJUXXYKPLQM;UAEPNZWRGJTJPN;HPXRVTGHNJAIIH;JARKCYVAAOWBJS;BZHMBWZPUJHVEE;IMNFDUFMRHMDMM;VLJXXKKOSFGPHI;DJEQZVQFEPKLOY;ZSIAUFGUXNUGDI;WCVRQHFDJLLWFE;XLMFDCKSFJWJTP;KVZJLSYJROEPSQ;LETYIFNDQBJGPJ;QEGNUYASOUJEHD;SGVUHPSBDNVHKL;CATSNJVOTSVZJV;FXHGMKSSBGDXIY;MQWCXKGKQLNYQG;JVSWJIKNEAIKJW;TVMXDCGIABBOFY;CETWDUZRCINIHU;OVOVDHYEOQJKMD;PYOLJOJPIPCRDP;XARGIVYWQPXRTC;NUJGJRNETVAIRJ;VWLITJGXNSANSN;ZBAXJUPCYVIBSP;GGWBGCSGJCRVIQ;BUOAKQCLRBVIOX;HIVFIUIKABOGIO;YLZKVXHQMPWDBJ;SOUITUXPBGREAE;KGBMCONWCCBLAE;VTXRDCQMLXABHJ;IRXJZDLOCNJAHE;HYHMOIFJBNVOTK;XBENKLBOLWZLNQ;OTBOAOSTJYUVHP
SubstructureOntologies: CHEMONTID:0002500;CHEMONTID:0004476;CHEMONTID:0001831;CHEMONTID:0002230;CHEMONTID:0002228;CHEMONTID:0001167;CHEMONTID:0004622;CHEMONTID:0000118;CHEMONTID:0002434;CHEMONTID:0004620;CHEMONTID:0002239;CHEMONTID:0000469;CHEMONTID:0001205;CHEMONTID:0001238;CHEMONTID:0000286;CHEMONTID:0002467;CHEMONTID:0001016;CHEMONTID:0003416;CHEMONTID:0002286;CHEMONTID:0000333;CHEMONTID:0001661;CHEMONTID:0002647;CHEMONTID:0002229;CHEMONTID:0001334;CHEMONTID:0004149;CHEMONTID:0001401
Ontology: Steroid esters
OntologyID: CHEMONTID:0001691
RETENTIONTIME: -1
RETENTIONINDEX: -1
TotalBondEnergy: 36537
TotalScore: 4.4731
TotalHrRulesScore: 0.5
TotalBondCleavageScore: 0.5
TotalMassAccuracyScore: 0.4958
TotalFragmentLinkageScore: 0.5
TotalBondDissociationEnergyScore: 0.5
DatabaseScore: 0.2238
SubstructureAssignmentScore: 0
RtSimilarityScore: -1
RiSimilarityScore: 0
Num Fragment VS2 (M/Z Intensity MatchedExactMass SaturatedExactMass Formula RearrangedHydrogen PPM MassDiff_mDa IsEvenElectronRule IsHrRule IsSolventAdductFragment AssignedAdductMass AdductString BondDissociationEnergy TreeDepth SMILES TotalScore HrLikelihood BcLikelihood MaLikelihood FlLikelihood BeLikelihood): 1
530.390479	1250240.315085	530.383985439475	529.376708984375	C32H51NO5	1	12.24	6.49	True	True	False	0		0	0	O=C(OC3C(OC(=O)CC(=C(C)C)C)C2C(CCC1CC(N(C)C)CCC12(C))C4CCC(C(=O)C)C34(C))C	4.99160218238831	1	1	0.991602182388306	1	1

