NAME: carbuterol
ID: KEMXXQOFIRIICG
IsSpectrumSearch: False
INCHIKEY: KEMXXQOFIRIICG-UHFFFAOYNA-N
SMILES: O=C(N)NC=1C=C(C=CC=1(O))C(O)CNC(C)(C)C
RESOURCES: ChEBI=CHEBI:135100,STOFF=STOFF_3631
SubstructureInChIKeys: VNWKTOKETHGBQD;QGZKDVFQNNGYKY;XLYOFNOQVPJJNP;WSFSSNUMVMOOMR;OKKJLVBELUTLKV;ATUOYWHBWRKTHZ;ROSDSFDQCJNGOL;LFQSCWFLJHTTHZ;NNPPMTNAJDCUHE;ATHHXGZTWNVVOU;JJWLVOIRVHMVIS;LIWAQLJGPBVORC;KFZMGEQAYNKOFK;XOTDURGROKNGTI;HZAXFHJVJLSVMW;GVWISOJSERXQBM;HPNMFZURTQLUMO;XHFGWHUWQXTGAT;BEBCJVAWIBVWNZ;HXKKHQJGJAFBHI;UHOVQNZJYSORNB;YXFVVABEGXRONW;PAYRUJLWNCNPSJ;ISWSIDIOOBJBQZ;VLSTXUUYLIALPB;RILLZYSZSDGYGV;YNQLUTRBYVCPMQ;AFBPFSWMIHJQDM;RNVCVTLRINQCPJ;IWDCLRJOBJJRNH;WVDDGKGOMKODPV;RNFDZDMIFOFNMC;DYDNPESBYVVLBO;BHHGXPLMPWCGHP;HMNKTRSOROOSPP;HXDOZKJGKXYMEW;BVJSUAQZOZWCKN;SASNBVQSOZSTPD;DZGWFCGJZKJUFP;PMRFBLQVGJNGLU
SubstructureOntologies: CHEMONTID:0002500;NonID:NH2;NonID:H2O;CHEMONTID:0001831;CHEMONTID:0000286;CHEMONTID:0002228;CHEMONTID:0004620;CHEMONTID:0002484;CHEMONTID:0000469;CHEMONTID:0001661;CHEMONTID:0000497;CHEMONTID:0001897;CHEMONTID:0002279;CHEMONTID:0001091;CHEMONTID:0000284;CHEMONTID:0004647;CHEMONTID:0003924;CHEMONTID:0003964;CHEMONTID:0001275;CHEMONTID:0000033;CHEMONTID:0000285;CHEMONTID:0000186;CHEMONTID:0004646
Ontology: N-phenylureas
OntologyID: CHEMONTID:0001935
RETENTIONTIME: -1
RETENTIONINDEX: -1
TotalBondEnergy: 16191
TotalScore: 6.749
TotalHrRulesScore: 0.75
TotalBondCleavageScore: 0.6347
TotalMassAccuracyScore: 0.6436
TotalFragmentLinkageScore: 0.75
TotalBondDissociationEnergyScore: 0.4614
DatabaseScore: 0.5476
SubstructureAssignmentScore: 0.08
RtSimilarityScore: -1
RiSimilarityScore: 0
Num Fragment VS2 (M/Z Intensity MatchedExactMass SaturatedExactMass Formula RearrangedHydrogen PPM MassDiff_mDa IsEvenElectronRule IsHrRule IsSolventAdductFragment AssignedAdductMass AdductString BondDissociationEnergy TreeDepth SMILES TotalScore HrLikelihood BcLikelihood MaLikelihood FlLikelihood BeLikelihood): 3
176.123843	14485.079108	176.106988277991	179.131011962891	C11H17NO	-3	95.7	16.85	True	True	False	0		1009	3	OC1=CC=C(C=C1)CCNC(C)C	3.89716365306234	1	0.7289999127388	0.944767594337463	1	0.223396145986074
239.186828	18810.467179	239.139020839866	238.131744384766	C12H18N2O3	1	199.87	47.81	True	True	False	0		651	2	O=CNC=1C=C(C=CC=1(O))C(O)CNC(C)C	4.06521164494429	1	0.809999942779541	0.633113920688629	1	0.622097781476123
268.169743	30584.479179	268.165571132834	267.158294677734	C13H21N3O3	1	15.56	4.17	True	True	False	0		0	0	O=C(N)NC=1C=C(C=CC=1(O))C(O)CNC(C)(C)C	4.99652516841888	1	1	0.996525168418884	1	1

NAME: 3-ammoniopropyl-[3-[(2,3-dihydroxybenzoyl)amino]propyl]ammonium
ID: OJLWBCJWELTRCV
IsSpectrumSearch: False
INCHIKEY: OJLWBCJWELTRCV-UHFFFAOYSA-P
SMILES: O=C(NCCCNCCCN)C=1C=CC=C(O)C=1(O)
RESOURCES: PubChem=90657820;45479385
SubstructureInChIKeys: QGZKDVFQNNGYKY;XLYOFNOQVPJJNP;WSFSSNUMVMOOMR;OTMSDBZUPAUEDD;BAVYZALUXZFZLV;IKHGUXGNUITLKF;ATUOYWHBWRKTHZ;QUSNBJAOOMFDIB;ROSDSFDQCJNGOL;ATHHXGZTWNVVOU;LIWAQLJGPBVORC;WGYKZJWCGVVSQN;GVWISOJSERXQBM;HPNMFZURTQLUMO;UHOVQNZJYSORNB;SUUDTPGCUKBECW;YXFVVABEGXRONW;ISWSIDIOOBJBQZ;HUMNYLRZRPPJDN;IWDCLRJOBJJRNH;GHMLBKRAJCXXBS;RIWRFSMVIUAEBX;SMQUZDBALVYZAC;OIPPWFOQEKKFEE;ZBCATMYQYDCTIZ;IUNJCFABHJZSKB
SubstructureOntologies: NonID:NH2;NonID:H2O;CHEMONTID:0001831;CHEMONTID:0002500;CHEMONTID:0000469;CHEMONTID:0002230;CHEMONTID:0002228;CHEMONTID:0002484;CHEMONTID:0002279;CHEMONTID:0001663;CHEMONTID:0001091;CHEMONTID:0004647;CHEMONTID:0000321;CHEMONTID:0001275;CHEMONTID:0000137;CHEMONTID:0000185;CHEMONTID:0003978;CHEMONTID:0000135
Ontology: Salicylamides
OntologyID: CHEMONTID:0002515
RETENTIONTIME: -1
RETENTIONINDEX: -1
TotalBondEnergy: 16191
TotalScore: 6.6131
TotalHrRulesScore: 0.55
TotalBondCleavageScore: 0.5206
TotalMassAccuracyScore: 0.6176
TotalFragmentLinkageScore: 0.75
TotalBondDissociationEnergyScore: 0.5044
DatabaseScore: 0.5238
SubstructureAssignmentScore: 0.0476
RtSimilarityScore: -1
RiSimilarityScore: 0
Num Fragment VS2 (M/Z Intensity MatchedExactMass SaturatedExactMass Formula RearrangedHydrogen PPM MassDiff_mDa IsEvenElectronRule IsHrRule IsSolventAdductFragment AssignedAdductMass AdductString BondDissociationEnergy TreeDepth SMILES TotalScore HrLikelihood BcLikelihood MaLikelihood FlLikelihood BeLikelihood): 3
176.123843	14485.079108	176.094412312014	178.110610961914	C10H14N2O	-2	167.1	29.43	False	False	False	0		1021	3	O=C(NCCCN)C1=CC=CC=C1	2.41967671072472	0.200000002980232	0.1822499781847	0.840941607952118	1	0.196485121607674
239.186828	18810.467179	239.139020839866	238.131744384766	C12H18N2O3	1	199.87	47.81	True	True	False	0		346	1	O=C(NCCCNCC)C=1C=CC=C(O)C=1(O)	4.35421049491071	1	0.899999976158142	0.633113920688629	1	0.821096598063934
268.169743	30584.479179	268.165571132834	267.158294677734	C13H21N3O3	1	15.56	4.17	True	True	False	0		0	0	O=C(NCCCNCCCN)C=1C=CC=C(O)C=1(O)	4.99652516841888	1	1	0.996525168418884	1	1

