NAME: Alginic acid
ID: FHVDTGUDJYJELY
IsSpectrumSearch: False
INCHIKEY: FHVDTGUDJYJELY-UHFFFAOYNA-N
SMILES: O=C(O)C2OC(OP)C(O)C(O)C2(OC1OC(C(=O)O)C(C(O)C1(O))P)
RESOURCES: HMDB=HMDB0029940,FooDB=FDB001212
SubstructureInChIKeys: XLYOFNOQVPJJNP;WSFSSNUMVMOOMR;OKKJLVBELUTLKV;IKHGUXGNUITLKF;ATUOYWHBWRKTHZ;BDAGIHXWWSANSR;LCGLNKUTAGEVQW;LFQSCWFLJHTTHZ;CKFGINPQOCXMAZ;NBBJYMSMWIIQGU;IJDNQMDRQITEOD;QTBSBXVTEAMEQO;BDERNNFJNOPAEC;KFZMGEQAYNKOFK;XOBKSJJDNFUZPF;LYCAIKOWRPUZTN;ZTQSAGDEMFDKMZ;OFBQJSOFQDEBGM;AKXKFZDCRYJKTF;XBDQKXXYIPTUBI;YSEFYOVWKJXNCH;BTANRVKWQNVYAZ;LRHPLDYGYMQRHN;VNKYTQGIUYNRMY;AEMRFAOFKBGASW;DNIAPMSPPWPWGF;RRLWYLINGKISHN;XNWFRZJHXBZDAG;YPFDHNVEDLHUCE;VIBDJEWPNNCFQO;HGBOYTHUEUWSSQ;VLKZOEOYAKHREP;FERIUCNNQQJTOY;AMQJEAYHLZJPGS;AQIXEPGDORPWBJ;FVNIMHIOIXPIQT;JYVLIDXNZAXMDK;JVTAAEKCZFNVCJ;MNQZXJOMYWMBOU;BMRWNKZVCUKKSR;CHCLGECDSSWNCP;JDFDHBSESGTDAL;PUPZLCDOIYMWBV;YTTFFPATQICAQN;ZNQVEEAIQZEUHB;PEDCQBHIVMGVHV;JARKCYVAAOWBJS;ZSIAUFGUXNUGDI;AFENDNXGAFYKQO;DFFAMJFPVBTTBX;KLKFAASOGCDTDT;WCVRQHFDJLLWFE;XLMFDCKSFJWJTP;RBNPOMFGQQGHHO;ARXKVVRQIIOZGF;MTHSVFCYNBDYFN;RKOGJKGQMPZCGG;YAXKTBLXMTYWDQ;MQVRLONNONYDJP;KTRCDOAFABEGON;MMQYUDBFDDEJBP;DZAIOXUZHHTJKN;AALKGALVYCZETF;BXXXHBWYZKLUGM;GZXFYIDYTCWDDN;LOSWWGJGSSQDKH;UNXHWFMMPAWVPI;UXUFMKFUJJLWKM;CJXCLBPFKGZXJP;HRARQIAGSKMHMV;QXAMTEJJAZOINB;WDRISBUVHBMJEF;JPIJQSOTBSSVTP;FJGNTEKSQVNVTJ;ZDAWZDFBPUUDAY;JJMZVBNCCUWEDF;BJBURJZEESAQPG;QFHKFGOUFKUPNX;QVNPTEPOWBEITR;SRBFZHDQGSBBOR;QYZAWZFNVOMDEF;HEBKCHPVOIAQTA;QNKOVWCOVLYPKR;MPCAJMNYNOGXPB;PMMURAAUARKVCB;SHZGCJCMOBCMKK;ZBDGHWFPLXXWRD;LWWIYCLYWKAKRR;RUIACMUVCHMOMF;SKCKOFZKJLZSFA;JMZFHBIADDYOTC;OHWCAVRRXKJCRB;UBUITGRMYNAZAX;PATWQGKLOAFEDC;WQZGKKKJIJFFOK;MZWSHEJWANSXEH;HRWQYCOJZMKBGI;AEMOLEFTQBMNLQ;DCZHIIAMPOQNQY;HOVAGTYPODGVJG;QPDOOAOPIHRGIC;QTIFSOVGBSROEQ;WEKZOSZDHREWIU;WYUFTYLVLQZQNH;FRMCCLBYAFUKSG;QBYFEBYWGWYNTO;BZQBQGKZJCGZCL;SMORULFPMBCEPX;YHUSUSKGDGXWGS;YFDGNWYGKKBZDJ;ADKODQNXEFIOIC;NHJUPBDCSOGIKX;RLQSUKOOLWMMSY;DUUKYOAVWFMSKJ;HQZSWVRAXHHXOP;SXEHDCDGTPHFBR;WXEKRRWEMCHREJ;CLCFCUQOMMGQKP;DNYRKEWXPBSYOS;SFUQBVYPRJLLKE
SubstructureOntologies: NonID:H2O;CHEMONTID:0001831;CHEMONTID:0000286;CHEMONTID:0002230;CHEMONTID:0002500;CHEMONTID:0001205;CHEMONTID:0001167;CHEMONTID:0001605;CHEMONTID:0002434;CHEMONTID:0001661;CHEMONTID:0002467;CHEMONTID:0001359;CHEMONTID:0001092;CHEMONTID:0002286;CHEMONTID:0000333;CHEMONTID:0001540;CHEMONTID:0001656;CHEMONTID:0002210;CHEMONTID:0002229;CHEMONTID:0001334;CHEMONTID:0000215;CHEMONTID:0002391;CHEMONTID:0002012;CHEMONTID:0001713;CHEMONTID:0003263;CHEMONTID:0000341;CHEMONTID:0001497;CHEMONTID:0000175;CHEMONTID:0002207;CHEMONTID:0001498;CHEMONTID:0002094;CHEMONTID:0000637;CHEMONTID:0003861;CHEMONTID:0002813
Ontology: Glucuronic acid derivatives
OntologyID: CHEMONTID:0002094
RETENTIONTIME: -1
RETENTIONINDEX: -1
TotalBondEnergy: 17075
TotalScore: 6.4448
TotalHrRulesScore: 0.5
TotalBondCleavageScore: 0.328
TotalMassAccuracyScore: 0.4484
TotalFragmentLinkageScore: 0.5
TotalBondDissociationEnergyScore: 0.2423
DatabaseScore: 0.5476
SubstructureAssignmentScore: 0.0909
RtSimilarityScore: -1
RiSimilarityScore: 0
Num Fragment VS2 (M/Z Intensity MatchedExactMass SaturatedExactMass Formula RearrangedHydrogen PPM MassDiff_mDa IsEvenElectronRule IsHrRule IsSolventAdductFragment AssignedAdductMass AdductString BondDissociationEnergy TreeDepth SMILES TotalScore HrLikelihood BcLikelihood MaLikelihood FlLikelihood BeLikelihood): 1
345.026538	50570.295221	345.049878994163	344.042602539063	C10H18O9P2	1	67.65	23.34	True	True	False	0		1420	2	O=C(O)CC(OC(O)C(O)C(O)CP)C(O)C(O)COP	4.03754492480743	1	0.656099915504456	0.896765947341919	1	0.484679061961055

