NAME: N-[5-[[2-(2-furanylmethylamino)-2-oxoethyl]thio]-1,3,4-thiadiazol-2-yl]-1,3-benzodioxole-5-carboxamide
ID: LVPFTFPRHGPUHX
IsSpectrumSearch: False
INCHIKEY: LVPFTFPRHGPUHX-UHFFFAOYSA-N
SMILES: O=C(NC1=NN=C(S1)SCC(=O)NCC=2OC=CC=2)C=3C=CC=4OCOC=4(C=3)
RESOURCES: ChEBI=CHEBI:120872
SubstructureInChIKeys: WSFSSNUMVMOOMR;IKHGUXGNUITLKF;ROSDSFDQCJNGOL;LCGLNKUTAGEVQW;CKFGINPQOCXMAZ;ATHHXGZTWNVVOU;LIWAQLJGPBVORC;DNJIEGIFACGWOD;QMMFVYPAHWMCMS;HPNMFZURTQLUMO;UFULAYFCSOUIOV;UHOVQNZJYSORNB;YXFVVABEGXRONW;ISWSIDIOOBJBQZ;HUMNYLRZRPPJDN;IWDCLRJOBJJRNH;RDOXTESZEPMUJZ;GHMLBKRAJCXXBS;RIWRFSMVIUAEBX;SMQUZDBALVYZAC;CHLICZRVGGXEOD;LHGVFZTZFXWLCP;OIPPWFOQEKKFEE;ZBCATMYQYDCTIZ;GHPODDMCSOYWNE;IUNJCFABHJZSKB;ABDKAPXRBAPSQN;DPZNOMCNRMUKPS;NOTCZLKDULMKBR;PETRWTHZSKVLRE;DZJPDDVDKXHRLF;GYPMBQZAVBFUIZ;RIZBLVRXRWHLFA
SubstructureOntologies: CHEMONTID:0001831;CHEMONTID:0002230;CHEMONTID:0002228;CHEMONTID:0001167;CHEMONTID:0001605;CHEMONTID:0002484;CHEMONTID:0001212;CHEMONTID:0003862;CHEMONTID:0002279;CHEMONTID:0001091;CHEMONTID:0004647;CHEMONTID:0000321;CHEMONTID:0001275;CHEMONTID:0000138;CHEMONTID:0000137;CHEMONTID:0000185;CHEMONTID:0003978;CHEMONTID:0000190;CHEMONTID:0000135;CHEMONTID:0000296;CHEMONTID:0004111
Ontology: Benzodioxoles
OntologyID: CHEMONTID:0000296
RETENTIONTIME: -1
RETENTIONINDEX: -1
TotalBondEnergy: 18487
TotalScore: 6.9798
TotalHrRulesScore: 1
TotalBondCleavageScore: 0.5205
TotalMassAccuracyScore: 0.9696
TotalFragmentLinkageScore: 1
TotalBondDissociationEnergyScore: 0.8227
DatabaseScore: 0.5238
SubstructureAssignmentScore: 0
RtSimilarityScore: -1
RiSimilarityScore: 0
Num Fragment VS2 (M/Z Intensity MatchedExactMass SaturatedExactMass Formula RearrangedHydrogen PPM MassDiff_mDa IsEvenElectronRule IsHrRule IsSolventAdductFragment AssignedAdductMass AdductString BondDissociationEnergy TreeDepth SMILES TotalScore HrLikelihood BcLikelihood MaLikelihood FlLikelihood BeLikelihood): 2
345.026538	50570.295221	345.011046459944	350.050720214844	C14H14N4O3S2	-5	44.9	15.49	True	True	False	0		1420	2	O=C(NC1=NN=C(S1)SCC(=O)NCC=C)C=2C=CC=C(O)C=2	3.63958651333668	1	0.0410062447190285	0.953136086463928	1	0.645444182153723
419.056237	105852.797872	419.047834316428	418.040557861328	C17H14N4O5S2	1	20.05	8.4	True	True	False	0		0	0	O=C(NC1=NN=C(S1)SCC(=O)NCC=2OC=CC=2)C=3C=CC=4OCOC=4(C=3)	4.98597818613052	1	1	0.985978186130524	1	1

