NAME: Linoleyl palmitatoleate
ID: GIYZLEMOGWNBRD
IsSpectrumSearch: False
INCHIKEY: GIYZLEMOGWNBRD-RUGCENDASA-N
SMILES: O=C(OCCCCCCCCC=CCC=CCCCCC)CCCCCCCC=CCCCCCC
RESOURCES: LipidMAPS=LMFA07010123
SubstructureInChIKeys: VNWKTOKETHGBQD;VGGSQFUCUMXWEO;WSFSSNUMVMOOMR;OTMSDBZUPAUEDD;IKHGUXGNUITLKF;ATUOYWHBWRKTHZ;LCGLNKUTAGEVQW;IAQRGUVFOMOMEM;VXNZUUAINFGPBY;NBBJYMSMWIIQGU;IJDNQMDRQITEOD;QTBSBXVTEAMEQO;TZIHFWKZFHZASV;BDERNNFJNOPAEC;XOBKSJJDNFUZPF;QMMOXUPEWRXHJS;YWAKXRMUMFPDSH;ZTQSAGDEMFDKMZ;OFBQJSOFQDEBGM;KXKVLQRXCPHEJC;WBJINCZRORDGAQ;XBDQKXXYIPTUBI;LRHPLDYGYMQRHN;VNKYTQGIUYNRMY;PRBHEGAFLDMLAL;LIKMAJRDDDTEIG;RYPKRALMXUUNKS;ZQDPJFUHLCOCRG;HGBOYTHUEUWSSQ;VLKZOEOYAKHREP;FERIUCNNQQJTOY;XEKOWRVHYACXOJ;AMQJEAYHLZJPGS;FMAMSYPJXSEYSW;WZHKDGJSXCTSCK;ZGEGCLOFRBLKSE;JARKCYVAAOWBJS;IMNFDUFMRHMDMM;NQPDZGIKBAWPEJ;ZSIAUFGUXNUGDI;GDDAJHJRAKOILH;KWKAKUADMBZCLK;FXHGMKSSBGDXIY;TVMXDCGIABBOFY;FUZZWVXGSFPDMH;NMFOAHIHPAPYJJ;IICQZTQZQSBHBY;KPADFPAILITQBG;NUJGJRNETVAIRJ;MNWFXJYAOYHMED;GYHFUZHODSMOHU;WWZKQHOCKIZLMA;FBUKVWPVBMHYJY;VNGRIQMEDUZTCJ;ANJAOCICJSRZSR;KIWIPIAOWPKUNM;ILDMCKZJSLWXTH;YWWVWXASSLXJHU;QFPVVMKZTVQDTL;DJCQJZKZUCHHAL;SECPZKHBENQXJG
SubstructureOntologies: CHEMONTID:0002500;CHEMONTID:0004476;CHEMONTID:0001831;CHEMONTID:0002230;CHEMONTID:0001167;CHEMONTID:0002434;CHEMONTID:0001205;CHEMONTID:0001238;CHEMONTID:0000286;CHEMONTID:0003416;CHEMONTID:0001019;CHEMONTID:0000333;CHEMONTID:0002229;CHEMONTID:0001334;CHEMONTID:0003086;CHEMONTID:0000298;CHEMONTID:0002949
Ontology: Wax monoesters
OntologyID: CHEMONTID:0003322
RETENTIONTIME: -1
RETENTIONINDEX: -1
TotalBondEnergy: 38787
TotalScore: 6.4941
TotalHrRulesScore: 1
TotalBondCleavageScore: 1
TotalMassAccuracyScore: 0.9998
TotalFragmentLinkageScore: 1
TotalBondDissociationEnergyScore: 1
DatabaseScore: 0.5238
SubstructureAssignmentScore: 0
RtSimilarityScore: -1
RiSimilarityScore: 0
Num Fragment VS2 (M/Z Intensity MatchedExactMass SaturatedExactMass Formula RearrangedHydrogen PPM MassDiff_mDa IsEvenElectronRule IsHrRule IsSolventAdductFragment AssignedAdductMass AdductString BondDissociationEnergy TreeDepth SMILES TotalScore HrLikelihood BcLikelihood MaLikelihood FlLikelihood BeLikelihood): 1
503.483368	169747.787873	503.482252041038	502.474975585938	C34H62O2	1	2.22	1.12	True	True	False	0		0	0	O=C(OCCCCCCCCC=CCC=CCCCCC)CCCCCCCC=CCCCCCC	4.99975097179413	1	1	0.999750971794128	1	1

NAME: Linolenyl palmitate
ID: HNNWULCXHKISMF
IsSpectrumSearch: False
INCHIKEY: HNNWULCXHKISMF-SVNQLWEDSA-N
SMILES: O=C(OCCCCCCCCC=CCC=CCC=CCC)CCCCCCCCCCCCCCC
RESOURCES: LipidMAPS=LMFA07010122
SubstructureInChIKeys: VNWKTOKETHGBQD;VGGSQFUCUMXWEO;WSFSSNUMVMOOMR;OTMSDBZUPAUEDD;IKHGUXGNUITLKF;ATUOYWHBWRKTHZ;LCGLNKUTAGEVQW;IAQRGUVFOMOMEM;VXNZUUAINFGPBY;NBBJYMSMWIIQGU;IJDNQMDRQITEOD;QTBSBXVTEAMEQO;TZIHFWKZFHZASV;BDERNNFJNOPAEC;XOBKSJJDNFUZPF;QMMOXUPEWRXHJS;YWAKXRMUMFPDSH;ZTQSAGDEMFDKMZ;OFBQJSOFQDEBGM;KXKVLQRXCPHEJC;WBJINCZRORDGAQ;XBDQKXXYIPTUBI;LRHPLDYGYMQRHN;VNKYTQGIUYNRMY;PRBHEGAFLDMLAL;LIKMAJRDDDTEIG;RYPKRALMXUUNKS;ZQDPJFUHLCOCRG;HGBOYTHUEUWSSQ;VLKZOEOYAKHREP;FERIUCNNQQJTOY;XEKOWRVHYACXOJ;AMQJEAYHLZJPGS;FMAMSYPJXSEYSW;WZHKDGJSXCTSCK;ZGEGCLOFRBLKSE;JARKCYVAAOWBJS;IMNFDUFMRHMDMM;NQPDZGIKBAWPEJ;ZSIAUFGUXNUGDI;BUAQSUJYSBQTHA;GDDAJHJRAKOILH;KWKAKUADMBZCLK;FXHGMKSSBGDXIY;TVMXDCGIABBOFY;FUZZWVXGSFPDMH;NABXNTPHRFMODH;NMFOAHIHPAPYJJ;IICQZTQZQSBHBY;KPADFPAILITQBG;NUJGJRNETVAIRJ;MNWFXJYAOYHMED;GYHFUZHODSMOHU;WWZKQHOCKIZLMA;KSMVZQYAVGTKIV;FBUKVWPVBMHYJY;KMPQYAYAQWNLME;GHVNFZFCNZKVNT;HFJRKMMYBMWEAD;ZDPHROOEEOARMN;BGEHHAVMRVXCGR;POULHZVOKOAJMA;UHUFTBALEZWWIH;SZHOJFHSIKHZHA;XGQJZNCFDLXSIJ;TUNFSRHWOTWDNC;NIOYUNMRJMEDGI;WQEPLUUGTLDZJY;IPCSVZSSVZVIGE
SubstructureOntologies: CHEMONTID:0002500;CHEMONTID:0004476;CHEMONTID:0001831;CHEMONTID:0002230;CHEMONTID:0001167;CHEMONTID:0002434;CHEMONTID:0001205;CHEMONTID:0001238;CHEMONTID:0000286;CHEMONTID:0003416;CHEMONTID:0001019;CHEMONTID:0000333;CHEMONTID:0002229;CHEMONTID:0001334;CHEMONTID:0002841;CHEMONTID:0003086;CHEMONTID:0000298;CHEMONTID:0002949
Ontology: Wax monoesters
OntologyID: CHEMONTID:0003322
RETENTIONTIME: -1
RETENTIONINDEX: -1
TotalBondEnergy: 38787
TotalScore: 6.4941
TotalHrRulesScore: 1
TotalBondCleavageScore: 1
TotalMassAccuracyScore: 0.9998
TotalFragmentLinkageScore: 1
TotalBondDissociationEnergyScore: 1
DatabaseScore: 0.5238
SubstructureAssignmentScore: 0
RtSimilarityScore: -1
RiSimilarityScore: 0
Num Fragment VS2 (M/Z Intensity MatchedExactMass SaturatedExactMass Formula RearrangedHydrogen PPM MassDiff_mDa IsEvenElectronRule IsHrRule IsSolventAdductFragment AssignedAdductMass AdductString BondDissociationEnergy TreeDepth SMILES TotalScore HrLikelihood BcLikelihood MaLikelihood FlLikelihood BeLikelihood): 1
503.483368	169747.787873	503.482252041038	502.474975585938	C34H62O2	1	2.22	1.12	True	True	False	0		0	0	O=C(OCCCCCCCCC=CCC=CCC=CCC)CCCCCCCCCCCCCCC	4.99975097179413	1	1	0.999750971794128	1	1

NAME: Palmitoleyl linoleate
ID: NBQPSZXASLEDFA
IsSpectrumSearch: False
INCHIKEY: NBQPSZXASLEDFA-PNBIJBBKSA-N
SMILES: O=C(OCCCCCCCCC=CCCCCCC)CCCCCCCC=CCC=CCCCCC
RESOURCES: LipidMAPS=LMFA07010124
SubstructureInChIKeys: VNWKTOKETHGBQD;VGGSQFUCUMXWEO;WSFSSNUMVMOOMR;OTMSDBZUPAUEDD;IKHGUXGNUITLKF;ATUOYWHBWRKTHZ;LCGLNKUTAGEVQW;IAQRGUVFOMOMEM;VXNZUUAINFGPBY;NBBJYMSMWIIQGU;IJDNQMDRQITEOD;QTBSBXVTEAMEQO;TZIHFWKZFHZASV;BDERNNFJNOPAEC;XOBKSJJDNFUZPF;QMMOXUPEWRXHJS;YWAKXRMUMFPDSH;ZTQSAGDEMFDKMZ;OFBQJSOFQDEBGM;KXKVLQRXCPHEJC;WBJINCZRORDGAQ;XBDQKXXYIPTUBI;LRHPLDYGYMQRHN;VNKYTQGIUYNRMY;PRBHEGAFLDMLAL;LIKMAJRDDDTEIG;RYPKRALMXUUNKS;ZQDPJFUHLCOCRG;HGBOYTHUEUWSSQ;VLKZOEOYAKHREP;FERIUCNNQQJTOY;XEKOWRVHYACXOJ;AMQJEAYHLZJPGS;FMAMSYPJXSEYSW;WZHKDGJSXCTSCK;ZGEGCLOFRBLKSE;JARKCYVAAOWBJS;IMNFDUFMRHMDMM;NQPDZGIKBAWPEJ;ZSIAUFGUXNUGDI;GDDAJHJRAKOILH;KWKAKUADMBZCLK;FXHGMKSSBGDXIY;TVMXDCGIABBOFY;FUZZWVXGSFPDMH;NMFOAHIHPAPYJJ;IICQZTQZQSBHBY;KPADFPAILITQBG;NUJGJRNETVAIRJ;MNWFXJYAOYHMED;GYHFUZHODSMOHU;WWZKQHOCKIZLMA;FBUKVWPVBMHYJY;KMGXOQZDOIYYBO;SORBVCZQFFPNBZ;RVEKLXYYCHAMDF;HXLZULGRVFOIDK;LEIXEEFBKOMCEQ;OYHQOLUKZRVURQ
SubstructureOntologies: CHEMONTID:0002500;CHEMONTID:0004476;CHEMONTID:0001831;CHEMONTID:0002230;CHEMONTID:0001167;CHEMONTID:0002434;CHEMONTID:0001205;CHEMONTID:0001238;CHEMONTID:0000286;CHEMONTID:0003416;CHEMONTID:0001019;CHEMONTID:0000333;CHEMONTID:0002229;CHEMONTID:0001334;CHEMONTID:0003086;CHEMONTID:0000298;CHEMONTID:0002949
Ontology: Wax monoesters
OntologyID: CHEMONTID:0003322
RETENTIONTIME: -1
RETENTIONINDEX: -1
TotalBondEnergy: 38787
TotalScore: 6.4941
TotalHrRulesScore: 1
TotalBondCleavageScore: 1
TotalMassAccuracyScore: 0.9998
TotalFragmentLinkageScore: 1
TotalBondDissociationEnergyScore: 1
DatabaseScore: 0.5238
SubstructureAssignmentScore: 0
RtSimilarityScore: -1
RiSimilarityScore: 0
Num Fragment VS2 (M/Z Intensity MatchedExactMass SaturatedExactMass Formula RearrangedHydrogen PPM MassDiff_mDa IsEvenElectronRule IsHrRule IsSolventAdductFragment AssignedAdductMass AdductString BondDissociationEnergy TreeDepth SMILES TotalScore HrLikelihood BcLikelihood MaLikelihood FlLikelihood BeLikelihood): 1
503.483368	169747.787873	503.482252041038	502.474975585938	C34H62O2	1	2.22	1.12	True	True	False	0		0	0	O=C(OCCCCCCCCC=CCCCCCC)CCCCCCCC=CCC=CCCCCC	4.99975097179413	1	1	0.999750971794128	1	1

NAME: Palmityl linolenate
ID: SVUULQMAQXFENX
IsSpectrumSearch: False
INCHIKEY: SVUULQMAQXFENX-JTBMWNAQSA-N
SMILES: O=C(OCCCCCCCCCCCCCCCC)CCCCCCCC=CCC=CCC=CCC
RESOURCES: LipidMAPS=LMFA07010125
SubstructureInChIKeys: VNWKTOKETHGBQD;VGGSQFUCUMXWEO;WSFSSNUMVMOOMR;OTMSDBZUPAUEDD;IKHGUXGNUITLKF;ATUOYWHBWRKTHZ;LCGLNKUTAGEVQW;IAQRGUVFOMOMEM;VXNZUUAINFGPBY;NBBJYMSMWIIQGU;IJDNQMDRQITEOD;QTBSBXVTEAMEQO;TZIHFWKZFHZASV;BDERNNFJNOPAEC;XOBKSJJDNFUZPF;QMMOXUPEWRXHJS;YWAKXRMUMFPDSH;ZTQSAGDEMFDKMZ;OFBQJSOFQDEBGM;KXKVLQRXCPHEJC;WBJINCZRORDGAQ;XBDQKXXYIPTUBI;LRHPLDYGYMQRHN;VNKYTQGIUYNRMY;PRBHEGAFLDMLAL;LIKMAJRDDDTEIG;RYPKRALMXUUNKS;ZQDPJFUHLCOCRG;HGBOYTHUEUWSSQ;VLKZOEOYAKHREP;FERIUCNNQQJTOY;XEKOWRVHYACXOJ;AMQJEAYHLZJPGS;FMAMSYPJXSEYSW;WZHKDGJSXCTSCK;ZGEGCLOFRBLKSE;JARKCYVAAOWBJS;IMNFDUFMRHMDMM;NQPDZGIKBAWPEJ;ZSIAUFGUXNUGDI;BUAQSUJYSBQTHA;GDDAJHJRAKOILH;KWKAKUADMBZCLK;FXHGMKSSBGDXIY;TVMXDCGIABBOFY;FUZZWVXGSFPDMH;NABXNTPHRFMODH;NMFOAHIHPAPYJJ;IICQZTQZQSBHBY;KPADFPAILITQBG;NUJGJRNETVAIRJ;MNWFXJYAOYHMED;GYHFUZHODSMOHU;WWZKQHOCKIZLMA;FBUKVWPVBMHYJY;USMAGXMGZXKLHT;KBGYPXOSNDMZRV;TUCMDDWTBVMRTP;DTOSIQBPPRVQHS
SubstructureOntologies: CHEMONTID:0002500;CHEMONTID:0004476;CHEMONTID:0001831;CHEMONTID:0002230;CHEMONTID:0001167;CHEMONTID:0002434;CHEMONTID:0001205;CHEMONTID:0001238;CHEMONTID:0000286;CHEMONTID:0003416;CHEMONTID:0001019;CHEMONTID:0000333;CHEMONTID:0002229;CHEMONTID:0001334;CHEMONTID:0002841;CHEMONTID:0003086;CHEMONTID:0000298;CHEMONTID:0002949
Ontology: Wax monoesters
OntologyID: CHEMONTID:0003322
RETENTIONTIME: -1
RETENTIONINDEX: -1
TotalBondEnergy: 38787
TotalScore: 6.4941
TotalHrRulesScore: 1
TotalBondCleavageScore: 1
TotalMassAccuracyScore: 0.9998
TotalFragmentLinkageScore: 1
TotalBondDissociationEnergyScore: 1
DatabaseScore: 0.5238
SubstructureAssignmentScore: 0
RtSimilarityScore: -1
RiSimilarityScore: 0
Num Fragment VS2 (M/Z Intensity MatchedExactMass SaturatedExactMass Formula RearrangedHydrogen PPM MassDiff_mDa IsEvenElectronRule IsHrRule IsSolventAdductFragment AssignedAdductMass AdductString BondDissociationEnergy TreeDepth SMILES TotalScore HrLikelihood BcLikelihood MaLikelihood FlLikelihood BeLikelihood): 1
503.483368	169747.787873	503.482252041038	502.474975585938	C34H62O2	1	2.22	1.12	True	True	False	0		0	0	O=C(OCCCCCCCCCCCCCCCC)CCCCCCCC=CCC=CCC=CCC	4.99975097179413	1	1	0.999750971794128	1	1

