NAME: C00051309
ID: QLFRXAKUUDRERJ
IsSpectrumSearch: False
INCHIKEY: QLFRXAKUUDRERJ-PHYSXVDHNA-N
SMILES: OOC(C=CCC(O)(C)C1OC(C)(CC1)C2OC(CC2)C3(OC(CC3)C(O)(C)CC=CC(O)(C)C)(C))(C)C
RESOURCES: KNApSAcK=C00051309,UNPD=UNPD131778;UNPD2873;UNPD67113
SubstructureInChIKeys: VNWKTOKETHGBQD;XLYOFNOQVPJJNP;VGGSQFUCUMXWEO;OTMSDBZUPAUEDD;OKKJLVBELUTLKV;ATUOYWHBWRKTHZ;LCGLNKUTAGEVQW;LFQSCWFLJHTTHZ;IAQRGUVFOMOMEM;VXNZUUAINFGPBY;XXROGKLTLUQVRX;IJDNQMDRQITEOD;NNPPMTNAJDCUHE;BDERNNFJNOPAEC;KFZMGEQAYNKOFK;XOBKSJJDNFUZPF;LYCAIKOWRPUZTN;QMMOXUPEWRXHJS;YWAKXRMUMFPDSH;MKUWVMRNQOOSAT;ZSPTYLOMNJNZNG;OFBQJSOFQDEBGM;QWTDNUCVQCZILF;BTANRVKWQNVYAZ;LRHPLDYGYMQRHN;VNKYTQGIUYNRMY;ZXEKIIBDNHEJCQ;DNIAPMSPPWPWGF;XNWFRZJHXBZDAG;VIBDJEWPNNCFQO;LIKMAJRDDDTEIG;RYPKRALMXUUNKS;ZQDPJFUHLCOCRG;FSUXYWPILZJGCC;GJYMQFMQRRNLCY;JWUJQDFVADABEY;AFABGHUZZDYHJO;PFEOZHBOMNWTJB;VLKZOEOYAKHREP;AMQJEAYHLZJPGS;AQIXEPGDORPWBJ;FVNIMHIOIXPIQT;JYVLIDXNZAXMDK;MXLMTQWGSQIYOW;BMRWNKZVCUKKSR;YTTFFPATQICAQN;ZNQVEEAIQZEUHB;WZHKDGJSXCTSCK;ZGEGCLOFRBLKSE;UFLHIIWVXFIJGU;IMNFDUFMRHMDMM;VLJXXKKOSFGPHI;ZSIAUFGUXNUGDI;WCVRQHFDJLLWFE;XLMFDCKSFJWJTP;MTHSVFCYNBDYFN;KWKAKUADMBZCLK;JVSWJIKNEAIKJW;TVMXDCGIABBOFY;CETWDUZRCINIHU;IICQZTQZQSBHBY;KPADFPAILITQBG;LZHHQGKEJNRBAZ;ZDAWZDFBPUUDAY
SubstructureOntologies: CHEMONTID:0002500;NonID:H2O;CHEMONTID:0004476;CHEMONTID:0000286;CHEMONTID:0001167;CHEMONTID:0004620;CHEMONTID:0001661;CHEMONTID:0002467;CHEMONTID:0002286;CHEMONTID:0002648;CHEMONTID:0001334
Ontology: Triterpenoids
OntologyID: CHEMONTID:0001553
RETENTIONTIME: -1
RETENTIONINDEX: -1
TotalBondEnergy: 35832
TotalScore: 5.7615
TotalHrRulesScore: 0.5
TotalBondCleavageScore: 0.414
TotalMassAccuracyScore: 0.4701
TotalFragmentLinkageScore: 0.5
TotalBondDissociationEnergyScore: 0.3655
DatabaseScore: 0.5476
SubstructureAssignmentScore: 0.0667
RtSimilarityScore: -1
RiSimilarityScore: 0
Num Fragment VS2 (M/Z Intensity MatchedExactMass SaturatedExactMass Formula RearrangedHydrogen PPM MassDiff_mDa IsEvenElectronRule IsHrRule IsSolventAdductFragment AssignedAdductMass AdductString BondDissociationEnergy TreeDepth SMILES TotalScore HrLikelihood BcLikelihood MaLikelihood FlLikelihood BeLikelihood): 2
121.089264	20471.337059	121.0647933626	128.1201171875	C8H16O	-7	202.09	24.47	True	True	False	0		1408	2	O1C(CC)CCC1CC	4.00519191386833	1	0.656099915504456	0.887131154537201	1	0.461960843826671
541.367734	60962.449516	541.3734873926	540.3662109375	C30H52O8	1	10.63	5.75	True	True	False	0		0	0	OOC(C=CCC(O)(C)C1OC(C)(CC1)C2OC(CC2)C3(OC(CC3)C(O)(C)CC=CC(O)(C)C)(C))(C)C	4.99340158700943	1	1	0.99340158700943	1	1

NAME: C00050637
ID: PQRVPZFTCGLBGP
IsSpectrumSearch: False
INCHIKEY: PQRVPZFTCGLBGP-LBILUXRXNA-N
SMILES: OCC(C)CCCC(C)C2C1OC(OC1C3C4(O)(C(O)C(O)C5C(O)C(O)CCC5(C)(C4(CCC23(C)))))(C)C
RESOURCES: KNApSAcK=C00050637,UNPD=UNPD21300
SubstructureInChIKeys: VNWKTOKETHGBQD;XLYOFNOQVPJJNP;OTMSDBZUPAUEDD;OKKJLVBELUTLKV;ATUOYWHBWRKTHZ;LCGLNKUTAGEVQW;LFQSCWFLJHTTHZ;CKFGINPQOCXMAZ;IJDNQMDRQITEOD;NNPPMTNAJDCUHE;BDERNNFJNOPAEC;KFZMGEQAYNKOFK;XOBKSJJDNFUZPF;LYCAIKOWRPUZTN;RGSFGYAAUTVSQA;OFBQJSOFQDEBGM;QWTDNUCVQCZILF;BTANRVKWQNVYAZ;LRHPLDYGYMQRHN;VNKYTQGIUYNRMY;ZXEKIIBDNHEJCQ;DNIAPMSPPWPWGF;RRLWYLINGKISHN;XNWFRZJHXBZDAG;YPFDHNVEDLHUCE;VIBDJEWPNNCFQO;GDOPTJXRTPNYNR;XDTMQSROBMDMFD;AFABGHUZZDYHJO;HNRMPXKDFBEGFZ;PFEOZHBOMNWTJB;VLKZOEOYAKHREP;AMQJEAYHLZJPGS;AQIXEPGDORPWBJ;FVNIMHIOIXPIQT;JYVLIDXNZAXMDK;MXLMTQWGSQIYOW;PHTQWCKDNZKARW;BMRWNKZVCUKKSR;CHCLGECDSSWNCP;JDFDHBSESGTDAL;PUPZLCDOIYMWBV;QWGRWMMWNDWRQN;YTTFFPATQICAQN;ZNQVEEAIQZEUHB;PEDCQBHIVMGVHV;QWHNJUXXYKPLQM;UAEPNZWRGJTJPN;HPXRVTGHNJAIIH;BZHMBWZPUJHVEE;IMNFDUFMRHMDMM;VLJXXKKOSFGPHI;ZSIAUFGUXNUGDI;KLKFAASOGCDTDT;QONBKISCDWCHKF;WCVRQHFDJLLWFE;XLMFDCKSFJWJTP;ARXKVVRQIIOZGF;YAXKTBLXMTYWDQ;MQVRLONNONYDJP;KVZJLSYJROEPSQ;LETYIFNDQBJGPJ;QEGNUYASOUJEHD;SGVUHPSBDNVHKL;MQWCXKGKQLNYQG;JVSWJIKNEAIKJW;TVMXDCGIABBOFY;CETWDUZRCINIHU;OVOVDHYEOQJKMD;AALKGALVYCZETF;PYOLJOJPIPCRDP;XARGIVYWQPXRTC;ZBAXJUPCYVIBSP;ZDAWZDFBPUUDAY;GGWBGCSGJCRVIQ;BUOAKQCLRBVIOX;HIVFIUIKABOGIO;YLZKVXHQMPWDBJ;SOUITUXPBGREAE;KGBMCONWCCBLAE;VTXRDCQMLXABHJ;RUIACMUVCHMOMF;IRXJZDLOCNJAHE;XBENKLBOLWZLNQ;OTBOAOSTJYUVHP;HZNDJPAXRXLIOU;RBTVCRWROCDIOQ;WJXVLZCOWIIKOS
SubstructureOntologies: CHEMONTID:0002500;NonID:H2O;CHEMONTID:0000286;CHEMONTID:0001167;CHEMONTID:0001605;CHEMONTID:0004620;CHEMONTID:0001661;CHEMONTID:0002467;CHEMONTID:0001016;CHEMONTID:0001092;CHEMONTID:0002286;CHEMONTID:0001656;CHEMONTID:0002210;CHEMONTID:0002647;CHEMONTID:0001334;CHEMONTID:0004149;CHEMONTID:0001401;CHEMONTID:0003569;CHEMONTID:0001468
Ontology: Dihydroxy bile acids, alcohols and derivatives
OntologyID: CHEMONTID:0000516
RETENTIONTIME: -1
RETENTIONINDEX: -1
TotalBondEnergy: 36312
TotalScore: 5.6845
TotalHrRulesScore: 0.5
TotalBondCleavageScore: 0.291
TotalMassAccuracyScore: 0.4978
TotalFragmentLinkageScore: 0.5
TotalBondDissociationEnergyScore: 0.2958
DatabaseScore: 0.5476
SubstructureAssignmentScore: 0.0435
RtSimilarityScore: -1
RiSimilarityScore: 0
Num Fragment VS2 (M/Z Intensity MatchedExactMass SaturatedExactMass Formula RearrangedHydrogen PPM MassDiff_mDa IsEvenElectronRule IsHrRule IsSolventAdductFragment AssignedAdductMass AdductString BondDissociationEnergy TreeDepth SMILES TotalScore HrLikelihood BcLikelihood MaLikelihood FlLikelihood BeLikelihood): 2
121.089264	20471.337059	121.085920253928	120.078643798828	C5H12O3	1	27.61	3.34	True	True	False	0		1384	2	OCC(O)C(O)CC	3.34487481372701	1	0.164024978876114	0.997766375541687	1	0.183083459309206
541.367734	60962.449516	541.3734873926	540.3662109375	C30H52O8	1	10.63	5.75	True	True	False	0		0	0	OCC(C)CCCC(C)C2C1OC(OC1C3C4(O)(C(O)C(O)C5C(O)C(O)CCC5(C)(C4(CCC23(C)))))(C)C	4.99340158700943	1	1	0.99340158700943	1	1

NAME: UNPD93082
ID: QMAXAPBSRWWXAO
IsSpectrumSearch: False
INCHIKEY: QMAXAPBSRWWXAO-KHIRJVGTNA-N
SMILES: O=C(OC2C(OC1OC(C)C(O)C(O)C1(O))CC3(C)(C(C(=CCC3(C2(C)(C)))C)CCC(C)CCO))C(C)C
RESOURCES: UNPD=UNPD93082
SubstructureInChIKeys: VNWKTOKETHGBQD;XLYOFNOQVPJJNP;VGGSQFUCUMXWEO;WSFSSNUMVMOOMR;OTMSDBZUPAUEDD;OKKJLVBELUTLKV;QQONPFPTGQHPMA;IKHGUXGNUITLKF;ATUOYWHBWRKTHZ;LCGLNKUTAGEVQW;LFQSCWFLJHTTHZ;CKFGINPQOCXMAZ;IAQRGUVFOMOMEM;VQTUBCCKSQIDNK;VXNZUUAINFGPBY;NBBJYMSMWIIQGU;IJDNQMDRQITEOD;NNPPMTNAJDCUHE;QTBSBXVTEAMEQO;TZIHFWKZFHZASV;BDERNNFJNOPAEC;KFZMGEQAYNKOFK;XOBKSJJDNFUZPF;LYCAIKOWRPUZTN;BKOOMYPCSUNDGP;QMMOXUPEWRXHJS;YWAKXRMUMFPDSH;OFBQJSOFQDEBGM;QWTDNUCVQCZILF;KXKVLQRXCPHEJC;WBJINCZRORDGAQ;XBDQKXXYIPTUBI;BTANRVKWQNVYAZ;LRHPLDYGYMQRHN;VNKYTQGIUYNRMY;ZXEKIIBDNHEJCQ;DNIAPMSPPWPWGF;RRLWYLINGKISHN;XNWFRZJHXBZDAG;YPFDHNVEDLHUCE;VIBDJEWPNNCFQO;BEQGRRJLJLVQAQ;LDTAOIUHUHHCMU;LIKMAJRDDDTEIG;RYPKRALMXUUNKS;XDTMQSROBMDMFD;ZQDPJFUHLCOCRG;AFABGHUZZDYHJO;HNRMPXKDFBEGFZ;PFEOZHBOMNWTJB;VLKZOEOYAKHREP;KQNPFQTWMSNSAP;XEKOWRVHYACXOJ;AMQJEAYHLZJPGS;AQIXEPGDORPWBJ;FVNIMHIOIXPIQT;JYVLIDXNZAXMDK;MXLMTQWGSQIYOW;PHTQWCKDNZKARW;BMRWNKZVCUKKSR;CHCLGECDSSWNCP;JDFDHBSESGTDAL;PUPZLCDOIYMWBV;YTTFFPATQICAQN;ZNQVEEAIQZEUHB;PEDCQBHIVMGVHV;UAEPNZWRGJTJPN;WZHKDGJSXCTSCK;ZGEGCLOFRBLKSE;HPXRVTGHNJAIIH;BZHMBWZPUJHVEE;IMNFDUFMRHMDMM;VLJXXKKOSFGPHI;ZSIAUFGUXNUGDI;KLKFAASOGCDTDT;WCVRQHFDJLLWFE;XLMFDCKSFJWJTP;ARXKVVRQIIOZGF;MTHSVFCYNBDYFN;YAXKTBLXMTYWDQ;MQVRLONNONYDJP;KVZJLSYJROEPSQ;KWKAKUADMBZCLK;QEGNUYASOUJEHD;SGVUHPSBDNVHKL;MQWCXKGKQLNYQG;JVSWJIKNEAIKJW;TVMXDCGIABBOFY;WDAXFOBOLVPGLV;CETWDUZRCINIHU;OVOVDHYEOQJKMD;MMQYUDBFDDEJBP;AALKGALVYCZETF;BXXXHBWYZKLUGM;GZXFYIDYTCWDDN;LOSWWGJGSSQDKH;UNXHWFMMPAWVPI;IICQZTQZQSBHBY;KPADFPAILITQBG;PYOLJOJPIPCRDP;XARGIVYWQPXRTC;ZBAXJUPCYVIBSP;UXUFMKFUJJLWKM;QXAMTEJJAZOINB;FJGNTEKSQVNVTJ;ZDAWZDFBPUUDAY;JJMZVBNCCUWEDF;BUOAKQCLRBVIOX;HIVFIUIKABOGIO;YLZKVXHQMPWDBJ;SOUITUXPBGREAE;BJBURJZEESAQPG;QVNPTEPOWBEITR;SRBFZHDQGSBBOR;GCLZXEJWFDSXJZ;HEBKCHPVOIAQTA;VTXRDCQMLXABHJ;QNKOVWCOVLYPKR;SHZGCJCMOBCMKK;ZBDGHWFPLXXWRD;XWASVAMCARPLHN;SKCKOFZKJLZSFA;IRXJZDLOCNJAHE;OHWCAVRRXKJCRB;UBUITGRMYNAZAX;NUQYJMDNHVQOME;OTBOAOSTJYUVHP;HRWQYCOJZMKBGI;DCZHIIAMPOQNQY;QTIFSOVGBSROEQ;WEKZOSZDHREWIU;BZQBQGKZJCGZCL;YHUSUSKGDGXWGS;YFDGNWYGKKBZDJ
SubstructureOntologies: CHEMONTID:0002500;NonID:H2O;CHEMONTID:0004476;CHEMONTID:0001831;CHEMONTID:0000286;CHEMONTID:0002230;CHEMONTID:0001167;CHEMONTID:0001605;CHEMONTID:0004622;CHEMONTID:0002434;CHEMONTID:0004620;CHEMONTID:0001205;CHEMONTID:0001238;CHEMONTID:0001661;CHEMONTID:0002467;CHEMONTID:0003416;CHEMONTID:0001092;CHEMONTID:0002286;CHEMONTID:0001016;CHEMONTID:0001656;CHEMONTID:0002210;CHEMONTID:0002647;CHEMONTID:0001334;CHEMONTID:0002012;CHEMONTID:0003263;CHEMONTID:0001497;CHEMONTID:0004149;CHEMONTID:0002207;CHEMONTID:0001498;NonID:Cholesteryl ester-lipid fragment;CHEMONTID:0001401
Ontology: Diterpene glycosides
OntologyID: CHEMONTID:0001755
RETENTIONTIME: -1
RETENTIONINDEX: -1
TotalBondEnergy: 36183
TotalScore: 4.9943
TotalHrRulesScore: 0.5
TotalBondCleavageScore: 0.4525
TotalMassAccuracyScore: 0.4978
TotalFragmentLinkageScore: 0.5
TotalBondDissociationEnergyScore: 0.4527
DatabaseScore: 0.2238
SubstructureAssignmentScore: 0.0286
RtSimilarityScore: -1
RiSimilarityScore: 0
Num Fragment VS2 (M/Z Intensity MatchedExactMass SaturatedExactMass Formula RearrangedHydrogen PPM MassDiff_mDa IsEvenElectronRule IsHrRule IsSolventAdductFragment AssignedAdductMass AdductString BondDissociationEnergy TreeDepth SMILES TotalScore HrLikelihood BcLikelihood MaLikelihood FlLikelihood BeLikelihood): 2
121.089264	20471.337059	121.085920253928	120.078643798828	C5H12O3	1	27.61	3.34	True	True	False	0		704	1	OCC(O)C(O)CC	4.61858129387003	1	0.809999942779541	0.997766375541687	1	0.810814975548805
541.367734	60962.449516	541.3734873926	540.3662109375	C30H52O8	1	10.63	5.75	True	True	False	0		0	0	O=C(OC2C(OC1OC(C)C(O)C(O)C1(O))CC3(C)(C(C(=CCC3(C2(C)(C)))C)CCC(C)CCO))C(C)C	4.99340158700943	1	1	0.99340158700943	1	1

