NAME: Isoleucylisoleucyl anhydride
ID: ZRLVJNQOEORYIS
IsSpectrumSearch: False
INCHIKEY: ZRLVJNQOEORYIS-UHFFFAOYNA-N
SMILES: O=C1NC(C(=O)NC1C(C)CC)C(C)CC
RESOURCES: KNApSAcK=C00011259;C00038887,UNPD=UNPD149337
SubstructureInChIKeys: VNWKTOKETHGBQD;WSFSSNUMVMOOMR;OTMSDBZUPAUEDD;IKHGUXGNUITLKF;ATUOYWHBWRKTHZ;ROSDSFDQCJNGOL;NBBJYMSMWIIQGU;IJDNQMDRQITEOD;NNPPMTNAJDCUHE;ATHHXGZTWNVVOU;LYIIBVSRGJSHAV;JJWLVOIRVHMVIS;LIWAQLJGPBVORC;ZTQSAGDEMFDKMZ;OFBQJSOFQDEBGM;QWTDNUCVQCZILF;GVWISOJSERXQBM;HPNMFZURTQLUMO;HQABUPZFAYXKJW;KDSNLYIMUZNERS;XHFGWHUWQXTGAT;HGBOYTHUEUWSSQ;PFEOZHBOMNWTJB;FGEPRNXUNITOCW;SUUDTPGCUKBECW;BMFVGAAISNGQNM;DPBLXKKOBLCELK;QCOGKXLOEWLIDC;VJROPLWGFCORRM;DVOFEOSDXAVUJD;VLSTXUUYLIALPB;QCAAXUQRSHUEHU;SKPCTMWFLGENTL;JDAMFKGXSUOWBV
SubstructureOntologies: CHEMONTID:0002500;CHEMONTID:0001831;CHEMONTID:0002230;CHEMONTID:0002228;CHEMONTID:0002434;CHEMONTID:0004620;CHEMONTID:0002484;CHEMONTID:0000469;CHEMONTID:0001663;CHEMONTID:0002309;CHEMONTID:0004330
Ontology: Alpha amino acids and derivatives
OntologyID: CHEMONTID:0000060
RETENTIONTIME: -1
RETENTIONINDEX: -1
TotalBondEnergy: 15170
TotalScore: 6.7759
TotalHrRulesScore: 1
TotalBondCleavageScore: 1
TotalMassAccuracyScore: 0.9958
TotalFragmentLinkageScore: 1
TotalBondDissociationEnergyScore: 1
DatabaseScore: 0.5476
SubstructureAssignmentScore: 0
RtSimilarityScore: -1
RiSimilarityScore: 0
Num Fragment VS2 (M/Z Intensity MatchedExactMass SaturatedExactMass Formula RearrangedHydrogen PPM MassDiff_mDa IsEvenElectronRule IsHrRule IsSolventAdductFragment AssignedAdductMass AdductString BondDissociationEnergy TreeDepth SMILES TotalScore HrLikelihood BcLikelihood MaLikelihood FlLikelihood BeLikelihood): 1
227.180011	337526.508866	227.175397792991	226.168121337891	C12H22N2O2	1	20.31	4.61	True	True	False	0		0	0	O=C1NC(C(=O)NC1C(C)CC)C(C)CC	4.9957526922226	1	1	0.995752692222595	1	1

NAME: 1,8-diazacyclotetradecane-2,9-dione
ID: HERSSAVMHCMYSQ
IsSpectrumSearch: False
INCHIKEY: HERSSAVMHCMYSQ-UHFFFAOYSA-N
SMILES: O=C1NCCCCCC(=O)NCCCCC1
RESOURCES: ChEBI=CHEBI:16968,PubChem=16
SubstructureInChIKeys: WSFSSNUMVMOOMR;OTMSDBZUPAUEDD;IKHGUXGNUITLKF;ATUOYWHBWRKTHZ;ROSDSFDQCJNGOL;NBBJYMSMWIIQGU;IJDNQMDRQITEOD;ATHHXGZTWNVVOU;LIWAQLJGPBVORC;ZTQSAGDEMFDKMZ;OFBQJSOFQDEBGM;GVWISOJSERXQBM;HPNMFZURTQLUMO;HQABUPZFAYXKJW;HGBOYTHUEUWSSQ;VLKZOEOYAKHREP;SUUDTPGCUKBECW;DPBLXKKOBLCELK;QCOGKXLOEWLIDC;JARKCYVAAOWBJS
SubstructureOntologies: CHEMONTID:0001831;CHEMONTID:0002500;CHEMONTID:0002230;CHEMONTID:0002228;CHEMONTID:0002434;CHEMONTID:0002484;CHEMONTID:0000469;CHEMONTID:0001663;CHEMONTID:0002229
Ontology: Macrolactams
OntologyID: CHEMONTID:0000064
RETENTIONTIME: -1
RETENTIONINDEX: -1
TotalBondEnergy: 15170
TotalScore: 6.7759
TotalHrRulesScore: 1
TotalBondCleavageScore: 1
TotalMassAccuracyScore: 0.9958
TotalFragmentLinkageScore: 1
TotalBondDissociationEnergyScore: 1
DatabaseScore: 0.5476
SubstructureAssignmentScore: 0
RtSimilarityScore: -1
RiSimilarityScore: 0
Num Fragment VS2 (M/Z Intensity MatchedExactMass SaturatedExactMass Formula RearrangedHydrogen PPM MassDiff_mDa IsEvenElectronRule IsHrRule IsSolventAdductFragment AssignedAdductMass AdductString BondDissociationEnergy TreeDepth SMILES TotalScore HrLikelihood BcLikelihood MaLikelihood FlLikelihood BeLikelihood): 1
227.180011	337526.508866	227.175397792991	226.168121337891	C12H22N2O2	1	20.31	4.61	True	True	False	0		0	0	O=C1NCCCCCC(=O)NCCCCC1	4.9957526922226	1	1	0.995752692222595	1	1

NAME: cyclo(L-leucyl-L-leucyl)
ID: XWYXUMDVQIOAPR
IsSpectrumSearch: False
INCHIKEY: XWYXUMDVQIOAPR-WSYQHHSTNA-N
SMILES: O=C1NC(C(=O)NC1CC(C)C)CC(C)C
RESOURCES: ChEBI=CHEBI:67269,UNPD=UNPD126776
SubstructureInChIKeys: VNWKTOKETHGBQD;WSFSSNUMVMOOMR;IKHGUXGNUITLKF;ATUOYWHBWRKTHZ;ROSDSFDQCJNGOL;NBBJYMSMWIIQGU;IJDNQMDRQITEOD;NNPPMTNAJDCUHE;ATHHXGZTWNVVOU;LYIIBVSRGJSHAV;JJWLVOIRVHMVIS;LIWAQLJGPBVORC;ZTQSAGDEMFDKMZ;OFBQJSOFQDEBGM;QWTDNUCVQCZILF;GVWISOJSERXQBM;HPNMFZURTQLUMO;HQABUPZFAYXKJW;XHFGWHUWQXTGAT;HGBOYTHUEUWSSQ;AFABGHUZZDYHJO;FGEPRNXUNITOCW;SUUDTPGCUKBECW;BMFVGAAISNGQNM;DPBLXKKOBLCELK;QCOGKXLOEWLIDC;VLSTXUUYLIALPB;ZOFRRNUENOHELM;SKPCTMWFLGENTL
SubstructureOntologies: CHEMONTID:0002500;CHEMONTID:0001831;CHEMONTID:0002230;CHEMONTID:0002228;CHEMONTID:0002434;CHEMONTID:0004620;CHEMONTID:0002484;CHEMONTID:0000469;CHEMONTID:0001663;CHEMONTID:0002309
Ontology: Alpha amino acids and derivatives
OntologyID: CHEMONTID:0000060
RETENTIONTIME: -1
RETENTIONINDEX: -1
TotalBondEnergy: 15170
TotalScore: 6.7759
TotalHrRulesScore: 1
TotalBondCleavageScore: 1
TotalMassAccuracyScore: 0.9958
TotalFragmentLinkageScore: 1
TotalBondDissociationEnergyScore: 1
DatabaseScore: 0.5476
SubstructureAssignmentScore: 0
RtSimilarityScore: -1
RiSimilarityScore: 0
Num Fragment VS2 (M/Z Intensity MatchedExactMass SaturatedExactMass Formula RearrangedHydrogen PPM MassDiff_mDa IsEvenElectronRule IsHrRule IsSolventAdductFragment AssignedAdductMass AdductString BondDissociationEnergy TreeDepth SMILES TotalScore HrLikelihood BcLikelihood MaLikelihood FlLikelihood BeLikelihood): 1
227.180011	337526.508866	227.175397792991	226.168121337891	C12H22N2O2	1	20.31	4.61	True	True	False	0		0	0	O=C1NC(C(=O)NC1CC(C)C)CC(C)C	4.9957526922226	1	1	0.995752692222595	1	1

NAME: crotetamide
ID: LSAMUAYPDHUBQD
IsSpectrumSearch: False
INCHIKEY: LSAMUAYPDHUBQD-RMKNXTFCNA-N
SMILES: O=C(C=CC)N(CC)C(C(=O)N(C)C)CC
RESOURCES: ChEBI=CHEBI:134931
SubstructureInChIKeys: VNWKTOKETHGBQD;VGGSQFUCUMXWEO;WSFSSNUMVMOOMR;OTMSDBZUPAUEDD;QQONPFPTGQHPMA;IKHGUXGNUITLKF;ATUOYWHBWRKTHZ;ROSDSFDQCJNGOL;HGINCPLSRVDWNT;IAQRGUVFOMOMEM;NBBJYMSMWIIQGU;IJDNQMDRQITEOD;ATHHXGZTWNVVOU;LYIIBVSRGJSHAV;GETQZCLCWQTVFV;JJWLVOIRVHMVIS;LIWAQLJGPBVORC;MLUCVPSAIODCQM;ZTQSAGDEMFDKMZ;DAZXVJBJRMWXJP;GVWISOJSERXQBM;HPNMFZURTQLUMO;HQABUPZFAYXKJW;XHFGWHUWQXTGAT;FGEPRNXUNITOCW;SUUDTPGCUKBECW;GNVRJGIVDSQCOP;QCOGKXLOEWLIDC;ZUHZZVMEUAUWHY;DJEQZVQFEPKLOY;SMBYUOXUISCLCF;ZMANZCXQSJIPKH
SubstructureOntologies: CHEMONTID:0002500;CHEMONTID:0004476;CHEMONTID:0001831;CHEMONTID:0002230;CHEMONTID:0002228;CHEMONTID:0002436;CHEMONTID:0002434;CHEMONTID:0002484;CHEMONTID:0000469;CHEMONTID:0002239;CHEMONTID:0001663
Ontology: Alpha amino acids and derivatives
OntologyID: CHEMONTID:0000060
RETENTIONTIME: -1
RETENTIONINDEX: -1
TotalBondEnergy: 15048
TotalScore: 6.7164
TotalHrRulesScore: 1
TotalBondCleavageScore: 1
TotalMassAccuracyScore: 0.9958
TotalFragmentLinkageScore: 1
TotalBondDissociationEnergyScore: 1
DatabaseScore: 0.5238
SubstructureAssignmentScore: 0
RtSimilarityScore: -1
RiSimilarityScore: 0
Num Fragment VS2 (M/Z Intensity MatchedExactMass SaturatedExactMass Formula RearrangedHydrogen PPM MassDiff_mDa IsEvenElectronRule IsHrRule IsSolventAdductFragment AssignedAdductMass AdductString BondDissociationEnergy TreeDepth SMILES TotalScore HrLikelihood BcLikelihood MaLikelihood FlLikelihood BeLikelihood): 1
227.180011	337526.508866	227.175397792991	226.168121337891	C12H22N2O2	1	20.31	4.61	True	True	False	0		0	0	O=C(C=CC)N(CC)C(C(=O)N(C)C)CC	4.9957526922226	1	1	0.995752692222595	1	1

NAME: 6-(2-HYDROXY-CYCLOPENTYL)-7-OXO-HEPTANAMIDINE
ID: FCDJKFJACUMSOZ
IsSpectrumSearch: False
INCHIKEY: FCDJKFJACUMSOZ-PJPQYYKPNA-N
SMILES: O=CC(CCCCC(=N)N)C1CCCC1(O)
RESOURCES: DrugBank=DB06861
SubstructureInChIKeys: QGZKDVFQNNGYKY;XLYOFNOQVPJJNP;WDWDWGRYHDPSDS;WSFSSNUMVMOOMR;OTMSDBZUPAUEDD;OKKJLVBELUTLKV;IKHGUXGNUITLKF;PNKUSGQVOMIXLU;ATUOYWHBWRKTHZ;QUSNBJAOOMFDIB;LFQSCWFLJHTTHZ;NBBJYMSMWIIQGU;IJDNQMDRQITEOD;NNPPMTNAJDCUHE;WGYKZJWCGVVSQN;BDERNNFJNOPAEC;KFZMGEQAYNKOFK;RGSFGYAAUTVSQA;ZTQSAGDEMFDKMZ;OFBQJSOFQDEBGM;QWTDNUCVQCZILF;HQABUPZFAYXKJW;BTANRVKWQNVYAZ;LRHPLDYGYMQRHN;ZXEKIIBDNHEJCQ;GDOPTJXRTPNYNR;HGBOYTHUEUWSSQ;AFABGHUZZDYHJO;PFEOZHBOMNWTJB;VLKZOEOYAKHREP;DPBLXKKOBLCELK;AMQJEAYHLZJPGS;AQIXEPGDORPWBJ;JYVLIDXNZAXMDK;MXLMTQWGSQIYOW;PHTQWCKDNZKARW;BVIJQMCYYASIFP;JARKCYVAAOWBJS;IMNFDUFMRHMDMM;VLJXXKKOSFGPHI;ZSIAUFGUXNUGDI;FXHGMKSSBGDXIY;JVSWJIKNEAIKJW;TVMXDCGIABBOFY;CETWDUZRCINIHU;NUJGJRNETVAIRJ
SubstructureOntologies: NonID:NH2;NonID:H2O;CHEMONTID:0000117;CHEMONTID:0001831;CHEMONTID:0002500;CHEMONTID:0000286;CHEMONTID:0002230;CHEMONTID:0001045;CHEMONTID:0000469;CHEMONTID:0002434;CHEMONTID:0004620;CHEMONTID:0001661;CHEMONTID:0001016;CHEMONTID:0002938;CHEMONTID:0002229;CHEMONTID:0001334
Ontology: Cyclopentanols
OntologyID: CHEMONTID:0002938
RETENTIONTIME: -1
RETENTIONINDEX: -1
TotalBondEnergy: 15194
TotalScore: 6.7164
TotalHrRulesScore: 1
TotalBondCleavageScore: 1
TotalMassAccuracyScore: 0.9958
TotalFragmentLinkageScore: 1
TotalBondDissociationEnergyScore: 1
DatabaseScore: 0.5238
SubstructureAssignmentScore: 0
RtSimilarityScore: -1
RiSimilarityScore: 0
Num Fragment VS2 (M/Z Intensity MatchedExactMass SaturatedExactMass Formula RearrangedHydrogen PPM MassDiff_mDa IsEvenElectronRule IsHrRule IsSolventAdductFragment AssignedAdductMass AdductString BondDissociationEnergy TreeDepth SMILES TotalScore HrLikelihood BcLikelihood MaLikelihood FlLikelihood BeLikelihood): 1
227.180011	337526.508866	227.175397792991	226.168121337891	C12H22N2O2	1	20.31	4.61	True	True	False	0		0	0	O=CC(CCCCC(=N)N)C1CCCC1(O)	4.9957526922226	1	1	0.995752692222595	1	1

NAME: UNPD166877
ID: CCMDAWLYCNFDFN
IsSpectrumSearch: False
INCHIKEY: CCMDAWLYCNFDFN-WYVCTLLJNA-N
SMILES: O=C1NC(C(=O)NC1CC(C)C)C(C)CC
RESOURCES: UNPD=UNPD166877;UNPD98730
SubstructureInChIKeys: VNWKTOKETHGBQD;WSFSSNUMVMOOMR;OTMSDBZUPAUEDD;IKHGUXGNUITLKF;ATUOYWHBWRKTHZ;ROSDSFDQCJNGOL;NBBJYMSMWIIQGU;IJDNQMDRQITEOD;NNPPMTNAJDCUHE;ATHHXGZTWNVVOU;LYIIBVSRGJSHAV;JJWLVOIRVHMVIS;LIWAQLJGPBVORC;ZTQSAGDEMFDKMZ;OFBQJSOFQDEBGM;QWTDNUCVQCZILF;GVWISOJSERXQBM;HPNMFZURTQLUMO;HQABUPZFAYXKJW;KDSNLYIMUZNERS;XHFGWHUWQXTGAT;HGBOYTHUEUWSSQ;AFABGHUZZDYHJO;PFEOZHBOMNWTJB;FGEPRNXUNITOCW;SUUDTPGCUKBECW;BMFVGAAISNGQNM;DPBLXKKOBLCELK;QCOGKXLOEWLIDC;VJROPLWGFCORRM;DVOFEOSDXAVUJD;VLSTXUUYLIALPB;QCAAXUQRSHUEHU;ZOFRRNUENOHELM;SKPCTMWFLGENTL;JDAMFKGXSUOWBV
SubstructureOntologies: CHEMONTID:0002500;CHEMONTID:0001831;CHEMONTID:0002230;CHEMONTID:0002228;CHEMONTID:0002434;CHEMONTID:0004620;CHEMONTID:0002484;CHEMONTID:0000469;CHEMONTID:0001663;CHEMONTID:0002309;CHEMONTID:0004330
Ontology: Alpha amino acids and derivatives
OntologyID: CHEMONTID:0000060
RETENTIONTIME: -1
RETENTIONINDEX: -1
TotalBondEnergy: 15170
TotalScore: 5.9664
TotalHrRulesScore: 1
TotalBondCleavageScore: 1
TotalMassAccuracyScore: 0.9958
TotalFragmentLinkageScore: 1
TotalBondDissociationEnergyScore: 1
DatabaseScore: 0.2238
SubstructureAssignmentScore: 0
RtSimilarityScore: -1
RiSimilarityScore: 0
Num Fragment VS2 (M/Z Intensity MatchedExactMass SaturatedExactMass Formula RearrangedHydrogen PPM MassDiff_mDa IsEvenElectronRule IsHrRule IsSolventAdductFragment AssignedAdductMass AdductString BondDissociationEnergy TreeDepth SMILES TotalScore HrLikelihood BcLikelihood MaLikelihood FlLikelihood BeLikelihood): 1
227.180011	337526.508866	227.175397792991	226.168121337891	C12H22N2O2	1	20.31	4.61	True	True	False	0		0	0	O=C1NC(C(=O)NC1CC(C)C)C(C)CC	4.9957526922226	1	1	0.995752692222595	1	1

