NAME: (8E,15E)-1,8,15-Heptadecatriene-11,13-diyne
ID: OJWVHJFAQCYGMT
IsSpectrumSearch: False
INCHIKEY: OJWVHJFAQCYGMT-LPMQCFACSA-N
SMILES: C(C#CCC=CCCCCCC=C)#CC=CC
RESOURCES: HMDB=HMDB0031041,FooDB=FDB003035;FDB003036,UNPD=UNPD107286;UNPD139174;UNPD31099;UNPD213740;UNPD216263
SubstructureInChIKeys: VNWKTOKETHGBQD;VGGSQFUCUMXWEO;OTMSDBZUPAUEDD;QQONPFPTGQHPMA;ATUOYWHBWRKTHZ;IAQRGUVFOMOMEM;VXNZUUAINFGPBY;IJDNQMDRQITEOD;QMMOXUPEWRXHJS;YWAKXRMUMFPDSH;OFBQJSOFQDEBGM;LIKMAJRDDDTEIG;RYPKRALMXUUNKS;ZQDPJFUHLCOCRG;VLKZOEOYAKHREP;WZHKDGJSXCTSCK;ZGEGCLOFRBLKSE;IMNFDUFMRHMDMM;KWKAKUADMBZCLK;IICQZTQZQSBHBY;KPADFPAILITQBG
SubstructureOntologies: CHEMONTID:0002500;CHEMONTID:0004476
Ontology: Enynes
OntologyID: CHEMONTID:0001566
RETENTIONTIME: -1
RETENTIONINDEX: -1
TotalBondEnergy: 16324
TotalScore: 6.6642
TotalHrRulesScore: 1
TotalBondCleavageScore: 1
TotalMassAccuracyScore: 0.9999
TotalFragmentLinkageScore: 1
TotalBondDissociationEnergyScore: 1
DatabaseScore: 0.5714
SubstructureAssignmentScore: 0
RtSimilarityScore: -1
RiSimilarityScore: 0
Num Fragment VS2 (M/Z Intensity MatchedExactMass SaturatedExactMass Formula RearrangedHydrogen PPM MassDiff_mDa IsEvenElectronRule IsHrRule IsSolventAdductFragment AssignedAdductMass AdductString BondDissociationEnergy TreeDepth SMILES TotalScore HrLikelihood BcLikelihood MaLikelihood FlLikelihood BeLikelihood): 1
227.180011	337526.508866	227.179426113303	226.172149658203	C17H22	1	2.57	0.58	True	True	False	0		0	0	C(C#CCC=CCCCCCC=C)#CC=CC	4.9999315738678	1	1	0.999931573867798	1	1

NAME: UNPD10003
ID: KJZIXCGHDVCNHL
IsSpectrumSearch: False
INCHIKEY: KJZIXCGHDVCNHL-PBLBXTOHSA-N
SMILES: C(C#CC=CC)#CC=CC=CCCCCCC
RESOURCES: UNPD=UNPD10003;UNPD222159
SubstructureInChIKeys: VNWKTOKETHGBQD;VGGSQFUCUMXWEO;OTMSDBZUPAUEDD;QQONPFPTGQHPMA;ATUOYWHBWRKTHZ;IAQRGUVFOMOMEM;VXNZUUAINFGPBY;IJDNQMDRQITEOD;QMMOXUPEWRXHJS;YWAKXRMUMFPDSH;OFBQJSOFQDEBGM;LIKMAJRDDDTEIG;RYPKRALMXUUNKS;VLKZOEOYAKHREP;ZGEGCLOFRBLKSE;IMNFDUFMRHMDMM;KWKAKUADMBZCLK;IICQZTQZQSBHBY
SubstructureOntologies: CHEMONTID:0002500;CHEMONTID:0004476
Ontology: Enynes
OntologyID: CHEMONTID:0001566
RETENTIONTIME: -1
RETENTIONINDEX: -1
TotalBondEnergy: 16324
TotalScore: 5.7952
TotalHrRulesScore: 1
TotalBondCleavageScore: 1
TotalMassAccuracyScore: 0.9999
TotalFragmentLinkageScore: 1
TotalBondDissociationEnergyScore: 1
DatabaseScore: 0.2238
SubstructureAssignmentScore: 0
RtSimilarityScore: -1
RiSimilarityScore: 0
Num Fragment VS2 (M/Z Intensity MatchedExactMass SaturatedExactMass Formula RearrangedHydrogen PPM MassDiff_mDa IsEvenElectronRule IsHrRule IsSolventAdductFragment AssignedAdductMass AdductString BondDissociationEnergy TreeDepth SMILES TotalScore HrLikelihood BcLikelihood MaLikelihood FlLikelihood BeLikelihood): 1
227.180011	337526.508866	227.179426113303	226.172149658203	C17H22	1	2.57	0.58	True	True	False	0		0	0	C(C#CC=CC)#CC=CC=CCCCCCC	4.9999315738678	1	1	0.999931573867798	1	1

NAME: UNPD88153
ID: QXLWCTMPQRBCAQ
IsSpectrumSearch: False
INCHIKEY: QXLWCTMPQRBCAQ-KFAOCZDDSA-N
SMILES: C(#CC=CC=CCCCCC=C)C=CC=CC
RESOURCES: UNPD=UNPD88153;UNPD226302
SubstructureInChIKeys: VNWKTOKETHGBQD;VGGSQFUCUMXWEO;OTMSDBZUPAUEDD;QQONPFPTGQHPMA;ATUOYWHBWRKTHZ;IAQRGUVFOMOMEM;VXNZUUAINFGPBY;IJDNQMDRQITEOD;QMMOXUPEWRXHJS;YWAKXRMUMFPDSH;OFBQJSOFQDEBGM;LIKMAJRDDDTEIG;RYPKRALMXUUNKS;VLKZOEOYAKHREP;ZGEGCLOFRBLKSE
SubstructureOntologies: CHEMONTID:0002500;CHEMONTID:0004476
Ontology: Enynes
OntologyID: CHEMONTID:0001566
RETENTIONTIME: -1
RETENTIONINDEX: -1
TotalBondEnergy: 16347
TotalScore: 5.7952
TotalHrRulesScore: 1
TotalBondCleavageScore: 1
TotalMassAccuracyScore: 0.9999
TotalFragmentLinkageScore: 1
TotalBondDissociationEnergyScore: 1
DatabaseScore: 0.2238
SubstructureAssignmentScore: 0
RtSimilarityScore: -1
RiSimilarityScore: 0
Num Fragment VS2 (M/Z Intensity MatchedExactMass SaturatedExactMass Formula RearrangedHydrogen PPM MassDiff_mDa IsEvenElectronRule IsHrRule IsSolventAdductFragment AssignedAdductMass AdductString BondDissociationEnergy TreeDepth SMILES TotalScore HrLikelihood BcLikelihood MaLikelihood FlLikelihood BeLikelihood): 1
227.180011	337526.508866	227.179426113303	226.172149658203	C17H22	1	2.57	0.58	True	True	False	0		0	0	C(#CC=CC=CCCCCC=C)C=CC=CC	4.9999315738678	1	1	0.999931573867798	1	1

NAME: UNPD63147
ID: RDNRJLZBXUHRHN
IsSpectrumSearch: False
INCHIKEY: RDNRJLZBXUHRHN-TZSXFDEBSA-N
SMILES: C(C#CCCC)#CC=CC=CCCCCC=C
RESOURCES: UNPD=UNPD63147
SubstructureInChIKeys: VNWKTOKETHGBQD;VGGSQFUCUMXWEO;OTMSDBZUPAUEDD;ATUOYWHBWRKTHZ;IAQRGUVFOMOMEM;VXNZUUAINFGPBY;IJDNQMDRQITEOD;QMMOXUPEWRXHJS;YWAKXRMUMFPDSH;OFBQJSOFQDEBGM;LIKMAJRDDDTEIG;RYPKRALMXUUNKS;VLKZOEOYAKHREP;ZGEGCLOFRBLKSE
SubstructureOntologies: CHEMONTID:0002500;CHEMONTID:0004476
Ontology: Enynes
OntologyID: CHEMONTID:0001566
RETENTIONTIME: -1
RETENTIONINDEX: -1
TotalBondEnergy: 16324
TotalScore: 5.7952
TotalHrRulesScore: 1
TotalBondCleavageScore: 1
TotalMassAccuracyScore: 0.9999
TotalFragmentLinkageScore: 1
TotalBondDissociationEnergyScore: 1
DatabaseScore: 0.2238
SubstructureAssignmentScore: 0
RtSimilarityScore: -1
RiSimilarityScore: 0
Num Fragment VS2 (M/Z Intensity MatchedExactMass SaturatedExactMass Formula RearrangedHydrogen PPM MassDiff_mDa IsEvenElectronRule IsHrRule IsSolventAdductFragment AssignedAdductMass AdductString BondDissociationEnergy TreeDepth SMILES TotalScore HrLikelihood BcLikelihood MaLikelihood FlLikelihood BeLikelihood): 1
227.180011	337526.508866	227.179426113303	226.172149658203	C17H22	1	2.57	0.58	True	True	False	0		0	0	C(C#CCCC)#CC=CC=CCCCCC=C	4.9999315738678	1	1	0.999931573867798	1	1

NAME: UNPD2781
ID: WRLTVMQXNNNVTK
IsSpectrumSearch: False
INCHIKEY: WRLTVMQXNNNVTK-CARMZGJUSA-N
SMILES: C(#CC=CCCC)C=CC=CCCC=CC=C
RESOURCES: UNPD=UNPD2781
SubstructureInChIKeys: VNWKTOKETHGBQD;VGGSQFUCUMXWEO;OTMSDBZUPAUEDD;ATUOYWHBWRKTHZ;IAQRGUVFOMOMEM;VXNZUUAINFGPBY;IJDNQMDRQITEOD;QMMOXUPEWRXHJS;YWAKXRMUMFPDSH;RYPKRALMXUUNKS
SubstructureOntologies: CHEMONTID:0002500;CHEMONTID:0004476
Ontology: Enynes
OntologyID: CHEMONTID:0001566
RETENTIONTIME: -1
RETENTIONINDEX: -1
TotalBondEnergy: 16347
TotalScore: 5.7952
TotalHrRulesScore: 1
TotalBondCleavageScore: 1
TotalMassAccuracyScore: 0.9999
TotalFragmentLinkageScore: 1
TotalBondDissociationEnergyScore: 1
DatabaseScore: 0.2238
SubstructureAssignmentScore: 0
RtSimilarityScore: -1
RiSimilarityScore: 0
Num Fragment VS2 (M/Z Intensity MatchedExactMass SaturatedExactMass Formula RearrangedHydrogen PPM MassDiff_mDa IsEvenElectronRule IsHrRule IsSolventAdductFragment AssignedAdductMass AdductString BondDissociationEnergy TreeDepth SMILES TotalScore HrLikelihood BcLikelihood MaLikelihood FlLikelihood BeLikelihood): 1
227.180011	337526.508866	227.179426113303	226.172149658203	C17H22	1	2.57	0.58	True	True	False	0		0	0	C(#CC=CCCC)C=CC=CCCC=CC=C	4.9999315738678	1	1	0.999931573867798	1	1

