NAME: protoviolaceinic acid
ID: HNIIMOJBRIPGHJ
IsSpectrumSearch: False
INCHIKEY: HNIIMOJBRIPGHJ-UHFFFAOYSA-N
SMILES: O=C(O)C=3NC(=CC=3(C2=CNC=1C=CC=CC=12))C5=CNC=4C=CC(O)=CC=45
RESOURCES: ChEBI=CHEBI:90897;CHEBI:90898,PubChem=90658684;90658683
SubstructureInChIKeys: XLYOFNOQVPJJNP;WSFSSNUMVMOOMR;IKHGUXGNUITLKF;BDAGIHXWWSANSR;LFQSCWFLJHTTHZ;QTBSBXVTEAMEQO;UHOVQNZJYSORNB;ISWSIDIOOBJBQZ;IWDCLRJOBJJRNH;SIKJAQJRHWYJAI;FUGYGGDSWSUORM;HXDOZKJGKXYMEW;ZFRKQXVRDFCRJG;XAWPKHNOFIWWNZ;GOVXKUCVZUROAN
SubstructureOntologies: NonID:H2O;CHEMONTID:0001831;CHEMONTID:0002230;CHEMONTID:0001205;CHEMONTID:0000286;CHEMONTID:0002279;CHEMONTID:0004647;CHEMONTID:0001275;CHEMONTID:0002497;CHEMONTID:0000037;CHEMONTID:0004646;CHEMONTID:0004529;CHEMONTID:0004162;CHEMONTID:0004196
Ontology: Hydroxyindoles
OntologyID: CHEMONTID:0004162
RETENTIONTIME: -1
RETENTIONINDEX: -1
TotalBondEnergy: 19653
TotalScore: 5.4258
TotalHrRulesScore: 0.5
TotalBondCleavageScore: 0.5
TotalMassAccuracyScore: 0.4985
TotalFragmentLinkageScore: 0.5
TotalBondDissociationEnergyScore: 0.5
DatabaseScore: 0.5476
SubstructureAssignmentScore: 0
RtSimilarityScore: -1
RiSimilarityScore: 0
Num Fragment VS2 (M/Z Intensity MatchedExactMass SaturatedExactMass Formula RearrangedHydrogen PPM MassDiff_mDa IsEvenElectronRule IsHrRule IsSolventAdductFragment AssignedAdductMass AdductString BondDissociationEnergy TreeDepth SMILES TotalScore HrLikelihood BcLikelihood MaLikelihood FlLikelihood BeLikelihood): 1
358.122468	299725.163687	358.1186045801	357.111328125	C21H15N3O3	1	10.79	3.86	True	True	False	0		0	0	O=C(O)C=3NC(=CC=3(C2=CNC=1C=CC=CC=12))C5=CNC=4C=CC(O)=CC=45	4.99701923131943	1	1	0.997019231319427	1	1

NAME: N-[3-[[2-furanyl(oxo)methyl]amino]phenyl]-1-isoquinolinecarboxamide
ID: GJVHEWNSKJVPJM
IsSpectrumSearch: False
INCHIKEY: GJVHEWNSKJVPJM-UHFFFAOYSA-N
SMILES: O=C(NC1=CC=CC(=C1)NC(=O)C2=NC=CC3=CC=CC=C23)C=4OC=CC=4
RESOURCES: ChEBI=CHEBI:116188
SubstructureInChIKeys: WSFSSNUMVMOOMR;IKHGUXGNUITLKF;ROSDSFDQCJNGOL;ATHHXGZTWNVVOU;LIWAQLJGPBVORC;UHOVQNZJYSORNB;JUJWROOIHBZHMG;ITQTTZVARXURQS;PAYRUJLWNCNPSJ;AFBPFSWMIHJQDM;DYDNPESBYVVLBO;FZERHIULMFGESH
SubstructureOntologies: CHEMONTID:0001831;CHEMONTID:0002230;CHEMONTID:0002228;CHEMONTID:0002484;CHEMONTID:0002279;CHEMONTID:0000089;CHEMONTID:0004152;CHEMONTID:0000284;CHEMONTID:0003924;CHEMONTID:0000285
Ontology: 2-furanilides
OntologyID: CHEMONTID:0004756
RETENTIONTIME: -1
RETENTIONINDEX: -1
TotalBondEnergy: 19693
TotalScore: 5.3662
TotalHrRulesScore: 0.5
TotalBondCleavageScore: 0.5
TotalMassAccuracyScore: 0.4985
TotalFragmentLinkageScore: 0.5
TotalBondDissociationEnergyScore: 0.5
DatabaseScore: 0.5238
SubstructureAssignmentScore: 0
RtSimilarityScore: -1
RiSimilarityScore: 0
Num Fragment VS2 (M/Z Intensity MatchedExactMass SaturatedExactMass Formula RearrangedHydrogen PPM MassDiff_mDa IsEvenElectronRule IsHrRule IsSolventAdductFragment AssignedAdductMass AdductString BondDissociationEnergy TreeDepth SMILES TotalScore HrLikelihood BcLikelihood MaLikelihood FlLikelihood BeLikelihood): 1
358.122468	299725.163687	358.1186045801	357.111328125	C21H15N3O3	1	10.79	3.86	True	True	False	0		0	0	O=C(NC1=CC=CC(=C1)NC(=O)C2=NC=CC3=CC=CC=C23)C=4OC=CC=4	4.99701923131943	1	1	0.997019231319427	1	1

NAME: deoxyviolaceinic acid
ID: YNGCGCMGWQFYIK
IsSpectrumSearch: False
INCHIKEY: YNGCGCMGWQFYIK-UHFFFAOYSA-N
SMILES: O=C(O)C=1NC(=CC=1C3=C(O)NC2=CC=CC=C23)C5=CNC4=CC=CC=C45
RESOURCES: ChEBI=CHEBI:90909;CHEBI:90910
SubstructureInChIKeys: XLYOFNOQVPJJNP;WSFSSNUMVMOOMR;IKHGUXGNUITLKF;BDAGIHXWWSANSR;LFQSCWFLJHTTHZ;QTBSBXVTEAMEQO;UHOVQNZJYSORNB;SIKJAQJRHWYJAI;ZFRKQXVRDFCRJG;PCKPVGOLPKLUHR;GOVXKUCVZUROAN
SubstructureOntologies: NonID:H2O;CHEMONTID:0001831;CHEMONTID:0002230;CHEMONTID:0001205;CHEMONTID:0000286;CHEMONTID:0002279;CHEMONTID:0002497;CHEMONTID:0004529;CHEMONTID:0004162;CHEMONTID:0004196
Ontology: Hydroxyindoles
OntologyID: CHEMONTID:0004162
RETENTIONTIME: -1
RETENTIONINDEX: -1
TotalBondEnergy: 19653
TotalScore: 5.3662
TotalHrRulesScore: 0.5
TotalBondCleavageScore: 0.5
TotalMassAccuracyScore: 0.4985
TotalFragmentLinkageScore: 0.5
TotalBondDissociationEnergyScore: 0.5
DatabaseScore: 0.5238
SubstructureAssignmentScore: 0
RtSimilarityScore: -1
RiSimilarityScore: 0
Num Fragment VS2 (M/Z Intensity MatchedExactMass SaturatedExactMass Formula RearrangedHydrogen PPM MassDiff_mDa IsEvenElectronRule IsHrRule IsSolventAdductFragment AssignedAdductMass AdductString BondDissociationEnergy TreeDepth SMILES TotalScore HrLikelihood BcLikelihood MaLikelihood FlLikelihood BeLikelihood): 1
358.122468	299725.163687	358.1186045801	357.111328125	C21H15N3O3	1	10.79	3.86	True	True	False	0		0	0	O=C(O)C=1NC(=CC=1C3=C(O)NC2=CC=CC=C23)C5=CNC4=CC=CC=C45	4.99701923131943	1	1	0.997019231319427	1	1

NAME: (Z)-hydroxy-[(3E)-5-(1H-indol-3-yl)-3-(2-ketoindolin-3-ylidene)-2-pyrrolin-2-ylidene]methanolate
ID: YFBJWUMNKFLXLP
IsSpectrumSearch: False
INCHIKEY: YFBJWUMNKFLXLP-QGOAFFKASA-M
SMILES: O=C2NC1=CC=CC=C1C2=C3C=C(NC3(=C(O)O))C5=CNC4=CC=CC=C45
RESOURCES: PubChem=91868779;90659249
SubstructureInChIKeys: XLYOFNOQVPJJNP;VGGSQFUCUMXWEO;WSFSSNUMVMOOMR;IMROMDMJAWUWLK;CKFGINPQOCXMAZ;UHOVQNZJYSORNB;SIKJAQJRHWYJAI;ZFRKQXVRDFCRJG
SubstructureOntologies: NonID:H2O;CHEMONTID:0004476;CHEMONTID:0001831;CHEMONTID:0000132;CHEMONTID:0001605;CHEMONTID:0002279;CHEMONTID:0002497;CHEMONTID:0004529
Ontology: Indoles
OntologyID: CHEMONTID:0002497
RETENTIONTIME: -1
RETENTIONINDEX: -1
TotalBondEnergy: 19653
TotalScore: 5.3662
TotalHrRulesScore: 0.5
TotalBondCleavageScore: 0.5
TotalMassAccuracyScore: 0.4985
TotalFragmentLinkageScore: 0.5
TotalBondDissociationEnergyScore: 0.5
DatabaseScore: 0.5238
SubstructureAssignmentScore: 0
RtSimilarityScore: -1
RiSimilarityScore: 0
Num Fragment VS2 (M/Z Intensity MatchedExactMass SaturatedExactMass Formula RearrangedHydrogen PPM MassDiff_mDa IsEvenElectronRule IsHrRule IsSolventAdductFragment AssignedAdductMass AdductString BondDissociationEnergy TreeDepth SMILES TotalScore HrLikelihood BcLikelihood MaLikelihood FlLikelihood BeLikelihood): 1
358.122468	299725.163687	358.1186045801	357.111328125	C21H15N3O3	1	10.79	3.86	True	True	False	0		0	0	O=C2NC1=CC=CC=C1C2=C3C=C(NC3(=C(O)O))C5=CNC4=CC=CC=C45	4.99701923131943	1	1	0.997019231319427	1	1

NAME: UNPD129472
ID: ATBXPCOFDWGOCJ
IsSpectrumSearch: False
INCHIKEY: ATBXPCOFDWGOCJ-RNZRUAGMNA-N
SMILES: O=C1NC(OC)C=4C1=C5C6=CC=C(O)C=C6(NC5(=C3NC2=CC=CC=C2C3=4))
RESOURCES: UNPD=UNPD129472
SubstructureInChIKeys: VNWKTOKETHGBQD;XLYOFNOQVPJJNP;WSFSSNUMVMOOMR;IKHGUXGNUITLKF;ROSDSFDQCJNGOL;LCGLNKUTAGEVQW;ATHHXGZTWNVVOU;LIWAQLJGPBVORC;XOBKSJJDNFUZPF;RWRDLPDLKQPQOW;HPNMFZURTQLUMO;UHOVQNZJYSORNB;ISWSIDIOOBJBQZ;IWDCLRJOBJJRNH;FUGYGGDSWSUORM;RIWRFSMVIUAEBX;HXDOZKJGKXYMEW
SubstructureOntologies: CHEMONTID:0002500;NonID:H2O;CHEMONTID:0001831;CHEMONTID:0002230;CHEMONTID:0002228;CHEMONTID:0001167;CHEMONTID:0002484;CHEMONTID:0000218;CHEMONTID:0002279;CHEMONTID:0004647;CHEMONTID:0001275;CHEMONTID:0000037;CHEMONTID:0000185;CHEMONTID:0004646
Ontology: Indolocarbazoles
OntologyID: CHEMONTID:0001866
RETENTIONTIME: -1
RETENTIONINDEX: -1
TotalBondEnergy: 19707
TotalScore: 4.6162
TotalHrRulesScore: 0.5
TotalBondCleavageScore: 0.5
TotalMassAccuracyScore: 0.4985
TotalFragmentLinkageScore: 0.5
TotalBondDissociationEnergyScore: 0.5
DatabaseScore: 0.2238
SubstructureAssignmentScore: 0
RtSimilarityScore: -1
RiSimilarityScore: 0
Num Fragment VS2 (M/Z Intensity MatchedExactMass SaturatedExactMass Formula RearrangedHydrogen PPM MassDiff_mDa IsEvenElectronRule IsHrRule IsSolventAdductFragment AssignedAdductMass AdductString BondDissociationEnergy TreeDepth SMILES TotalScore HrLikelihood BcLikelihood MaLikelihood FlLikelihood BeLikelihood): 1
358.122468	299725.163687	358.1186045801	357.111328125	C21H15N3O3	1	10.79	3.86	True	True	False	0		0	0	O=C1NC(OC)C=4C1=C5C6=CC=C(O)C=C6(NC5(=C3NC2=CC=CC=C2C3=4))	4.99701923131943	1	1	0.997019231319427	1	1

NAME: UNPD206596
ID: KTOHBGJWOKYCIT
IsSpectrumSearch: False
INCHIKEY: KTOHBGJWOKYCIT-UHFFFAOYSA-N
SMILES: O=C(C1=NC=CC=2C=3C=CC=CC=3(NC1=2))C5=C(O)NC=4C=C(OC)C=CC=45
RESOURCES: UNPD=UNPD206596
SubstructureInChIKeys: VNWKTOKETHGBQD;XLYOFNOQVPJJNP;WSFSSNUMVMOOMR;IKHGUXGNUITLKF;ATUOYWHBWRKTHZ;LCGLNKUTAGEVQW;CSCPPACGZOOCGX;UHOVQNZJYSORNB;JUJWROOIHBZHMG;ITQTTZVARXURQS;ISWSIDIOOBJBQZ;IWDCLRJOBJJRNH;RDOXTESZEPMUJZ;SIKJAQJRHWYJAI;FUGYGGDSWSUORM;CHLICZRVGGXEOD;HXDOZKJGKXYMEW;ZFRKQXVRDFCRJG;PCKPVGOLPKLUHR;XAWPKHNOFIWWNZ;UAJRSHJHFRVGMG;DWLZULQNIPIABE;HDNRAPAFJLXKBV;NOTCZLKDULMKBR;GOVXKUCVZUROAN;QJRWYBIKLXNYLF;LSMGVUHULSBVAW;AIFRHYZBTHREPW;CAAUHCJBMYDKBU
SubstructureOntologies: CHEMONTID:0002500;NonID:H2O;CHEMONTID:0001831;CHEMONTID:0002230;CHEMONTID:0001167;CHEMONTID:0000118;CHEMONTID:0002279;CHEMONTID:0000089;CHEMONTID:0004152;CHEMONTID:0004647;CHEMONTID:0001275;CHEMONTID:0000138;CHEMONTID:0002497;CHEMONTID:0000037;CHEMONTID:0004646;CHEMONTID:0004529;CHEMONTID:0004162;CHEMONTID:0000190;CHEMONTID:0004196;CHEMONTID:0001914
Ontology: Harmala alkaloids
OntologyID: CHEMONTID:0001140
RETENTIONTIME: -1
RETENTIONINDEX: -1
TotalBondEnergy: 19696
TotalScore: 4.6162
TotalHrRulesScore: 0.5
TotalBondCleavageScore: 0.5
TotalMassAccuracyScore: 0.4985
TotalFragmentLinkageScore: 0.5
TotalBondDissociationEnergyScore: 0.5
DatabaseScore: 0.2238
SubstructureAssignmentScore: 0
RtSimilarityScore: -1
RiSimilarityScore: 0
Num Fragment VS2 (M/Z Intensity MatchedExactMass SaturatedExactMass Formula RearrangedHydrogen PPM MassDiff_mDa IsEvenElectronRule IsHrRule IsSolventAdductFragment AssignedAdductMass AdductString BondDissociationEnergy TreeDepth SMILES TotalScore HrLikelihood BcLikelihood MaLikelihood FlLikelihood BeLikelihood): 1
358.122468	299725.163687	358.1186045801	357.111328125	C21H15N3O3	1	10.79	3.86	True	True	False	0		0	0	O=C(C1=NC=CC=2C=3C=CC=CC=3(NC1=2))C5=C(O)NC=4C=C(OC)C=CC=45	4.99701923131943	1	1	0.997019231319427	1	1

NAME: UNPD206597
ID: KXSXMTWFKGXALP
IsSpectrumSearch: False
INCHIKEY: KXSXMTWFKGXALP-UHFFFAOYSA-N
SMILES: O=C(C=1N=CC=C2C=3C=CC(OC)=CC=3(NC=12))C5=C(O)NC=4C=CC=CC=45
RESOURCES: UNPD=UNPD206597
SubstructureInChIKeys: VNWKTOKETHGBQD;XLYOFNOQVPJJNP;WSFSSNUMVMOOMR;IKHGUXGNUITLKF;ATUOYWHBWRKTHZ;LCGLNKUTAGEVQW;CSCPPACGZOOCGX;UHOVQNZJYSORNB;JUJWROOIHBZHMG;ITQTTZVARXURQS;ISWSIDIOOBJBQZ;IWDCLRJOBJJRNH;RDOXTESZEPMUJZ;SIKJAQJRHWYJAI;FUGYGGDSWSUORM;CHLICZRVGGXEOD;HXDOZKJGKXYMEW;ZFRKQXVRDFCRJG;PCKPVGOLPKLUHR;UAJRSHJHFRVGMG;DWLZULQNIPIABE;HDNRAPAFJLXKBV;NOTCZLKDULMKBR;GOVXKUCVZUROAN;AIFRHYZBTHREPW
SubstructureOntologies: CHEMONTID:0002500;NonID:H2O;CHEMONTID:0001831;CHEMONTID:0002230;CHEMONTID:0001167;CHEMONTID:0000118;CHEMONTID:0002279;CHEMONTID:0000089;CHEMONTID:0004152;CHEMONTID:0004647;CHEMONTID:0001275;CHEMONTID:0000138;CHEMONTID:0002497;CHEMONTID:0000037;CHEMONTID:0004646;CHEMONTID:0004529;CHEMONTID:0004162;CHEMONTID:0000190;CHEMONTID:0004196;CHEMONTID:0001914
Ontology: Harmala alkaloids
OntologyID: CHEMONTID:0001140
RETENTIONTIME: -1
RETENTIONINDEX: -1
TotalBondEnergy: 19696
TotalScore: 4.6162
TotalHrRulesScore: 0.5
TotalBondCleavageScore: 0.5
TotalMassAccuracyScore: 0.4985
TotalFragmentLinkageScore: 0.5
TotalBondDissociationEnergyScore: 0.5
DatabaseScore: 0.2238
SubstructureAssignmentScore: 0
RtSimilarityScore: -1
RiSimilarityScore: 0
Num Fragment VS2 (M/Z Intensity MatchedExactMass SaturatedExactMass Formula RearrangedHydrogen PPM MassDiff_mDa IsEvenElectronRule IsHrRule IsSolventAdductFragment AssignedAdductMass AdductString BondDissociationEnergy TreeDepth SMILES TotalScore HrLikelihood BcLikelihood MaLikelihood FlLikelihood BeLikelihood): 1
358.122468	299725.163687	358.1186045801	357.111328125	C21H15N3O3	1	10.79	3.86	True	True	False	0		0	0	O=C(C=1N=CC=C2C=3C=CC(OC)=CC=3(NC=12))C5=C(O)NC=4C=CC=CC=45	4.99701923131943	1	1	0.997019231319427	1	1

NAME: UNPD154704
ID: RLKZQOQQNLCTND
IsSpectrumSearch: False
INCHIKEY: RLKZQOQQNLCTND-LGWFVXIRNA-N
SMILES: O=C(O)C2=CC=1C5=CC=CC=C5(NC=1C(C(=O)N2)C4=CNC3=CC=CC=C34)
RESOURCES: UNPD=UNPD154704
SubstructureInChIKeys: XLYOFNOQVPJJNP;WSFSSNUMVMOOMR;IKHGUXGNUITLKF;BDAGIHXWWSANSR;LFQSCWFLJHTTHZ;QTBSBXVTEAMEQO;UHOVQNZJYSORNB;SIKJAQJRHWYJAI;ZFRKQXVRDFCRJG;GOVXKUCVZUROAN
SubstructureOntologies: NonID:H2O;CHEMONTID:0001831;CHEMONTID:0002230;CHEMONTID:0001205;CHEMONTID:0000286;CHEMONTID:0002279;CHEMONTID:0002497;CHEMONTID:0004529;CHEMONTID:0004196
Ontology: Alpha amino acids and derivatives
OntologyID: CHEMONTID:0000060
RETENTIONTIME: -1
RETENTIONINDEX: -1
TotalBondEnergy: 19740
TotalScore: 4.6162
TotalHrRulesScore: 0.5
TotalBondCleavageScore: 0.5
TotalMassAccuracyScore: 0.4985
TotalFragmentLinkageScore: 0.5
TotalBondDissociationEnergyScore: 0.5
DatabaseScore: 0.2238
SubstructureAssignmentScore: 0
RtSimilarityScore: -1
RiSimilarityScore: 0
Num Fragment VS2 (M/Z Intensity MatchedExactMass SaturatedExactMass Formula RearrangedHydrogen PPM MassDiff_mDa IsEvenElectronRule IsHrRule IsSolventAdductFragment AssignedAdductMass AdductString BondDissociationEnergy TreeDepth SMILES TotalScore HrLikelihood BcLikelihood MaLikelihood FlLikelihood BeLikelihood): 1
358.122468	299725.163687	358.1186045801	357.111328125	C21H15N3O3	1	10.79	3.86	True	True	False	0		0	0	O=C(O)C2=CC=1C5=CC=CC=C5(NC=1C(C(=O)N2)C4=CNC3=CC=CC=C34)	4.99701923131943	1	1	0.997019231319427	1	1

NAME: UNPD68
ID: WAYCTJIOHZZDEI
IsSpectrumSearch: False
INCHIKEY: WAYCTJIOHZZDEI-TWYLJJHKNA-N
SMILES: O=C(O)C1=CC=4C5=CC=CC=C5(NC=4(C(=O)C(N1)C3=CNC2=CC=CC=C23))
RESOURCES: UNPD=UNPD68
SubstructureInChIKeys: XLYOFNOQVPJJNP;VGGSQFUCUMXWEO;WSFSSNUMVMOOMR;IKHGUXGNUITLKF;ATUOYWHBWRKTHZ;ROSDSFDQCJNGOL;BDAGIHXWWSANSR;LFQSCWFLJHTTHZ;HGINCPLSRVDWNT;IAQRGUVFOMOMEM;CSCPPACGZOOCGX;NBBJYMSMWIIQGU;XXROGKLTLUQVRX;IJDNQMDRQITEOD;LYIIBVSRGJSHAV;JJWLVOIRVHMVIS;LIWAQLJGPBVORC;QTBSBXVTEAMEQO;HZAXFHJVJLSVMW;MLUCVPSAIODCQM;NIXOWILDQLNWCW;GVWISOJSERXQBM;HPNMFZURTQLUMO;XHFGWHUWQXTGAT;BEBCJVAWIBVWNZ;DHMQDGOQFOQNFH;UHOVQNZJYSORNB;RILLZYSZSDGYGV;SIKJAQJRHWYJAI;ZFRKQXVRDFCRJG;GOVXKUCVZUROAN;RNAODKZCUVVPEN;RDIZNKNSMGEKKE
SubstructureOntologies: NonID:H2O;CHEMONTID:0004476;CHEMONTID:0001831;CHEMONTID:0002230;CHEMONTID:0002500;CHEMONTID:0002228;CHEMONTID:0001205;CHEMONTID:0000286;CHEMONTID:0002436;CHEMONTID:0000118;CHEMONTID:0002434;CHEMONTID:0000469;CHEMONTID:0001897;CHEMONTID:0004451;CHEMONTID:0002484;CHEMONTID:0002404;CHEMONTID:0002279;CHEMONTID:0002497;CHEMONTID:0004529;CHEMONTID:0004196
Ontology: Alpha amino acids
OntologyID: CHEMONTID:0002404
RETENTIONTIME: -1
RETENTIONINDEX: -1
TotalBondEnergy: 19740
TotalScore: 4.6162
TotalHrRulesScore: 0.5
TotalBondCleavageScore: 0.5
TotalMassAccuracyScore: 0.4985
TotalFragmentLinkageScore: 0.5
TotalBondDissociationEnergyScore: 0.5
DatabaseScore: 0.2238
SubstructureAssignmentScore: 0
RtSimilarityScore: -1
RiSimilarityScore: 0
Num Fragment VS2 (M/Z Intensity MatchedExactMass SaturatedExactMass Formula RearrangedHydrogen PPM MassDiff_mDa IsEvenElectronRule IsHrRule IsSolventAdductFragment AssignedAdductMass AdductString BondDissociationEnergy TreeDepth SMILES TotalScore HrLikelihood BcLikelihood MaLikelihood FlLikelihood BeLikelihood): 1
358.122468	299725.163687	358.1186045801	357.111328125	C21H15N3O3	1	10.79	3.86	True	True	False	0		0	0	O=C(O)C1=CC=4C5=CC=CC=C5(NC=4(C(=O)C(N1)C3=CNC2=CC=CC=C23))	4.99701923131943	1	1	0.997019231319427	1	1

