NAME: 1,4-diphenylbenzene
ID: XJKSTNDFUHDPQJ
IsSpectrumSearch: False
INCHIKEY: XJKSTNDFUHDPQJ-UHFFFAOYSA-N
SMILES: C1=CC=C(C=C1)C2=CC=C(C=C2)C3=CC=CC=C3
RESOURCES: ChEBI=CHEBI:52242,STOFF=STOFF_3953
SubstructureInChIKeys: UHOVQNZJYSORNB;YXFVVABEGXRONW
SubstructureOntologies: CHEMONTID:0002279;CHEMONTID:0001091
Ontology: P-terphenyls
OntologyID: CHEMONTID:0002126
RETENTIONTIME: -1
RETENTIONINDEX: -1
TotalBondEnergy: 14978
TotalScore: 6.7076
TotalHrRulesScore: 1
TotalBondCleavageScore: 1
TotalMassAccuracyScore: 0.9948
TotalFragmentLinkageScore: 1
TotalBondDissociationEnergyScore: 1
DatabaseScore: 0.5476
SubstructureAssignmentScore: 0
RtSimilarityScore: -1
RiSimilarityScore: 0
Num Fragment VS2 (M/Z Intensity MatchedExactMass SaturatedExactMass Formula RearrangedHydrogen PPM MassDiff_mDa IsEvenElectronRule IsHrRule IsSolventAdductFragment AssignedAdductMass AdductString BondDissociationEnergy TreeDepth SMILES TotalScore HrLikelihood BcLikelihood MaLikelihood FlLikelihood BeLikelihood): 1
231.121914	22989.149232	231.11681930178	230.10954284668	C18H14	1	22.04	5.1	True	True	False	0		0	0	C1=CC=C(C=C1)C2=CC=C(C=C2)C3=CC=CC=C3	4.99482226371765	1	1	0.994822263717651	1	1

NAME: o-Terphenyl
ID: OIAQMFOKAXHPNH
IsSpectrumSearch: False
INCHIKEY: OIAQMFOKAXHPNH-UHFFFAOYSA-N
SMILES: C1=CC=C(C=C1)C3=CC=CC=C3(C2=CC=CC=C2)
RESOURCES: STOFF=STOFF_3952
SubstructureInChIKeys: UHOVQNZJYSORNB;YXFVVABEGXRONW
SubstructureOntologies: CHEMONTID:0002279;CHEMONTID:0001091
Ontology: Terphenyls
OntologyID: CHEMONTID:0002042
RETENTIONTIME: -1
RETENTIONINDEX: -1
TotalBondEnergy: 14978
TotalScore: 6.648
TotalHrRulesScore: 1
TotalBondCleavageScore: 1
TotalMassAccuracyScore: 0.9948
TotalFragmentLinkageScore: 1
TotalBondDissociationEnergyScore: 1
DatabaseScore: 0.5238
SubstructureAssignmentScore: 0
RtSimilarityScore: -1
RiSimilarityScore: 0
Num Fragment VS2 (M/Z Intensity MatchedExactMass SaturatedExactMass Formula RearrangedHydrogen PPM MassDiff_mDa IsEvenElectronRule IsHrRule IsSolventAdductFragment AssignedAdductMass AdductString BondDissociationEnergy TreeDepth SMILES TotalScore HrLikelihood BcLikelihood MaLikelihood FlLikelihood BeLikelihood): 1
231.121914	22989.149232	231.11681930178	230.10954284668	C18H14	1	22.04	5.1	True	True	False	0		0	0	C1=CC=C(C=C1)C3=CC=CC=C3(C2=CC=CC=C2)	4.99482226371765	1	1	0.994822263717651	1	1

NAME: UNPD120692
ID: ZAOGJUVYBZDZMU
IsSpectrumSearch: False
INCHIKEY: ZAOGJUVYBZDZMU-UHFFFAOYSA-N
SMILES: C1=CC=C3C(=C1)C=CC=4C=2C=CC=C(C=2CC3=4)C
RESOURCES: UNPD=UNPD120692
SubstructureInChIKeys: VNWKTOKETHGBQD;ATUOYWHBWRKTHZ;UHOVQNZJYSORNB;YXFVVABEGXRONW;YNQLUTRBYVCPMQ;CZZYITDELCSZES
SubstructureOntologies: CHEMONTID:0002500;CHEMONTID:0002279;CHEMONTID:0001091;CHEMONTID:0000369
Ontology: Fluorenes
OntologyID: CHEMONTID:0000020
RETENTIONTIME: -1
RETENTIONINDEX: -1
TotalBondEnergy: 15068
TotalScore: 5.898
TotalHrRulesScore: 1
TotalBondCleavageScore: 1
TotalMassAccuracyScore: 0.9948
TotalFragmentLinkageScore: 1
TotalBondDissociationEnergyScore: 1
DatabaseScore: 0.2238
SubstructureAssignmentScore: 0
RtSimilarityScore: -1
RiSimilarityScore: 0
Num Fragment VS2 (M/Z Intensity MatchedExactMass SaturatedExactMass Formula RearrangedHydrogen PPM MassDiff_mDa IsEvenElectronRule IsHrRule IsSolventAdductFragment AssignedAdductMass AdductString BondDissociationEnergy TreeDepth SMILES TotalScore HrLikelihood BcLikelihood MaLikelihood FlLikelihood BeLikelihood): 1
231.121914	22989.149232	231.11681930178	230.10954284668	C18H14	1	22.04	5.1	True	True	False	0		0	0	C1=CC=C3C(=C1)C=CC=4C=2C=CC=C(C=2CC3=4)C	4.99482226371765	1	1	0.994822263717651	1	1

