NAME: Spinanine A
ID: BVQSOVULWZVQAQ
IsSpectrumSearch: False
INCHIKEY: BVQSOVULWZVQAQ-BENRWUELNA-N
SMILES: O=C1NC=CC4=CC=C(OC3CCN(C(=O)C(N)C(C)CC)C3(C(=O)N2CCCC12))C=C4
RESOURCES: KNApSAcK=C00029038,UNPD=UNPD37085
SubstructureInChIKeys: VNWKTOKETHGBQD;QGZKDVFQNNGYKY;VGGSQFUCUMXWEO;WSFSSNUMVMOOMR;OTMSDBZUPAUEDD;BAVYZALUXZFZLV;IKHGUXGNUITLKF;ATUOYWHBWRKTHZ;QUSNBJAOOMFDIB;ROSDSFDQCJNGOL;LCGLNKUTAGEVQW;NBBJYMSMWIIQGU;IJDNQMDRQITEOD;NNPPMTNAJDCUHE;ATHHXGZTWNVVOU;LYIIBVSRGJSHAV;GETQZCLCWQTVFV;JJWLVOIRVHMVIS;LIWAQLJGPBVORC;WGYKZJWCGVVSQN;BDERNNFJNOPAEC;XOBKSJJDNFUZPF;HZAXFHJVJLSVMW;RWRDLPDLKQPQOW;ZTQSAGDEMFDKMZ;OFBQJSOFQDEBGM;QWTDNUCVQCZILF;QPMCUNAXNMSGTK;DAZXVJBJRMWXJP;GVWISOJSERXQBM;HPNMFZURTQLUMO;HQABUPZFAYXKJW;KDSNLYIMUZNERS;XHFGWHUWQXTGAT;AKXKFZDCRYJKTF;BEBCJVAWIBVWNZ;VNKYTQGIUYNRMY;WUGQZFFCHPXWKQ;UHOVQNZJYSORNB;AVFZOVWCLRSYKC;HGBOYTHUEUWSSQ;PFEOZHBOMNWTJB;FGEPRNXUNITOCW;SUUDTPGCUKBECW;BMFVGAAISNGQNM;DPBLXKKOBLCELK;GNVRJGIVDSQCOP;QCOGKXLOEWLIDC;VJROPLWGFCORRM;ZUHZZVMEUAUWHY;AQIXEPGDORPWBJ;FVNIMHIOIXPIQT;UXPVGJOKPUABJV;UEEJHVSXFDXPFK;YXFVVABEGXRONW;ISWSIDIOOBJBQZ;JIDDDPVQQUHACU;PXHHIBMOFPCBJQ;DVOFEOSDXAVUJD;DJEQZVQFEPKLOY;SMBYUOXUISCLCF;VLSTXUUYLIALPB;ZMANZCXQSJIPKH;VHRGRCVQAFMJIZ;ORDNBIQZKXYGTM;PPBRXRYQALVLMV;IWDCLRJOBJJRNH;RDOXTESZEPMUJZ;QCAAXUQRSHUEHU;SKPCTMWFLGENTL;BFSVOASYOCHEOV;FUGYGGDSWSUORM;JESXATFQYMPTNL;CHLICZRVGGXEOD;DLRJIFUOBPOJNS;DCDFYDJCNWNFFZ;JDAMFKGXSUOWBV;UAJRSHJHFRVGMG;NOTCZLKDULMKBR;KBUULMSISDOTQC
SubstructureOntologies: CHEMONTID:0002500;NonID:NH2;CHEMONTID:0004476;CHEMONTID:0001831;CHEMONTID:0000469;CHEMONTID:0002230;CHEMONTID:0002228;CHEMONTID:0001167;CHEMONTID:0002434;CHEMONTID:0004620;CHEMONTID:0002484;CHEMONTID:0002239;CHEMONTID:0000286;CHEMONTID:0001897;CHEMONTID:0000218;CHEMONTID:0001852;CHEMONTID:0002279;CHEMONTID:0003449;CHEMONTID:0001663;CHEMONTID:0001661;CHEMONTID:0001091;CHEMONTID:0004647;CHEMONTID:0002435;CHEMONTID:0000037;CHEMONTID:0001275;CHEMONTID:0000138;CHEMONTID:0002309;CHEMONTID:0002341;CHEMONTID:0004330;CHEMONTID:0000190;CHEMONTID:0001238
Ontology: Cyclic peptides
OntologyID: CHEMONTID:0001995
RETENTIONTIME: -1
RETENTIONINDEX: -1
TotalBondEnergy: 27075
TotalScore: 7.6654
TotalHrRulesScore: 1
TotalBondCleavageScore: 0.8645
TotalMassAccuracyScore: 0.982
TotalFragmentLinkageScore: 1
TotalBondDissociationEnergyScore: 0.8343
DatabaseScore: 0.5476
SubstructureAssignmentScore: 0
RtSimilarityScore: -1
RiSimilarityScore: 0
Num Fragment VS2 (M/Z Intensity MatchedExactMass SaturatedExactMass Formula RearrangedHydrogen PPM MassDiff_mDa IsEvenElectronRule IsHrRule IsSolventAdductFragment AssignedAdductMass AdductString BondDissociationEnergy TreeDepth SMILES TotalScore HrLikelihood BcLikelihood MaLikelihood FlLikelihood BeLikelihood): 2
185.115123	28464.778828	185.128451946623	186.136825561523	C9H18N2O2	-1	72	13.33	True	True	False	0		997	2	O=CCN(C(=O)C(N)C(C)CC)C	4.36269667580371	1	0.7289999127388	0.965091705322266	1	0.668605057742645
441.247325	151217.303524	441.249647060569	440.242370605469	C24H32N4O4	1	5.26	2.32	True	True	False	0		0	0	O=C1NC=CC4=CC=C(OC3CCN(C(=O)C(N)C(C)CC)C3(C(=O)N2CCCC12))C=C4	4.99892216920853	1	1	0.998922169208527	1	1

NAME: 1-[(2S,3R)-2-[(dimethylamino)methyl]-5-[(2R)-1-hydroxypropan-2-yl]-3-methyl-6-oxo-3,4-dihydro-2H-1,5-benzoxazocin-10-yl]-3-phenylurea
ID: SSJJWSMGDNAKCS
IsSpectrumSearch: False
INCHIKEY: SSJJWSMGDNAKCS-RJWCLXLGNA-N
SMILES: O=C(NC1=CC=CC=C1)NC2=CC=CC=3C(=O)N(CC(C)C(OC2=3)CN(C)C)C(C)CO
RESOURCES: ChEBI=CHEBI:108693;CHEBI:113726;CHEBI:113746;CHEBI:113790;CHEBI:113817
SubstructureInChIKeys: VNWKTOKETHGBQD;XLYOFNOQVPJJNP;WSFSSNUMVMOOMR;OKKJLVBELUTLKV;IKHGUXGNUITLKF;ATUOYWHBWRKTHZ;ROSDSFDQCJNGOL;LCGLNKUTAGEVQW;LFQSCWFLJHTTHZ;IJDNQMDRQITEOD;NNPPMTNAJDCUHE;ATHHXGZTWNVVOU;GETQZCLCWQTVFV;JJWLVOIRVHMVIS;LIWAQLJGPBVORC;BDERNNFJNOPAEC;XOBKSJJDNFUZPF;XOTDURGROKNGTI;HZAXFHJVJLSVMW;QWTDNUCVQCZILF;DAZXVJBJRMWXJP;GVWISOJSERXQBM;HPNMFZURTQLUMO;HQABUPZFAYXKJW;KDSNLYIMUZNERS;XHFGWHUWQXTGAT;BEBCJVAWIBVWNZ;VNKYTQGIUYNRMY;ZXEKIIBDNHEJCQ;WUGQZFFCHPXWKQ;UHOVQNZJYSORNB;SUUDTPGCUKBECW;BMFVGAAISNGQNM;GNVRJGIVDSQCOP;QCOGKXLOEWLIDC;VJROPLWGFCORRM;ZUHZZVMEUAUWHY;FVNIMHIOIXPIQT;MXLMTQWGSQIYOW;UEEJHVSXFDXPFK;PAYRUJLWNCNPSJ;ISWSIDIOOBJBQZ;DJEQZVQFEPKLOY;SMBYUOXUISCLCF;VLSTXUUYLIALPB;ZMANZCXQSJIPKH;AFBPFSWMIHJQDM;IWDCLRJOBJJRNH;RDOXTESZEPMUJZ;JAEJQOUXXMFTJU;BFSVOASYOCHEOV;DYDNPESBYVVLBO;RIWRFSMVIUAEBX;SMQUZDBALVYZAC;CHLICZRVGGXEOD;DLRJIFUOBPOJNS;NOTCZLKDULMKBR
SubstructureOntologies: CHEMONTID:0002500;NonID:H2O;CHEMONTID:0001831;CHEMONTID:0000286;CHEMONTID:0002230;CHEMONTID:0002228;CHEMONTID:0001167;CHEMONTID:0004620;CHEMONTID:0002484;CHEMONTID:0002239;CHEMONTID:0000469;CHEMONTID:0000497;CHEMONTID:0001897;CHEMONTID:0001852;CHEMONTID:0002279;CHEMONTID:0001663;CHEMONTID:0001661;CHEMONTID:0000284;CHEMONTID:0004647;CHEMONTID:0003924;CHEMONTID:0001275;CHEMONTID:0000138;CHEMONTID:0000285;CHEMONTID:0000185;CHEMONTID:0003978;CHEMONTID:0002341;CHEMONTID:0000190
Ontology: N-phenylureas
OntologyID: CHEMONTID:0001935
RETENTIONTIME: -1
RETENTIONINDEX: -1
TotalBondEnergy: 26882
TotalScore: 7.6081
TotalHrRulesScore: 1
TotalBondCleavageScore: 0.8645
TotalMassAccuracyScore: 0.982
TotalFragmentLinkageScore: 1
TotalBondDissociationEnergyScore: 0.8378
DatabaseScore: 0.5238
SubstructureAssignmentScore: 0
RtSimilarityScore: -1
RiSimilarityScore: 0
Num Fragment VS2 (M/Z Intensity MatchedExactMass SaturatedExactMass Formula RearrangedHydrogen PPM MassDiff_mDa IsEvenElectronRule IsHrRule IsSolventAdductFragment AssignedAdductMass AdductString BondDissociationEnergy TreeDepth SMILES TotalScore HrLikelihood BcLikelihood MaLikelihood FlLikelihood BeLikelihood): 2
185.115123	28464.778828	185.128447582991	190.168121337891	C9H22N2O2	-5	71.98	13.32	True	True	False	0		1009	2	OCCNCC(C)C(O)CN(C)C	4.36965659551321	1	0.7289999127388	0.965114116668701	1	0.675542566105712
441.247325	151217.303524	441.249647060569	440.242370605469	C24H32N4O4	1	5.26	2.32	True	True	False	0		0	0	O=C(NC1=CC=CC=C1)NC2=CC=CC=3C(=O)N(CC(C)C(OC2=3)CN(C)C)C(C)CO	4.99892216920853	1	1	0.998922169208527	1	1

NAME: 3-[(2S,3R)-5-[(2S)-1-hydroxypropan-2-yl]-3-methyl-2-(methylaminomethyl)-6-oxo-3,4-dihydro-2H-pyrido[2,3-b][1,5]oxazocin-8-yl]-N,N-dimethylbenzamide
ID: JOFZJSROTWODFL
IsSpectrumSearch: False
INCHIKEY: JOFZJSROTWODFL-QHESZZHPNA-N
SMILES: O=C(C1=CC=CC(=C1)C=2C=NC=3OC(CNC)C(C)CN(C(=O)C=3(C=2))C(C)CO)N(C)C
RESOURCES: ChEBI=CHEBI:95563;CHEBI:95927;CHEBI:96049;CHEBI:96161;CHEBI:96440;CHEBI:96477
SubstructureInChIKeys: VNWKTOKETHGBQD;XLYOFNOQVPJJNP;WSFSSNUMVMOOMR;OKKJLVBELUTLKV;IKHGUXGNUITLKF;ATUOYWHBWRKTHZ;ROSDSFDQCJNGOL;LCGLNKUTAGEVQW;LFQSCWFLJHTTHZ;IJDNQMDRQITEOD;NNPPMTNAJDCUHE;ATHHXGZTWNVVOU;GETQZCLCWQTVFV;JJWLVOIRVHMVIS;LIWAQLJGPBVORC;BDERNNFJNOPAEC;XOBKSJJDNFUZPF;HZAXFHJVJLSVMW;QWTDNUCVQCZILF;DAZXVJBJRMWXJP;GVWISOJSERXQBM;HPNMFZURTQLUMO;HQABUPZFAYXKJW;KDSNLYIMUZNERS;XHFGWHUWQXTGAT;BEBCJVAWIBVWNZ;VNKYTQGIUYNRMY;ZXEKIIBDNHEJCQ;WUGQZFFCHPXWKQ;UHOVQNZJYSORNB;JUJWROOIHBZHMG;SUUDTPGCUKBECW;BMFVGAAISNGQNM;GNVRJGIVDSQCOP;QCOGKXLOEWLIDC;VJROPLWGFCORRM;ZUHZZVMEUAUWHY;FVNIMHIOIXPIQT;MXLMTQWGSQIYOW;UEEJHVSXFDXPFK;YXFVVABEGXRONW;ITQTTZVARXURQS;DJEQZVQFEPKLOY;SMBYUOXUISCLCF;VLSTXUUYLIALPB;ZMANZCXQSJIPKH;HUMNYLRZRPPJDN;AQSRRZGQRFFFGS;JAEJQOUXXMFTJU;BFSVOASYOCHEOV;RIWRFSMVIUAEBX
SubstructureOntologies: CHEMONTID:0002500;NonID:H2O;CHEMONTID:0001831;CHEMONTID:0000286;CHEMONTID:0002230;CHEMONTID:0002228;CHEMONTID:0001167;CHEMONTID:0004620;CHEMONTID:0002484;CHEMONTID:0002239;CHEMONTID:0000469;CHEMONTID:0001897;CHEMONTID:0001852;CHEMONTID:0002279;CHEMONTID:0000089;CHEMONTID:0001663;CHEMONTID:0001661;CHEMONTID:0001091;CHEMONTID:0004152;CHEMONTID:0000321;CHEMONTID:0000185
Ontology: Phenylpyridines
OntologyID: CHEMONTID:0002317
RETENTIONTIME: -1
RETENTIONINDEX: -1
TotalBondEnergy: 26961
TotalScore: 7.6029
TotalHrRulesScore: 1
TotalBondCleavageScore: 0.8645
TotalMassAccuracyScore: 0.982
TotalFragmentLinkageScore: 1
TotalBondDissociationEnergyScore: 0.8295
DatabaseScore: 0.5238
SubstructureAssignmentScore: 0
RtSimilarityScore: -1
RiSimilarityScore: 0
Num Fragment VS2 (M/Z Intensity MatchedExactMass SaturatedExactMass Formula RearrangedHydrogen PPM MassDiff_mDa IsEvenElectronRule IsHrRule IsSolventAdductFragment AssignedAdductMass AdductString BondDissociationEnergy TreeDepth SMILES TotalScore HrLikelihood BcLikelihood MaLikelihood FlLikelihood BeLikelihood): 2
185.115123	28464.778828	185.128457394202	188.152481079102	C9H20N2O2	-3	72.03	13.33	True	True	False	0		1050	2	O=CN(CCCCNC)C(C)CO	4.35305310517651	1	0.7289999127388	0.965063631534576	1	0.658989560903138
441.247325	151217.303524	441.249647060569	440.242370605469	C24H32N4O4	1	5.26	2.32	True	True	False	0		0	0	O=C(C1=CC=CC(=C1)C=2C=NC=3OC(CNC)C(C)CN(C(=O)C=3(C=2))C(C)CO)N(C)C	4.99892216920853	1	1	0.998922169208527	1	1

NAME: 1-[(2S,3S)-2-[(dimethylamino)methyl]-5-[(2S)-1-hydroxypropan-2-yl]-3-methyl-6-oxo-3,4-dihydro-2H-1,5-benzoxazocin-8-yl]-3-phenylurea
ID: CUCZIJHOBJDKMN
IsSpectrumSearch: False
INCHIKEY: CUCZIJHOBJDKMN-CXGURTJKNA-N
SMILES: O=C(NC1=CC=CC=C1)NC=2C=CC=3OC(CN(C)C)C(C)CN(C(=O)C=3(C=2))C(C)CO
RESOURCES: ChEBI=CHEBI:129015;CHEBI:129190;CHEBI:129619;CHEBI:129916;CHEBI:130027;CHEBI:130543;CHEBI:130720;CHEBI:130819
SubstructureInChIKeys: VNWKTOKETHGBQD;XLYOFNOQVPJJNP;WSFSSNUMVMOOMR;OKKJLVBELUTLKV;IKHGUXGNUITLKF;ATUOYWHBWRKTHZ;ROSDSFDQCJNGOL;LCGLNKUTAGEVQW;LFQSCWFLJHTTHZ;IJDNQMDRQITEOD;NNPPMTNAJDCUHE;ATHHXGZTWNVVOU;GETQZCLCWQTVFV;JJWLVOIRVHMVIS;LIWAQLJGPBVORC;BDERNNFJNOPAEC;XOBKSJJDNFUZPF;XOTDURGROKNGTI;HZAXFHJVJLSVMW;QWTDNUCVQCZILF;DAZXVJBJRMWXJP;GVWISOJSERXQBM;HPNMFZURTQLUMO;HQABUPZFAYXKJW;KDSNLYIMUZNERS;XHFGWHUWQXTGAT;BEBCJVAWIBVWNZ;VNKYTQGIUYNRMY;ZXEKIIBDNHEJCQ;WUGQZFFCHPXWKQ;UHOVQNZJYSORNB;SUUDTPGCUKBECW;BMFVGAAISNGQNM;GNVRJGIVDSQCOP;QCOGKXLOEWLIDC;VJROPLWGFCORRM;ZUHZZVMEUAUWHY;FVNIMHIOIXPIQT;MXLMTQWGSQIYOW;UEEJHVSXFDXPFK;PAYRUJLWNCNPSJ;ISWSIDIOOBJBQZ;DJEQZVQFEPKLOY;SMBYUOXUISCLCF;VLSTXUUYLIALPB;ZMANZCXQSJIPKH;AFBPFSWMIHJQDM;IWDCLRJOBJJRNH;RDOXTESZEPMUJZ;JAEJQOUXXMFTJU;BFSVOASYOCHEOV;DYDNPESBYVVLBO;RIWRFSMVIUAEBX;SMQUZDBALVYZAC;CHLICZRVGGXEOD;DLRJIFUOBPOJNS;NOTCZLKDULMKBR
SubstructureOntologies: CHEMONTID:0002500;NonID:H2O;CHEMONTID:0001831;CHEMONTID:0000286;CHEMONTID:0002230;CHEMONTID:0002228;CHEMONTID:0001167;CHEMONTID:0004620;CHEMONTID:0002484;CHEMONTID:0002239;CHEMONTID:0000469;CHEMONTID:0000497;CHEMONTID:0001897;CHEMONTID:0001852;CHEMONTID:0002279;CHEMONTID:0001663;CHEMONTID:0001661;CHEMONTID:0000284;CHEMONTID:0004647;CHEMONTID:0003924;CHEMONTID:0001275;CHEMONTID:0000138;CHEMONTID:0000285;CHEMONTID:0000185;CHEMONTID:0003978;CHEMONTID:0002341;CHEMONTID:0000190
Ontology: N-phenylureas
OntologyID: CHEMONTID:0001935
RETENTIONTIME: -1
RETENTIONINDEX: -1
TotalBondEnergy: 26882
TotalScore: 7.582
TotalHrRulesScore: 1
TotalBondCleavageScore: 0.905
TotalMassAccuracyScore: 0.8045
TotalFragmentLinkageScore: 1
TotalBondDissociationEnergyScore: 0.9009
DatabaseScore: 0.5238
SubstructureAssignmentScore: 0
RtSimilarityScore: -1
RiSimilarityScore: 0
Num Fragment VS2 (M/Z Intensity MatchedExactMass SaturatedExactMass Formula RearrangedHydrogen PPM MassDiff_mDa IsEvenElectronRule IsHrRule IsSolventAdductFragment AssignedAdductMass AdductString BondDissociationEnergy TreeDepth SMILES TotalScore HrLikelihood BcLikelihood MaLikelihood FlLikelihood BeLikelihood): 2
185.115123	28464.778828	185.164834347327	188.188858032227	C10H24N2O	-3	268.54	49.71	True	True	False	0		663	1	OCC(NCC(C)CCN(C)C)C	4.22176780878396	1	0.809999942779541	0.610032141208649	1	0.801735724795767
441.247325	151217.303524	441.249647060569	440.242370605469	C24H32N4O4	1	5.26	2.32	True	True	False	0		0	0	O=C(NC1=CC=CC=C1)NC=2C=CC=3OC(CN(C)C)C(C)CN(C(=O)C=3(C=2))C(C)CO	4.99892216920853	1	1	0.998922169208527	1	1

NAME: 1-[(5S,6R,9S)-5-methoxy-3,6,9-trimethyl-2-oxo-11-oxa-3,8-diazabicyclo[10.4.0]hexadeca-1(12),13,15-trien-14-yl]-3-phenylurea
ID: QIMBDCVCKXPNLA
IsSpectrumSearch: False
INCHIKEY: QIMBDCVCKXPNLA-YTUGZNDNNA-N
SMILES: O=C(NC1=CC=CC=C1)NC=3C=CC2=C(OCC(NCC(C)C(OC)CN(C2(=O))C)C)C=3
RESOURCES: ChEBI=CHEBI:110560;CHEBI:110563;CHEBI:110564;CHEBI:110574;CHEBI:110698
SubstructureInChIKeys: VNWKTOKETHGBQD;WSFSSNUMVMOOMR;IKHGUXGNUITLKF;ATUOYWHBWRKTHZ;ROSDSFDQCJNGOL;LCGLNKUTAGEVQW;IJDNQMDRQITEOD;NNPPMTNAJDCUHE;ATHHXGZTWNVVOU;GETQZCLCWQTVFV;JJWLVOIRVHMVIS;LIWAQLJGPBVORC;BDERNNFJNOPAEC;XOBKSJJDNFUZPF;XOTDURGROKNGTI;HZAXFHJVJLSVMW;QWTDNUCVQCZILF;DAZXVJBJRMWXJP;GVWISOJSERXQBM;HPNMFZURTQLUMO;HQABUPZFAYXKJW;KDSNLYIMUZNERS;XHFGWHUWQXTGAT;BEBCJVAWIBVWNZ;VNKYTQGIUYNRMY;ZXEKIIBDNHEJCQ;WUGQZFFCHPXWKQ;UHOVQNZJYSORNB;SUUDTPGCUKBECW;BMFVGAAISNGQNM;GNVRJGIVDSQCOP;QCOGKXLOEWLIDC;VJROPLWGFCORRM;ZUHZZVMEUAUWHY;FVNIMHIOIXPIQT;MXLMTQWGSQIYOW;UEEJHVSXFDXPFK;PAYRUJLWNCNPSJ;ISWSIDIOOBJBQZ;DJEQZVQFEPKLOY;SMBYUOXUISCLCF;VLSTXUUYLIALPB;AFBPFSWMIHJQDM;IWDCLRJOBJJRNH;RDOXTESZEPMUJZ;JAEJQOUXXMFTJU;DYDNPESBYVVLBO;RIWRFSMVIUAEBX;SMQUZDBALVYZAC;CHLICZRVGGXEOD;DLRJIFUOBPOJNS;NOTCZLKDULMKBR
SubstructureOntologies: CHEMONTID:0002500;CHEMONTID:0001831;CHEMONTID:0002230;CHEMONTID:0002228;CHEMONTID:0001167;CHEMONTID:0004620;CHEMONTID:0002484;CHEMONTID:0002239;CHEMONTID:0000469;CHEMONTID:0000286;CHEMONTID:0000497;CHEMONTID:0001897;CHEMONTID:0001852;CHEMONTID:0002279;CHEMONTID:0001663;CHEMONTID:0001661;CHEMONTID:0000284;CHEMONTID:0004647;CHEMONTID:0003924;CHEMONTID:0001275;CHEMONTID:0000138;CHEMONTID:0000285;CHEMONTID:0000185;CHEMONTID:0003978;CHEMONTID:0002341;CHEMONTID:0000190
Ontology: Macrolactams
OntologyID: CHEMONTID:0000064
RETENTIONTIME: -1
RETENTIONINDEX: -1
TotalBondEnergy: 26862
TotalScore: 7.5777
TotalHrRulesScore: 1
TotalBondCleavageScore: 0.8645
TotalMassAccuracyScore: 0.982
TotalFragmentLinkageScore: 1
TotalBondDissociationEnergyScore: 0.7892
DatabaseScore: 0.5238
SubstructureAssignmentScore: 0
RtSimilarityScore: -1
RiSimilarityScore: 0
Num Fragment VS2 (M/Z Intensity MatchedExactMass SaturatedExactMass Formula RearrangedHydrogen PPM MassDiff_mDa IsEvenElectronRule IsHrRule IsSolventAdductFragment AssignedAdductMass AdductString BondDissociationEnergy TreeDepth SMILES TotalScore HrLikelihood BcLikelihood MaLikelihood FlLikelihood BeLikelihood): 2
185.115123	28464.778828	185.128457394202	188.152481079102	C9H20N2O2	-3	72.03	13.33	True	True	False	0		997	2	O=CNCC(OC)C(C)CNCC	4.27237654594624	1	0.7289999127388	0.965063631534576	1	0.578313001672859
441.247325	151217.303524	441.249647060569	440.242370605469	C24H32N4O4	1	5.26	2.32	True	True	False	0		0	0	O=C(NC1=CC=CC=C1)NC=3C=CC2=C(OCC(NCC(C)C(OC)CN(C2(=O))C)C)C=3	4.99892216920853	1	1	0.998922169208527	1	1

NAME: 1-[(4R,7S,8S)-8-methoxy-4,7,10-trimethyl-11-oxo-2-oxa-5,10-diazabicyclo[10.4.0]hexadeca-1(12),13,15-trien-14-yl]-3-phenylurea
ID: VMZAIKVTLMIHQJ
IsSpectrumSearch: False
INCHIKEY: VMZAIKVTLMIHQJ-DRCAAKCHNA-N
SMILES: O=C(NC1=CC=CC=C1)NC=2C=CC=3OCC(NCC(C)C(OC)CN(C(=O)C=3(C=2))C)C
RESOURCES: ChEBI=CHEBI:115754;CHEBI:115761;CHEBI:115762;CHEBI:115794;CHEBI:115915;CHEBI:115925;CHEBI:116046
SubstructureInChIKeys: VNWKTOKETHGBQD;WSFSSNUMVMOOMR;IKHGUXGNUITLKF;ATUOYWHBWRKTHZ;ROSDSFDQCJNGOL;LCGLNKUTAGEVQW;IJDNQMDRQITEOD;NNPPMTNAJDCUHE;ATHHXGZTWNVVOU;GETQZCLCWQTVFV;JJWLVOIRVHMVIS;LIWAQLJGPBVORC;BDERNNFJNOPAEC;XOBKSJJDNFUZPF;XOTDURGROKNGTI;HZAXFHJVJLSVMW;QWTDNUCVQCZILF;DAZXVJBJRMWXJP;GVWISOJSERXQBM;HPNMFZURTQLUMO;HQABUPZFAYXKJW;KDSNLYIMUZNERS;XHFGWHUWQXTGAT;BEBCJVAWIBVWNZ;VNKYTQGIUYNRMY;ZXEKIIBDNHEJCQ;WUGQZFFCHPXWKQ;UHOVQNZJYSORNB;SUUDTPGCUKBECW;BMFVGAAISNGQNM;GNVRJGIVDSQCOP;QCOGKXLOEWLIDC;VJROPLWGFCORRM;ZUHZZVMEUAUWHY;FVNIMHIOIXPIQT;MXLMTQWGSQIYOW;UEEJHVSXFDXPFK;PAYRUJLWNCNPSJ;ISWSIDIOOBJBQZ;DJEQZVQFEPKLOY;SMBYUOXUISCLCF;VLSTXUUYLIALPB;AFBPFSWMIHJQDM;IWDCLRJOBJJRNH;RDOXTESZEPMUJZ;JAEJQOUXXMFTJU;DYDNPESBYVVLBO;RIWRFSMVIUAEBX;SMQUZDBALVYZAC;CHLICZRVGGXEOD;DLRJIFUOBPOJNS;NOTCZLKDULMKBR
SubstructureOntologies: CHEMONTID:0002500;CHEMONTID:0001831;CHEMONTID:0002230;CHEMONTID:0002228;CHEMONTID:0001167;CHEMONTID:0004620;CHEMONTID:0002484;CHEMONTID:0002239;CHEMONTID:0000469;CHEMONTID:0000286;CHEMONTID:0000497;CHEMONTID:0001897;CHEMONTID:0001852;CHEMONTID:0002279;CHEMONTID:0001663;CHEMONTID:0001661;CHEMONTID:0000284;CHEMONTID:0004647;CHEMONTID:0003924;CHEMONTID:0001275;CHEMONTID:0000138;CHEMONTID:0000285;CHEMONTID:0000185;CHEMONTID:0003978;CHEMONTID:0002341;CHEMONTID:0000190
Ontology: Macrolactams
OntologyID: CHEMONTID:0000064
RETENTIONTIME: -1
RETENTIONINDEX: -1
TotalBondEnergy: 26862
TotalScore: 7.5777
TotalHrRulesScore: 1
TotalBondCleavageScore: 0.8645
TotalMassAccuracyScore: 0.982
TotalFragmentLinkageScore: 1
TotalBondDissociationEnergyScore: 0.7892
DatabaseScore: 0.5238
SubstructureAssignmentScore: 0
RtSimilarityScore: -1
RiSimilarityScore: 0
Num Fragment VS2 (M/Z Intensity MatchedExactMass SaturatedExactMass Formula RearrangedHydrogen PPM MassDiff_mDa IsEvenElectronRule IsHrRule IsSolventAdductFragment AssignedAdductMass AdductString BondDissociationEnergy TreeDepth SMILES TotalScore HrLikelihood BcLikelihood MaLikelihood FlLikelihood BeLikelihood): 2
185.115123	28464.778828	185.128457394202	188.152481079102	C9H20N2O2	-3	72.03	13.33	True	True	False	0		997	2	O=CNCC(OC)C(C)CNCC	4.27237654594624	1	0.7289999127388	0.965063631534576	1	0.578313001672859
441.247325	151217.303524	441.249647060569	440.242370605469	C24H32N4O4	1	5.26	2.32	True	True	False	0		0	0	O=C(NC1=CC=CC=C1)NC=2C=CC=3OCC(NCC(C)C(OC)CN(C(=O)C=3(C=2))C)C	4.99892216920853	1	1	0.998922169208527	1	1

NAME: UNPD158512
ID: MYOPTJMMYAOHNG
IsSpectrumSearch: False
INCHIKEY: MYOPTJMMYAOHNG-HCTXWYEYNA-N
SMILES: O=C1NC=CC4=CC=C(OC3CCN(C(=O)C(N)CC(C)C)C3(C(=O)N2CCCC12))C=C4
RESOURCES: UNPD=UNPD158512;UNPD72544
SubstructureInChIKeys: VNWKTOKETHGBQD;QGZKDVFQNNGYKY;VGGSQFUCUMXWEO;WSFSSNUMVMOOMR;OTMSDBZUPAUEDD;BAVYZALUXZFZLV;IKHGUXGNUITLKF;ATUOYWHBWRKTHZ;QUSNBJAOOMFDIB;ROSDSFDQCJNGOL;LCGLNKUTAGEVQW;NBBJYMSMWIIQGU;IJDNQMDRQITEOD;NNPPMTNAJDCUHE;ATHHXGZTWNVVOU;LYIIBVSRGJSHAV;GETQZCLCWQTVFV;JJWLVOIRVHMVIS;LIWAQLJGPBVORC;WGYKZJWCGVVSQN;BDERNNFJNOPAEC;XOBKSJJDNFUZPF;HZAXFHJVJLSVMW;RWRDLPDLKQPQOW;ZTQSAGDEMFDKMZ;OFBQJSOFQDEBGM;QWTDNUCVQCZILF;QPMCUNAXNMSGTK;DAZXVJBJRMWXJP;GVWISOJSERXQBM;HPNMFZURTQLUMO;HQABUPZFAYXKJW;XHFGWHUWQXTGAT;AKXKFZDCRYJKTF;BEBCJVAWIBVWNZ;VNKYTQGIUYNRMY;WUGQZFFCHPXWKQ;UHOVQNZJYSORNB;AVFZOVWCLRSYKC;HGBOYTHUEUWSSQ;AFABGHUZZDYHJO;FGEPRNXUNITOCW;SUUDTPGCUKBECW;BMFVGAAISNGQNM;DPBLXKKOBLCELK;GNVRJGIVDSQCOP;QCOGKXLOEWLIDC;ZUHZZVMEUAUWHY;AQIXEPGDORPWBJ;FVNIMHIOIXPIQT;UXPVGJOKPUABJV;UEEJHVSXFDXPFK;YXFVVABEGXRONW;ISWSIDIOOBJBQZ;JIDDDPVQQUHACU;PXHHIBMOFPCBJQ;DJEQZVQFEPKLOY;SMBYUOXUISCLCF;VLSTXUUYLIALPB;ZMANZCXQSJIPKH;VHRGRCVQAFMJIZ;ORDNBIQZKXYGTM;PPBRXRYQALVLMV;IWDCLRJOBJJRNH;RDOXTESZEPMUJZ;ZOFRRNUENOHELM;SKPCTMWFLGENTL;BFSVOASYOCHEOV;FUGYGGDSWSUORM;JESXATFQYMPTNL;CHLICZRVGGXEOD;DLRJIFUOBPOJNS;DCDFYDJCNWNFFZ;UAJRSHJHFRVGMG;NOTCZLKDULMKBR;KBUULMSISDOTQC
SubstructureOntologies: CHEMONTID:0002500;NonID:NH2;CHEMONTID:0004476;CHEMONTID:0001831;CHEMONTID:0000469;CHEMONTID:0002230;CHEMONTID:0002228;CHEMONTID:0001167;CHEMONTID:0002434;CHEMONTID:0004620;CHEMONTID:0002484;CHEMONTID:0002239;CHEMONTID:0000286;CHEMONTID:0001897;CHEMONTID:0000218;CHEMONTID:0001852;CHEMONTID:0002279;CHEMONTID:0003449;CHEMONTID:0001663;CHEMONTID:0001661;CHEMONTID:0001091;CHEMONTID:0004647;CHEMONTID:0002435;CHEMONTID:0000037;CHEMONTID:0001275;CHEMONTID:0000138;CHEMONTID:0002309;CHEMONTID:0002341;CHEMONTID:0000190;CHEMONTID:0001238
Ontology: Cyclic peptides
OntologyID: CHEMONTID:0001995
RETENTIONTIME: -1
RETENTIONINDEX: -1
TotalBondEnergy: 27075
TotalScore: 6.8559
TotalHrRulesScore: 1
TotalBondCleavageScore: 0.8645
TotalMassAccuracyScore: 0.982
TotalFragmentLinkageScore: 1
TotalBondDissociationEnergyScore: 0.8343
DatabaseScore: 0.2238
SubstructureAssignmentScore: 0
RtSimilarityScore: -1
RiSimilarityScore: 0
Num Fragment VS2 (M/Z Intensity MatchedExactMass SaturatedExactMass Formula RearrangedHydrogen PPM MassDiff_mDa IsEvenElectronRule IsHrRule IsSolventAdductFragment AssignedAdductMass AdductString BondDissociationEnergy TreeDepth SMILES TotalScore HrLikelihood BcLikelihood MaLikelihood FlLikelihood BeLikelihood): 2
185.115123	28464.778828	185.128451946623	186.136825561523	C9H18N2O2	-1	72	13.33	True	True	False	0		997	2	O=CCN(C(=O)C(N)CC(C)C)C	4.36269667580371	1	0.7289999127388	0.965091705322266	1	0.668605057742645
441.247325	151217.303524	441.249647060569	440.242370605469	C24H32N4O4	1	5.26	2.32	True	True	False	0		0	0	O=C1NC=CC4=CC=C(OC3CCN(C(=O)C(N)CC(C)C)C3(C(=O)N2CCCC12))C=C4	4.99892216920853	1	1	0.998922169208527	1	1

