NAME: Daphgraciline
ID: INNZHGHJFINUNM
IsSpectrumSearch: False
INCHIKEY: INNZHGHJFINUNM-UAKMNLAUNA-N
SMILES: O=C(OC)C3=C1C2=C(CC1)CCC5CN(C)CC2(C3)C45(COC(O)(CC)CC4)
RESOURCES: KNApSAcK=C00047833,UNPD=UNPD182756;UNPD93595
SubstructureInChIKeys: VNWKTOKETHGBQD;XLYOFNOQVPJJNP;VGGSQFUCUMXWEO;WSFSSNUMVMOOMR;OTMSDBZUPAUEDD;OKKJLVBELUTLKV;IKHGUXGNUITLKF;ATUOYWHBWRKTHZ;ROSDSFDQCJNGOL;LCGLNKUTAGEVQW;LFQSCWFLJHTTHZ;CKFGINPQOCXMAZ;HGINCPLSRVDWNT;IAQRGUVFOMOMEM;VQTUBCCKSQIDNK;VXNZUUAINFGPBY;NBBJYMSMWIIQGU;XXROGKLTLUQVRX;IJDNQMDRQITEOD;NNPPMTNAJDCUHE;GETQZCLCWQTVFV;LIWAQLJGPBVORC;QTBSBXVTEAMEQO;TZIHFWKZFHZASV;BDERNNFJNOPAEC;KFZMGEQAYNKOFK;XOBKSJJDNFUZPF;MLUCVPSAIODCQM;BKOOMYPCSUNDGP;QMMOXUPEWRXHJS;YWAKXRMUMFPDSH;NIXOWILDQLNWCW;ZTQSAGDEMFDKMZ;OFBQJSOFQDEBGM;QWTDNUCVQCZILF;DAZXVJBJRMWXJP;GVWISOJSERXQBM;HPNMFZURTQLUMO;HQABUPZFAYXKJW;KDSNLYIMUZNERS;KXKVLQRXCPHEJC;XBDQKXXYIPTUBI;BTANRVKWQNVYAZ;LRHPLDYGYMQRHN;VNKYTQGIUYNRMY;ZXEKIIBDNHEJCQ;RRLWYLINGKISHN;ACZNIBVNGPLHAC;BEQGRRJLJLVQAQ;LDTAOIUHUHHCMU;LIKMAJRDDDTEIG;RYPKRALMXUUNKS;ZQDPJFUHLCOCRG;NQRYJNQNLNOLGT;BAPJBEWLBFYGME;CERQOIWHTDAKMF;HGBOYTHUEUWSSQ;NEJDKFPXHQRVMV;AFABGHUZZDYHJO;HNRMPXKDFBEGFZ;PFEOZHBOMNWTJB;VLKZOEOYAKHREP;BMFVGAAISNGQNM;DPBLXKKOBLCELK;GNVRJGIVDSQCOP;QCOGKXLOEWLIDC;VJROPLWGFCORRM;ZUHZZVMEUAUWHY;FERIUCNNQQJTOY;AMQJEAYHLZJPGS;AQIXEPGDORPWBJ;FVNIMHIOIXPIQT;JYVLIDXNZAXMDK;PHTQWCKDNZKARW;USLRUYZDOLMIRJ;ADHCYQWFCLQBFG;WZHKDGJSXCTSCK;ZGEGCLOFRBLKSE;PAMIQIKDUOTOBW;JARKCYVAAOWBJS;BZHMBWZPUJHVEE;IMNFDUFMRHMDMM;VLJXXKKOSFGPHI;DJEQZVQFEPKLOY;SMBYUOXUISCLCF;ZSIAUFGUXNUGDI;QONBKISCDWCHKF;UDOAKURRCZMWOJ;KWKAKUADMBZCLK;YXLCVBVDFKWWRW;ONQLCPDIXPYJSS;FXHGMKSSBGDXIY;JVSWJIKNEAIKJW;TVMXDCGIABBOFY;CETWDUZRCINIHU;ZUSUVEKHEZURSD;IICQZTQZQSBHBY;KPADFPAILITQBG;FMETWOPSCIOJSL;KPSZWAJWFMFMFF;NUJGJRNETVAIRJ;MHPUGCYGQWGLJL;BQOAKIRTXKZTKD
SubstructureOntologies: CHEMONTID:0002500;NonID:H2O;CHEMONTID:0004476;CHEMONTID:0001831;CHEMONTID:0000286;CHEMONTID:0002230;CHEMONTID:0002228;CHEMONTID:0001167;CHEMONTID:0001605;CHEMONTID:0002436;CHEMONTID:0004622;CHEMONTID:0002434;CHEMONTID:0004620;CHEMONTID:0002239;CHEMONTID:0001205;CHEMONTID:0001238;CHEMONTID:0001661;CHEMONTID:0004451;CHEMONTID:0000469;CHEMONTID:0003416;CHEMONTID:0001092;CHEMONTID:0000195;CHEMONTID:0004452;CHEMONTID:0000333;CHEMONTID:0002229;CHEMONTID:0001334;CHEMONTID:0003086
Ontology: Azaspirodecane derivatives
OntologyID: CHEMONTID:0000130
RETENTIONTIME: -1
RETENTIONINDEX: -1
TotalBondEnergy: 25535
TotalScore: 6.4894
TotalHrRulesScore: 1
TotalBondCleavageScore: 1
TotalMassAccuracyScore: 0.9824
TotalFragmentLinkageScore: 1
TotalBondDissociationEnergyScore: 1
DatabaseScore: 0.5476
SubstructureAssignmentScore: 0
RtSimilarityScore: -1
RiSimilarityScore: 0
Num Fragment VS2 (M/Z Intensity MatchedExactMass SaturatedExactMass Formula RearrangedHydrogen PPM MassDiff_mDa IsEvenElectronRule IsHrRule IsSolventAdductFragment AssignedAdductMass AdductString BondDissociationEnergy TreeDepth SMILES TotalScore HrLikelihood BcLikelihood MaLikelihood FlLikelihood BeLikelihood): 1
388.238819	64656.446082	388.248243251975	387.240966796875	C23H33NO4	1	24.27	9.42	True	True	False	0		0	0	O=C(OC)C3=C1C2=C(CC1)CCC5CN(C)CC2(C3)C45(COC(O)(CC)CC4)	4.98239350318909	1	1	0.982393503189087	1	1

NAME: Macrodaphniphyllamine
ID: VSUPHZOFQVOSCQ
IsSpectrumSearch: False
INCHIKEY: VSUPHZOFQVOSCQ-UHFFFAOYNA-N
SMILES: O=C(OC)C2CC46(C1=C(CCC12)CCC3CN5CC(C)C(CC(O)C34(C))C56(O))
RESOURCES: KNApSAcK=C00041640,UNPD=UNPD139590;UNPD89541
SubstructureInChIKeys: VNWKTOKETHGBQD;XLYOFNOQVPJJNP;VGGSQFUCUMXWEO;WSFSSNUMVMOOMR;OTMSDBZUPAUEDD;OKKJLVBELUTLKV;IKHGUXGNUITLKF;ATUOYWHBWRKTHZ;ROSDSFDQCJNGOL;LCGLNKUTAGEVQW;LFQSCWFLJHTTHZ;IAQRGUVFOMOMEM;VQTUBCCKSQIDNK;VXNZUUAINFGPBY;NBBJYMSMWIIQGU;IJDNQMDRQITEOD;NNPPMTNAJDCUHE;GETQZCLCWQTVFV;JJWLVOIRVHMVIS;LIWAQLJGPBVORC;QTBSBXVTEAMEQO;TZIHFWKZFHZASV;BDERNNFJNOPAEC;KFZMGEQAYNKOFK;XOBKSJJDNFUZPF;BKOOMYPCSUNDGP;QMMOXUPEWRXHJS;RGSFGYAAUTVSQA;YWAKXRMUMFPDSH;RWRDLPDLKQPQOW;ZSPTYLOMNJNZNG;ZTQSAGDEMFDKMZ;OFBQJSOFQDEBGM;QWTDNUCVQCZILF;DAZXVJBJRMWXJP;GVWISOJSERXQBM;HPNMFZURTQLUMO;HQABUPZFAYXKJW;KDSNLYIMUZNERS;XHFGWHUWQXTGAT;KXKVLQRXCPHEJC;XBDQKXXYIPTUBI;BTANRVKWQNVYAZ;LRHPLDYGYMQRHN;VNKYTQGIUYNRMY;ZXEKIIBDNHEJCQ;BEQGRRJLJLVQAQ;GDOPTJXRTPNYNR;LDTAOIUHUHHCMU;LIKMAJRDDDTEIG;RYPKRALMXUUNKS;XDTMQSROBMDMFD;ZQDPJFUHLCOCRG;AVFZOVWCLRSYKC;NQRYJNQNLNOLGT;FSUXYWPILZJGCC;HGBOYTHUEUWSSQ;AFABGHUZZDYHJO;HNRMPXKDFBEGFZ;PFEOZHBOMNWTJB;VLKZOEOYAKHREP;BMFVGAAISNGQNM;DPBLXKKOBLCELK;GNVRJGIVDSQCOP;QCOGKXLOEWLIDC;VJROPLWGFCORRM;ZUHZZVMEUAUWHY;FERIUCNNQQJTOY;KQNPFQTWMSNSAP;AMQJEAYHLZJPGS;AQIXEPGDORPWBJ;JYVLIDXNZAXMDK;MXLMTQWGSQIYOW;PHTQWCKDNZKARW;USLRUYZDOLMIRJ;ADHCYQWFCLQBFG;UAEPNZWRGJTJPN;WZHKDGJSXCTSCK;ZGEGCLOFRBLKSE;PXHHIBMOFPCBJQ;HPXRVTGHNJAIIH;JARKCYVAAOWBJS;UFLHIIWVXFIJGU;BZHMBWZPUJHVEE;IMNFDUFMRHMDMM;VLJXXKKOSFGPHI;DJEQZVQFEPKLOY;SMBYUOXUISCLCF;VLSTXUUYLIALPB;ZMANZCXQSJIPKH;WLAMNBDJUVNPJU;ZSIAUFGUXNUGDI;UDOAKURRCZMWOJ;KVZJLSYJROEPSQ;KWKAKUADMBZCLK;LETYIFNDQBJGPJ;QEGNUYASOUJEHD;SGVUHPSBDNVHKL;YXLCVBVDFKWWRW;FXHGMKSSBGDXIY;MQWCXKGKQLNYQG;JVSWJIKNEAIKJW;TVMXDCGIABBOFY;OQAGVSWESNCJJT;CETWDUZRCINIHU;OVOVDHYEOQJKMD;ZUSUVEKHEZURSD;IICQZTQZQSBHBY;KPADFPAILITQBG;PYOLJOJPIPCRDP;XARGIVYWQPXRTC;KPSZWAJWFMFMFF;LZHHQGKEJNRBAZ;NUJGJRNETVAIRJ;OHEFFKYYKJVVOX;VWLITJGXNSANSN;ZBAXJUPCYVIBSP;MHPUGCYGQWGLJL;NZQMQVJXSRMTCJ;SLXKOJJOQWFEFD;GGWBGCSGJCRVIQ;LJPZHJUSICYOIX;BUOAKQCLRBVIOX;HIVFIUIKABOGIO;YLZKVXHQMPWDBJ;BQOAKIRTXKZTKD;SOUITUXPBGREAE;KGBMCONWCCBLAE;VTXRDCQMLXABHJ;IRXJZDLOCNJAHE;OTBOAOSTJYUVHP
SubstructureOntologies: CHEMONTID:0002500;NonID:H2O;CHEMONTID:0004476;CHEMONTID:0001831;CHEMONTID:0000286;CHEMONTID:0002230;CHEMONTID:0002228;CHEMONTID:0001167;CHEMONTID:0004622;CHEMONTID:0002434;CHEMONTID:0004620;CHEMONTID:0002239;CHEMONTID:0000469;CHEMONTID:0001205;CHEMONTID:0001238;CHEMONTID:0001661;CHEMONTID:0001016;CHEMONTID:0000218;CHEMONTID:0003416;CHEMONTID:0003449;CHEMONTID:0000195;CHEMONTID:0000333;CHEMONTID:0002229;CHEMONTID:0002647;CHEMONTID:0001334;CHEMONTID:0003544;CHEMONTID:0003417;CHEMONTID:0003086;CHEMONTID:0004149;CHEMONTID:0000222;CHEMONTID:0001401
Ontology: Azaspirodecane derivatives
OntologyID: CHEMONTID:0000130
RETENTIONTIME: -1
RETENTIONINDEX: -1
TotalBondEnergy: 25661
TotalScore: 6.4894
TotalHrRulesScore: 1
TotalBondCleavageScore: 1
TotalMassAccuracyScore: 0.9824
TotalFragmentLinkageScore: 1
TotalBondDissociationEnergyScore: 1
DatabaseScore: 0.5476
SubstructureAssignmentScore: 0
RtSimilarityScore: -1
RiSimilarityScore: 0
Num Fragment VS2 (M/Z Intensity MatchedExactMass SaturatedExactMass Formula RearrangedHydrogen PPM MassDiff_mDa IsEvenElectronRule IsHrRule IsSolventAdductFragment AssignedAdductMass AdductString BondDissociationEnergy TreeDepth SMILES TotalScore HrLikelihood BcLikelihood MaLikelihood FlLikelihood BeLikelihood): 1
388.238819	64656.446082	388.248243251975	387.240966796875	C23H33NO4	1	24.27	9.42	True	True	False	0		0	0	O=C(OC)C2CC46(C1=C(CCC12)CCC3CN5CC(C)C(CC(O)C34(C))C56(O))	4.98239350318909	1	1	0.982393503189087	1	1

NAME: CJ 21058
ID: ZTPMRDYXXHRMRU
IsSpectrumSearch: False
INCHIKEY: ZTPMRDYXXHRMRU-QTEVMKNINA-N
SMILES: O=C1C(C(=O)C(N1C)CO)=C(O)C3(C)(C(C=CC)C(=CC2CC(C)CCC23)C)
RESOURCES: KNApSAcK=C00015172,UNPD=UNPD119947
SubstructureInChIKeys: VNWKTOKETHGBQD;XLYOFNOQVPJJNP;VGGSQFUCUMXWEO;WSFSSNUMVMOOMR;OTMSDBZUPAUEDD;OKKJLVBELUTLKV;QQONPFPTGQHPMA;IKHGUXGNUITLKF;IMROMDMJAWUWLK;ATUOYWHBWRKTHZ;ROSDSFDQCJNGOL;LFQSCWFLJHTTHZ;HGINCPLSRVDWNT;IAQRGUVFOMOMEM;VQTUBCCKSQIDNK;VXNZUUAINFGPBY;CSCPPACGZOOCGX;NBBJYMSMWIIQGU;IJDNQMDRQITEOD;NNPPMTNAJDCUHE;ATHHXGZTWNVVOU;LYIIBVSRGJSHAV;GETQZCLCWQTVFV;JJWLVOIRVHMVIS;LIWAQLJGPBVORC;BDERNNFJNOPAEC;HZAXFHJVJLSVMW;MLUCVPSAIODCQM;BKOOMYPCSUNDGP;QMMOXUPEWRXHJS;YWAKXRMUMFPDSH;RWRDLPDLKQPQOW;GMSHJLUJOABYOM;ZTQSAGDEMFDKMZ;OFBQJSOFQDEBGM;QWTDNUCVQCZILF;DAZXVJBJRMWXJP;GVWISOJSERXQBM;HPNMFZURTQLUMO;HQABUPZFAYXKJW;XHFGWHUWQXTGAT;AKXKFZDCRYJKTF;BEBCJVAWIBVWNZ;LRHPLDYGYMQRHN;ZXEKIIBDNHEJCQ;PRBHEGAFLDMLAL;BEQGRRJLJLVQAQ;LDTAOIUHUHHCMU;LIKMAJRDDDTEIG;RYPKRALMXUUNKS;XDTMQSROBMDMFD;ZQDPJFUHLCOCRG;AVFZOVWCLRSYKC;HGBOYTHUEUWSSQ;AFABGHUZZDYHJO;HNRMPXKDFBEGFZ;PFEOZHBOMNWTJB;VLKZOEOYAKHREP;DZQLQEYLEYWJIB;SUUDTPGCUKBECW;DPBLXKKOBLCELK;GNVRJGIVDSQCOP;QCOGKXLOEWLIDC;ZUHZZVMEUAUWHY;AMQJEAYHLZJPGS;PHTQWCKDNZKARW;UXPVGJOKPUABJV;UEEJHVSXFDXPFK;FMAMSYPJXSEYSW;UAEPNZWRGJTJPN;WZHKDGJSXCTSCK;ZGEGCLOFRBLKSE;PXHHIBMOFPCBJQ;BZHMBWZPUJHVEE;IMNFDUFMRHMDMM;VLJXXKKOSFGPHI;DJEQZVQFEPKLOY;SMBYUOXUISCLCF;VLSTXUUYLIALPB;ZSIAUFGUXNUGDI;GDDAJHJRAKOILH;KVZJLSYJROEPSQ;KWKAKUADMBZCLK;SGVUHPSBDNVHKL;JVSWJIKNEAIKJW;TVMXDCGIABBOFY;OVOVDHYEOQJKMD;NMFOAHIHPAPYJJ;IICQZTQZQSBHBY;KPADFPAILITQBG;XARGIVYWQPXRTC;BQOAKIRTXKZTKD
SubstructureOntologies: CHEMONTID:0002500;NonID:H2O;CHEMONTID:0004476;CHEMONTID:0001831;CHEMONTID:0000286;CHEMONTID:0002230;CHEMONTID:0000132;CHEMONTID:0002228;CHEMONTID:0002436;CHEMONTID:0004622;CHEMONTID:0000118;CHEMONTID:0002434;CHEMONTID:0004620;CHEMONTID:0002484;CHEMONTID:0000469;CHEMONTID:0002239;CHEMONTID:0001897;CHEMONTID:0000218;CHEMONTID:0001019;CHEMONTID:0001016;CHEMONTID:0003449;CHEMONTID:0001663;CHEMONTID:0001334
Ontology: N-alkylpyrrolidines
OntologyID: CHEMONTID:0003449
RETENTIONTIME: -1
RETENTIONINDEX: -1
TotalBondEnergy: 25514
TotalScore: 6.4894
TotalHrRulesScore: 1
TotalBondCleavageScore: 1
TotalMassAccuracyScore: 0.9824
TotalFragmentLinkageScore: 1
TotalBondDissociationEnergyScore: 1
DatabaseScore: 0.5476
SubstructureAssignmentScore: 0
RtSimilarityScore: -1
RiSimilarityScore: 0
Num Fragment VS2 (M/Z Intensity MatchedExactMass SaturatedExactMass Formula RearrangedHydrogen PPM MassDiff_mDa IsEvenElectronRule IsHrRule IsSolventAdductFragment AssignedAdductMass AdductString BondDissociationEnergy TreeDepth SMILES TotalScore HrLikelihood BcLikelihood MaLikelihood FlLikelihood BeLikelihood): 1
388.238819	64656.446082	388.248243251975	387.240966796875	C23H33NO4	1	24.27	9.42	True	True	False	0		0	0	O=C1C(C(=O)C(N1C)CO)=C(O)C3(C)(C(C=CC)C(=CC2CC(C)CCC23)C)	4.98239350318909	1	1	0.982393503189087	1	1

NAME: N-trans-Retinoylserine
ID: LMAARKZBQFFVIV
IsSpectrumSearch: False
INCHIKEY: LMAARKZBQFFVIV-VYDTWJPQNA-N
SMILES: O=C(C=C(C=CC=C(C=CC1=C(C)CCCC1(C)C)C)C)NC(C(=O)O)CO
RESOURCES: KNApSAcK=C00042796
SubstructureInChIKeys: VNWKTOKETHGBQD;XLYOFNOQVPJJNP;VGGSQFUCUMXWEO;WSFSSNUMVMOOMR;OTMSDBZUPAUEDD;OKKJLVBELUTLKV;QQONPFPTGQHPMA;IKHGUXGNUITLKF;ATUOYWHBWRKTHZ;ROSDSFDQCJNGOL;BDAGIHXWWSANSR;LFQSCWFLJHTTHZ;HGINCPLSRVDWNT;IAQRGUVFOMOMEM;VQTUBCCKSQIDNK;VXNZUUAINFGPBY;NBBJYMSMWIIQGU;IJDNQMDRQITEOD;NNPPMTNAJDCUHE;ATHHXGZTWNVVOU;LYIIBVSRGJSHAV;JJWLVOIRVHMVIS;LIWAQLJGPBVORC;QTBSBXVTEAMEQO;BDERNNFJNOPAEC;HZAXFHJVJLSVMW;MLUCVPSAIODCQM;BKOOMYPCSUNDGP;QMMOXUPEWRXHJS;YWAKXRMUMFPDSH;OFBQJSOFQDEBGM;QWTDNUCVQCZILF;HPNMFZURTQLUMO;XHFGWHUWQXTGAT;AKXKFZDCRYJKTF;XBDQKXXYIPTUBI;BEBCJVAWIBVWNZ;DHMQDGOQFOQNFH;YPFDHNVEDLHUCE;BEQGRRJLJLVQAQ;LDTAOIUHUHHCMU;LIKMAJRDDDTEIG;RYPKRALMXUUNKS;ZQDPJFUHLCOCRG;AFABGHUZZDYHJO;HNRMPXKDFBEGFZ;PFEOZHBOMNWTJB;VLKZOEOYAKHREP;QNAYBMKLOCPYGJ;UXPVGJOKPUABJV;JVTAAEKCZFNVCJ;WZHKDGJSXCTSCK;ZGEGCLOFRBLKSE;IMNFDUFMRHMDMM;VLJXXKKOSFGPHI;KWKAKUADMBZCLK;JVSWJIKNEAIKJW;TVMXDCGIABBOFY;IICQZTQZQSBHBY;KPADFPAILITQBG
SubstructureOntologies: CHEMONTID:0002500;NonID:H2O;CHEMONTID:0004476;CHEMONTID:0001831;CHEMONTID:0000286;CHEMONTID:0002230;CHEMONTID:0002228;CHEMONTID:0001205;CHEMONTID:0002436;CHEMONTID:0004622;CHEMONTID:0002434;CHEMONTID:0004620;CHEMONTID:0002484;CHEMONTID:0000469;CHEMONTID:0001897;CHEMONTID:0002404;CHEMONTID:0004314;CHEMONTID:0001359
Ontology: Retinoids
OntologyID: CHEMONTID:0001606
RETENTIONTIME: -1
RETENTIONINDEX: -1
TotalBondEnergy: 25350
TotalScore: 6.4299
TotalHrRulesScore: 1
TotalBondCleavageScore: 1
TotalMassAccuracyScore: 0.9824
TotalFragmentLinkageScore: 1
TotalBondDissociationEnergyScore: 1
DatabaseScore: 0.5238
SubstructureAssignmentScore: 0
RtSimilarityScore: -1
RiSimilarityScore: 0
Num Fragment VS2 (M/Z Intensity MatchedExactMass SaturatedExactMass Formula RearrangedHydrogen PPM MassDiff_mDa IsEvenElectronRule IsHrRule IsSolventAdductFragment AssignedAdductMass AdductString BondDissociationEnergy TreeDepth SMILES TotalScore HrLikelihood BcLikelihood MaLikelihood FlLikelihood BeLikelihood): 1
388.238819	64656.446082	388.248243251975	387.240966796875	C23H33NO4	1	24.27	9.42	True	True	False	0		0	0	O=C(C=C(C=CC=C(C=CC1=C(C)CCCC1(C)C)C)C)NC(C(=O)O)CO	4.98239350318909	1	1	0.982393503189087	1	1

NAME: progesterone 3-O-(carboxymethyl)oxime
ID: PPELYUTTZHLIAZ
IsSpectrumSearch: False
INCHIKEY: PPELYUTTZHLIAZ-CSPZMSETSA-N
SMILES: O=C(O)CON=C4C=C3CCC1C(CCC2(C)(C(C(=O)C)CCC12))C3(C)CC4
RESOURCES: ChEBI=CHEBI:62042
SubstructureInChIKeys: VNWKTOKETHGBQD;XLYOFNOQVPJJNP;VGGSQFUCUMXWEO;WDWDWGRYHDPSDS;WSFSSNUMVMOOMR;OTMSDBZUPAUEDD;IKHGUXGNUITLKF;ATUOYWHBWRKTHZ;BDAGIHXWWSANSR;LFQSCWFLJHTTHZ;IAQRGUVFOMOMEM;VQTUBCCKSQIDNK;VXNZUUAINFGPBY;CSCPPACGZOOCGX;NBBJYMSMWIIQGU;IJDNQMDRQITEOD;NNPPMTNAJDCUHE;QTBSBXVTEAMEQO;WGCNASOHLSPBMP;LYCAIKOWRPUZTN;BKOOMYPCSUNDGP;QMMOXUPEWRXHJS;RGSFGYAAUTVSQA;YWAKXRMUMFPDSH;ZTQSAGDEMFDKMZ;OFBQJSOFQDEBGM;QWTDNUCVQCZILF;AEMRFAOFKBGASW;VIBDJEWPNNCFQO;BEQGRRJLJLVQAQ;GDOPTJXRTPNYNR;LDTAOIUHUHHCMU;LIKMAJRDDDTEIG;RYPKRALMXUUNKS;XDTMQSROBMDMFD;ZQDPJFUHLCOCRG;HGBOYTHUEUWSSQ;AFABGHUZZDYHJO;HNRMPXKDFBEGFZ;PFEOZHBOMNWTJB;VLKZOEOYAKHREP;ADHCYQWFCLQBFG;QWHNJUXXYKPLQM;UAEPNZWRGJTJPN;WZHKDGJSXCTSCK;ZGEGCLOFRBLKSE;JARKCYVAAOWBJS;BZHMBWZPUJHVEE;IMNFDUFMRHMDMM;VLJXXKKOSFGPHI;QJXCDRBHYIAFTH;KVZJLSYJROEPSQ;KWKAKUADMBZCLK;LETYIFNDQBJGPJ;QEGNUYASOUJEHD;SGVUHPSBDNVHKL;YXLCVBVDFKWWRW;CATSNJVOTSVZJV;FXHGMKSSBGDXIY;JVSWJIKNEAIKJW;TVMXDCGIABBOFY;ILIUIABCBOXIRX;NUHCEMOQRZEGAQ;IICQZTQZQSBHBY;KPADFPAILITQBG;PYOLJOJPIPCRDP;XARGIVYWQPXRTC;NUJGJRNETVAIRJ;VWLITJGXNSANSN;GGWBGCSGJCRVIQ;NYFHUVYMLLAQHH;BUOAKQCLRBVIOX;HIVFIUIKABOGIO;YLZKVXHQMPWDBJ;GCLZXEJWFDSXJZ;KGBMCONWCCBLAE;VTXRDCQMLXABHJ;NXCPHYJTOJDSLE;IRXJZDLOCNJAHE;UNWNSYMIUBZKCZ;XBENKLBOLWZLNQ;OTBOAOSTJYUVHP
SubstructureOntologies: CHEMONTID:0002500;NonID:H2O;CHEMONTID:0004476;CHEMONTID:0000117;CHEMONTID:0001831;CHEMONTID:0002230;CHEMONTID:0001205;CHEMONTID:0000286;CHEMONTID:0004622;CHEMONTID:0000118;CHEMONTID:0002434;CHEMONTID:0004620;CHEMONTID:0002467;CHEMONTID:0001016;CHEMONTID:0001359;CHEMONTID:0002286;CHEMONTID:0002229;CHEMONTID:0004149;CHEMONTID:0001401
Ontology: Pregnane steroids
OntologyID: CHEMONTID:0003569
RETENTIONTIME: -1
RETENTIONINDEX: -1
TotalBondEnergy: 25547
TotalScore: 6.4299
TotalHrRulesScore: 1
TotalBondCleavageScore: 1
TotalMassAccuracyScore: 0.9824
TotalFragmentLinkageScore: 1
TotalBondDissociationEnergyScore: 1
DatabaseScore: 0.5238
SubstructureAssignmentScore: 0
RtSimilarityScore: -1
RiSimilarityScore: 0
Num Fragment VS2 (M/Z Intensity MatchedExactMass SaturatedExactMass Formula RearrangedHydrogen PPM MassDiff_mDa IsEvenElectronRule IsHrRule IsSolventAdductFragment AssignedAdductMass AdductString BondDissociationEnergy TreeDepth SMILES TotalScore HrLikelihood BcLikelihood MaLikelihood FlLikelihood BeLikelihood): 1
388.238819	64656.446082	388.248243251975	387.240966796875	C23H33NO4	1	24.27	9.42	True	True	False	0		0	0	O=C(O)CON=C4C=C3CCC1C(CCC2(C)(C(C(=O)C)CCC12))C3(C)CC4	4.98239350318909	1	1	0.982393503189087	1	1

NAME: 17-phenyl-trinor-PGF2alpha amide
ID: RAGQWYIPCPFTJC
IsSpectrumSearch: False
INCHIKEY: RAGQWYIPCPFTJC-RRRGQJHXNA-N
SMILES: O=C(N)CCCC=CCC2C(O)CC(O)C2(C=CC(O)CCC1=CC=CC=C1)
RESOURCES: LipidMAPS=LMFA03010123
SubstructureInChIKeys: QGZKDVFQNNGYKY;XLYOFNOQVPJJNP;VGGSQFUCUMXWEO;WSFSSNUMVMOOMR;OTMSDBZUPAUEDD;OKKJLVBELUTLKV;IKHGUXGNUITLKF;ATUOYWHBWRKTHZ;QUSNBJAOOMFDIB;LFQSCWFLJHTTHZ;IAQRGUVFOMOMEM;VXNZUUAINFGPBY;NBBJYMSMWIIQGU;XXROGKLTLUQVRX;IJDNQMDRQITEOD;NNPPMTNAJDCUHE;WGYKZJWCGVVSQN;BDERNNFJNOPAEC;KFZMGEQAYNKOFK;QMMOXUPEWRXHJS;RGSFGYAAUTVSQA;YWAKXRMUMFPDSH;MKUWVMRNQOOSAT;ZSPTYLOMNJNZNG;ZTQSAGDEMFDKMZ;OFBQJSOFQDEBGM;QWTDNUCVQCZILF;HQABUPZFAYXKJW;BTANRVKWQNVYAZ;LRHPLDYGYMQRHN;ZXEKIIBDNHEJCQ;YPFDHNVEDLHUCE;UHOVQNZJYSORNB;GDOPTJXRTPNYNR;LDTAOIUHUHHCMU;LIKMAJRDDDTEIG;RYPKRALMXUUNKS;ZQDPJFUHLCOCRG;FSUXYWPILZJGCC;GJYMQFMQRRNLCY;HGBOYTHUEUWSSQ;AFABGHUZZDYHJO;PFEOZHBOMNWTJB;VLKZOEOYAKHREP;DPBLXKKOBLCELK;AMQJEAYHLZJPGS;AQIXEPGDORPWBJ;JYVLIDXNZAXMDK;MXLMTQWGSQIYOW;PHTQWCKDNZKARW;PUPZLCDOIYMWBV;YXFVVABEGXRONW;USLRUYZDOLMIRJ;WZHKDGJSXCTSCK;ZGEGCLOFRBLKSE;BVIJQMCYYASIFP;BVOSSZSHBZQJOI;UFLHIIWVXFIJGU;IMNFDUFMRHMDMM;VLJXXKKOSFGPHI;ZSIAUFGUXNUGDI;YNQLUTRBYVCPMQ;UDOAKURRCZMWOJ;KWKAKUADMBZCLK;JVSWJIKNEAIKJW;TVMXDCGIABBOFY;CETWDUZRCINIHU;ODLMAHJVESYWTB;ZUSUVEKHEZURSD;IICQZTQZQSBHBY;KPADFPAILITQBG;LZHHQGKEJNRBAZ;BQOAKIRTXKZTKD;CALZPZVTQZEUQP
SubstructureOntologies: NonID:NH2;NonID:H2O;CHEMONTID:0004476;CHEMONTID:0001831;CHEMONTID:0002500;CHEMONTID:0000286;CHEMONTID:0002230;CHEMONTID:0000469;CHEMONTID:0002434;CHEMONTID:0004620;CHEMONTID:0001661;CHEMONTID:0001016;CHEMONTID:0002279;CHEMONTID:0001091;CHEMONTID:0002229;CHEMONTID:0002938;CHEMONTID:0001334;CHEMONTID:0002811
Ontology: Prostaglandins and related compounds
OntologyID: CHEMONTID:0000514
RETENTIONTIME: -1
RETENTIONINDEX: -1
TotalBondEnergy: 25369
TotalScore: 6.4299
TotalHrRulesScore: 1
TotalBondCleavageScore: 1
TotalMassAccuracyScore: 0.9824
TotalFragmentLinkageScore: 1
TotalBondDissociationEnergyScore: 1
DatabaseScore: 0.5238
SubstructureAssignmentScore: 0
RtSimilarityScore: -1
RiSimilarityScore: 0
Num Fragment VS2 (M/Z Intensity MatchedExactMass SaturatedExactMass Formula RearrangedHydrogen PPM MassDiff_mDa IsEvenElectronRule IsHrRule IsSolventAdductFragment AssignedAdductMass AdductString BondDissociationEnergy TreeDepth SMILES TotalScore HrLikelihood BcLikelihood MaLikelihood FlLikelihood BeLikelihood): 1
388.238819	64656.446082	388.248243251975	387.240966796875	C23H33NO4	1	24.27	9.42	True	True	False	0		0	0	O=C(N)CCCC=CCC2C(O)CC(O)C2(C=CC(O)CCC1=CC=CC=C1)	4.98239350318909	1	1	0.982393503189087	1	1

NAME: UNPD163980
ID: DGFMGTLKHVREOL
IsSpectrumSearch: False
INCHIKEY: DGFMGTLKHVREOL-MZUKPZHXNA-N
SMILES: O=C2OC3C(NC(C)C)C=1C=C(C(O)=C(O)C=1C24(CCCC(C)(C)C34))C(C)C
RESOURCES: UNPD=UNPD163980
SubstructureInChIKeys: VNWKTOKETHGBQD;XLYOFNOQVPJJNP;WSFSSNUMVMOOMR;OTMSDBZUPAUEDD;IKHGUXGNUITLKF;ATUOYWHBWRKTHZ;ROSDSFDQCJNGOL;LCGLNKUTAGEVQW;NBBJYMSMWIIQGU;IJDNQMDRQITEOD;NNPPMTNAJDCUHE;JJWLVOIRVHMVIS;LIWAQLJGPBVORC;QTBSBXVTEAMEQO;TZIHFWKZFHZASV;BDERNNFJNOPAEC;XOBKSJJDNFUZPF;HZAXFHJVJLSVMW;ZTQSAGDEMFDKMZ;OFBQJSOFQDEBGM;QWTDNUCVQCZILF;GVWISOJSERXQBM;HPNMFZURTQLUMO;HQABUPZFAYXKJW;XHFGWHUWQXTGAT;KXKVLQRXCPHEJC;WBJINCZRORDGAQ;XBDQKXXYIPTUBI;BEBCJVAWIBVWNZ;LRHPLDYGYMQRHN;VNKYTQGIUYNRMY;ZXEKIIBDNHEJCQ;UHOVQNZJYSORNB;XDTMQSROBMDMFD;YEJRWHAVMIAJKC;HGBOYTHUEUWSSQ;AFABGHUZZDYHJO;HNRMPXKDFBEGFZ;PFEOZHBOMNWTJB;VLKZOEOYAKHREP;BMFVGAAISNGQNM;DPBLXKKOBLCELK;QCOGKXLOEWLIDC;FERIUCNNQQJTOY;KQNPFQTWMSNSAP;XEKOWRVHYACXOJ;AMQJEAYHLZJPGS;AQIXEPGDORPWBJ;FVNIMHIOIXPIQT;JYVLIDXNZAXMDK;MXLMTQWGSQIYOW;PHTQWCKDNZKARW;YXFVVABEGXRONW;ISWSIDIOOBJBQZ;UAEPNZWRGJTJPN;JARKCYVAAOWBJS;BZHMBWZPUJHVEE;IMNFDUFMRHMDMM;VLJXXKKOSFGPHI;VLSTXUUYLIALPB;WLAMNBDJUVNPJU;ZSIAUFGUXNUGDI;RILLZYSZSDGYGV;YNQLUTRBYVCPMQ;IWDCLRJOBJJRNH;GHMLBKRAJCXXBS;KVZJLSYJROEPSQ;KWKAKUADMBZCLK;QEGNUYASOUJEHD;SGVUHPSBDNVHKL;FXHGMKSSBGDXIY;JVSWJIKNEAIKJW;TVMXDCGIABBOFY;OQAGVSWESNCJJT;WDAXFOBOLVPGLV;CETWDUZRCINIHU;OVOVDHYEOQJKMD;RNFDZDMIFOFNMC;ODLMAHJVESYWTB;RIWRFSMVIUAEBX;HMNKTRSOROOSPP;HXDOZKJGKXYMEW;WRMNZCZEMHIOCP;OIPPWFOQEKKFEE;ZBCATMYQYDCTIZ;PYOLJOJPIPCRDP;XARGIVYWQPXRTC;LEBVLOLOVGHEFE;NUJGJRNETVAIRJ;BSTCHFGEIXFVRN;NZQMQVJXSRMTCJ;MPWGZBWDLMDIHO;HFLGBNBLMBSXEM;VGMJYYDKPUPTID;YCCILVSKPBXVIP;BUOAKQCLRBVIOX;HIVFIUIKABOGIO;YLZKVXHQMPWDBJ;WLBGHZBIFQNGCH;MQSXUKPGWMJYBT;JUUBCHWRXWPFFH;VTXRDCQMLXABHJ;DWGPKVSAWGQTPQ;IRXJZDLOCNJAHE
SubstructureOntologies: CHEMONTID:0002500;NonID:H2O;CHEMONTID:0001831;CHEMONTID:0002230;CHEMONTID:0002228;CHEMONTID:0001167;CHEMONTID:0002434;CHEMONTID:0004620;CHEMONTID:0000469;CHEMONTID:0001205;CHEMONTID:0001238;CHEMONTID:0000286;CHEMONTID:0001897;CHEMONTID:0003416;CHEMONTID:0002484;CHEMONTID:0002279;CHEMONTID:0001016;CHEMONTID:0001245;CHEMONTID:0000333;CHEMONTID:0001661;CHEMONTID:0001091;CHEMONTID:0004647;CHEMONTID:0002229;CHEMONTID:0003544;CHEMONTID:0001334;CHEMONTID:0001275;CHEMONTID:0000137;CHEMONTID:0004476;CHEMONTID:0003417;CHEMONTID:0002811;CHEMONTID:0000185;CHEMONTID:0004646;CHEMONTID:0000135;CHEMONTID:0003086;CHEMONTID:0003698
Ontology: Diterpene lactones
OntologyID: CHEMONTID:0001538
RETENTIONTIME: -1
RETENTIONINDEX: -1
TotalBondEnergy: 25497
TotalScore: 5.6799
TotalHrRulesScore: 1
TotalBondCleavageScore: 1
TotalMassAccuracyScore: 0.9824
TotalFragmentLinkageScore: 1
TotalBondDissociationEnergyScore: 1
DatabaseScore: 0.2238
SubstructureAssignmentScore: 0
RtSimilarityScore: -1
RiSimilarityScore: 0
Num Fragment VS2 (M/Z Intensity MatchedExactMass SaturatedExactMass Formula RearrangedHydrogen PPM MassDiff_mDa IsEvenElectronRule IsHrRule IsSolventAdductFragment AssignedAdductMass AdductString BondDissociationEnergy TreeDepth SMILES TotalScore HrLikelihood BcLikelihood MaLikelihood FlLikelihood BeLikelihood): 1
388.238819	64656.446082	388.248243251975	387.240966796875	C23H33NO4	1	24.27	9.42	True	True	False	0		0	0	O=C2OC3C(NC(C)C)C=1C=C(C(O)=C(O)C=1C24(CCCC(C)(C)C34))C(C)C	4.98239350318909	1	1	0.982393503189087	1	1

NAME: UNPD163893
ID: GZPYJGXSOJGYKK
IsSpectrumSearch: False
INCHIKEY: GZPYJGXSOJGYKK-WMBKFTQUNA-N
SMILES: O=C(OC)C2CC46(C1=C(CCC12)CCC3CN5CC(C)C(CCC34(CO))C56(O))
RESOURCES: UNPD=UNPD163893;UNPD209038
SubstructureInChIKeys: VNWKTOKETHGBQD;XLYOFNOQVPJJNP;VGGSQFUCUMXWEO;WSFSSNUMVMOOMR;OTMSDBZUPAUEDD;OKKJLVBELUTLKV;IKHGUXGNUITLKF;ATUOYWHBWRKTHZ;ROSDSFDQCJNGOL;LCGLNKUTAGEVQW;LFQSCWFLJHTTHZ;IAQRGUVFOMOMEM;VQTUBCCKSQIDNK;VXNZUUAINFGPBY;NBBJYMSMWIIQGU;IJDNQMDRQITEOD;NNPPMTNAJDCUHE;GETQZCLCWQTVFV;JJWLVOIRVHMVIS;LIWAQLJGPBVORC;QTBSBXVTEAMEQO;TZIHFWKZFHZASV;BDERNNFJNOPAEC;KFZMGEQAYNKOFK;XOBKSJJDNFUZPF;BKOOMYPCSUNDGP;QMMOXUPEWRXHJS;RGSFGYAAUTVSQA;YWAKXRMUMFPDSH;RWRDLPDLKQPQOW;ZSPTYLOMNJNZNG;ZTQSAGDEMFDKMZ;OFBQJSOFQDEBGM;QWTDNUCVQCZILF;DAZXVJBJRMWXJP;GVWISOJSERXQBM;HPNMFZURTQLUMO;HQABUPZFAYXKJW;KDSNLYIMUZNERS;XHFGWHUWQXTGAT;KXKVLQRXCPHEJC;XBDQKXXYIPTUBI;BTANRVKWQNVYAZ;LRHPLDYGYMQRHN;VNKYTQGIUYNRMY;ZXEKIIBDNHEJCQ;BEQGRRJLJLVQAQ;GDOPTJXRTPNYNR;LDTAOIUHUHHCMU;LIKMAJRDDDTEIG;RYPKRALMXUUNKS;XDTMQSROBMDMFD;ZQDPJFUHLCOCRG;AVFZOVWCLRSYKC;NQRYJNQNLNOLGT;FSUXYWPILZJGCC;HGBOYTHUEUWSSQ;AFABGHUZZDYHJO;HNRMPXKDFBEGFZ;PFEOZHBOMNWTJB;VLKZOEOYAKHREP;BMFVGAAISNGQNM;DPBLXKKOBLCELK;GNVRJGIVDSQCOP;QCOGKXLOEWLIDC;VJROPLWGFCORRM;ZUHZZVMEUAUWHY;FERIUCNNQQJTOY;KQNPFQTWMSNSAP;AMQJEAYHLZJPGS;AQIXEPGDORPWBJ;JYVLIDXNZAXMDK;MXLMTQWGSQIYOW;PHTQWCKDNZKARW;USLRUYZDOLMIRJ;ADHCYQWFCLQBFG;UAEPNZWRGJTJPN;WZHKDGJSXCTSCK;ZGEGCLOFRBLKSE;PXHHIBMOFPCBJQ;HPXRVTGHNJAIIH;JARKCYVAAOWBJS;UFLHIIWVXFIJGU;BZHMBWZPUJHVEE;IMNFDUFMRHMDMM;VLJXXKKOSFGPHI;DJEQZVQFEPKLOY;SMBYUOXUISCLCF;VLSTXUUYLIALPB;ZMANZCXQSJIPKH;WLAMNBDJUVNPJU;ZSIAUFGUXNUGDI;UDOAKURRCZMWOJ;KVZJLSYJROEPSQ;KWKAKUADMBZCLK;LETYIFNDQBJGPJ;QEGNUYASOUJEHD;SGVUHPSBDNVHKL;YXLCVBVDFKWWRW;FXHGMKSSBGDXIY;MQWCXKGKQLNYQG;JVSWJIKNEAIKJW;TVMXDCGIABBOFY;OQAGVSWESNCJJT;CETWDUZRCINIHU;OVOVDHYEOQJKMD;ZUSUVEKHEZURSD;IICQZTQZQSBHBY;KPADFPAILITQBG;PYOLJOJPIPCRDP;XARGIVYWQPXRTC;KPSZWAJWFMFMFF;NUJGJRNETVAIRJ;VWLITJGXNSANSN;ZBAXJUPCYVIBSP;MHPUGCYGQWGLJL;NZQMQVJXSRMTCJ;SLXKOJJOQWFEFD;GGWBGCSGJCRVIQ;LJPZHJUSICYOIX;BUOAKQCLRBVIOX;HIVFIUIKABOGIO;YLZKVXHQMPWDBJ;BQOAKIRTXKZTKD;SOUITUXPBGREAE;KGBMCONWCCBLAE;VTXRDCQMLXABHJ;IRXJZDLOCNJAHE;OTBOAOSTJYUVHP
SubstructureOntologies: CHEMONTID:0002500;NonID:H2O;CHEMONTID:0004476;CHEMONTID:0001831;CHEMONTID:0000286;CHEMONTID:0002230;CHEMONTID:0002228;CHEMONTID:0001167;CHEMONTID:0004622;CHEMONTID:0002434;CHEMONTID:0004620;CHEMONTID:0002239;CHEMONTID:0000469;CHEMONTID:0001205;CHEMONTID:0001238;CHEMONTID:0001661;CHEMONTID:0001016;CHEMONTID:0000218;CHEMONTID:0003416;CHEMONTID:0003449;CHEMONTID:0000195;CHEMONTID:0000333;CHEMONTID:0002229;CHEMONTID:0002647;CHEMONTID:0001334;CHEMONTID:0003544;CHEMONTID:0003417;CHEMONTID:0003086;CHEMONTID:0004149;CHEMONTID:0000222;CHEMONTID:0001401
Ontology: Azaspirodecane derivatives
OntologyID: CHEMONTID:0000130
RETENTIONTIME: -1
RETENTIONINDEX: -1
TotalBondEnergy: 25661
TotalScore: 5.6799
TotalHrRulesScore: 1
TotalBondCleavageScore: 1
TotalMassAccuracyScore: 0.9824
TotalFragmentLinkageScore: 1
TotalBondDissociationEnergyScore: 1
DatabaseScore: 0.2238
SubstructureAssignmentScore: 0
RtSimilarityScore: -1
RiSimilarityScore: 0
Num Fragment VS2 (M/Z Intensity MatchedExactMass SaturatedExactMass Formula RearrangedHydrogen PPM MassDiff_mDa IsEvenElectronRule IsHrRule IsSolventAdductFragment AssignedAdductMass AdductString BondDissociationEnergy TreeDepth SMILES TotalScore HrLikelihood BcLikelihood MaLikelihood FlLikelihood BeLikelihood): 1
388.238819	64656.446082	388.248243251975	387.240966796875	C23H33NO4	1	24.27	9.42	True	True	False	0		0	0	O=C(OC)C2CC46(C1=C(CCC12)CCC3CN5CC(C)C(CCC34(CO))C56(O))	4.98239350318909	1	1	0.982393503189087	1	1

NAME: UNPD89175
ID: HGIXVDMBHFEREO
IsSpectrumSearch: False
INCHIKEY: HGIXVDMBHFEREO-SNSDEOPWNA-N
SMILES: O=C(OC)C2CC46(C1=C(CCC12)CCC3CN5CC(C)C(O)(CCC34(CO))C56)
RESOURCES: UNPD=UNPD89175
SubstructureInChIKeys: VNWKTOKETHGBQD;XLYOFNOQVPJJNP;VGGSQFUCUMXWEO;WSFSSNUMVMOOMR;OTMSDBZUPAUEDD;OKKJLVBELUTLKV;IKHGUXGNUITLKF;ATUOYWHBWRKTHZ;ROSDSFDQCJNGOL;LCGLNKUTAGEVQW;LFQSCWFLJHTTHZ;IAQRGUVFOMOMEM;VQTUBCCKSQIDNK;VXNZUUAINFGPBY;NBBJYMSMWIIQGU;IJDNQMDRQITEOD;NNPPMTNAJDCUHE;GETQZCLCWQTVFV;JJWLVOIRVHMVIS;LIWAQLJGPBVORC;QTBSBXVTEAMEQO;TZIHFWKZFHZASV;BDERNNFJNOPAEC;KFZMGEQAYNKOFK;XOBKSJJDNFUZPF;HZAXFHJVJLSVMW;BKOOMYPCSUNDGP;QMMOXUPEWRXHJS;RGSFGYAAUTVSQA;YWAKXRMUMFPDSH;RWRDLPDLKQPQOW;ZTQSAGDEMFDKMZ;OFBQJSOFQDEBGM;QWTDNUCVQCZILF;DAZXVJBJRMWXJP;GVWISOJSERXQBM;HPNMFZURTQLUMO;HQABUPZFAYXKJW;KDSNLYIMUZNERS;XHFGWHUWQXTGAT;KXKVLQRXCPHEJC;XBDQKXXYIPTUBI;BEBCJVAWIBVWNZ;BTANRVKWQNVYAZ;LRHPLDYGYMQRHN;VNKYTQGIUYNRMY;ZXEKIIBDNHEJCQ;HXKKHQJGJAFBHI;WUGQZFFCHPXWKQ;BEQGRRJLJLVQAQ;GDOPTJXRTPNYNR;LDTAOIUHUHHCMU;LIKMAJRDDDTEIG;RYPKRALMXUUNKS;XDTMQSROBMDMFD;ZQDPJFUHLCOCRG;AVFZOVWCLRSYKC;NQRYJNQNLNOLGT;HGBOYTHUEUWSSQ;AFABGHUZZDYHJO;HNRMPXKDFBEGFZ;PFEOZHBOMNWTJB;VLKZOEOYAKHREP;BMFVGAAISNGQNM;DPBLXKKOBLCELK;GNVRJGIVDSQCOP;QCOGKXLOEWLIDC;VJROPLWGFCORRM;ZUHZZVMEUAUWHY;FERIUCNNQQJTOY;KQNPFQTWMSNSAP;AMQJEAYHLZJPGS;AQIXEPGDORPWBJ;JYVLIDXNZAXMDK;MXLMTQWGSQIYOW;PHTQWCKDNZKARW;UEEJHVSXFDXPFK;USLRUYZDOLMIRJ;ADHCYQWFCLQBFG;UAEPNZWRGJTJPN;WZHKDGJSXCTSCK;ZGEGCLOFRBLKSE;PXHHIBMOFPCBJQ;HPXRVTGHNJAIIH;JARKCYVAAOWBJS;BZHMBWZPUJHVEE;IMNFDUFMRHMDMM;VLJXXKKOSFGPHI;DJEQZVQFEPKLOY;SMBYUOXUISCLCF;VLSTXUUYLIALPB;ZMANZCXQSJIPKH;WLAMNBDJUVNPJU;ZSIAUFGUXNUGDI;UDOAKURRCZMWOJ;KVZJLSYJROEPSQ;KWKAKUADMBZCLK;LETYIFNDQBJGPJ;QEGNUYASOUJEHD;SGVUHPSBDNVHKL;YXLCVBVDFKWWRW;FXHGMKSSBGDXIY;MQWCXKGKQLNYQG;JVSWJIKNEAIKJW;TVMXDCGIABBOFY;OQAGVSWESNCJJT;CETWDUZRCINIHU;OVOVDHYEOQJKMD;BFSVOASYOCHEOV;ZUSUVEKHEZURSD;IICQZTQZQSBHBY;KPADFPAILITQBG;PYOLJOJPIPCRDP;XARGIVYWQPXRTC;KPSZWAJWFMFMFF;LZHHQGKEJNRBAZ;NUJGJRNETVAIRJ;OHEFFKYYKJVVOX;VWLITJGXNSANSN;ZBAXJUPCYVIBSP;MHPUGCYGQWGLJL;NZQMQVJXSRMTCJ;SLXKOJJOQWFEFD;GGWBGCSGJCRVIQ;LJPZHJUSICYOIX;BUOAKQCLRBVIOX;HIVFIUIKABOGIO;YLZKVXHQMPWDBJ;BQOAKIRTXKZTKD;SOUITUXPBGREAE;KGBMCONWCCBLAE;VTXRDCQMLXABHJ;IRXJZDLOCNJAHE;OTBOAOSTJYUVHP
SubstructureOntologies: CHEMONTID:0002500;NonID:H2O;CHEMONTID:0004476;CHEMONTID:0001831;CHEMONTID:0000286;CHEMONTID:0002230;CHEMONTID:0002228;CHEMONTID:0001167;CHEMONTID:0004622;CHEMONTID:0002434;CHEMONTID:0004620;CHEMONTID:0002239;CHEMONTID:0000469;CHEMONTID:0001205;CHEMONTID:0001238;CHEMONTID:0001661;CHEMONTID:0001897;CHEMONTID:0001016;CHEMONTID:0000218;CHEMONTID:0003416;CHEMONTID:0002484;CHEMONTID:0001852;CHEMONTID:0003449;CHEMONTID:0000195;CHEMONTID:0000333;CHEMONTID:0002229;CHEMONTID:0002647;CHEMONTID:0003544;CHEMONTID:0001334;CHEMONTID:0003417;CHEMONTID:0003086;CHEMONTID:0004149;CHEMONTID:0000222;CHEMONTID:0001401
Ontology: Azaspirodecane derivatives
OntologyID: CHEMONTID:0000130
RETENTIONTIME: -1
RETENTIONINDEX: -1
TotalBondEnergy: 25661
TotalScore: 5.6799
TotalHrRulesScore: 1
TotalBondCleavageScore: 1
TotalMassAccuracyScore: 0.9824
TotalFragmentLinkageScore: 1
TotalBondDissociationEnergyScore: 1
DatabaseScore: 0.2238
SubstructureAssignmentScore: 0
RtSimilarityScore: -1
RiSimilarityScore: 0
Num Fragment VS2 (M/Z Intensity MatchedExactMass SaturatedExactMass Formula RearrangedHydrogen PPM MassDiff_mDa IsEvenElectronRule IsHrRule IsSolventAdductFragment AssignedAdductMass AdductString BondDissociationEnergy TreeDepth SMILES TotalScore HrLikelihood BcLikelihood MaLikelihood FlLikelihood BeLikelihood): 1
388.238819	64656.446082	388.248243251975	387.240966796875	C23H33NO4	1	24.27	9.42	True	True	False	0		0	0	O=C(OC)C2CC46(C1=C(CCC12)CCC3CN5CC(C)C(O)(CCC34(CO))C56)	4.98239350318909	1	1	0.982393503189087	1	1

NAME: UNPD210222
ID: IDKSCTLOZOTDPO
IsSpectrumSearch: False
INCHIKEY: IDKSCTLOZOTDPO-GOSISDBHSA-N
SMILES: O=C2C=1C(OC)=C(C(OCC=C(C)CCC=C(C)C)=CC=1C(N2CCO)C)C
RESOURCES: UNPD=UNPD210222
SubstructureInChIKeys: VNWKTOKETHGBQD;XLYOFNOQVPJJNP;VGGSQFUCUMXWEO;WSFSSNUMVMOOMR;OTMSDBZUPAUEDD;OKKJLVBELUTLKV;QQONPFPTGQHPMA;IKHGUXGNUITLKF;ATUOYWHBWRKTHZ;ROSDSFDQCJNGOL;LCGLNKUTAGEVQW;LFQSCWFLJHTTHZ;IAQRGUVFOMOMEM;VQTUBCCKSQIDNK;VXNZUUAINFGPBY;XXROGKLTLUQVRX;IJDNQMDRQITEOD;ATHHXGZTWNVVOU;GETQZCLCWQTVFV;JJWLVOIRVHMVIS;LIWAQLJGPBVORC;XOBKSJJDNFUZPF;HZAXFHJVJLSVMW;BKOOMYPCSUNDGP;QMMOXUPEWRXHJS;YWAKXRMUMFPDSH;OFBQJSOFQDEBGM;DAZXVJBJRMWXJP;HPNMFZURTQLUMO;XHFGWHUWQXTGAT;BEBCJVAWIBVWNZ;UHOVQNZJYSORNB;BEQGRRJLJLVQAQ;LIKMAJRDDDTEIG;RYPKRALMXUUNKS;GNVRJGIVDSQCOP;UEEJHVSXFDXPFK;YXFVVABEGXRONW;ISWSIDIOOBJBQZ;ZMANZCXQSJIPKH;RILLZYSZSDGYGV;YNQLUTRBYVCPMQ;IWDCLRJOBJJRNH;RDOXTESZEPMUJZ;GHMLBKRAJCXXBS;BFSVOASYOCHEOV;RIWRFSMVIUAEBX;SMQUZDBALVYZAC;CHLICZRVGGXEOD;DLRJIFUOBPOJNS;HMNKTRSOROOSPP;HXDOZKJGKXYMEW;LHGVFZTZFXWLCP;OIPPWFOQEKKFEE;ZBCATMYQYDCTIZ;JYGFTBXVXVMTGB;DWLZULQNIPIABE;HDNRAPAFJLXKBV;IUNJCFABHJZSKB;ABDKAPXRBAPSQN;DPZNOMCNRMUKPS;HFLGBNBLMBSXEM;NOTCZLKDULMKBR;PETRWTHZSKVLRE;VGMJYYDKPUPTID;DZJPDDVDKXHRLF;SULYEHHGGXARJS;CAWZFQGJUGEKFU;GYPMBQZAVBFUIZ;RIZBLVRXRWHLFA;NEBQMYHKOREVAL;NWYBPFPJJYBYSR
SubstructureOntologies: CHEMONTID:0002500;NonID:H2O;CHEMONTID:0004476;CHEMONTID:0001831;CHEMONTID:0000286;CHEMONTID:0002230;CHEMONTID:0002228;CHEMONTID:0001167;CHEMONTID:0004622;CHEMONTID:0002484;CHEMONTID:0002239;CHEMONTID:0000469;CHEMONTID:0001897;CHEMONTID:0002279;CHEMONTID:0001091;CHEMONTID:0004647;CHEMONTID:0001275;CHEMONTID:0000138;CHEMONTID:0000137;CHEMONTID:0000185;CHEMONTID:0003978;CHEMONTID:0002341;CHEMONTID:0004646;CHEMONTID:0000190;CHEMONTID:0000135;CHEMONTID:0001146;CHEMONTID:0004111;CHEMONTID:0004298
Ontology: Isoindolones
OntologyID: CHEMONTID:0001820
RETENTIONTIME: -1
RETENTIONINDEX: -1
TotalBondEnergy: 25265
TotalScore: 5.6799
TotalHrRulesScore: 1
TotalBondCleavageScore: 1
TotalMassAccuracyScore: 0.9824
TotalFragmentLinkageScore: 1
TotalBondDissociationEnergyScore: 1
DatabaseScore: 0.2238
SubstructureAssignmentScore: 0
RtSimilarityScore: -1
RiSimilarityScore: 0
Num Fragment VS2 (M/Z Intensity MatchedExactMass SaturatedExactMass Formula RearrangedHydrogen PPM MassDiff_mDa IsEvenElectronRule IsHrRule IsSolventAdductFragment AssignedAdductMass AdductString BondDissociationEnergy TreeDepth SMILES TotalScore HrLikelihood BcLikelihood MaLikelihood FlLikelihood BeLikelihood): 1
388.238819	64656.446082	388.248243251975	387.240966796875	C23H33NO4	1	24.27	9.42	True	True	False	0		0	0	O=C2C=1C(OC)=C(C(OCC=C(C)CCC=C(C)C)=CC=1C(N2CCO)C)C	4.98239350318909	1	1	0.982393503189087	1	1

NAME: UNPD203414
ID: IWAPLOITRVNZAP
IsSpectrumSearch: False
INCHIKEY: IWAPLOITRVNZAP-QGOAFFKASA-N
SMILES: O=C(OC)C=1C=NC(=CC=1(C=C(C(=O)C)CC(=O)CCCCCCC))CCC
RESOURCES: UNPD=UNPD203414
SubstructureInChIKeys: VNWKTOKETHGBQD;VGGSQFUCUMXWEO;WSFSSNUMVMOOMR;OTMSDBZUPAUEDD;IKHGUXGNUITLKF;ATUOYWHBWRKTHZ;LCGLNKUTAGEVQW;HGINCPLSRVDWNT;IAQRGUVFOMOMEM;VQTUBCCKSQIDNK;VXNZUUAINFGPBY;CSCPPACGZOOCGX;NBBJYMSMWIIQGU;IJDNQMDRQITEOD;QTBSBXVTEAMEQO;TZIHFWKZFHZASV;XOBKSJJDNFUZPF;MLUCVPSAIODCQM;BKOOMYPCSUNDGP;QMMOXUPEWRXHJS;YWAKXRMUMFPDSH;ZTQSAGDEMFDKMZ;OFBQJSOFQDEBGM;KXKVLQRXCPHEJC;JUJWROOIHBZHMG;BEQGRRJLJLVQAQ;LIKMAJRDDDTEIG;RYPKRALMXUUNKS;HGBOYTHUEUWSSQ;VLKZOEOYAKHREP;PIAOXUVIBAKVSP;ITQTTZVARXURQS;ZGEGCLOFRBLKSE;JARKCYVAAOWBJS;IMNFDUFMRHMDMM;CNRGMQRNYAIBTN;KWKAKUADMBZCLK;CATSNJVOTSVZJV;FXHGMKSSBGDXIY;TVMXDCGIABBOFY;YRMUTQRWVGDUBW;DJCJOWDAAZEMCI;IICQZTQZQSBHBY;NUJGJRNETVAIRJ;UKFNNBXGHVJQMJ;QVGWQEOFNGJAOO;PBZLKHXTZLJSSO;AASQBYVPOFXFGU;IOKPZOGAWQXXLF
SubstructureOntologies: CHEMONTID:0002500;CHEMONTID:0004476;CHEMONTID:0001831;CHEMONTID:0002230;CHEMONTID:0001167;CHEMONTID:0002436;CHEMONTID:0004622;CHEMONTID:0000118;CHEMONTID:0002434;CHEMONTID:0001205;CHEMONTID:0001238;CHEMONTID:0003416;CHEMONTID:0000089;CHEMONTID:0004152;CHEMONTID:0002229;CHEMONTID:0001334
Ontology: Pyridinecarboxylic acids
OntologyID: CHEMONTID:0002414
RETENTIONTIME: -1
RETENTIONINDEX: -1
TotalBondEnergy: 25480
TotalScore: 5.6799
TotalHrRulesScore: 1
TotalBondCleavageScore: 1
TotalMassAccuracyScore: 0.9824
TotalFragmentLinkageScore: 1
TotalBondDissociationEnergyScore: 1
DatabaseScore: 0.2238
SubstructureAssignmentScore: 0
RtSimilarityScore: -1
RiSimilarityScore: 0
Num Fragment VS2 (M/Z Intensity MatchedExactMass SaturatedExactMass Formula RearrangedHydrogen PPM MassDiff_mDa IsEvenElectronRule IsHrRule IsSolventAdductFragment AssignedAdductMass AdductString BondDissociationEnergy TreeDepth SMILES TotalScore HrLikelihood BcLikelihood MaLikelihood FlLikelihood BeLikelihood): 1
388.238819	64656.446082	388.248243251975	387.240966796875	C23H33NO4	1	24.27	9.42	True	True	False	0		0	0	O=C(OC)C=1C=NC(=CC=1(C=C(C(=O)C)CC(=O)CCCCCCC))CCC	4.98239350318909	1	1	0.982393503189087	1	1

NAME: UNPD197898
ID: KSROFXNZRLENBT
IsSpectrumSearch: False
INCHIKEY: KSROFXNZRLENBT-QRCIAXMKNA-N
SMILES: O=C(OCC45(CCC3(NCC5(CCC1=C2C(CC1)C(C(=O)OC)CC234))(CC)))C
RESOURCES: UNPD=UNPD197898
SubstructureInChIKeys: VNWKTOKETHGBQD;VGGSQFUCUMXWEO;WSFSSNUMVMOOMR;OTMSDBZUPAUEDD;IKHGUXGNUITLKF;ATUOYWHBWRKTHZ;ROSDSFDQCJNGOL;LCGLNKUTAGEVQW;IAQRGUVFOMOMEM;VQTUBCCKSQIDNK;VXNZUUAINFGPBY;NBBJYMSMWIIQGU;IJDNQMDRQITEOD;NNPPMTNAJDCUHE;JJWLVOIRVHMVIS;LIWAQLJGPBVORC;QTBSBXVTEAMEQO;TZIHFWKZFHZASV;BDERNNFJNOPAEC;XOBKSJJDNFUZPF;BKOOMYPCSUNDGP;QMMOXUPEWRXHJS;RGSFGYAAUTVSQA;YWAKXRMUMFPDSH;ZTQSAGDEMFDKMZ;OFBQJSOFQDEBGM;QWTDNUCVQCZILF;GVWISOJSERXQBM;HPNMFZURTQLUMO;HQABUPZFAYXKJW;KDSNLYIMUZNERS;XHFGWHUWQXTGAT;KXKVLQRXCPHEJC;WBJINCZRORDGAQ;XBDQKXXYIPTUBI;LRHPLDYGYMQRHN;VNKYTQGIUYNRMY;ZXEKIIBDNHEJCQ;BEQGRRJLJLVQAQ;GDOPTJXRTPNYNR;LDTAOIUHUHHCMU;LIKMAJRDDDTEIG;RYPKRALMXUUNKS;ZQDPJFUHLCOCRG;NQRYJNQNLNOLGT;HGBOYTHUEUWSSQ;AFABGHUZZDYHJO;HNRMPXKDFBEGFZ;PFEOZHBOMNWTJB;VLKZOEOYAKHREP;BMFVGAAISNGQNM;DPBLXKKOBLCELK;QCOGKXLOEWLIDC;VJROPLWGFCORRM;FERIUCNNQQJTOY;KQNPFQTWMSNSAP;XEKOWRVHYACXOJ;AMQJEAYHLZJPGS;PHTQWCKDNZKARW;USLRUYZDOLMIRJ;ADHCYQWFCLQBFG;QWHNJUXXYKPLQM;WZHKDGJSXCTSCK;ZGEGCLOFRBLKSE;JARKCYVAAOWBJS;BZHMBWZPUJHVEE;IMNFDUFMRHMDMM;VLJXXKKOSFGPHI;VLSTXUUYLIALPB;WLAMNBDJUVNPJU;ZSIAUFGUXNUGDI;UDOAKURRCZMWOJ;KWKAKUADMBZCLK;LETYIFNDQBJGPJ;YXLCVBVDFKWWRW;YLUDSYGJHAQGOD;FXHGMKSSBGDXIY;JVSWJIKNEAIKJW;TVMXDCGIABBOFY;OQAGVSWESNCJJT;OVOVDHYEOQJKMD;ZUSUVEKHEZURSD;IICQZTQZQSBHBY;KPADFPAILITQBG;GNXGHNXLUPRSCR;KPSZWAJWFMFMFF;NUJGJRNETVAIRJ;VWLITJGXNSANSN;MHPUGCYGQWGLJL;NZQMQVJXSRMTCJ;SLXKOJJOQWFEFD;BQOAKIRTXKZTKD
SubstructureOntologies: CHEMONTID:0002500;CHEMONTID:0004476;CHEMONTID:0001831;CHEMONTID:0002230;CHEMONTID:0002228;CHEMONTID:0001167;CHEMONTID:0004622;CHEMONTID:0002434;CHEMONTID:0004620;CHEMONTID:0000469;CHEMONTID:0001205;CHEMONTID:0001238;CHEMONTID:0000286;CHEMONTID:0001016;CHEMONTID:0003416;CHEMONTID:0000195;CHEMONTID:0000333;CHEMONTID:0002229;CHEMONTID:0003544;CHEMONTID:0001334;CHEMONTID:0003417;CHEMONTID:0003086
Ontology: Delta amino acids and derivatives
OntologyID: CHEMONTID:0001879
RETENTIONTIME: -1
RETENTIONINDEX: -1
TotalBondEnergy: 25638
TotalScore: 5.6799
TotalHrRulesScore: 1
TotalBondCleavageScore: 1
TotalMassAccuracyScore: 0.9824
TotalFragmentLinkageScore: 1
TotalBondDissociationEnergyScore: 1
DatabaseScore: 0.2238
SubstructureAssignmentScore: 0
RtSimilarityScore: -1
RiSimilarityScore: 0
Num Fragment VS2 (M/Z Intensity MatchedExactMass SaturatedExactMass Formula RearrangedHydrogen PPM MassDiff_mDa IsEvenElectronRule IsHrRule IsSolventAdductFragment AssignedAdductMass AdductString BondDissociationEnergy TreeDepth SMILES TotalScore HrLikelihood BcLikelihood MaLikelihood FlLikelihood BeLikelihood): 1
388.238819	64656.446082	388.248243251975	387.240966796875	C23H33NO4	1	24.27	9.42	True	True	False	0		0	0	O=C(OCC45(CCC3(NCC5(CCC1=C2C(CC1)C(C(=O)OC)CC234))(CC)))C	4.98239350318909	1	1	0.982393503189087	1	1

NAME: UNPD104270
ID: SVACRXZQRXORCG
IsSpectrumSearch: False
INCHIKEY: SVACRXZQRXORCG-ABPBKCQHNA-N
SMILES: O=C1OCC5(CCC(=O)C(C)C)(C2CN(C)CC45(CC1C3CC=C(CC2)C34(O)))
RESOURCES: UNPD=UNPD104270
SubstructureInChIKeys: VNWKTOKETHGBQD;XLYOFNOQVPJJNP;VGGSQFUCUMXWEO;WSFSSNUMVMOOMR;OTMSDBZUPAUEDD;OKKJLVBELUTLKV;IKHGUXGNUITLKF;ATUOYWHBWRKTHZ;ROSDSFDQCJNGOL;LCGLNKUTAGEVQW;LFQSCWFLJHTTHZ;IAQRGUVFOMOMEM;VQTUBCCKSQIDNK;VXNZUUAINFGPBY;CSCPPACGZOOCGX;NBBJYMSMWIIQGU;XXROGKLTLUQVRX;IJDNQMDRQITEOD;NNPPMTNAJDCUHE;GETQZCLCWQTVFV;LIWAQLJGPBVORC;QTBSBXVTEAMEQO;TZIHFWKZFHZASV;BDERNNFJNOPAEC;KFZMGEQAYNKOFK;XOBKSJJDNFUZPF;BKOOMYPCSUNDGP;QMMOXUPEWRXHJS;RGSFGYAAUTVSQA;YWAKXRMUMFPDSH;MKUWVMRNQOOSAT;ZTQSAGDEMFDKMZ;OFBQJSOFQDEBGM;QWTDNUCVQCZILF;DAZXVJBJRMWXJP;GVWISOJSERXQBM;HPNMFZURTQLUMO;HQABUPZFAYXKJW;KDSNLYIMUZNERS;KXKVLQRXCPHEJC;WBJINCZRORDGAQ;XBDQKXXYIPTUBI;BTANRVKWQNVYAZ;LRHPLDYGYMQRHN;VNKYTQGIUYNRMY;ZXEKIIBDNHEJCQ;WUGQZFFCHPXWKQ;BEQGRRJLJLVQAQ;LDTAOIUHUHHCMU;LIKMAJRDDDTEIG;RYPKRALMXUUNKS;ZQDPJFUHLCOCRG;NQRYJNQNLNOLGT;GJYMQFMQRRNLCY;HGBOYTHUEUWSSQ;NEJDKFPXHQRVMV;AFABGHUZZDYHJO;HNRMPXKDFBEGFZ;PFEOZHBOMNWTJB;VLKZOEOYAKHREP;BMFVGAAISNGQNM;DPBLXKKOBLCELK;GNVRJGIVDSQCOP;QCOGKXLOEWLIDC;VJROPLWGFCORRM;ZUHZZVMEUAUWHY;FERIUCNNQQJTOY;KQNPFQTWMSNSAP;XEKOWRVHYACXOJ;AMQJEAYHLZJPGS;AQIXEPGDORPWBJ;JYVLIDXNZAXMDK;MXLMTQWGSQIYOW;PHTQWCKDNZKARW;USLRUYZDOLMIRJ;ADHCYQWFCLQBFG;WZHKDGJSXCTSCK;ZGEGCLOFRBLKSE;PAMIQIKDUOTOBW;BVIJQMCYYASIFP;BVOSSZSHBZQJOI;JARKCYVAAOWBJS;BZHMBWZPUJHVEE;IMNFDUFMRHMDMM;VLJXXKKOSFGPHI;DJEQZVQFEPKLOY;SMBYUOXUISCLCF;WLAMNBDJUVNPJU;ZSIAUFGUXNUGDI;UDOAKURRCZMWOJ;KWKAKUADMBZCLK;YXLCVBVDFKWWRW;ONQLCPDIXPYJSS;YLUDSYGJHAQGOD;CATSNJVOTSVZJV;FXHGMKSSBGDXIY;PZKFYTOLVRCMOA;JVSWJIKNEAIKJW;TVMXDCGIABBOFY;OQAGVSWESNCJJT;WDAXFOBOLVPGLV;CETWDUZRCINIHU;OVOVDHYEOQJKMD;ZUSUVEKHEZURSD;IICQZTQZQSBHBY;KPADFPAILITQBG;FMETWOPSCIOJSL;GNXGHNXLUPRSCR;KPSZWAJWFMFMFF;LZHHQGKEJNRBAZ;NUJGJRNETVAIRJ;OHEFFKYYKJVVOX;VSMOENVRRABVKN;VWLITJGXNSANSN;MHPUGCYGQWGLJL;NZQMQVJXSRMTCJ;SLXKOJJOQWFEFD;BQOAKIRTXKZTKD;ZIWXVGHUDKNNSH
SubstructureOntologies: CHEMONTID:0002500;NonID:H2O;CHEMONTID:0004476;CHEMONTID:0001831;CHEMONTID:0000286;CHEMONTID:0002230;CHEMONTID:0002228;CHEMONTID:0001167;CHEMONTID:0004622;CHEMONTID:0000118;CHEMONTID:0002434;CHEMONTID:0004620;CHEMONTID:0002239;CHEMONTID:0001205;CHEMONTID:0001238;CHEMONTID:0001661;CHEMONTID:0001016;CHEMONTID:0000469;CHEMONTID:0003416;CHEMONTID:0001852;CHEMONTID:0000195;CHEMONTID:0000333;CHEMONTID:0002229;CHEMONTID:0002938;CHEMONTID:0003544;CHEMONTID:0001334;CHEMONTID:0003417;CHEMONTID:0003086
Ontology: Terpene lactones
OntologyID: CHEMONTID:0001283
RETENTIONTIME: -1
RETENTIONINDEX: -1
TotalBondEnergy: 25658
TotalScore: 5.6799
TotalHrRulesScore: 1
TotalBondCleavageScore: 1
TotalMassAccuracyScore: 0.9824
TotalFragmentLinkageScore: 1
TotalBondDissociationEnergyScore: 1
DatabaseScore: 0.2238
SubstructureAssignmentScore: 0
RtSimilarityScore: -1
RiSimilarityScore: 0
Num Fragment VS2 (M/Z Intensity MatchedExactMass SaturatedExactMass Formula RearrangedHydrogen PPM MassDiff_mDa IsEvenElectronRule IsHrRule IsSolventAdductFragment AssignedAdductMass AdductString BondDissociationEnergy TreeDepth SMILES TotalScore HrLikelihood BcLikelihood MaLikelihood FlLikelihood BeLikelihood): 1
388.238819	64656.446082	388.248243251975	387.240966796875	C23H33NO4	1	24.27	9.42	True	True	False	0		0	0	O=C1OCC5(CCC(=O)C(C)C)(C2CN(C)CC45(CC1C3CC=C(CC2)C34(O)))	4.98239350318909	1	1	0.982393503189087	1	1

NAME: UNPD165805
ID: TVFBRUKGDMJDMC
IsSpectrumSearch: False
INCHIKEY: TVFBRUKGDMJDMC-NEWAVBBWNA-N
SMILES: O=C(C=CC(=CC(C)CCCCCC)C)NC(C(=O)O)CC1=CC=C(O)C=C1
RESOURCES: UNPD=UNPD165805
SubstructureInChIKeys: VNWKTOKETHGBQD;XLYOFNOQVPJJNP;VGGSQFUCUMXWEO;WSFSSNUMVMOOMR;OTMSDBZUPAUEDD;QQONPFPTGQHPMA;IKHGUXGNUITLKF;ATUOYWHBWRKTHZ;ROSDSFDQCJNGOL;BDAGIHXWWSANSR;LFQSCWFLJHTTHZ;HGINCPLSRVDWNT;IAQRGUVFOMOMEM;VQTUBCCKSQIDNK;VXNZUUAINFGPBY;NBBJYMSMWIIQGU;IJDNQMDRQITEOD;NNPPMTNAJDCUHE;ATHHXGZTWNVVOU;LYIIBVSRGJSHAV;JJWLVOIRVHMVIS;LIWAQLJGPBVORC;QTBSBXVTEAMEQO;BDERNNFJNOPAEC;HZAXFHJVJLSVMW;MLUCVPSAIODCQM;BKOOMYPCSUNDGP;QMMOXUPEWRXHJS;YWAKXRMUMFPDSH;ZTQSAGDEMFDKMZ;OFBQJSOFQDEBGM;QWTDNUCVQCZILF;GVWISOJSERXQBM;HPNMFZURTQLUMO;XHFGWHUWQXTGAT;XBDQKXXYIPTUBI;BEBCJVAWIBVWNZ;LRHPLDYGYMQRHN;DHMQDGOQFOQNFH;UHOVQNZJYSORNB;LDTAOIUHUHHCMU;LIKMAJRDDDTEIG;RYPKRALMXUUNKS;AFABGHUZZDYHJO;VLKZOEOYAKHREP;FGEPRNXUNITOCW;SUUDTPGCUKBECW;FERIUCNNQQJTOY;QNAYBMKLOCPYGJ;YXFVVABEGXRONW;ISWSIDIOOBJBQZ;ZGEGCLOFRBLKSE;IMNFDUFMRHMDMM;QWCKQJZIFLGMSD;YNQLUTRBYVCPMQ;IWDCLRJOBJJRNH;KWKAKUADMBZCLK;JVSWJIKNEAIKJW;TVMXDCGIABBOFY;ODLMAHJVESYWTB;BHHGXPLMPWCGHP;HMNKTRSOROOSPP;HXDOZKJGKXYMEW;IICQZTQZQSBHBY;YGCZTXZTJXYWCO;SASNBVQSOZSTPD;MPWGZBWDLMDIHO;DZGWFCGJZKJUFP;CQIUZHAQYHXKRY;AMQRNDIFPLIQBP;REEQXZCFSBLNDH;XMIIGOLPHOKFCH;COLNVLDHVKWLRT;DXGAIOIQACHYRK;NMHMNPHRMNGLLB
SubstructureOntologies: CHEMONTID:0002500;NonID:H2O;CHEMONTID:0004476;CHEMONTID:0001831;CHEMONTID:0002230;CHEMONTID:0002228;CHEMONTID:0001205;CHEMONTID:0000286;CHEMONTID:0002436;CHEMONTID:0004622;CHEMONTID:0002434;CHEMONTID:0004620;CHEMONTID:0002484;CHEMONTID:0000469;CHEMONTID:0001897;CHEMONTID:0002404;CHEMONTID:0002279;CHEMONTID:0001663;CHEMONTID:0000333;CHEMONTID:0004314;CHEMONTID:0001091;CHEMONTID:0004647;CHEMONTID:0001275;CHEMONTID:0002811;CHEMONTID:0000186;CHEMONTID:0004646;CHEMONTID:0000188;CHEMONTID:0002551;CHEMONTID:0004321
Ontology: Tyrosine and derivatives
OntologyID: CHEMONTID:0004319
RETENTIONTIME: -1
RETENTIONINDEX: -1
TotalBondEnergy: 25350
TotalScore: 5.6799
TotalHrRulesScore: 1
TotalBondCleavageScore: 1
TotalMassAccuracyScore: 0.9824
TotalFragmentLinkageScore: 1
TotalBondDissociationEnergyScore: 1
DatabaseScore: 0.2238
SubstructureAssignmentScore: 0
RtSimilarityScore: -1
RiSimilarityScore: 0
Num Fragment VS2 (M/Z Intensity MatchedExactMass SaturatedExactMass Formula RearrangedHydrogen PPM MassDiff_mDa IsEvenElectronRule IsHrRule IsSolventAdductFragment AssignedAdductMass AdductString BondDissociationEnergy TreeDepth SMILES TotalScore HrLikelihood BcLikelihood MaLikelihood FlLikelihood BeLikelihood): 1
388.238819	64656.446082	388.248243251975	387.240966796875	C23H33NO4	1	24.27	9.42	True	True	False	0		0	0	O=C(C=CC(=CC(C)CCCCCC)C)NC(C(=O)O)CC1=CC=C(O)C=C1	4.98239350318909	1	1	0.982393503189087	1	1

