NAME: 2-(phosphinatomethylidene)succinate(3-)
ID: UMYBWZRTMKDYRF
IsSpectrumSearch: False
INCHIKEY: UMYBWZRTMKDYRF-IHWYPQMZSA-K
SMILES: O=C(O)C(=CP(=O)O)CC(=O)O
RESOURCES: ChEBI=CHEBI:131651;CHEBI:131963
SubstructureInChIKeys: XLYOFNOQVPJJNP;VGGSQFUCUMXWEO;WSFSSNUMVMOOMR;IKHGUXGNUITLKF;ATUOYWHBWRKTHZ;BDAGIHXWWSANSR;LFQSCWFLJHTTHZ;HGINCPLSRVDWNT;VQTUBCCKSQIDNK;VXNZUUAINFGPBY;NBBJYMSMWIIQGU;XXROGKLTLUQVRX;IJDNQMDRQITEOD;QTBSBXVTEAMEQO;BDERNNFJNOPAEC;NIXOWILDQLNWCW;ZSPTYLOMNJNZNG;ZTQSAGDEMFDKMZ;XBDQKXXYIPTUBI;LRHPLDYGYMQRHN;CERQOIWHTDAKMF;FERIUCNNQQJTOY;UIUJIQZEACWQSV;KDYFGRWQOYBRFD
SubstructureOntologies: NonID:H2O;CHEMONTID:0004476;CHEMONTID:0001831;CHEMONTID:0002230;CHEMONTID:0002500;CHEMONTID:0001205;CHEMONTID:0000286;CHEMONTID:0002436;CHEMONTID:0004622;CHEMONTID:0002434;CHEMONTID:0004451;CHEMONTID:0000333;CHEMONTID:0000346
Ontology: Dicarboxylic acids and derivatives
OntologyID: CHEMONTID:0000346
RETENTIONTIME: -1
RETENTIONINDEX: -1
TotalBondEnergy: 7929
TotalScore: 7.3486
TotalHrRulesScore: 1
TotalBondCleavageScore: 0.95
TotalMassAccuracyScore: 0.9781
TotalFragmentLinkageScore: 1
TotalBondDissociationEnergyScore: 0.8647
DatabaseScore: 0.5238
SubstructureAssignmentScore: 0.0714
RtSimilarityScore: -1
RiSimilarityScore: 0
Num Fragment VS2 (M/Z Intensity MatchedExactMass SaturatedExactMass Formula RearrangedHydrogen PPM MassDiff_mDa IsEvenElectronRule IsHrRule IsSolventAdductFragment AssignedAdductMass AdductString BondDissociationEnergy TreeDepth SMILES TotalScore HrLikelihood BcLikelihood MaLikelihood FlLikelihood BeLikelihood): 2
178.998795	11455.060377	179.010389248069	178.003112792969	C5H7O5P	1	64.77	11.59	True	True	False	0		335	1	O=C(O)C(=CP=O)CC(=O)O	4.60294041838515	1	0.899999976158142	0.973472893238068	1	0.729467548988941
194.995953	57772.259873	195.005308071311	193.998031616211	C5H7O6P	1	47.98	9.36	True	True	False	0		0	0	O=C(O)C(=CP(=O)O)CC(=O)O	4.9826488494873	1	1	0.982648849487305	1	1

NAME: (Z)-5-[hydroxy(oxido)phosphoryl]-2-keto-pent-3-enoate
ID: VWRVDHFDQXZMSP
IsSpectrumSearch: False
INCHIKEY: VWRVDHFDQXZMSP-UPHRSURJSA-L
SMILES: O=C(O)C(=O)C=CCP(=O)(O)O
RESOURCES: PubChem=90658412
SubstructureInChIKeys: XLYOFNOQVPJJNP;VGGSQFUCUMXWEO;WSFSSNUMVMOOMR;IKHGUXGNUITLKF;ATUOYWHBWRKTHZ;BDAGIHXWWSANSR;LFQSCWFLJHTTHZ;HGINCPLSRVDWNT;IAQRGUVFOMOMEM;VXNZUUAINFGPBY;CSCPPACGZOOCGX;NBBJYMSMWIIQGU;QTBSBXVTEAMEQO;WGCNASOHLSPBMP;BDERNNFJNOPAEC;MLUCVPSAIODCQM;QMMOXUPEWRXHJS;ZSPTYLOMNJNZNG;HHLFWLYXYJOTON;AKXKFZDCRYJKTF;XBDQKXXYIPTUBI;AEMRFAOFKBGASW;ABLZXFCXXLZCGV;FSUXYWPILZJGCC;ALRHLSYJTWAHJZ
SubstructureOntologies: NonID:H2O;CHEMONTID:0004476;CHEMONTID:0001831;CHEMONTID:0002230;CHEMONTID:0002500;CHEMONTID:0001205;CHEMONTID:0000286;CHEMONTID:0002436;CHEMONTID:0000118;CHEMONTID:0002434;CHEMONTID:0001359;NonID:PO3;CHEMONTID:0001713
Ontology: Short-chain keto acids and derivatives
OntologyID: CHEMONTID:0001416
RETENTIONTIME: -1
RETENTIONINDEX: -1
TotalBondEnergy: 7995
TotalScore: 7.3453
TotalHrRulesScore: 1
TotalBondCleavageScore: 0.95
TotalMassAccuracyScore: 0.9781
TotalFragmentLinkageScore: 1
TotalBondDissociationEnergyScore: 0.8594
DatabaseScore: 0.5238
SubstructureAssignmentScore: 0.0714
RtSimilarityScore: -1
RiSimilarityScore: 0
Num Fragment VS2 (M/Z Intensity MatchedExactMass SaturatedExactMass Formula RearrangedHydrogen PPM MassDiff_mDa IsEvenElectronRule IsHrRule IsSolventAdductFragment AssignedAdductMass AdductString BondDissociationEnergy TreeDepth SMILES TotalScore HrLikelihood BcLikelihood MaLikelihood FlLikelihood BeLikelihood): 2
178.998795	11455.060377	179.010389248069	178.003112792969	C5H7O5P	1	64.77	11.59	True	True	False	0		335	1	O=C(O)C(=O)C=CCP(=O)O	4.59221796788003	1	0.899999976158142	0.973472893238068	1	0.71874509848382
194.995953	57772.259873	195.005308071311	193.998031616211	C5H7O6P	1	47.98	9.36	True	True	False	0		0	0	O=C(O)C(=O)C=CCP(=O)(O)O	4.9826488494873	1	1	0.982648849487305	1	1

