NAME: UNPD201702
ID: YUVGUUFSLOQITK
IsSpectrumSearch: False
INCHIKEY: YUVGUUFSLOQITK-HZJYTTRNSA-N
SMILES: O=C1C=C(NC=2C=CC=CC1=2)CCCCCC=CCC=CCCCCC
RESOURCES: UNPD=UNPD201702
SubstructureInChIKeys: VNWKTOKETHGBQD;VGGSQFUCUMXWEO;WSFSSNUMVMOOMR;OTMSDBZUPAUEDD;ATUOYWHBWRKTHZ;IAQRGUVFOMOMEM;VXNZUUAINFGPBY;IJDNQMDRQITEOD;QMMOXUPEWRXHJS;YWAKXRMUMFPDSH;OFBQJSOFQDEBGM;UHOVQNZJYSORNB;JUJWROOIHBZHMG;PRBHEGAFLDMLAL;LIKMAJRDDDTEIG;RYPKRALMXUUNKS;ZQDPJFUHLCOCRG;VLKZOEOYAKHREP;ITQTTZVARXURQS;FMAMSYPJXSEYSW;WZHKDGJSXCTSCK;ZGEGCLOFRBLKSE;IMNFDUFMRHMDMM;AQSRRZGQRFFFGS;GDDAJHJRAKOILH;KWKAKUADMBZCLK;NMFOAHIHPAPYJJ;IICQZTQZQSBHBY;KPADFPAILITQBG;SMWDFEZZVXVKRB
SubstructureOntologies: CHEMONTID:0002500;CHEMONTID:0004476;CHEMONTID:0001831;CHEMONTID:0002279;CHEMONTID:0000089;CHEMONTID:0001019;CHEMONTID:0004152;CHEMONTID:0001253
Ontology: Hydroquinolones
OntologyID: CHEMONTID:0001716
RETENTIONTIME: -1
RETENTIONINDEX: -1
TotalBondEnergy: 24737
TotalScore: 6.2415
TotalHrRulesScore: 1
TotalBondCleavageScore: 0.5016
TotalMassAccuracyScore: 0.8644
TotalFragmentLinkageScore: 1
TotalBondDissociationEnergyScore: 0.8635
DatabaseScore: 0.2238
SubstructureAssignmentScore: 0
RtSimilarityScore: -1
RiSimilarityScore: 0
Num Fragment VS2 (M/Z Intensity MatchedExactMass SaturatedExactMass Formula RearrangedHydrogen PPM MassDiff_mDa IsEvenElectronRule IsHrRule IsSolventAdductFragment AssignedAdductMass AdductString BondDissociationEnergy TreeDepth SMILES TotalScore HrLikelihood BcLikelihood MaLikelihood FlLikelihood BeLikelihood): 2
335.275655	115736.649127	335.236932125647	338.260955810547	C24H34O	-3	115.5	38.72	True	True	False	0		610	1	O=C(C=CCCCCCC=CCC=CCCCCC)C=1C=CC=CC=1	3.471106499874	1	0.00316406227648258	0.740898072719574	1	0.727044364877944
352.255676	129528.970932	352.263502041038	351.256225585938	C24H33NO	1	22.22	7.83	True	True	False	0		0	0	O=C1C=C(NC=2C=CC=CC1=2)CCCCCC=CCC=CCCCCC	4.98782533407211	1	1	0.987825334072113	1	1

