NAME: Aikupikoxide A;(+)-Aikupikoxide A
ID: UCWHHFGTUDDROG
IsSpectrumSearch: False
INCHIKEY: UCWHHFGTUDDROG-CQSHETONNA-N
SMILES: O=C(O)C(C)C1OOC(C)(CCC=C(C)CCC(=O)C(C)(C)CCCC(=O)C)CC1
RESOURCES: KNApSAcK=C00045620;C00046172,ChEBI=CHEBI:66415,NANPDB=NANPDB_3379,UNPD=UNPD19536;UNPD54834
SubstructureInChIKeys: VNWKTOKETHGBQD;XLYOFNOQVPJJNP;VGGSQFUCUMXWEO;WSFSSNUMVMOOMR;OTMSDBZUPAUEDD;QQONPFPTGQHPMA;IKHGUXGNUITLKF;ATUOYWHBWRKTHZ;BDAGIHXWWSANSR;LFQSCWFLJHTTHZ;IAQRGUVFOMOMEM;VQTUBCCKSQIDNK;VXNZUUAINFGPBY;CSCPPACGZOOCGX;NBBJYMSMWIIQGU;IJDNQMDRQITEOD;NNPPMTNAJDCUHE;QTBSBXVTEAMEQO;BDERNNFJNOPAEC;BKOOMYPCSUNDGP;QMMOXUPEWRXHJS;YWAKXRMUMFPDSH;ZTQSAGDEMFDKMZ;OFBQJSOFQDEBGM;QWTDNUCVQCZILF;AKXKFZDCRYJKTF;XBDQKXXYIPTUBI;LRHPLDYGYMQRHN;ZXEKIIBDNHEJCQ;YPFDHNVEDLHUCE;BEQGRRJLJLVQAQ;LIKMAJRDDDTEIG;RYPKRALMXUUNKS;ZQDPJFUHLCOCRG;HGBOYTHUEUWSSQ;AFABGHUZZDYHJO;HNRMPXKDFBEGFZ;PFEOZHBOMNWTJB;VLKZOEOYAKHREP;FERIUCNNQQJTOY;KQNPFQTWMSNSAP;AMQJEAYHLZJPGS;AQIXEPGDORPWBJ;JYVLIDXNZAXMDK;MXLMTQWGSQIYOW;JVTAAEKCZFNVCJ;PUPZLCDOIYMWBV;QWGRWMMWNDWRQN;WZHKDGJSXCTSCK;ZGEGCLOFRBLKSE;JARKCYVAAOWBJS;IMNFDUFMRHMDMM;VLJXXKKOSFGPHI;WLAMNBDJUVNPJU;ZSIAUFGUXNUGDI;KWKAKUADMBZCLK;CATSNJVOTSVZJV;FXHGMKSSBGDXIY;JVSWJIKNEAIKJW;TVMXDCGIABBOFY;YRMUTQRWVGDUBW;CETWDUZRCINIHU;NBFKNCBRFJKDDR;IICQZTQZQSBHBY;KPADFPAILITQBG;LZHHQGKEJNRBAZ;NUJGJRNETVAIRJ;OHEFFKYYKJVVOX;UKFNNBXGHVJQMJ;RXFZCBZCGBDPDT;QVGWQEOFNGJAOO;PBZLKHXTZLJSSO;AASQBYVPOFXFGU
SubstructureOntologies: CHEMONTID:0002500;NonID:H2O;CHEMONTID:0004476;CHEMONTID:0001831;CHEMONTID:0002230;CHEMONTID:0001205;CHEMONTID:0000286;CHEMONTID:0004622;CHEMONTID:0000118;CHEMONTID:0002434;CHEMONTID:0004620;CHEMONTID:0000333;CHEMONTID:0001661;CHEMONTID:0001359;CHEMONTID:0002229;CHEMONTID:0003544;CHEMONTID:0001334
Ontology: Diterpenoids
OntologyID: CHEMONTID:0001551
RETENTIONTIME: -1
RETENTIONINDEX: -1
TotalBondEnergy: 28165
TotalScore: 6.6185
TotalHrRulesScore: 1
TotalBondCleavageScore: 0.582
TotalMassAccuracyScore: 0.8232
TotalFragmentLinkageScore: 1
TotalBondDissociationEnergyScore: 0.7431
DatabaseScore: 0.5952
SubstructureAssignmentScore: 0
RtSimilarityScore: -1
RiSimilarityScore: 0
Num Fragment VS2 (M/Z Intensity MatchedExactMass SaturatedExactMass Formula RearrangedHydrogen PPM MassDiff_mDa IsEvenElectronRule IsHrRule IsSolventAdductFragment AssignedAdductMass AdductString BondDissociationEnergy TreeDepth SMILES TotalScore HrLikelihood BcLikelihood MaLikelihood FlLikelihood BeLikelihood): 2
279.314391	120953.259347	279.268237713225	280.276611328125	C19H36O	-1	165.24	46.15	True	True	False	0		1408	3	O=C(CCC(=CCCC(C)CCCCC)C)C(C)(C)C	3.30337842482016	1	0.164024978876114	0.653099894523621	1	0.48625355142043
425.295532	165939.661196	425.289777675803	424.282501220703	C24H40O6	1	13.53	5.75	True	True	False	0		0	0	O=C(O)C(C)C1OOC(C)(CCC=C(C)CCC(=O)C(C)(C)CCCC(=O)C)CC1	4.99339944124222	1	1	0.993399441242218	1	1

NAME: 2b,3a,7a,12a-Tetrahydroxy-5b-cholanoic acid
ID: IMMADCCLTPCOKH
IsSpectrumSearch: False
INCHIKEY: IMMADCCLTPCOKH-DLPNMVJGSA-N
SMILES: O=C(O)CCC(C)C2CCC3C4C(O)CC1CC(O)C(O)CC1(C)C4(CC(O)C23(C))
RESOURCES: HMDB=HMDB0000316,FooDB=FDB021943,BMDB=BMDB00316,LipidMAPS=LMST04010115;LMST04010294
SubstructureInChIKeys: VNWKTOKETHGBQD;XLYOFNOQVPJJNP;WSFSSNUMVMOOMR;OTMSDBZUPAUEDD;OKKJLVBELUTLKV;IKHGUXGNUITLKF;ATUOYWHBWRKTHZ;BDAGIHXWWSANSR;LFQSCWFLJHTTHZ;NBBJYMSMWIIQGU;IJDNQMDRQITEOD;NNPPMTNAJDCUHE;QTBSBXVTEAMEQO;BDERNNFJNOPAEC;KFZMGEQAYNKOFK;LYCAIKOWRPUZTN;RGSFGYAAUTVSQA;ZTQSAGDEMFDKMZ;OFBQJSOFQDEBGM;QWTDNUCVQCZILF;XBDQKXXYIPTUBI;BTANRVKWQNVYAZ;LRHPLDYGYMQRHN;ZXEKIIBDNHEJCQ;DNIAPMSPPWPWGF;VIBDJEWPNNCFQO;GDOPTJXRTPNYNR;XDTMQSROBMDMFD;HGBOYTHUEUWSSQ;AFABGHUZZDYHJO;HNRMPXKDFBEGFZ;PFEOZHBOMNWTJB;VLKZOEOYAKHREP;FERIUCNNQQJTOY;AMQJEAYHLZJPGS;AQIXEPGDORPWBJ;JYVLIDXNZAXMDK;MXLMTQWGSQIYOW;PHTQWCKDNZKARW;BMRWNKZVCUKKSR;QWHNJUXXYKPLQM;UAEPNZWRGJTJPN;HPXRVTGHNJAIIH;JARKCYVAAOWBJS;BZHMBWZPUJHVEE;IMNFDUFMRHMDMM;VLJXXKKOSFGPHI;NQPDZGIKBAWPEJ;ZSIAUFGUXNUGDI;WCVRQHFDJLLWFE;XLMFDCKSFJWJTP;KVZJLSYJROEPSQ;LETYIFNDQBJGPJ;QEGNUYASOUJEHD;SGVUHPSBDNVHKL;FXHGMKSSBGDXIY;MQWCXKGKQLNYQG;JVSWJIKNEAIKJW;TVMXDCGIABBOFY;CETWDUZRCINIHU;OVOVDHYEOQJKMD;PYOLJOJPIPCRDP;XARGIVYWQPXRTC;NUJGJRNETVAIRJ;ZBAXJUPCYVIBSP;MHPUGCYGQWGLJL;GGWBGCSGJCRVIQ;BUOAKQCLRBVIOX;HIVFIUIKABOGIO;YLZKVXHQMPWDBJ;SOUITUXPBGREAE;KGBMCONWCCBLAE;VTXRDCQMLXABHJ;IRXJZDLOCNJAHE;XBENKLBOLWZLNQ;OTBOAOSTJYUVHP;HZNDJPAXRXLIOU;RBTVCRWROCDIOQ;WJXVLZCOWIIKOS
SubstructureOntologies: CHEMONTID:0002500;NonID:H2O;CHEMONTID:0001831;CHEMONTID:0000286;CHEMONTID:0002230;CHEMONTID:0001205;CHEMONTID:0002434;CHEMONTID:0004620;CHEMONTID:0001661;CHEMONTID:0002467;CHEMONTID:0001016;CHEMONTID:0002286;CHEMONTID:0000333;CHEMONTID:0002647;CHEMONTID:0002229;CHEMONTID:0001334;CHEMONTID:0003086;CHEMONTID:0004149;CHEMONTID:0001401;CHEMONTID:0003569;CHEMONTID:0001468
Ontology: Tetrahydroxy bile acids, alcohols and derivatives
OntologyID: CHEMONTID:0001110
RETENTIONTIME: -1
RETENTIONINDEX: -1
TotalBondEnergy: 28561
TotalScore: 6.6144
TotalHrRulesScore: 1
TotalBondCleavageScore: 0.582
TotalMassAccuracyScore: 0.8232
TotalFragmentLinkageScore: 1
TotalBondDissociationEnergyScore: 0.7367
DatabaseScore: 0.5952
SubstructureAssignmentScore: 0
RtSimilarityScore: -1
RiSimilarityScore: 0
Num Fragment VS2 (M/Z Intensity MatchedExactMass SaturatedExactMass Formula RearrangedHydrogen PPM MassDiff_mDa IsEvenElectronRule IsHrRule IsSolventAdductFragment AssignedAdductMass AdductString BondDissociationEnergy TreeDepth SMILES TotalScore HrLikelihood BcLikelihood MaLikelihood FlLikelihood BeLikelihood): 2
279.314391	120953.259347	279.268232265647	278.260955810547	C19H34O	1	165.26	46.16	True	True	False	0		1396	3	OC2CC1C(CCCC1(C)(C))C3CCC(C(C)C)C23(C)	3.29035966525342	1	0.164024978876114	0.653034210205078	1	0.473300476172228
425.295532	165939.661196	425.289777675803	424.282501220703	C24H40O6	1	13.53	5.75	True	True	False	0		0	0	O=C(O)CCC(C)C2CCC3C4C(O)CC1CC(O)C(O)CC1(C)C4(CC(O)C23(C))	4.99339944124222	1	1	0.993399441242218	1	1

NAME: 3a,6b,7b,12a-Tetrahydroxy-5b-cholanoic acid
ID: COCMFMBNEAMQMA
IsSpectrumSearch: False
INCHIKEY: COCMFMBNEAMQMA-AKXWZEMANA-N
SMILES: O=C(O)CCC(C)C2CCC3C4C(O)C(O)C1CC(O)CCC1(C)C4(CC(O)C23(C))
RESOURCES: HMDB=HMDB0000367;HMDB0000377;HMDB0000399,FooDB=FDB021986;FDB021995;FDB022016,BMDB=BMDB00367;BMDB00377;BMDB00399,LipidMAPS=LMST04010118;LMST04010119;LMST04010120;LMST04010121;LMST04010122;LMST04010123;LMST04010124;LMST04010125
SubstructureInChIKeys: VNWKTOKETHGBQD;XLYOFNOQVPJJNP;WSFSSNUMVMOOMR;OTMSDBZUPAUEDD;OKKJLVBELUTLKV;IKHGUXGNUITLKF;ATUOYWHBWRKTHZ;BDAGIHXWWSANSR;LFQSCWFLJHTTHZ;NBBJYMSMWIIQGU;IJDNQMDRQITEOD;NNPPMTNAJDCUHE;QTBSBXVTEAMEQO;BDERNNFJNOPAEC;KFZMGEQAYNKOFK;LYCAIKOWRPUZTN;RGSFGYAAUTVSQA;ZTQSAGDEMFDKMZ;OFBQJSOFQDEBGM;QWTDNUCVQCZILF;XBDQKXXYIPTUBI;BTANRVKWQNVYAZ;LRHPLDYGYMQRHN;ZXEKIIBDNHEJCQ;DNIAPMSPPWPWGF;VIBDJEWPNNCFQO;GDOPTJXRTPNYNR;XDTMQSROBMDMFD;HGBOYTHUEUWSSQ;AFABGHUZZDYHJO;HNRMPXKDFBEGFZ;PFEOZHBOMNWTJB;VLKZOEOYAKHREP;FERIUCNNQQJTOY;AMQJEAYHLZJPGS;AQIXEPGDORPWBJ;JYVLIDXNZAXMDK;MXLMTQWGSQIYOW;PHTQWCKDNZKARW;BMRWNKZVCUKKSR;QWHNJUXXYKPLQM;UAEPNZWRGJTJPN;HPXRVTGHNJAIIH;JARKCYVAAOWBJS;BZHMBWZPUJHVEE;IMNFDUFMRHMDMM;VLJXXKKOSFGPHI;NQPDZGIKBAWPEJ;ZSIAUFGUXNUGDI;WCVRQHFDJLLWFE;XLMFDCKSFJWJTP;KVZJLSYJROEPSQ;LETYIFNDQBJGPJ;QEGNUYASOUJEHD;SGVUHPSBDNVHKL;FXHGMKSSBGDXIY;MQWCXKGKQLNYQG;JVSWJIKNEAIKJW;TVMXDCGIABBOFY;CETWDUZRCINIHU;OVOVDHYEOQJKMD;PYOLJOJPIPCRDP;XARGIVYWQPXRTC;NUJGJRNETVAIRJ;ZBAXJUPCYVIBSP;MHPUGCYGQWGLJL;ZDAWZDFBPUUDAY;GGWBGCSGJCRVIQ;BUOAKQCLRBVIOX;HIVFIUIKABOGIO;YLZKVXHQMPWDBJ;SOUITUXPBGREAE;KGBMCONWCCBLAE;VTXRDCQMLXABHJ;IRXJZDLOCNJAHE;XBENKLBOLWZLNQ;OTBOAOSTJYUVHP;HZNDJPAXRXLIOU;RBTVCRWROCDIOQ;WJXVLZCOWIIKOS
SubstructureOntologies: CHEMONTID:0002500;NonID:H2O;CHEMONTID:0001831;CHEMONTID:0000286;CHEMONTID:0002230;CHEMONTID:0001205;CHEMONTID:0002434;CHEMONTID:0004620;CHEMONTID:0001661;CHEMONTID:0002467;CHEMONTID:0001016;CHEMONTID:0002286;CHEMONTID:0000333;CHEMONTID:0002647;CHEMONTID:0002229;CHEMONTID:0001334;CHEMONTID:0003086;CHEMONTID:0004149;CHEMONTID:0001401;CHEMONTID:0003569;CHEMONTID:0001468
Ontology: Tetrahydroxy bile acids, alcohols and derivatives
OntologyID: CHEMONTID:0001110
RETENTIONTIME: -1
RETENTIONINDEX: -1
TotalBondEnergy: 28561
TotalScore: 6.6016
TotalHrRulesScore: 1
TotalBondCleavageScore: 0.5205
TotalMassAccuracyScore: 0.8232
TotalFragmentLinkageScore: 1
TotalBondDissociationEnergyScore: 0.7367
DatabaseScore: 0.5952
SubstructureAssignmentScore: 0
RtSimilarityScore: -1
RiSimilarityScore: 0
Num Fragment VS2 (M/Z Intensity MatchedExactMass SaturatedExactMass Formula RearrangedHydrogen PPM MassDiff_mDa IsEvenElectronRule IsHrRule IsSolventAdductFragment AssignedAdductMass AdductString BondDissociationEnergy TreeDepth SMILES TotalScore HrLikelihood BcLikelihood MaLikelihood FlLikelihood BeLikelihood): 2
279.314391	120953.259347	279.268232265647	278.260955810547	C19H34O	1	165.26	46.16	True	True	False	0		1396	3	OC1CC(CC2CCC(CC)C12(C))C3(C)(CCCCC3)	3.16734093109634	1	0.0410062447190285	0.653034210205078	1	0.473300476172228
425.295532	165939.661196	425.289777675803	424.282501220703	C24H40O6	1	13.53	5.75	True	True	False	0		0	0	O=C(O)CCC(C)C2CCC3C4C(O)C(O)C1CC(O)CCC1(C)C4(CC(O)C23(C))	4.99339944124222	1	1	0.993399441242218	1	1

NAME: 1b-Hydroxycholic acid
ID: UYVVLXVBEQAATF
IsSpectrumSearch: False
INCHIKEY: UYVVLXVBEQAATF-HOFNBQIPNA-N
SMILES: O=C(O)CCC(C)C2CCC3C4C(O)CC1CC(O)CC(O)C1(C)C4(CC(O)C23(C))
RESOURCES: HMDB=HMDB0000307;HMDB0000433,FooDB=FDB021934;FDB022043,BMDB=BMDB00307;BMDB00433,LipidMAPS=LMST04010114
SubstructureInChIKeys: VNWKTOKETHGBQD;XLYOFNOQVPJJNP;WSFSSNUMVMOOMR;OTMSDBZUPAUEDD;OKKJLVBELUTLKV;IKHGUXGNUITLKF;ATUOYWHBWRKTHZ;BDAGIHXWWSANSR;LFQSCWFLJHTTHZ;NBBJYMSMWIIQGU;IJDNQMDRQITEOD;NNPPMTNAJDCUHE;QTBSBXVTEAMEQO;BDERNNFJNOPAEC;KFZMGEQAYNKOFK;RGSFGYAAUTVSQA;ZTQSAGDEMFDKMZ;OFBQJSOFQDEBGM;QWTDNUCVQCZILF;XBDQKXXYIPTUBI;BTANRVKWQNVYAZ;LRHPLDYGYMQRHN;ZXEKIIBDNHEJCQ;YPFDHNVEDLHUCE;GDOPTJXRTPNYNR;XDTMQSROBMDMFD;HGBOYTHUEUWSSQ;AFABGHUZZDYHJO;HNRMPXKDFBEGFZ;PFEOZHBOMNWTJB;VLKZOEOYAKHREP;FERIUCNNQQJTOY;AMQJEAYHLZJPGS;AQIXEPGDORPWBJ;JYVLIDXNZAXMDK;MXLMTQWGSQIYOW;PHTQWCKDNZKARW;PUPZLCDOIYMWBV;QWHNJUXXYKPLQM;UAEPNZWRGJTJPN;HPXRVTGHNJAIIH;JARKCYVAAOWBJS;BZHMBWZPUJHVEE;IMNFDUFMRHMDMM;VLJXXKKOSFGPHI;NQPDZGIKBAWPEJ;ZSIAUFGUXNUGDI;KVZJLSYJROEPSQ;LETYIFNDQBJGPJ;QEGNUYASOUJEHD;SGVUHPSBDNVHKL;FXHGMKSSBGDXIY;MQWCXKGKQLNYQG;JVSWJIKNEAIKJW;TVMXDCGIABBOFY;CETWDUZRCINIHU;OVOVDHYEOQJKMD;PYOLJOJPIPCRDP;XARGIVYWQPXRTC;NUJGJRNETVAIRJ;ZBAXJUPCYVIBSP;MHPUGCYGQWGLJL;GGWBGCSGJCRVIQ;BUOAKQCLRBVIOX;HIVFIUIKABOGIO;YLZKVXHQMPWDBJ;SOUITUXPBGREAE;KGBMCONWCCBLAE;VTXRDCQMLXABHJ;IRXJZDLOCNJAHE;XBENKLBOLWZLNQ;OTBOAOSTJYUVHP;HZNDJPAXRXLIOU;RBTVCRWROCDIOQ;WJXVLZCOWIIKOS
SubstructureOntologies: CHEMONTID:0002500;NonID:H2O;CHEMONTID:0001831;CHEMONTID:0000286;CHEMONTID:0002230;CHEMONTID:0001205;CHEMONTID:0002434;CHEMONTID:0004620;CHEMONTID:0001661;CHEMONTID:0001016;CHEMONTID:0000333;CHEMONTID:0002647;CHEMONTID:0002229;CHEMONTID:0001334;CHEMONTID:0003086;CHEMONTID:0004149;CHEMONTID:0001401;CHEMONTID:0003569;CHEMONTID:0001468
Ontology: Tetrahydroxy bile acids, alcohols and derivatives
OntologyID: CHEMONTID:0001110
RETENTIONTIME: -1
RETENTIONINDEX: -1
TotalBondEnergy: 28561
TotalScore: 6.5722
TotalHrRulesScore: 1
TotalBondCleavageScore: 0.7952
TotalMassAccuracyScore: 0.8232
TotalFragmentLinkageScore: 1
TotalBondDissociationEnergyScore: 0.5979
DatabaseScore: 0.5952
SubstructureAssignmentScore: 0
RtSimilarityScore: -1
RiSimilarityScore: 0
Num Fragment VS2 (M/Z Intensity MatchedExactMass SaturatedExactMass Formula RearrangedHydrogen PPM MassDiff_mDa IsEvenElectronRule IsHrRule IsSolventAdductFragment AssignedAdductMass AdductString BondDissociationEnergy TreeDepth SMILES TotalScore HrLikelihood BcLikelihood MaLikelihood FlLikelihood BeLikelihood): 2
279.314391	120953.259347	279.268237713225	280.276611328125	C19H36O	-1	165.24	46.15	True	True	False	0		1730	3	OC1CC(CC2CCC(C(C)CC)C12(C))C(C)C(C)C	3.43943322905731	1	0.59048992395401	0.653099894523621	1	0.195843410579682
425.295532	165939.661196	425.289777675803	424.282501220703	C24H40O6	1	13.53	5.75	True	True	False	0		0	0	O=C(O)CCC(C)C2CCC3C4C(O)CC1CC(O)CC(O)C1(C)C4(CC(O)C23(C))	4.99339944124222	1	1	0.993399441242218	1	1

NAME: 3b,4b,7a,12a-Tetrahydroxy-5b-cholanoic acid
ID: WGGZRKVUOFMQHM
IsSpectrumSearch: False
INCHIKEY: WGGZRKVUOFMQHM-JWTUPCHRNA-N
SMILES: O=C(O)CCC(C)C2CCC3C4C(O)CC1C(O)C(O)CCC1(C)C4(CC(O)C23(C))
RESOURCES: HMDB=HMDB0000311;HMDB0000437,FooDB=FDB021938;FDB022044,BMDB=BMDB00311;BMDB00437,LipidMAPS=LMST04010116;LMST04010117
SubstructureInChIKeys: VNWKTOKETHGBQD;XLYOFNOQVPJJNP;WSFSSNUMVMOOMR;OTMSDBZUPAUEDD;OKKJLVBELUTLKV;IKHGUXGNUITLKF;ATUOYWHBWRKTHZ;BDAGIHXWWSANSR;LFQSCWFLJHTTHZ;NBBJYMSMWIIQGU;IJDNQMDRQITEOD;NNPPMTNAJDCUHE;QTBSBXVTEAMEQO;BDERNNFJNOPAEC;KFZMGEQAYNKOFK;LYCAIKOWRPUZTN;RGSFGYAAUTVSQA;ZTQSAGDEMFDKMZ;OFBQJSOFQDEBGM;QWTDNUCVQCZILF;XBDQKXXYIPTUBI;BTANRVKWQNVYAZ;LRHPLDYGYMQRHN;ZXEKIIBDNHEJCQ;DNIAPMSPPWPWGF;VIBDJEWPNNCFQO;GDOPTJXRTPNYNR;XDTMQSROBMDMFD;HGBOYTHUEUWSSQ;AFABGHUZZDYHJO;HNRMPXKDFBEGFZ;PFEOZHBOMNWTJB;VLKZOEOYAKHREP;FERIUCNNQQJTOY;AMQJEAYHLZJPGS;AQIXEPGDORPWBJ;JYVLIDXNZAXMDK;MXLMTQWGSQIYOW;PHTQWCKDNZKARW;BMRWNKZVCUKKSR;QWHNJUXXYKPLQM;UAEPNZWRGJTJPN;HPXRVTGHNJAIIH;JARKCYVAAOWBJS;BZHMBWZPUJHVEE;IMNFDUFMRHMDMM;VLJXXKKOSFGPHI;NQPDZGIKBAWPEJ;ZSIAUFGUXNUGDI;WCVRQHFDJLLWFE;XLMFDCKSFJWJTP;KVZJLSYJROEPSQ;LETYIFNDQBJGPJ;QEGNUYASOUJEHD;SGVUHPSBDNVHKL;FXHGMKSSBGDXIY;MQWCXKGKQLNYQG;JVSWJIKNEAIKJW;TVMXDCGIABBOFY;CETWDUZRCINIHU;OVOVDHYEOQJKMD;PYOLJOJPIPCRDP;XARGIVYWQPXRTC;NUJGJRNETVAIRJ;ZBAXJUPCYVIBSP;MHPUGCYGQWGLJL;ZDAWZDFBPUUDAY;GGWBGCSGJCRVIQ;BUOAKQCLRBVIOX;HIVFIUIKABOGIO;YLZKVXHQMPWDBJ;SOUITUXPBGREAE;KGBMCONWCCBLAE;VTXRDCQMLXABHJ;IRXJZDLOCNJAHE;XBENKLBOLWZLNQ;OTBOAOSTJYUVHP;HZNDJPAXRXLIOU;RBTVCRWROCDIOQ;WJXVLZCOWIIKOS
SubstructureOntologies: CHEMONTID:0002500;NonID:H2O;CHEMONTID:0001831;CHEMONTID:0000286;CHEMONTID:0002230;CHEMONTID:0001205;CHEMONTID:0002434;CHEMONTID:0004620;CHEMONTID:0001661;CHEMONTID:0002467;CHEMONTID:0001016;CHEMONTID:0002286;CHEMONTID:0000333;CHEMONTID:0002647;CHEMONTID:0002229;CHEMONTID:0001334;CHEMONTID:0003086;CHEMONTID:0004149;CHEMONTID:0001401;CHEMONTID:0003569;CHEMONTID:0001468
Ontology: Tetrahydroxy bile acids, alcohols and derivatives
OntologyID: CHEMONTID:0001110
RETENTIONTIME: -1
RETENTIONINDEX: -1
TotalBondEnergy: 28561
TotalScore: 6.5722
TotalHrRulesScore: 1
TotalBondCleavageScore: 0.7952
TotalMassAccuracyScore: 0.8232
TotalFragmentLinkageScore: 1
TotalBondDissociationEnergyScore: 0.5979
DatabaseScore: 0.5952
SubstructureAssignmentScore: 0
RtSimilarityScore: -1
RiSimilarityScore: 0
Num Fragment VS2 (M/Z Intensity MatchedExactMass SaturatedExactMass Formula RearrangedHydrogen PPM MassDiff_mDa IsEvenElectronRule IsHrRule IsSolventAdductFragment AssignedAdductMass AdductString BondDissociationEnergy TreeDepth SMILES TotalScore HrLikelihood BcLikelihood MaLikelihood FlLikelihood BeLikelihood): 2
279.314391	120953.259347	279.268237713225	280.276611328125	C19H36O	-1	165.24	46.15	True	True	False	0		1730	3	OC1CC(CC2CCC(C(C)CC)C12(C))C(C)(C)CC	3.43943322905731	1	0.59048992395401	0.653099894523621	1	0.195843410579682
425.295532	165939.661196	425.289777675803	424.282501220703	C24H40O6	1	13.53	5.75	True	True	False	0		0	0	O=C(O)CCC(C)C2CCC3C4C(O)CC1C(O)C(O)CCC1(C)C4(CC(O)C23(C))	4.99339944124222	1	1	0.993399441242218	1	1

NAME: alpha-Phocaecholic acid
ID: UJYLRDMHTJWIQW
IsSpectrumSearch: False
INCHIKEY: UJYLRDMHTJWIQW-SWSYAYITSA-N
SMILES: O=C(O)C(O)CC(C)C2CCC3C4C(O)CC1CC(O)CCC1(C)C4(CC(O)C23(C))
RESOURCES: ChEBI=CHEBI:81246,LipidMAPS=LMST04010254;LMST04010261;LMST04030212,PubChem=193429
SubstructureInChIKeys: VNWKTOKETHGBQD;XLYOFNOQVPJJNP;WSFSSNUMVMOOMR;OTMSDBZUPAUEDD;OKKJLVBELUTLKV;IKHGUXGNUITLKF;ATUOYWHBWRKTHZ;BDAGIHXWWSANSR;LFQSCWFLJHTTHZ;NBBJYMSMWIIQGU;IJDNQMDRQITEOD;NNPPMTNAJDCUHE;QTBSBXVTEAMEQO;WGCNASOHLSPBMP;BDERNNFJNOPAEC;KFZMGEQAYNKOFK;LYCAIKOWRPUZTN;RGSFGYAAUTVSQA;ZTQSAGDEMFDKMZ;OFBQJSOFQDEBGM;QWTDNUCVQCZILF;AKXKFZDCRYJKTF;BSABBBMNWQWLLU;XBDQKXXYIPTUBI;BTANRVKWQNVYAZ;LRHPLDYGYMQRHN;ZXEKIIBDNHEJCQ;AEMRFAOFKBGASW;DNIAPMSPPWPWGF;VIBDJEWPNNCFQO;GDOPTJXRTPNYNR;XDTMQSROBMDMFD;HGBOYTHUEUWSSQ;AFABGHUZZDYHJO;HNRMPXKDFBEGFZ;PFEOZHBOMNWTJB;VLKZOEOYAKHREP;FERIUCNNQQJTOY;PIAOXUVIBAKVSP;AMQJEAYHLZJPGS;AQIXEPGDORPWBJ;JYVLIDXNZAXMDK;MXLMTQWGSQIYOW;PHTQWCKDNZKARW;ALRHLSYJTWAHJZ;JVTAAEKCZFNVCJ;BMRWNKZVCUKKSR;QWHNJUXXYKPLQM;UAEPNZWRGJTJPN;HPXRVTGHNJAIIH;JARKCYVAAOWBJS;BZHMBWZPUJHVEE;IMNFDUFMRHMDMM;VLJXXKKOSFGPHI;CNRGMQRNYAIBTN;ZSIAUFGUXNUGDI;AFENDNXGAFYKQO;SJZRECIVHVDYJC;WCVRQHFDJLLWFE;KVZJLSYJROEPSQ;LETYIFNDQBJGPJ;QEGNUYASOUJEHD;SGVUHPSBDNVHKL;FXHGMKSSBGDXIY;MQWCXKGKQLNYQG;JVSWJIKNEAIKJW;TVMXDCGIABBOFY;CETWDUZRCINIHU;OVOVDHYEOQJKMD;PHOJOSOUIAQEDH;PYOLJOJPIPCRDP;XARGIVYWQPXRTC;NUJGJRNETVAIRJ;ZBAXJUPCYVIBSP;MHPUGCYGQWGLJL;GGWBGCSGJCRVIQ;HIVFIUIKABOGIO;YLZKVXHQMPWDBJ;SOUITUXPBGREAE;KGBMCONWCCBLAE;IRXJZDLOCNJAHE;OTBOAOSTJYUVHP;HZNDJPAXRXLIOU;RBTVCRWROCDIOQ;WJXVLZCOWIIKOS
SubstructureOntologies: CHEMONTID:0002500;NonID:H2O;CHEMONTID:0001831;CHEMONTID:0000286;CHEMONTID:0002230;CHEMONTID:0001205;CHEMONTID:0002434;CHEMONTID:0004620;CHEMONTID:0001661;CHEMONTID:0002467;CHEMONTID:0001016;CHEMONTID:0003675;CHEMONTID:0001359;CHEMONTID:0002286;CHEMONTID:0000333;CHEMONTID:0001713;CHEMONTID:0002647;CHEMONTID:0002229;CHEMONTID:0001334;CHEMONTID:0000341;CHEMONTID:0003086;CHEMONTID:0004149;CHEMONTID:0001401;CHEMONTID:0003569;CHEMONTID:0001468
Ontology: Tetrahydroxy bile acids, alcohols and derivatives
OntologyID: CHEMONTID:0001110
RETENTIONTIME: -1
RETENTIONINDEX: -1
TotalBondEnergy: 28561
TotalScore: 6.5549
TotalHrRulesScore: 1
TotalBondCleavageScore: 0.582
TotalMassAccuracyScore: 0.8232
TotalFragmentLinkageScore: 1
TotalBondDissociationEnergyScore: 0.7367
DatabaseScore: 0.5714
SubstructureAssignmentScore: 0
RtSimilarityScore: -1
RiSimilarityScore: 0
Num Fragment VS2 (M/Z Intensity MatchedExactMass SaturatedExactMass Formula RearrangedHydrogen PPM MassDiff_mDa IsEvenElectronRule IsHrRule IsSolventAdductFragment AssignedAdductMass AdductString BondDissociationEnergy TreeDepth SMILES TotalScore HrLikelihood BcLikelihood MaLikelihood FlLikelihood BeLikelihood): 2
279.314391	120953.259347	279.268232265647	278.260955810547	C19H34O	1	165.26	46.16	True	True	False	0		1396	3	OC1CC(CC2CCC(CC)C12(C))C3(C)(CCCCC3)	3.29035966525342	1	0.164024978876114	0.653034210205078	1	0.473300476172228
425.295532	165939.661196	425.289777675803	424.282501220703	C24H40O6	1	13.53	5.75	True	True	False	0		0	0	O=C(O)C(O)CC(C)C2CCC3C4C(O)CC1CC(O)CCC1(C)C4(CC(O)C23(C))	4.99339944124222	1	1	0.993399441242218	1	1

NAME: GEX 1Q5
ID: TVGPUJOEKQVGKN
IsSpectrumSearch: False
INCHIKEY: TVGPUJOEKQVGKN-QDISLTEFNA-N
SMILES: O=C(O)CC2OC(C(=CC=CC(C)CC1(OC1(C(C)C(O)C(O)C))(C))C)C(C)CC2
RESOURCES: KNApSAcK=C00015097,UNPD=UNPD50612
SubstructureInChIKeys: VNWKTOKETHGBQD;XLYOFNOQVPJJNP;VGGSQFUCUMXWEO;WSFSSNUMVMOOMR;OTMSDBZUPAUEDD;OKKJLVBELUTLKV;QQONPFPTGQHPMA;IKHGUXGNUITLKF;ATUOYWHBWRKTHZ;BDAGIHXWWSANSR;LCGLNKUTAGEVQW;LFQSCWFLJHTTHZ;IAQRGUVFOMOMEM;VQTUBCCKSQIDNK;VXNZUUAINFGPBY;GOOHAUXETOMSMM;NBBJYMSMWIIQGU;XXROGKLTLUQVRX;IJDNQMDRQITEOD;NNPPMTNAJDCUHE;QTBSBXVTEAMEQO;BDERNNFJNOPAEC;KFZMGEQAYNKOFK;XOBKSJJDNFUZPF;LYCAIKOWRPUZTN;BKOOMYPCSUNDGP;QMMOXUPEWRXHJS;YWAKXRMUMFPDSH;ZTQSAGDEMFDKMZ;OFBQJSOFQDEBGM;QWTDNUCVQCZILF;AKXKFZDCRYJKTF;XBDQKXXYIPTUBI;BTANRVKWQNVYAZ;LRHPLDYGYMQRHN;VNKYTQGIUYNRMY;ZXEKIIBDNHEJCQ;DNIAPMSPPWPWGF;YPFDHNVEDLHUCE;VIBDJEWPNNCFQO;ACZNIBVNGPLHAC;BEQGRRJLJLVQAQ;LDTAOIUHUHHCMU;LIKMAJRDDDTEIG;RYPKRALMXUUNKS;GJYMQFMQRRNLCY;HGBOYTHUEUWSSQ;NEJDKFPXHQRVMV;AFABGHUZZDYHJO;PFEOZHBOMNWTJB;VLKZOEOYAKHREP;FERIUCNNQQJTOY;AMQJEAYHLZJPGS;AQIXEPGDORPWBJ;FVNIMHIOIXPIQT;JYVLIDXNZAXMDK;MXLMTQWGSQIYOW;PHTQWCKDNZKARW;JVTAAEKCZFNVCJ;BMRWNKZVCUKKSR;JDFDHBSESGTDAL;PUPZLCDOIYMWBV;QWGRWMMWNDWRQN;VAOJQRMYAXTUQI;ZGEGCLOFRBLKSE;BVOSSZSHBZQJOI;JARKCYVAAOWBJS;BZHMBWZPUJHVEE;IMNFDUFMRHMDMM;VLJXXKKOSFGPHI;ZSIAUFGUXNUGDI;WCVRQHFDJLLWFE;XLMFDCKSFJWJTP;ARXKVVRQIIOZGF;KWKAKUADMBZCLK;FXHGMKSSBGDXIY;PZKFYTOLVRCMOA;JVSWJIKNEAIKJW;TVMXDCGIABBOFY;CETWDUZRCINIHU;OVOVDHYEOQJKMD;IICQZTQZQSBHBY;NUJGJRNETVAIRJ;VSMOENVRRABVKN;ZDAWZDFBPUUDAY;ZIWXVGHUDKNNSH
SubstructureOntologies: CHEMONTID:0002500;NonID:H2O;CHEMONTID:0004476;CHEMONTID:0001831;CHEMONTID:0000286;CHEMONTID:0002230;CHEMONTID:0001205;CHEMONTID:0001167;CHEMONTID:0004622;CHEMONTID:0000159;CHEMONTID:0002434;CHEMONTID:0004620;CHEMONTID:0001661;CHEMONTID:0002467;CHEMONTID:0002286;CHEMONTID:0000333;CHEMONTID:0001359;CHEMONTID:0002229;CHEMONTID:0001334
Ontology: Diterpene glycosides
OntologyID: CHEMONTID:0001755
RETENTIONTIME: -1
RETENTIONINDEX: -1
TotalBondEnergy: 28309
TotalScore: 6.4966
TotalHrRulesScore: 1
TotalBondCleavageScore: 0.582
TotalMassAccuracyScore: 0.8232
TotalFragmentLinkageScore: 1
TotalBondDissociationEnergyScore: 0.7386
DatabaseScore: 0.5476
SubstructureAssignmentScore: 0
RtSimilarityScore: -1
RiSimilarityScore: 0
Num Fragment VS2 (M/Z Intensity MatchedExactMass SaturatedExactMass Formula RearrangedHydrogen PPM MassDiff_mDa IsEvenElectronRule IsHrRule IsSolventAdductFragment AssignedAdductMass AdductString BondDissociationEnergy TreeDepth SMILES TotalScore HrLikelihood BcLikelihood MaLikelihood FlLikelihood BeLikelihood): 2
279.314391	120953.259347	279.268232265647	278.260955810547	C19H34O	1	165.26	46.16	True	True	False	0		1408	3	O1C(C(C)C)C1(C)CC(C=CC=C(C)CC(C)CC)C	3.29418258627442	1	0.164024978876114	0.653034210205078	1	0.477123397193226
425.295532	165939.661196	425.289777675803	424.282501220703	C24H40O6	1	13.53	5.75	True	True	False	0		0	0	O=C(O)CC2OC(C(=CC=CC(C)CC1(OC1(C(C)C(O)C(O)C))(C))C)C(C)CC2	4.99339944124222	1	1	0.993399441242218	1	1

NAME: 2chi,3alpha,6alpha,7alpha-Tetrahydroxy-5beta-cholan-24-oic Acid
ID: KAHZQJKLALFAGB
IsSpectrumSearch: False
INCHIKEY: KAHZQJKLALFAGB-YBYOGIEZNA-N
SMILES: O=C(O)CCC(C)C1CCC2C3C(O)C(O)C4CC(O)C(O)CC4(C)(C3(CCC12(C)))
RESOURCES: LipidMAPS=LMST04010252
SubstructureInChIKeys: VNWKTOKETHGBQD;XLYOFNOQVPJJNP;WSFSSNUMVMOOMR;OTMSDBZUPAUEDD;OKKJLVBELUTLKV;IKHGUXGNUITLKF;ATUOYWHBWRKTHZ;BDAGIHXWWSANSR;LFQSCWFLJHTTHZ;NBBJYMSMWIIQGU;IJDNQMDRQITEOD;NNPPMTNAJDCUHE;QTBSBXVTEAMEQO;BDERNNFJNOPAEC;KFZMGEQAYNKOFK;LYCAIKOWRPUZTN;RGSFGYAAUTVSQA;ZTQSAGDEMFDKMZ;OFBQJSOFQDEBGM;QWTDNUCVQCZILF;XBDQKXXYIPTUBI;BTANRVKWQNVYAZ;LRHPLDYGYMQRHN;ZXEKIIBDNHEJCQ;DNIAPMSPPWPWGF;VIBDJEWPNNCFQO;GDOPTJXRTPNYNR;XDTMQSROBMDMFD;HGBOYTHUEUWSSQ;AFABGHUZZDYHJO;HNRMPXKDFBEGFZ;PFEOZHBOMNWTJB;VLKZOEOYAKHREP;FERIUCNNQQJTOY;AMQJEAYHLZJPGS;AQIXEPGDORPWBJ;JYVLIDXNZAXMDK;MXLMTQWGSQIYOW;PHTQWCKDNZKARW;BMRWNKZVCUKKSR;QWHNJUXXYKPLQM;UAEPNZWRGJTJPN;HPXRVTGHNJAIIH;JARKCYVAAOWBJS;BZHMBWZPUJHVEE;IMNFDUFMRHMDMM;VLJXXKKOSFGPHI;NQPDZGIKBAWPEJ;ZSIAUFGUXNUGDI;WCVRQHFDJLLWFE;XLMFDCKSFJWJTP;KVZJLSYJROEPSQ;LETYIFNDQBJGPJ;QEGNUYASOUJEHD;SGVUHPSBDNVHKL;FXHGMKSSBGDXIY;MQWCXKGKQLNYQG;JVSWJIKNEAIKJW;TVMXDCGIABBOFY;CETWDUZRCINIHU;OVOVDHYEOQJKMD;PYOLJOJPIPCRDP;XARGIVYWQPXRTC;NUJGJRNETVAIRJ;ZBAXJUPCYVIBSP;MHPUGCYGQWGLJL;ZDAWZDFBPUUDAY;GGWBGCSGJCRVIQ;BUOAKQCLRBVIOX;HIVFIUIKABOGIO;YLZKVXHQMPWDBJ;SOUITUXPBGREAE;KGBMCONWCCBLAE;VTXRDCQMLXABHJ;IRXJZDLOCNJAHE;XBENKLBOLWZLNQ;OTBOAOSTJYUVHP;HZNDJPAXRXLIOU
SubstructureOntologies: CHEMONTID:0002500;NonID:H2O;CHEMONTID:0001831;CHEMONTID:0000286;CHEMONTID:0002230;CHEMONTID:0001205;CHEMONTID:0002434;CHEMONTID:0004620;CHEMONTID:0001661;CHEMONTID:0002467;CHEMONTID:0001016;CHEMONTID:0002286;CHEMONTID:0000333;CHEMONTID:0002647;CHEMONTID:0002229;CHEMONTID:0001334;CHEMONTID:0003086;CHEMONTID:0004149;CHEMONTID:0001401
Ontology: Tetrahydroxy bile acids, alcohols and derivatives
OntologyID: CHEMONTID:0001110
RETENTIONTIME: -1
RETENTIONINDEX: -1
TotalBondEnergy: 28561
TotalScore: 6.4871
TotalHrRulesScore: 1
TotalBondCleavageScore: 0.828
TotalMassAccuracyScore: 0.8232
TotalFragmentLinkageScore: 1
TotalBondDissociationEnergyScore: 0.7367
DatabaseScore: 0.5238
SubstructureAssignmentScore: 0
RtSimilarityScore: -1
RiSimilarityScore: 0
Num Fragment VS2 (M/Z Intensity MatchedExactMass SaturatedExactMass Formula RearrangedHydrogen PPM MassDiff_mDa IsEvenElectronRule IsHrRule IsSolventAdductFragment AssignedAdductMass AdductString BondDissociationEnergy TreeDepth SMILES TotalScore HrLikelihood BcLikelihood MaLikelihood FlLikelihood BeLikelihood): 2
279.314391	120953.259347	279.268232265647	278.260955810547	C19H34O	1	165.26	46.16	True	True	False	0		1396	3	OC3CC1C(CCC2(C)(C(CCC12)C(C)C))C(C)(C)C3	3.78243460188176	1	0.656099915504456	0.653034210205078	1	0.473300476172228
425.295532	165939.661196	425.289777675803	424.282501220703	C24H40O6	1	13.53	5.75	True	True	False	0		0	0	O=C(O)CCC(C)C1CCC2C3C(O)C(O)C4CC(O)C(O)CC4(C)(C3(CCC12(C)))	4.99339944124222	1	1	0.993399441242218	1	1

NAME: (23R)-3alpha,7alpha,17alpha,23-Tetrahydroxy-5beta-cholan-24-oic Acid
ID: ALYJFBCWXLPJMU
IsSpectrumSearch: False
INCHIKEY: ALYJFBCWXLPJMU-ZKNRMVJQNA-N
SMILES: O=C(O)C(O)CC(C)C3(O)(CCC2C4C(O)CC1CC(O)CCC1(C)C4(CCC23(C)))
RESOURCES: LipidMAPS=LMST04010421
SubstructureInChIKeys: VNWKTOKETHGBQD;XLYOFNOQVPJJNP;WSFSSNUMVMOOMR;OTMSDBZUPAUEDD;OKKJLVBELUTLKV;IKHGUXGNUITLKF;ATUOYWHBWRKTHZ;BDAGIHXWWSANSR;LFQSCWFLJHTTHZ;NBBJYMSMWIIQGU;IJDNQMDRQITEOD;NNPPMTNAJDCUHE;QTBSBXVTEAMEQO;WGCNASOHLSPBMP;BDERNNFJNOPAEC;KFZMGEQAYNKOFK;LYCAIKOWRPUZTN;RGSFGYAAUTVSQA;ZTQSAGDEMFDKMZ;OFBQJSOFQDEBGM;QWTDNUCVQCZILF;AKXKFZDCRYJKTF;BSABBBMNWQWLLU;XBDQKXXYIPTUBI;BTANRVKWQNVYAZ;LRHPLDYGYMQRHN;ZXEKIIBDNHEJCQ;AEMRFAOFKBGASW;DNIAPMSPPWPWGF;VIBDJEWPNNCFQO;GDOPTJXRTPNYNR;XDTMQSROBMDMFD;HGBOYTHUEUWSSQ;AFABGHUZZDYHJO;HNRMPXKDFBEGFZ;PFEOZHBOMNWTJB;VLKZOEOYAKHREP;FERIUCNNQQJTOY;PIAOXUVIBAKVSP;AMQJEAYHLZJPGS;AQIXEPGDORPWBJ;JYVLIDXNZAXMDK;MXLMTQWGSQIYOW;PHTQWCKDNZKARW;ALRHLSYJTWAHJZ;JVTAAEKCZFNVCJ;BMRWNKZVCUKKSR;QWHNJUXXYKPLQM;UAEPNZWRGJTJPN;BVIJQMCYYASIFP;HPXRVTGHNJAIIH;JARKCYVAAOWBJS;BZHMBWZPUJHVEE;IMNFDUFMRHMDMM;VLJXXKKOSFGPHI;CNRGMQRNYAIBTN;ZSIAUFGUXNUGDI;AFENDNXGAFYKQO;SJZRECIVHVDYJC;WCVRQHFDJLLWFE;KVZJLSYJROEPSQ;LETYIFNDQBJGPJ;QEGNUYASOUJEHD;SGVUHPSBDNVHKL;FXHGMKSSBGDXIY;MQWCXKGKQLNYQG;JVSWJIKNEAIKJW;TVMXDCGIABBOFY;CETWDUZRCINIHU;OVOVDHYEOQJKMD;PHOJOSOUIAQEDH;PYOLJOJPIPCRDP;XARGIVYWQPXRTC;NUJGJRNETVAIRJ;ZBAXJUPCYVIBSP;MHPUGCYGQWGLJL;ZDAWZDFBPUUDAY;GGWBGCSGJCRVIQ;BUOAKQCLRBVIOX;HIVFIUIKABOGIO;YLZKVXHQMPWDBJ;SOUITUXPBGREAE;KGBMCONWCCBLAE;VTXRDCQMLXABHJ;IRXJZDLOCNJAHE;XBENKLBOLWZLNQ;OTBOAOSTJYUVHP;HZNDJPAXRXLIOU
SubstructureOntologies: CHEMONTID:0002500;NonID:H2O;CHEMONTID:0001831;CHEMONTID:0000286;CHEMONTID:0002230;CHEMONTID:0001205;CHEMONTID:0002434;CHEMONTID:0004620;CHEMONTID:0001661;CHEMONTID:0002467;CHEMONTID:0001016;CHEMONTID:0003675;CHEMONTID:0001359;CHEMONTID:0002286;CHEMONTID:0000333;CHEMONTID:0001713;CHEMONTID:0002938;CHEMONTID:0002647;CHEMONTID:0002229;CHEMONTID:0001334;CHEMONTID:0000341;CHEMONTID:0003086;CHEMONTID:0004149;CHEMONTID:0001401
Ontology: Tetrahydroxy bile acids, alcohols and derivatives
OntologyID: CHEMONTID:0001110
RETENTIONTIME: -1
RETENTIONINDEX: -1
TotalBondEnergy: 28561
TotalScore: 6.4359
TotalHrRulesScore: 1
TotalBondCleavageScore: 0.582
TotalMassAccuracyScore: 0.8232
TotalFragmentLinkageScore: 1
TotalBondDissociationEnergyScore: 0.7367
DatabaseScore: 0.5238
SubstructureAssignmentScore: 0
RtSimilarityScore: -1
RiSimilarityScore: 0
Num Fragment VS2 (M/Z Intensity MatchedExactMass SaturatedExactMass Formula RearrangedHydrogen PPM MassDiff_mDa IsEvenElectronRule IsHrRule IsSolventAdductFragment AssignedAdductMass AdductString BondDissociationEnergy TreeDepth SMILES TotalScore HrLikelihood BcLikelihood MaLikelihood FlLikelihood BeLikelihood): 2
279.314391	120953.259347	279.268232265647	278.260955810547	C19H34O	1	165.26	46.16	True	True	False	0		1396	3	OC1CCC(C)(CC1)C2CCC3(C)(C(CC)CCC3(C2))	3.29035966525342	1	0.164024978876114	0.653034210205078	1	0.473300476172228
425.295532	165939.661196	425.289777675803	424.282501220703	C24H40O6	1	13.53	5.75	True	True	False	0		0	0	O=C(O)C(O)CC(C)C3(O)(CCC2C4C(O)CC1CC(O)CCC1(C)C4(CCC23(C)))	4.99339944124222	1	1	0.993399441242218	1	1

NAME: (23R)-3alpha,5beta,7alpha,23-Tetrahydroxycholan-24-oic Acid
ID: HWMAQRANSTVMQX
IsSpectrumSearch: False
INCHIKEY: HWMAQRANSTVMQX-DZHAMNDNNA-N
SMILES: O=C(O)C(O)CC(C)C1CCC2C3C(O)CC4(O)(CC(O)CCC4(C)(C3(CCC12(C))))
RESOURCES: LipidMAPS=LMST04010420
SubstructureInChIKeys: VNWKTOKETHGBQD;XLYOFNOQVPJJNP;WSFSSNUMVMOOMR;OTMSDBZUPAUEDD;OKKJLVBELUTLKV;IKHGUXGNUITLKF;ATUOYWHBWRKTHZ;BDAGIHXWWSANSR;LFQSCWFLJHTTHZ;NBBJYMSMWIIQGU;IJDNQMDRQITEOD;NNPPMTNAJDCUHE;QTBSBXVTEAMEQO;WGCNASOHLSPBMP;BDERNNFJNOPAEC;KFZMGEQAYNKOFK;LYCAIKOWRPUZTN;RGSFGYAAUTVSQA;ZTQSAGDEMFDKMZ;OFBQJSOFQDEBGM;QWTDNUCVQCZILF;AKXKFZDCRYJKTF;BSABBBMNWQWLLU;XBDQKXXYIPTUBI;BTANRVKWQNVYAZ;LRHPLDYGYMQRHN;ZXEKIIBDNHEJCQ;AEMRFAOFKBGASW;DNIAPMSPPWPWGF;YPFDHNVEDLHUCE;VIBDJEWPNNCFQO;GDOPTJXRTPNYNR;XDTMQSROBMDMFD;HGBOYTHUEUWSSQ;AFABGHUZZDYHJO;HNRMPXKDFBEGFZ;PFEOZHBOMNWTJB;VLKZOEOYAKHREP;FERIUCNNQQJTOY;PIAOXUVIBAKVSP;AMQJEAYHLZJPGS;AQIXEPGDORPWBJ;JYVLIDXNZAXMDK;MXLMTQWGSQIYOW;PHTQWCKDNZKARW;ALRHLSYJTWAHJZ;JVTAAEKCZFNVCJ;BMRWNKZVCUKKSR;PUPZLCDOIYMWBV;QWHNJUXXYKPLQM;UAEPNZWRGJTJPN;HPXRVTGHNJAIIH;JARKCYVAAOWBJS;BZHMBWZPUJHVEE;IMNFDUFMRHMDMM;VLJXXKKOSFGPHI;CNRGMQRNYAIBTN;ZSIAUFGUXNUGDI;AFENDNXGAFYKQO;SJZRECIVHVDYJC;WCVRQHFDJLLWFE;KVZJLSYJROEPSQ;LETYIFNDQBJGPJ;QEGNUYASOUJEHD;SGVUHPSBDNVHKL;FXHGMKSSBGDXIY;MQWCXKGKQLNYQG;JVSWJIKNEAIKJW;TVMXDCGIABBOFY;CETWDUZRCINIHU;OVOVDHYEOQJKMD;PHOJOSOUIAQEDH;PYOLJOJPIPCRDP;XARGIVYWQPXRTC;NUJGJRNETVAIRJ;ZBAXJUPCYVIBSP;MHPUGCYGQWGLJL;GGWBGCSGJCRVIQ;HIVFIUIKABOGIO;YLZKVXHQMPWDBJ;SOUITUXPBGREAE;KGBMCONWCCBLAE;IRXJZDLOCNJAHE;OTBOAOSTJYUVHP;HZNDJPAXRXLIOU
SubstructureOntologies: CHEMONTID:0002500;NonID:H2O;CHEMONTID:0001831;CHEMONTID:0000286;CHEMONTID:0002230;CHEMONTID:0001205;CHEMONTID:0002434;CHEMONTID:0004620;CHEMONTID:0001661;CHEMONTID:0002467;CHEMONTID:0001016;CHEMONTID:0003675;CHEMONTID:0001359;CHEMONTID:0002286;CHEMONTID:0000333;CHEMONTID:0001713;CHEMONTID:0002647;CHEMONTID:0002229;CHEMONTID:0001334;CHEMONTID:0000341;CHEMONTID:0003086;CHEMONTID:0004149;CHEMONTID:0001401
Ontology: Tetrahydroxy bile acids, alcohols and derivatives
OntologyID: CHEMONTID:0001110
RETENTIONTIME: -1
RETENTIONINDEX: -1
TotalBondEnergy: 28561
TotalScore: 6.4359
TotalHrRulesScore: 1
TotalBondCleavageScore: 0.582
TotalMassAccuracyScore: 0.8232
TotalFragmentLinkageScore: 1
TotalBondDissociationEnergyScore: 0.7367
DatabaseScore: 0.5238
SubstructureAssignmentScore: 0
RtSimilarityScore: -1
RiSimilarityScore: 0
Num Fragment VS2 (M/Z Intensity MatchedExactMass SaturatedExactMass Formula RearrangedHydrogen PPM MassDiff_mDa IsEvenElectronRule IsHrRule IsSolventAdductFragment AssignedAdductMass AdductString BondDissociationEnergy TreeDepth SMILES TotalScore HrLikelihood BcLikelihood MaLikelihood FlLikelihood BeLikelihood): 2
279.314391	120953.259347	279.268232265647	278.260955810547	C19H34O	1	165.26	46.16	True	True	False	0		1396	3	OC1CCC(C)(CC1)C2CCC3(C)(C(CC)CCC3(C2))	3.29035966525342	1	0.164024978876114	0.653034210205078	1	0.473300476172228
425.295532	165939.661196	425.289777675803	424.282501220703	C24H40O6	1	13.53	5.75	True	True	False	0		0	0	O=C(O)C(O)CC(C)C1CCC2C3C(O)CC4(O)(CC(O)CCC4(C)(C3(CCC12(C))))	4.99339944124222	1	1	0.993399441242218	1	1

NAME: 3a,7a,12a,19-Tetrahydroxy-5b-cholanoic acid
ID: RFSKRKUKTCLIAV
IsSpectrumSearch: False
INCHIKEY: RFSKRKUKTCLIAV-LTCYXJRJNA-N
SMILES: O=C(O)CCC(C)C2CCC3C4C(O)CC1CC(O)CCC1(CO)C4(CC(O)C23(C))
RESOURCES: HMDB=HMDB0000340,FooDB=FDB021964,BMDB=BMDB00340,LipidMAPS=LMST04010126,UNPD=UNPD68136
SubstructureInChIKeys: VNWKTOKETHGBQD;XLYOFNOQVPJJNP;WSFSSNUMVMOOMR;OTMSDBZUPAUEDD;OKKJLVBELUTLKV;IKHGUXGNUITLKF;ATUOYWHBWRKTHZ;BDAGIHXWWSANSR;LFQSCWFLJHTTHZ;NBBJYMSMWIIQGU;IJDNQMDRQITEOD;NNPPMTNAJDCUHE;QTBSBXVTEAMEQO;BDERNNFJNOPAEC;KFZMGEQAYNKOFK;RGSFGYAAUTVSQA;ZTQSAGDEMFDKMZ;OFBQJSOFQDEBGM;QWTDNUCVQCZILF;XBDQKXXYIPTUBI;BTANRVKWQNVYAZ;LRHPLDYGYMQRHN;ZXEKIIBDNHEJCQ;GDOPTJXRTPNYNR;XDTMQSROBMDMFD;HGBOYTHUEUWSSQ;AFABGHUZZDYHJO;HNRMPXKDFBEGFZ;PFEOZHBOMNWTJB;VLKZOEOYAKHREP;FERIUCNNQQJTOY;AMQJEAYHLZJPGS;AQIXEPGDORPWBJ;JYVLIDXNZAXMDK;MXLMTQWGSQIYOW;PHTQWCKDNZKARW;QWHNJUXXYKPLQM;UAEPNZWRGJTJPN;HPXRVTGHNJAIIH;JARKCYVAAOWBJS;BZHMBWZPUJHVEE;IMNFDUFMRHMDMM;VLJXXKKOSFGPHI;NQPDZGIKBAWPEJ;ZSIAUFGUXNUGDI;KVZJLSYJROEPSQ;LETYIFNDQBJGPJ;QEGNUYASOUJEHD;SGVUHPSBDNVHKL;FXHGMKSSBGDXIY;MQWCXKGKQLNYQG;JVSWJIKNEAIKJW;TVMXDCGIABBOFY;CETWDUZRCINIHU;OVOVDHYEOQJKMD;PYOLJOJPIPCRDP;XARGIVYWQPXRTC;NUJGJRNETVAIRJ;ZBAXJUPCYVIBSP;MHPUGCYGQWGLJL;GGWBGCSGJCRVIQ;BUOAKQCLRBVIOX;HIVFIUIKABOGIO;YLZKVXHQMPWDBJ;SOUITUXPBGREAE;KGBMCONWCCBLAE;VTXRDCQMLXABHJ;IRXJZDLOCNJAHE;XBENKLBOLWZLNQ;OTBOAOSTJYUVHP;HZNDJPAXRXLIOU;RBTVCRWROCDIOQ;WJXVLZCOWIIKOS
SubstructureOntologies: CHEMONTID:0002500;NonID:H2O;CHEMONTID:0001831;CHEMONTID:0000286;CHEMONTID:0002230;CHEMONTID:0001205;CHEMONTID:0002434;CHEMONTID:0004620;CHEMONTID:0001661;CHEMONTID:0001016;CHEMONTID:0000333;CHEMONTID:0002647;CHEMONTID:0002229;CHEMONTID:0001334;CHEMONTID:0003086;CHEMONTID:0004149;CHEMONTID:0001401;CHEMONTID:0003569;CHEMONTID:0001468
Ontology: Tetrahydroxy bile acids, alcohols and derivatives
OntologyID: CHEMONTID:0001110
RETENTIONTIME: -1
RETENTIONINDEX: -1
TotalBondEnergy: 28561
TotalScore: 6.1646
TotalHrRulesScore: 0.5
TotalBondCleavageScore: 0.5
TotalMassAccuracyScore: 0.4967
TotalFragmentLinkageScore: 0.5
TotalBondDissociationEnergyScore: 0.5
DatabaseScore: 0.619
SubstructureAssignmentScore: 0
RtSimilarityScore: -1
RiSimilarityScore: 0
Num Fragment VS2 (M/Z Intensity MatchedExactMass SaturatedExactMass Formula RearrangedHydrogen PPM MassDiff_mDa IsEvenElectronRule IsHrRule IsSolventAdductFragment AssignedAdductMass AdductString BondDissociationEnergy TreeDepth SMILES TotalScore HrLikelihood BcLikelihood MaLikelihood FlLikelihood BeLikelihood): 1
425.295532	165939.661196	425.289777675803	424.282501220703	C24H40O6	1	13.53	5.75	True	True	False	0		0	0	O=C(O)CCC(C)C2CCC3C4C(O)CC1CC(O)CCC1(CO)C4(CC(O)C23(C))	4.99339944124222	1	1	0.993399441242218	1	1

NAME: 3a,7b,21-Trihydroxy-5b-cholanoic acid
ID: JHBLUEHIRYMJOU
IsSpectrumSearch: False
INCHIKEY: JHBLUEHIRYMJOU-ZSFPCQDKSA-N
SMILES: O=C(O)CCC(O)C(O)C2CCC3C4C(O)CC1CC(O)CCC1(C)C4(CCC23(C))
RESOURCES: HMDB=HMDB0013192,FooDB=FDB029325
SubstructureInChIKeys: VNWKTOKETHGBQD;XLYOFNOQVPJJNP;WSFSSNUMVMOOMR;OTMSDBZUPAUEDD;OKKJLVBELUTLKV;IKHGUXGNUITLKF;ATUOYWHBWRKTHZ;BDAGIHXWWSANSR;LFQSCWFLJHTTHZ;NBBJYMSMWIIQGU;IJDNQMDRQITEOD;NNPPMTNAJDCUHE;QTBSBXVTEAMEQO;BDERNNFJNOPAEC;KFZMGEQAYNKOFK;LYCAIKOWRPUZTN;RGSFGYAAUTVSQA;ZTQSAGDEMFDKMZ;OFBQJSOFQDEBGM;QWTDNUCVQCZILF;XBDQKXXYIPTUBI;BTANRVKWQNVYAZ;LRHPLDYGYMQRHN;ZXEKIIBDNHEJCQ;DNIAPMSPPWPWGF;VIBDJEWPNNCFQO;GDOPTJXRTPNYNR;XDTMQSROBMDMFD;HGBOYTHUEUWSSQ;AFABGHUZZDYHJO;HNRMPXKDFBEGFZ;PFEOZHBOMNWTJB;VLKZOEOYAKHREP;FERIUCNNQQJTOY;PIAOXUVIBAKVSP;AMQJEAYHLZJPGS;AQIXEPGDORPWBJ;JYVLIDXNZAXMDK;MXLMTQWGSQIYOW;PHTQWCKDNZKARW;BMRWNKZVCUKKSR;QWHNJUXXYKPLQM;UAEPNZWRGJTJPN;HPXRVTGHNJAIIH;JARKCYVAAOWBJS;BZHMBWZPUJHVEE;IMNFDUFMRHMDMM;VLJXXKKOSFGPHI;ZSIAUFGUXNUGDI;SJZRECIVHVDYJC;WCVRQHFDJLLWFE;XLMFDCKSFJWJTP;KVZJLSYJROEPSQ;LETYIFNDQBJGPJ;QEGNUYASOUJEHD;SGVUHPSBDNVHKL;FXHGMKSSBGDXIY;MQWCXKGKQLNYQG;JVSWJIKNEAIKJW;TVMXDCGIABBOFY;CETWDUZRCINIHU;OVOVDHYEOQJKMD;PYOLJOJPIPCRDP;XARGIVYWQPXRTC;NUJGJRNETVAIRJ;ZBAXJUPCYVIBSP;ZDAWZDFBPUUDAY;GGWBGCSGJCRVIQ;BUOAKQCLRBVIOX;HIVFIUIKABOGIO;YLZKVXHQMPWDBJ;SOUITUXPBGREAE;KGBMCONWCCBLAE;VTXRDCQMLXABHJ;IRXJZDLOCNJAHE;XBENKLBOLWZLNQ;OTBOAOSTJYUVHP;HZNDJPAXRXLIOU
SubstructureOntologies: CHEMONTID:0002500;NonID:H2O;CHEMONTID:0001831;CHEMONTID:0000286;CHEMONTID:0002230;CHEMONTID:0001205;CHEMONTID:0002434;CHEMONTID:0004620;CHEMONTID:0001661;CHEMONTID:0002467;CHEMONTID:0001016;CHEMONTID:0002286;CHEMONTID:0000333;CHEMONTID:0002647;CHEMONTID:0002229;CHEMONTID:0001334;CHEMONTID:0000341;CHEMONTID:0004149;CHEMONTID:0001401
Ontology: Androgens and derivatives
OntologyID: CHEMONTID:0001467
RETENTIONTIME: -1
RETENTIONINDEX: -1
TotalBondEnergy: 28561
TotalScore: 5.986
TotalHrRulesScore: 0.5
TotalBondCleavageScore: 0.5
TotalMassAccuracyScore: 0.4967
TotalFragmentLinkageScore: 0.5
TotalBondDissociationEnergyScore: 0.5
DatabaseScore: 0.5476
SubstructureAssignmentScore: 0
RtSimilarityScore: -1
RiSimilarityScore: 0
Num Fragment VS2 (M/Z Intensity MatchedExactMass SaturatedExactMass Formula RearrangedHydrogen PPM MassDiff_mDa IsEvenElectronRule IsHrRule IsSolventAdductFragment AssignedAdductMass AdductString BondDissociationEnergy TreeDepth SMILES TotalScore HrLikelihood BcLikelihood MaLikelihood FlLikelihood BeLikelihood): 1
425.295532	165939.661196	425.289777675803	424.282501220703	C24H40O6	1	13.53	5.75	True	True	False	0		0	0	O=C(O)CCC(O)C(O)C2CCC3C4C(O)CC1CC(O)CCC1(C)C4(CCC23(C))	4.99339944124222	1	1	0.993399441242218	1	1

NAME: 1b,3a,7b-Trihydroxy-5b-cholanoic acid
ID: TVLHFFLEOSSHFT
IsSpectrumSearch: False
INCHIKEY: TVLHFFLEOSSHFT-QVLZICSDSA-N
SMILES: O=C(O)CCCC(O)C2CCC3C4C(O)CC1CC(O)CC(O)C1(C)C4(CCC23(C))
RESOURCES: HMDB=HMDB0013158,FooDB=FDB029314
SubstructureInChIKeys: VNWKTOKETHGBQD;XLYOFNOQVPJJNP;WSFSSNUMVMOOMR;OTMSDBZUPAUEDD;OKKJLVBELUTLKV;IKHGUXGNUITLKF;ATUOYWHBWRKTHZ;BDAGIHXWWSANSR;LFQSCWFLJHTTHZ;NBBJYMSMWIIQGU;IJDNQMDRQITEOD;NNPPMTNAJDCUHE;QTBSBXVTEAMEQO;BDERNNFJNOPAEC;KFZMGEQAYNKOFK;RGSFGYAAUTVSQA;ZTQSAGDEMFDKMZ;OFBQJSOFQDEBGM;QWTDNUCVQCZILF;XBDQKXXYIPTUBI;BTANRVKWQNVYAZ;LRHPLDYGYMQRHN;ZXEKIIBDNHEJCQ;YPFDHNVEDLHUCE;GDOPTJXRTPNYNR;XDTMQSROBMDMFD;HGBOYTHUEUWSSQ;AFABGHUZZDYHJO;HNRMPXKDFBEGFZ;PFEOZHBOMNWTJB;VLKZOEOYAKHREP;FERIUCNNQQJTOY;AMQJEAYHLZJPGS;AQIXEPGDORPWBJ;JYVLIDXNZAXMDK;MXLMTQWGSQIYOW;PHTQWCKDNZKARW;PUPZLCDOIYMWBV;QWHNJUXXYKPLQM;UAEPNZWRGJTJPN;HPXRVTGHNJAIIH;JARKCYVAAOWBJS;BZHMBWZPUJHVEE;IMNFDUFMRHMDMM;VLJXXKKOSFGPHI;CNRGMQRNYAIBTN;ZSIAUFGUXNUGDI;KVZJLSYJROEPSQ;LETYIFNDQBJGPJ;QEGNUYASOUJEHD;SGVUHPSBDNVHKL;FXHGMKSSBGDXIY;MQWCXKGKQLNYQG;JVSWJIKNEAIKJW;TVMXDCGIABBOFY;CETWDUZRCINIHU;OVOVDHYEOQJKMD;PHOJOSOUIAQEDH;PYOLJOJPIPCRDP;XARGIVYWQPXRTC;NUJGJRNETVAIRJ;ZBAXJUPCYVIBSP;GGWBGCSGJCRVIQ;BUOAKQCLRBVIOX;HIVFIUIKABOGIO;YLZKVXHQMPWDBJ;SOUITUXPBGREAE;KGBMCONWCCBLAE;VTXRDCQMLXABHJ;IRXJZDLOCNJAHE;XBENKLBOLWZLNQ;OTBOAOSTJYUVHP;HZNDJPAXRXLIOU
SubstructureOntologies: CHEMONTID:0002500;NonID:H2O;CHEMONTID:0001831;CHEMONTID:0000286;CHEMONTID:0002230;CHEMONTID:0001205;CHEMONTID:0002434;CHEMONTID:0004620;CHEMONTID:0001661;CHEMONTID:0001016;CHEMONTID:0000333;CHEMONTID:0002647;CHEMONTID:0002229;CHEMONTID:0001334;CHEMONTID:0000341;CHEMONTID:0004149;CHEMONTID:0001401
Ontology: Androgens and derivatives
OntologyID: CHEMONTID:0001467
RETENTIONTIME: -1
RETENTIONINDEX: -1
TotalBondEnergy: 28561
TotalScore: 5.986
TotalHrRulesScore: 0.5
TotalBondCleavageScore: 0.5
TotalMassAccuracyScore: 0.4967
TotalFragmentLinkageScore: 0.5
TotalBondDissociationEnergyScore: 0.5
DatabaseScore: 0.5476
SubstructureAssignmentScore: 0
RtSimilarityScore: -1
RiSimilarityScore: 0
Num Fragment VS2 (M/Z Intensity MatchedExactMass SaturatedExactMass Formula RearrangedHydrogen PPM MassDiff_mDa IsEvenElectronRule IsHrRule IsSolventAdductFragment AssignedAdductMass AdductString BondDissociationEnergy TreeDepth SMILES TotalScore HrLikelihood BcLikelihood MaLikelihood FlLikelihood BeLikelihood): 1
425.295532	165939.661196	425.289777675803	424.282501220703	C24H40O6	1	13.53	5.75	True	True	False	0		0	0	O=C(O)CCCC(O)C2CCC3C4C(O)CC1CC(O)CC(O)C1(C)C4(CCC23(C))	4.99339944124222	1	1	0.993399441242218	1	1

NAME: 3alpha,7alpha,12alpha,16alpha-tetrahydroxy-5beta-cholan-24-oic Acid
ID: BSGVQWDGISQETK
IsSpectrumSearch: False
INCHIKEY: BSGVQWDGISQETK-HJWCFOLONA-N
SMILES: O=C(O)CCC(C)C3C(O)CC2C4C(O)CC1CC(O)CCC1(C)C4(CC(O)C23(C))
RESOURCES: LipidMAPS=LMST04010448
SubstructureInChIKeys: VNWKTOKETHGBQD;XLYOFNOQVPJJNP;WSFSSNUMVMOOMR;OTMSDBZUPAUEDD;OKKJLVBELUTLKV;IKHGUXGNUITLKF;ATUOYWHBWRKTHZ;BDAGIHXWWSANSR;LFQSCWFLJHTTHZ;NBBJYMSMWIIQGU;IJDNQMDRQITEOD;NNPPMTNAJDCUHE;QTBSBXVTEAMEQO;BDERNNFJNOPAEC;KFZMGEQAYNKOFK;RGSFGYAAUTVSQA;ZTQSAGDEMFDKMZ;OFBQJSOFQDEBGM;QWTDNUCVQCZILF;XBDQKXXYIPTUBI;BTANRVKWQNVYAZ;LRHPLDYGYMQRHN;ZXEKIIBDNHEJCQ;GDOPTJXRTPNYNR;XDTMQSROBMDMFD;HGBOYTHUEUWSSQ;AFABGHUZZDYHJO;HNRMPXKDFBEGFZ;PFEOZHBOMNWTJB;VLKZOEOYAKHREP;FERIUCNNQQJTOY;AMQJEAYHLZJPGS;AQIXEPGDORPWBJ;JYVLIDXNZAXMDK;MXLMTQWGSQIYOW;PHTQWCKDNZKARW;QWHNJUXXYKPLQM;UAEPNZWRGJTJPN;BVIJQMCYYASIFP;HPXRVTGHNJAIIH;JARKCYVAAOWBJS;BZHMBWZPUJHVEE;IMNFDUFMRHMDMM;VLJXXKKOSFGPHI;NQPDZGIKBAWPEJ;ZSIAUFGUXNUGDI;KVZJLSYJROEPSQ;LETYIFNDQBJGPJ;QEGNUYASOUJEHD;SGVUHPSBDNVHKL;FXHGMKSSBGDXIY;MQWCXKGKQLNYQG;JVSWJIKNEAIKJW;TVMXDCGIABBOFY;CETWDUZRCINIHU;OVOVDHYEOQJKMD;PYOLJOJPIPCRDP;XARGIVYWQPXRTC;NUJGJRNETVAIRJ;ZBAXJUPCYVIBSP;MHPUGCYGQWGLJL;GGWBGCSGJCRVIQ;BUOAKQCLRBVIOX;HIVFIUIKABOGIO;YLZKVXHQMPWDBJ;SOUITUXPBGREAE;KGBMCONWCCBLAE;VTXRDCQMLXABHJ;IRXJZDLOCNJAHE;XBENKLBOLWZLNQ;OTBOAOSTJYUVHP;HZNDJPAXRXLIOU;RBTVCRWROCDIOQ;WJXVLZCOWIIKOS
SubstructureOntologies: CHEMONTID:0002500;NonID:H2O;CHEMONTID:0001831;CHEMONTID:0000286;CHEMONTID:0002230;CHEMONTID:0001205;CHEMONTID:0002434;CHEMONTID:0004620;CHEMONTID:0001661;CHEMONTID:0001016;CHEMONTID:0000333;CHEMONTID:0002938;CHEMONTID:0002647;CHEMONTID:0002229;CHEMONTID:0001334;CHEMONTID:0003086;CHEMONTID:0004149;CHEMONTID:0001401;CHEMONTID:0003569;CHEMONTID:0001468
Ontology: Tetrahydroxy bile acids, alcohols and derivatives
OntologyID: CHEMONTID:0001110
RETENTIONTIME: -1
RETENTIONINDEX: -1
TotalBondEnergy: 28561
TotalScore: 5.9265
TotalHrRulesScore: 0.5
TotalBondCleavageScore: 0.5
TotalMassAccuracyScore: 0.4967
TotalFragmentLinkageScore: 0.5
TotalBondDissociationEnergyScore: 0.5
DatabaseScore: 0.5238
SubstructureAssignmentScore: 0
RtSimilarityScore: -1
RiSimilarityScore: 0
Num Fragment VS2 (M/Z Intensity MatchedExactMass SaturatedExactMass Formula RearrangedHydrogen PPM MassDiff_mDa IsEvenElectronRule IsHrRule IsSolventAdductFragment AssignedAdductMass AdductString BondDissociationEnergy TreeDepth SMILES TotalScore HrLikelihood BcLikelihood MaLikelihood FlLikelihood BeLikelihood): 1
425.295532	165939.661196	425.289777675803	424.282501220703	C24H40O6	1	13.53	5.75	True	True	False	0		0	0	O=C(O)CCC(C)C3C(O)CC2C4C(O)CC1CC(O)CCC1(C)C4(CC(O)C23(C))	4.99339944124222	1	1	0.993399441242218	1	1

NAME: 3alpha,5beta,7alpha,12alpha-Tetrahydroxycholan-24-oic Acid
ID: IWNFERZYTMHGEO
IsSpectrumSearch: False
INCHIKEY: IWNFERZYTMHGEO-GIXTVMHJNA-N
SMILES: O=C(O)CCC(C)C1CCC2C3C(O)CC4(O)(CC(O)CCC4(C)(C3(CC(O)C12(C))))
RESOURCES: LipidMAPS=LMST04010419
SubstructureInChIKeys: VNWKTOKETHGBQD;XLYOFNOQVPJJNP;WSFSSNUMVMOOMR;OTMSDBZUPAUEDD;OKKJLVBELUTLKV;IKHGUXGNUITLKF;ATUOYWHBWRKTHZ;BDAGIHXWWSANSR;LFQSCWFLJHTTHZ;NBBJYMSMWIIQGU;IJDNQMDRQITEOD;NNPPMTNAJDCUHE;QTBSBXVTEAMEQO;BDERNNFJNOPAEC;KFZMGEQAYNKOFK;RGSFGYAAUTVSQA;ZTQSAGDEMFDKMZ;OFBQJSOFQDEBGM;QWTDNUCVQCZILF;XBDQKXXYIPTUBI;BTANRVKWQNVYAZ;LRHPLDYGYMQRHN;ZXEKIIBDNHEJCQ;YPFDHNVEDLHUCE;GDOPTJXRTPNYNR;XDTMQSROBMDMFD;HGBOYTHUEUWSSQ;AFABGHUZZDYHJO;HNRMPXKDFBEGFZ;PFEOZHBOMNWTJB;VLKZOEOYAKHREP;FERIUCNNQQJTOY;AMQJEAYHLZJPGS;AQIXEPGDORPWBJ;JYVLIDXNZAXMDK;MXLMTQWGSQIYOW;PHTQWCKDNZKARW;PUPZLCDOIYMWBV;QWHNJUXXYKPLQM;UAEPNZWRGJTJPN;HPXRVTGHNJAIIH;JARKCYVAAOWBJS;BZHMBWZPUJHVEE;IMNFDUFMRHMDMM;VLJXXKKOSFGPHI;NQPDZGIKBAWPEJ;ZSIAUFGUXNUGDI;KVZJLSYJROEPSQ;LETYIFNDQBJGPJ;QEGNUYASOUJEHD;SGVUHPSBDNVHKL;FXHGMKSSBGDXIY;MQWCXKGKQLNYQG;JVSWJIKNEAIKJW;TVMXDCGIABBOFY;CETWDUZRCINIHU;OVOVDHYEOQJKMD;PYOLJOJPIPCRDP;XARGIVYWQPXRTC;NUJGJRNETVAIRJ;ZBAXJUPCYVIBSP;MHPUGCYGQWGLJL;GGWBGCSGJCRVIQ;HIVFIUIKABOGIO;YLZKVXHQMPWDBJ;SOUITUXPBGREAE;KGBMCONWCCBLAE;IRXJZDLOCNJAHE;OTBOAOSTJYUVHP;HZNDJPAXRXLIOU;RBTVCRWROCDIOQ;WJXVLZCOWIIKOS
SubstructureOntologies: CHEMONTID:0002500;NonID:H2O;CHEMONTID:0001831;CHEMONTID:0000286;CHEMONTID:0002230;CHEMONTID:0001205;CHEMONTID:0002434;CHEMONTID:0004620;CHEMONTID:0001661;CHEMONTID:0001016;CHEMONTID:0000333;CHEMONTID:0002647;CHEMONTID:0002229;CHEMONTID:0001334;CHEMONTID:0003086;CHEMONTID:0004149;CHEMONTID:0001401;CHEMONTID:0003569;CHEMONTID:0001468
Ontology: Tetrahydroxy bile acids, alcohols and derivatives
OntologyID: CHEMONTID:0001110
RETENTIONTIME: -1
RETENTIONINDEX: -1
TotalBondEnergy: 28561
TotalScore: 5.9265
TotalHrRulesScore: 0.5
TotalBondCleavageScore: 0.5
TotalMassAccuracyScore: 0.4967
TotalFragmentLinkageScore: 0.5
TotalBondDissociationEnergyScore: 0.5
DatabaseScore: 0.5238
SubstructureAssignmentScore: 0
RtSimilarityScore: -1
RiSimilarityScore: 0
Num Fragment VS2 (M/Z Intensity MatchedExactMass SaturatedExactMass Formula RearrangedHydrogen PPM MassDiff_mDa IsEvenElectronRule IsHrRule IsSolventAdductFragment AssignedAdductMass AdductString BondDissociationEnergy TreeDepth SMILES TotalScore HrLikelihood BcLikelihood MaLikelihood FlLikelihood BeLikelihood): 1
425.295532	165939.661196	425.289777675803	424.282501220703	C24H40O6	1	13.53	5.75	True	True	False	0		0	0	O=C(O)CCC(C)C1CCC2C3C(O)CC4(O)(CC(O)CCC4(C)(C3(CC(O)C12(C))))	4.99339944124222	1	1	0.993399441242218	1	1

NAME: UNPD142722
ID: DQBYZULBDHLLAH
IsSpectrumSearch: False
INCHIKEY: DQBYZULBDHLLAH-SUOHMAOXNA-N
SMILES: O=C(O)CCC(=O)OCC2C(O)CC1(C(=CCCC1C2(C)(CCC(C)CCO))C)(C)
RESOURCES: UNPD=UNPD142722
SubstructureInChIKeys: VNWKTOKETHGBQD;XLYOFNOQVPJJNP;VGGSQFUCUMXWEO;WSFSSNUMVMOOMR;OTMSDBZUPAUEDD;OKKJLVBELUTLKV;QQONPFPTGQHPMA;IKHGUXGNUITLKF;ATUOYWHBWRKTHZ;BDAGIHXWWSANSR;LCGLNKUTAGEVQW;LFQSCWFLJHTTHZ;IAQRGUVFOMOMEM;VQTUBCCKSQIDNK;VXNZUUAINFGPBY;NBBJYMSMWIIQGU;IJDNQMDRQITEOD;NNPPMTNAJDCUHE;QTBSBXVTEAMEQO;TZIHFWKZFHZASV;BDERNNFJNOPAEC;KFZMGEQAYNKOFK;XOBKSJJDNFUZPF;BKOOMYPCSUNDGP;QMMOXUPEWRXHJS;YWAKXRMUMFPDSH;ZTQSAGDEMFDKMZ;OFBQJSOFQDEBGM;QWTDNUCVQCZILF;KXKVLQRXCPHEJC;WBJINCZRORDGAQ;XBDQKXXYIPTUBI;BTANRVKWQNVYAZ;LRHPLDYGYMQRHN;VNKYTQGIUYNRMY;ZXEKIIBDNHEJCQ;YPFDHNVEDLHUCE;BEQGRRJLJLVQAQ;LDTAOIUHUHHCMU;LIKMAJRDDDTEIG;RYPKRALMXUUNKS;XDTMQSROBMDMFD;ZQDPJFUHLCOCRG;AFABGHUZZDYHJO;HNRMPXKDFBEGFZ;PFEOZHBOMNWTJB;VLKZOEOYAKHREP;FERIUCNNQQJTOY;XEKOWRVHYACXOJ;AMQJEAYHLZJPGS;AQIXEPGDORPWBJ;JYVLIDXNZAXMDK;MXLMTQWGSQIYOW;PHTQWCKDNZKARW;JDFDHBSESGTDAL;PUPZLCDOIYMWBV;QWGRWMMWNDWRQN;UAEPNZWRGJTJPN;WZHKDGJSXCTSCK;ZGEGCLOFRBLKSE;HPXRVTGHNJAIIH;BZHMBWZPUJHVEE;IMNFDUFMRHMDMM;VLJXXKKOSFGPHI;UIUJIQZEACWQSV;ZSIAUFGUXNUGDI;KVZJLSYJROEPSQ;KWKAKUADMBZCLK;QEGNUYASOUJEHD;SGVUHPSBDNVHKL;MQWCXKGKQLNYQG;JVSWJIKNEAIKJW;TVMXDCGIABBOFY;CETWDUZRCINIHU;OVOVDHYEOQJKMD;KDYFGRWQOYBRFD;IICQZTQZQSBHBY;KPADFPAILITQBG;PYOLJOJPIPCRDP;XARGIVYWQPXRTC;LZHHQGKEJNRBAZ;ZBAXJUPCYVIBSP;BUOAKQCLRBVIOX;HIVFIUIKABOGIO;YLZKVXHQMPWDBJ;SOUITUXPBGREAE;GCLZXEJWFDSXJZ;VTXRDCQMLXABHJ;IRXJZDLOCNJAHE
SubstructureOntologies: CHEMONTID:0002500;NonID:H2O;CHEMONTID:0004476;CHEMONTID:0001831;CHEMONTID:0000286;CHEMONTID:0002230;CHEMONTID:0001205;CHEMONTID:0001167;CHEMONTID:0004622;CHEMONTID:0002434;CHEMONTID:0004620;CHEMONTID:0001238;CHEMONTID:0001661;CHEMONTID:0003416;CHEMONTID:0001016;CHEMONTID:0000333;CHEMONTID:0002647;CHEMONTID:0001334;CHEMONTID:0000346;CHEMONTID:0004149
Ontology: Colensane and clerodane diterpenoids
OntologyID: CHEMONTID:0001757
RETENTIONTIME: -1
RETENTIONINDEX: -1
TotalBondEnergy: 28432
TotalScore: 5.8586
TotalHrRulesScore: 1
TotalBondCleavageScore: 0.905
TotalMassAccuracyScore: 0.8232
TotalFragmentLinkageScore: 1
TotalBondDissociationEnergyScore: 0.9054
DatabaseScore: 0.2238
SubstructureAssignmentScore: 0
RtSimilarityScore: -1
RiSimilarityScore: 0
Num Fragment VS2 (M/Z Intensity MatchedExactMass SaturatedExactMass Formula RearrangedHydrogen PPM MassDiff_mDa IsEvenElectronRule IsHrRule IsSolventAdductFragment AssignedAdductMass AdductString BondDissociationEnergy TreeDepth SMILES TotalScore HrLikelihood BcLikelihood MaLikelihood FlLikelihood BeLikelihood): 2
279.314391	120953.259347	279.268232265647	278.260955810547	C19H34O	1	165.26	46.16	True	True	False	0		704	2	OC2CC1(C(=CCCC1C(C)(CCC(C)C)C2(C))C)(C)	4.27384912853342	1	0.809999942779541	0.653034210205078	1	0.810814975548805
425.295532	165939.661196	425.289777675803	424.282501220703	C24H40O6	1	13.53	5.75	True	True	False	0		0	0	O=C(O)CCC(=O)OCC2C(O)CC1(C(=CCCC1C2(C)(CCC(C)CCO))C)(C)	4.99339944124222	1	1	0.993399441242218	1	1

NAME: UNPD7993
ID: WWZZSZPMEOPTGE
IsSpectrumSearch: False
INCHIKEY: WWZZSZPMEOPTGE-SUOHMAOXNA-N
SMILES: O=C(O)CCC(=O)OC2CC1(C(=CCCC1C(C)(CCC(C)CCO)C2(CO))C)(C)
RESOURCES: UNPD=UNPD7993
SubstructureInChIKeys: VNWKTOKETHGBQD;XLYOFNOQVPJJNP;VGGSQFUCUMXWEO;WSFSSNUMVMOOMR;OTMSDBZUPAUEDD;OKKJLVBELUTLKV;QQONPFPTGQHPMA;IKHGUXGNUITLKF;ATUOYWHBWRKTHZ;BDAGIHXWWSANSR;LCGLNKUTAGEVQW;LFQSCWFLJHTTHZ;IAQRGUVFOMOMEM;VQTUBCCKSQIDNK;VXNZUUAINFGPBY;NBBJYMSMWIIQGU;IJDNQMDRQITEOD;NNPPMTNAJDCUHE;QTBSBXVTEAMEQO;TZIHFWKZFHZASV;BDERNNFJNOPAEC;XOBKSJJDNFUZPF;BKOOMYPCSUNDGP;QMMOXUPEWRXHJS;YWAKXRMUMFPDSH;ZTQSAGDEMFDKMZ;OFBQJSOFQDEBGM;QWTDNUCVQCZILF;KXKVLQRXCPHEJC;WBJINCZRORDGAQ;XBDQKXXYIPTUBI;LRHPLDYGYMQRHN;VNKYTQGIUYNRMY;ZXEKIIBDNHEJCQ;YPFDHNVEDLHUCE;BEQGRRJLJLVQAQ;LDTAOIUHUHHCMU;LIKMAJRDDDTEIG;RYPKRALMXUUNKS;XDTMQSROBMDMFD;ZQDPJFUHLCOCRG;AFABGHUZZDYHJO;HNRMPXKDFBEGFZ;PFEOZHBOMNWTJB;VLKZOEOYAKHREP;FERIUCNNQQJTOY;XEKOWRVHYACXOJ;AMQJEAYHLZJPGS;AQIXEPGDORPWBJ;FVNIMHIOIXPIQT;JYVLIDXNZAXMDK;MXLMTQWGSQIYOW;PHTQWCKDNZKARW;JDFDHBSESGTDAL;PUPZLCDOIYMWBV;QWGRWMMWNDWRQN;UAEPNZWRGJTJPN;WZHKDGJSXCTSCK;ZGEGCLOFRBLKSE;HPXRVTGHNJAIIH;BZHMBWZPUJHVEE;IMNFDUFMRHMDMM;VLJXXKKOSFGPHI;UIUJIQZEACWQSV;ZSIAUFGUXNUGDI;KVZJLSYJROEPSQ;KWKAKUADMBZCLK;QEGNUYASOUJEHD;SGVUHPSBDNVHKL;MQWCXKGKQLNYQG;JVSWJIKNEAIKJW;TVMXDCGIABBOFY;CETWDUZRCINIHU;OVOVDHYEOQJKMD;KDYFGRWQOYBRFD;IICQZTQZQSBHBY;KPADFPAILITQBG;PYOLJOJPIPCRDP;XARGIVYWQPXRTC;LZHHQGKEJNRBAZ;ZBAXJUPCYVIBSP;BUOAKQCLRBVIOX;HIVFIUIKABOGIO;YLZKVXHQMPWDBJ;SOUITUXPBGREAE;GCLZXEJWFDSXJZ;VTXRDCQMLXABHJ;IRXJZDLOCNJAHE
SubstructureOntologies: CHEMONTID:0002500;NonID:H2O;CHEMONTID:0004476;CHEMONTID:0001831;CHEMONTID:0000286;CHEMONTID:0002230;CHEMONTID:0001205;CHEMONTID:0001167;CHEMONTID:0004622;CHEMONTID:0002434;CHEMONTID:0004620;CHEMONTID:0001238;CHEMONTID:0003416;CHEMONTID:0001016;CHEMONTID:0000333;CHEMONTID:0001661;CHEMONTID:0002647;CHEMONTID:0001334;CHEMONTID:0000346;CHEMONTID:0004149
Ontology: Colensane and clerodane diterpenoids
OntologyID: CHEMONTID:0001757
RETENTIONTIME: -1
RETENTIONINDEX: -1
TotalBondEnergy: 28432
TotalScore: 5.8586
TotalHrRulesScore: 1
TotalBondCleavageScore: 0.905
TotalMassAccuracyScore: 0.8232
TotalFragmentLinkageScore: 1
TotalBondDissociationEnergyScore: 0.9054
DatabaseScore: 0.2238
SubstructureAssignmentScore: 0
RtSimilarityScore: -1
RiSimilarityScore: 0
Num Fragment VS2 (M/Z Intensity MatchedExactMass SaturatedExactMass Formula RearrangedHydrogen PPM MassDiff_mDa IsEvenElectronRule IsHrRule IsSolventAdductFragment AssignedAdductMass AdductString BondDissociationEnergy TreeDepth SMILES TotalScore HrLikelihood BcLikelihood MaLikelihood FlLikelihood BeLikelihood): 2
279.314391	120953.259347	279.268232265647	278.260955810547	C19H34O	1	165.26	46.16	True	True	False	0		704	2	OCC2CCC1(C(=CCCC1C2(C)(CCC(C)C))C)(C)	4.27384912853342	1	0.809999942779541	0.653034210205078	1	0.810814975548805
425.295532	165939.661196	425.289777675803	424.282501220703	C24H40O6	1	13.53	5.75	True	True	False	0		0	0	O=C(O)CCC(=O)OC2CC1(C(=CCCC1C(C)(CCC(C)CCO)C2(CO))C)(C)	4.99339944124222	1	1	0.993399441242218	1	1

NAME: UNPD108651
ID: MBXSJNGOAVCUIS
IsSpectrumSearch: False
INCHIKEY: MBXSJNGOAVCUIS-GMPHKCFZNA-N
SMILES: O=CCC(C)CCC1C(O)(C)CCC2C(C)(COC(=O)CCC(=O)O)CCCC12(C)
RESOURCES: UNPD=UNPD108651
SubstructureInChIKeys: VNWKTOKETHGBQD;XLYOFNOQVPJJNP;WSFSSNUMVMOOMR;OTMSDBZUPAUEDD;OKKJLVBELUTLKV;IKHGUXGNUITLKF;ATUOYWHBWRKTHZ;BDAGIHXWWSANSR;LCGLNKUTAGEVQW;LFQSCWFLJHTTHZ;NBBJYMSMWIIQGU;IJDNQMDRQITEOD;NNPPMTNAJDCUHE;QTBSBXVTEAMEQO;TZIHFWKZFHZASV;BDERNNFJNOPAEC;KFZMGEQAYNKOFK;XOBKSJJDNFUZPF;ZTQSAGDEMFDKMZ;OFBQJSOFQDEBGM;QWTDNUCVQCZILF;KXKVLQRXCPHEJC;WBJINCZRORDGAQ;XBDQKXXYIPTUBI;BTANRVKWQNVYAZ;LRHPLDYGYMQRHN;VNKYTQGIUYNRMY;ZXEKIIBDNHEJCQ;XDTMQSROBMDMFD;HGBOYTHUEUWSSQ;AFABGHUZZDYHJO;HNRMPXKDFBEGFZ;PFEOZHBOMNWTJB;VLKZOEOYAKHREP;FERIUCNNQQJTOY;XEKOWRVHYACXOJ;AMQJEAYHLZJPGS;AQIXEPGDORPWBJ;JYVLIDXNZAXMDK;MXLMTQWGSQIYOW;PHTQWCKDNZKARW;UAEPNZWRGJTJPN;HPXRVTGHNJAIIH;JARKCYVAAOWBJS;BZHMBWZPUJHVEE;IMNFDUFMRHMDMM;VLJXXKKOSFGPHI;UIUJIQZEACWQSV;ZSIAUFGUXNUGDI;KVZJLSYJROEPSQ;QEGNUYASOUJEHD;SGVUHPSBDNVHKL;FXHGMKSSBGDXIY;MQWCXKGKQLNYQG;JVSWJIKNEAIKJW;TVMXDCGIABBOFY;CETWDUZRCINIHU;OVOVDHYEOQJKMD;KDYFGRWQOYBRFD;PYOLJOJPIPCRDP;XARGIVYWQPXRTC;NUJGJRNETVAIRJ;ZBAXJUPCYVIBSP;BUOAKQCLRBVIOX;HIVFIUIKABOGIO;YLZKVXHQMPWDBJ;SOUITUXPBGREAE;VTXRDCQMLXABHJ;IRXJZDLOCNJAHE;XBENKLBOLWZLNQ;OTBOAOSTJYUVHP;HZNDJPAXRXLIOU
SubstructureOntologies: CHEMONTID:0002500;NonID:H2O;CHEMONTID:0001831;CHEMONTID:0000286;CHEMONTID:0002230;CHEMONTID:0001205;CHEMONTID:0001167;CHEMONTID:0002434;CHEMONTID:0004620;CHEMONTID:0001238;CHEMONTID:0001661;CHEMONTID:0003416;CHEMONTID:0001016;CHEMONTID:0000333;CHEMONTID:0002647;CHEMONTID:0002229;CHEMONTID:0001334;CHEMONTID:0000346;CHEMONTID:0004149;CHEMONTID:0001401
Ontology: Diterpenoids
OntologyID: CHEMONTID:0001551
RETENTIONTIME: -1
RETENTIONINDEX: -1
TotalBondEnergy: 28519
TotalScore: 5.8515
TotalHrRulesScore: 1
TotalBondCleavageScore: 0.905
TotalMassAccuracyScore: 0.8232
TotalFragmentLinkageScore: 1
TotalBondDissociationEnergyScore: 0.8939
DatabaseScore: 0.2238
SubstructureAssignmentScore: 0
RtSimilarityScore: -1
RiSimilarityScore: 0
Num Fragment VS2 (M/Z Intensity MatchedExactMass SaturatedExactMass Formula RearrangedHydrogen PPM MassDiff_mDa IsEvenElectronRule IsHrRule IsSolventAdductFragment AssignedAdductMass AdductString BondDissociationEnergy TreeDepth SMILES TotalScore HrLikelihood BcLikelihood MaLikelihood FlLikelihood BeLikelihood): 2
279.314391	120953.259347	279.268237713225	280.276611328125	C19H36O	-1	165.24	46.15	True	True	False	0		704	2	OC1(C)(CCC2C(C)(C)CCCC2(C)(C1(CCC(C)C)))	4.2509384344615	1	0.809999942779541	0.653099894523621	1	0.787838597158335
425.295532	165939.661196	425.289777675803	424.282501220703	C24H40O6	1	13.53	5.75	True	True	False	0		0	0	O=CCC(C)CCC1C(O)(C)CCC2C(C)(COC(=O)CCC(=O)O)CCCC12(C)	4.99339944124222	1	1	0.993399441242218	1	1

NAME: UNPD167984
ID: GBSJJHOHZCOVQW
IsSpectrumSearch: False
INCHIKEY: GBSJJHOHZCOVQW-UBRQYEGLNA-N
SMILES: O=C(OC1C=CC(OC(=O)C)C1(O)(C(=O)CCCCCCCCCCCCCC))C
RESOURCES: UNPD=UNPD167984;UNPD175228
SubstructureInChIKeys: VNWKTOKETHGBQD;XLYOFNOQVPJJNP;VGGSQFUCUMXWEO;WSFSSNUMVMOOMR;OTMSDBZUPAUEDD;OKKJLVBELUTLKV;IKHGUXGNUITLKF;ATUOYWHBWRKTHZ;LCGLNKUTAGEVQW;LFQSCWFLJHTTHZ;IAQRGUVFOMOMEM;VXNZUUAINFGPBY;CSCPPACGZOOCGX;NBBJYMSMWIIQGU;XXROGKLTLUQVRX;IJDNQMDRQITEOD;NNPPMTNAJDCUHE;QTBSBXVTEAMEQO;TZIHFWKZFHZASV;WGCNASOHLSPBMP;BDERNNFJNOPAEC;KFZMGEQAYNKOFK;XOBKSJJDNFUZPF;LYCAIKOWRPUZTN;QMMOXUPEWRXHJS;YWAKXRMUMFPDSH;ZSPTYLOMNJNZNG;ZTQSAGDEMFDKMZ;OFBQJSOFQDEBGM;QWTDNUCVQCZILF;AKXKFZDCRYJKTF;BSABBBMNWQWLLU;KXKVLQRXCPHEJC;WBJINCZRORDGAQ;BTANRVKWQNVYAZ;LRHPLDYGYMQRHN;VNKYTQGIUYNRMY;ZXEKIIBDNHEJCQ;DNIAPMSPPWPWGF;XNWFRZJHXBZDAG;YPFDHNVEDLHUCE;VIBDJEWPNNCFQO;LIKMAJRDDDTEIG;RYPKRALMXUUNKS;FSUXYWPILZJGCC;GJYMQFMQRRNLCY;HGBOYTHUEUWSSQ;AFABGHUZZDYHJO;PFEOZHBOMNWTJB;VLKZOEOYAKHREP;XEKOWRVHYACXOJ;AMQJEAYHLZJPGS;AQIXEPGDORPWBJ;FVNIMHIOIXPIQT;JYVLIDXNZAXMDK;MXLMTQWGSQIYOW;MNQZXJOMYWMBOU;BMRWNKZVCUKKSR;JDFDHBSESGTDAL;PUPZLCDOIYMWBV;QWGRWMMWNDWRQN;YTTFFPATQICAQN;ZNQVEEAIQZEUHB;PEDCQBHIVMGVHV;ZGEGCLOFRBLKSE;BVOSSZSHBZQJOI;JARKCYVAAOWBJS;IMNFDUFMRHMDMM;VLJXXKKOSFGPHI;ZSIAUFGUXNUGDI;DFFAMJFPVBTTBX;WCVRQHFDJLLWFE;XLMFDCKSFJWJTP;YAXKTBLXMTYWDQ;MQVRLONNONYDJP;KWKAKUADMBZCLK;CATSNJVOTSVZJV;FXHGMKSSBGDXIY;PZKFYTOLVRCMOA;JVSWJIKNEAIKJW;TVMXDCGIABBOFY;CETWDUZRCINIHU;BVDRUCCQKHGCRX;GZXFYIDYTCWDDN;LOSWWGJGSSQDKH;NBFKNCBRFJKDDR;IICQZTQZQSBHBY;NUJGJRNETVAIRJ;VSMOENVRRABVKN;ZIWXVGHUDKNNSH;GYHFUZHODSMOHU;KSMVZQYAVGTKIV;KMPQYAYAQWNLME;HFJRKMMYBMWEAD;BGEHHAVMRVXCGR;UHUFTBALEZWWIH;XGQJZNCFDLXSIJ
SubstructureOntologies: CHEMONTID:0002500;NonID:H2O;CHEMONTID:0004476;CHEMONTID:0001831;CHEMONTID:0000286;CHEMONTID:0002230;CHEMONTID:0001167;CHEMONTID:0000118;CHEMONTID:0002434;CHEMONTID:0004620;CHEMONTID:0001205;CHEMONTID:0001238;CHEMONTID:0001661;CHEMONTID:0002467;CHEMONTID:0003675;CHEMONTID:0003416;CHEMONTID:0002286;CHEMONTID:0001540;CHEMONTID:0002210;CHEMONTID:0002229;CHEMONTID:0001334;CHEMONTID:0001597;CHEMONTID:0003263;CHEMONTID:0000298
Ontology: Dicarboxylic acids and derivatives
OntologyID: CHEMONTID:0000346
RETENTIONTIME: -1
RETENTIONINDEX: -1
TotalBondEnergy: 28393
TotalScore: 5.7646
TotalHrRulesScore: 1
TotalBondCleavageScore: 0.828
TotalMassAccuracyScore: 0.8232
TotalFragmentLinkageScore: 1
TotalBondDissociationEnergyScore: 0.7806
DatabaseScore: 0.2238
SubstructureAssignmentScore: 0
RtSimilarityScore: -1
RiSimilarityScore: 0
Num Fragment VS2 (M/Z Intensity MatchedExactMass SaturatedExactMass Formula RearrangedHydrogen PPM MassDiff_mDa IsEvenElectronRule IsHrRule IsSolventAdductFragment AssignedAdductMass AdductString BondDissociationEnergy TreeDepth SMILES TotalScore HrLikelihood BcLikelihood MaLikelihood FlLikelihood BeLikelihood): 2
279.314391	120953.259347	279.268237713225	280.276611328125	C19H36O	-1	165.24	46.15	True	True	False	0		1408	3	O=C(CCC=C)CCCCCCCCCCCCCC	3.87030750837877	1	0.656099915504456	0.653099894523621	1	0.561107698350699
425.295532	165939.661196	425.289777675803	424.282501220703	C24H40O6	1	13.53	5.75	True	True	False	0		0	0	O=C(OC1C=CC(OC(=O)C)C1(O)(C(=O)CCCCCCCCCCCCCC))C	4.99339944124222	1	1	0.993399441242218	1	1

NAME: UNPD184044
ID: ZKCYUNQFSFGHND
IsSpectrumSearch: False
INCHIKEY: ZKCYUNQFSFGHND-PCVIEKKKNA-N
SMILES: O=C(OC1C=CC(=O)C1(O)C(OC(=O)C)CCCCCCCCCCCCCC)C
RESOURCES: UNPD=UNPD184044;UNPD26990
SubstructureInChIKeys: VNWKTOKETHGBQD;XLYOFNOQVPJJNP;VGGSQFUCUMXWEO;WSFSSNUMVMOOMR;OTMSDBZUPAUEDD;OKKJLVBELUTLKV;IKHGUXGNUITLKF;ATUOYWHBWRKTHZ;LCGLNKUTAGEVQW;LFQSCWFLJHTTHZ;HGINCPLSRVDWNT;IAQRGUVFOMOMEM;VXNZUUAINFGPBY;CSCPPACGZOOCGX;NBBJYMSMWIIQGU;XXROGKLTLUQVRX;IJDNQMDRQITEOD;NNPPMTNAJDCUHE;QTBSBXVTEAMEQO;TZIHFWKZFHZASV;WGCNASOHLSPBMP;BDERNNFJNOPAEC;KFZMGEQAYNKOFK;XOBKSJJDNFUZPF;LYCAIKOWRPUZTN;MLUCVPSAIODCQM;QMMOXUPEWRXHJS;YWAKXRMUMFPDSH;ZSPTYLOMNJNZNG;ZTQSAGDEMFDKMZ;OFBQJSOFQDEBGM;QWTDNUCVQCZILF;AKXKFZDCRYJKTF;BSABBBMNWQWLLU;KXKVLQRXCPHEJC;WBJINCZRORDGAQ;BTANRVKWQNVYAZ;LRHPLDYGYMQRHN;VNKYTQGIUYNRMY;ZXEKIIBDNHEJCQ;DNIAPMSPPWPWGF;XNWFRZJHXBZDAG;YPFDHNVEDLHUCE;VIBDJEWPNNCFQO;LIKMAJRDDDTEIG;RYPKRALMXUUNKS;FSUXYWPILZJGCC;GJYMQFMQRRNLCY;HGBOYTHUEUWSSQ;AFABGHUZZDYHJO;PFEOZHBOMNWTJB;VLKZOEOYAKHREP;XEKOWRVHYACXOJ;AMQJEAYHLZJPGS;AQIXEPGDORPWBJ;FVNIMHIOIXPIQT;JYVLIDXNZAXMDK;MXLMTQWGSQIYOW;MNQZXJOMYWMBOU;BMRWNKZVCUKKSR;JDFDHBSESGTDAL;PUPZLCDOIYMWBV;QWGRWMMWNDWRQN;YTTFFPATQICAQN;ZNQVEEAIQZEUHB;PEDCQBHIVMGVHV;ZGEGCLOFRBLKSE;BVOSSZSHBZQJOI;JARKCYVAAOWBJS;IMNFDUFMRHMDMM;VLJXXKKOSFGPHI;ZSIAUFGUXNUGDI;DFFAMJFPVBTTBX;WCVRQHFDJLLWFE;XLMFDCKSFJWJTP;YAXKTBLXMTYWDQ;MQVRLONNONYDJP;KWKAKUADMBZCLK;CATSNJVOTSVZJV;FXHGMKSSBGDXIY;PZKFYTOLVRCMOA;JVSWJIKNEAIKJW;TVMXDCGIABBOFY;CETWDUZRCINIHU;BVDRUCCQKHGCRX;AALKGALVYCZETF;GZXFYIDYTCWDDN;LOSWWGJGSSQDKH;IICQZTQZQSBHBY;LZHHQGKEJNRBAZ;NUJGJRNETVAIRJ;VSMOENVRRABVKN;ZIWXVGHUDKNNSH
SubstructureOntologies: CHEMONTID:0002500;NonID:H2O;CHEMONTID:0004476;CHEMONTID:0001831;CHEMONTID:0000286;CHEMONTID:0002230;CHEMONTID:0001167;CHEMONTID:0002436;CHEMONTID:0000118;CHEMONTID:0002434;CHEMONTID:0004620;CHEMONTID:0001205;CHEMONTID:0001238;CHEMONTID:0001661;CHEMONTID:0002467;CHEMONTID:0003675;CHEMONTID:0003416;CHEMONTID:0002286;CHEMONTID:0001540;CHEMONTID:0002210;CHEMONTID:0002229;CHEMONTID:0001334;CHEMONTID:0001597;CHEMONTID:0003263
Ontology: Fatty alcohol esters
OntologyID: CHEMONTID:0001722
RETENTIONTIME: -1
RETENTIONINDEX: -1
TotalBondEnergy: 28393
TotalScore: 5.7646
TotalHrRulesScore: 1
TotalBondCleavageScore: 0.828
TotalMassAccuracyScore: 0.8232
TotalFragmentLinkageScore: 1
TotalBondDissociationEnergyScore: 0.7806
DatabaseScore: 0.2238
SubstructureAssignmentScore: 0
RtSimilarityScore: -1
RiSimilarityScore: 0
Num Fragment VS2 (M/Z Intensity MatchedExactMass SaturatedExactMass Formula RearrangedHydrogen PPM MassDiff_mDa IsEvenElectronRule IsHrRule IsSolventAdductFragment AssignedAdductMass AdductString BondDissociationEnergy TreeDepth SMILES TotalScore HrLikelihood BcLikelihood MaLikelihood FlLikelihood BeLikelihood): 2
279.314391	120953.259347	279.268237713225	280.276611328125	C19H36O	-1	165.24	46.15	True	True	False	0		1408	3	O=C(C=C)CCCCCCCCCCCCCCCC	3.87030750837877	1	0.656099915504456	0.653099894523621	1	0.561107698350699
425.295532	165939.661196	425.289777675803	424.282501220703	C24H40O6	1	13.53	5.75	True	True	False	0		0	0	O=C(OC1C=CC(=O)C1(O)C(OC(=O)C)CCCCCCCCCCCCCC)C	4.99339944124222	1	1	0.993399441242218	1	1

NAME: UNPD81255
ID: YKWCXQIXDCCPFA
IsSpectrumSearch: False
INCHIKEY: YKWCXQIXDCCPFA-NXKPKOMGNA-N
SMILES: O=C(OCCC(COC(=O)C)CCC2(C)(C(C)C(O)CC1(C(=CCCC12)CO)(C)))C
RESOURCES: UNPD=UNPD81255
SubstructureInChIKeys: VNWKTOKETHGBQD;XLYOFNOQVPJJNP;VGGSQFUCUMXWEO;WSFSSNUMVMOOMR;OTMSDBZUPAUEDD;OKKJLVBELUTLKV;IKHGUXGNUITLKF;ATUOYWHBWRKTHZ;LCGLNKUTAGEVQW;LFQSCWFLJHTTHZ;IAQRGUVFOMOMEM;VQTUBCCKSQIDNK;VXNZUUAINFGPBY;XXROGKLTLUQVRX;IJDNQMDRQITEOD;NNPPMTNAJDCUHE;QTBSBXVTEAMEQO;TZIHFWKZFHZASV;BDERNNFJNOPAEC;KFZMGEQAYNKOFK;XOBKSJJDNFUZPF;BKOOMYPCSUNDGP;QMMOXUPEWRXHJS;YWAKXRMUMFPDSH;OFBQJSOFQDEBGM;QWTDNUCVQCZILF;KXKVLQRXCPHEJC;WBJINCZRORDGAQ;BTANRVKWQNVYAZ;LRHPLDYGYMQRHN;VNKYTQGIUYNRMY;ZXEKIIBDNHEJCQ;BEQGRRJLJLVQAQ;LDTAOIUHUHHCMU;LIKMAJRDDDTEIG;RYPKRALMXUUNKS;XDTMQSROBMDMFD;ZQDPJFUHLCOCRG;NEJDKFPXHQRVMV;AFABGHUZZDYHJO;HNRMPXKDFBEGFZ;PFEOZHBOMNWTJB;VLKZOEOYAKHREP;XEKOWRVHYACXOJ;AMQJEAYHLZJPGS;AQIXEPGDORPWBJ;JYVLIDXNZAXMDK;MXLMTQWGSQIYOW;PHTQWCKDNZKARW;UAEPNZWRGJTJPN;WZHKDGJSXCTSCK;ZGEGCLOFRBLKSE;HPXRVTGHNJAIIH;BZHMBWZPUJHVEE;IMNFDUFMRHMDMM;VLJXXKKOSFGPHI;ZSIAUFGUXNUGDI;KVZJLSYJROEPSQ;KWKAKUADMBZCLK;QEGNUYASOUJEHD;SGVUHPSBDNVHKL;MQWCXKGKQLNYQG;JVSWJIKNEAIKJW;TVMXDCGIABBOFY;CETWDUZRCINIHU;OVOVDHYEOQJKMD;IICQZTQZQSBHBY;KPADFPAILITQBG;PYOLJOJPIPCRDP;XARGIVYWQPXRTC;LZHHQGKEJNRBAZ;ZBAXJUPCYVIBSP;BUOAKQCLRBVIOX;HIVFIUIKABOGIO;YLZKVXHQMPWDBJ;SOUITUXPBGREAE;GCLZXEJWFDSXJZ;VTXRDCQMLXABHJ;IRXJZDLOCNJAHE
SubstructureOntologies: CHEMONTID:0002500;NonID:H2O;CHEMONTID:0004476;CHEMONTID:0001831;CHEMONTID:0000286;CHEMONTID:0002230;CHEMONTID:0001167;CHEMONTID:0004622;CHEMONTID:0004620;CHEMONTID:0001205;CHEMONTID:0001238;CHEMONTID:0001661;CHEMONTID:0003416;CHEMONTID:0001016;CHEMONTID:0002647;CHEMONTID:0001334;CHEMONTID:0004149
Ontology: Colensane and clerodane diterpenoids
OntologyID: CHEMONTID:0001757
RETENTIONTIME: -1
RETENTIONINDEX: -1
TotalBondEnergy: 28396
TotalScore: 5.7571
TotalHrRulesScore: 1
TotalBondCleavageScore: 0.5911
TotalMassAccuracyScore: 0.8232
TotalFragmentLinkageScore: 1
TotalBondDissociationEnergyScore: 0.8476
DatabaseScore: 0.2238
SubstructureAssignmentScore: 0
RtSimilarityScore: -1
RiSimilarityScore: 0
Num Fragment VS2 (M/Z Intensity MatchedExactMass SaturatedExactMass Formula RearrangedHydrogen PPM MassDiff_mDa IsEvenElectronRule IsHrRule IsSolventAdductFragment AssignedAdductMass AdductString BondDissociationEnergy TreeDepth SMILES TotalScore HrLikelihood BcLikelihood MaLikelihood FlLikelihood BeLikelihood): 2
279.314391	120953.259347	279.268232265647	278.260955810547	C19H34O	1	165.26	46.16	True	True	False	0		1062	3	OCC1=CCCC2C1(C)CCC(C)C2(C)(CCC(C)C)	3.53041847673421	1	0.1822499781847	0.653034210205078	1	0.69513428834443
425.295532	165939.661196	425.289777675803	424.282501220703	C24H40O6	1	13.53	5.75	True	True	False	0		0	0	O=C(OCCC(COC(=O)C)CCC2(C)(C(C)C(O)CC1(C(=CCCC12)CO)(C)))C	4.99339944124222	1	1	0.993399441242218	1	1

NAME: UNPD19267
ID: GCXYZMBESPRGQQ
IsSpectrumSearch: False
INCHIKEY: GCXYZMBESPRGQQ-MWLMLXELNA-N
SMILES: O=C(OCC(OC(=O)C)C2(OC3(C)(CCC1C(C)(C)CCCC1(C)C3(C(O)C2)))(C))C
RESOURCES: UNPD=UNPD19267;UNPD60702
SubstructureInChIKeys: VNWKTOKETHGBQD;XLYOFNOQVPJJNP;WSFSSNUMVMOOMR;OTMSDBZUPAUEDD;OKKJLVBELUTLKV;IKHGUXGNUITLKF;ATUOYWHBWRKTHZ;LCGLNKUTAGEVQW;LFQSCWFLJHTTHZ;IJDNQMDRQITEOD;NNPPMTNAJDCUHE;QTBSBXVTEAMEQO;TZIHFWKZFHZASV;BDERNNFJNOPAEC;KFZMGEQAYNKOFK;XOBKSJJDNFUZPF;LYCAIKOWRPUZTN;OFBQJSOFQDEBGM;QWTDNUCVQCZILF;KXKVLQRXCPHEJC;WBJINCZRORDGAQ;BTANRVKWQNVYAZ;LRHPLDYGYMQRHN;VNKYTQGIUYNRMY;ZXEKIIBDNHEJCQ;XNWFRZJHXBZDAG;YPFDHNVEDLHUCE;VIBDJEWPNNCFQO;XDTMQSROBMDMFD;AFABGHUZZDYHJO;HNRMPXKDFBEGFZ;PFEOZHBOMNWTJB;VLKZOEOYAKHREP;XEKOWRVHYACXOJ;AMQJEAYHLZJPGS;AQIXEPGDORPWBJ;FVNIMHIOIXPIQT;JYVLIDXNZAXMDK;MXLMTQWGSQIYOW;PHTQWCKDNZKARW;BMRWNKZVCUKKSR;JDFDHBSESGTDAL;PUPZLCDOIYMWBV;QWGRWMMWNDWRQN;YTTFFPATQICAQN;ZNQVEEAIQZEUHB;PEDCQBHIVMGVHV;UAEPNZWRGJTJPN;BZHMBWZPUJHVEE;IMNFDUFMRHMDMM;VLJXXKKOSFGPHI;ZSIAUFGUXNUGDI;WCVRQHFDJLLWFE;XLMFDCKSFJWJTP;ARXKVVRQIIOZGF;RKOGJKGQMPZCGG;YAXKTBLXMTYWDQ;MQVRLONNONYDJP;KVZJLSYJROEPSQ;QEGNUYASOUJEHD;SGVUHPSBDNVHKL;JVSWJIKNEAIKJW;TVMXDCGIABBOFY;CETWDUZRCINIHU;OVOVDHYEOQJKMD;BVDRUCCQKHGCRX;AALKGALVYCZETF;GZXFYIDYTCWDDN;LOSWWGJGSSQDKH;PYOLJOJPIPCRDP;XARGIVYWQPXRTC;ZDAWZDFBPUUDAY;BUOAKQCLRBVIOX;HIVFIUIKABOGIO;YLZKVXHQMPWDBJ;VTXRDCQMLXABHJ;IRXJZDLOCNJAHE;XBENKLBOLWZLNQ;OTBOAOSTJYUVHP;HZNDJPAXRXLIOU
SubstructureOntologies: CHEMONTID:0002500;NonID:H2O;CHEMONTID:0001831;CHEMONTID:0000286;CHEMONTID:0002230;CHEMONTID:0001167;CHEMONTID:0004620;CHEMONTID:0001205;CHEMONTID:0001238;CHEMONTID:0001661;CHEMONTID:0002467;CHEMONTID:0003416;CHEMONTID:0002286;CHEMONTID:0001016;CHEMONTID:0002210;CHEMONTID:0001334;CHEMONTID:0002391;CHEMONTID:0001597;CHEMONTID:0003263;CHEMONTID:0004149;CHEMONTID:0001401
Ontology: Triterpenoids
OntologyID: CHEMONTID:0001553
RETENTIONTIME: -1
RETENTIONINDEX: -1
TotalBondEnergy: 28450
TotalScore: 5.7442
TotalHrRulesScore: 1
TotalBondCleavageScore: 0.5911
TotalMassAccuracyScore: 0.8232
TotalFragmentLinkageScore: 1
TotalBondDissociationEnergyScore: 0.827
DatabaseScore: 0.2238
SubstructureAssignmentScore: 0
RtSimilarityScore: -1
RiSimilarityScore: 0
Num Fragment VS2 (M/Z Intensity MatchedExactMass SaturatedExactMass Formula RearrangedHydrogen PPM MassDiff_mDa IsEvenElectronRule IsHrRule IsSolventAdductFragment AssignedAdductMass AdductString BondDissociationEnergy TreeDepth SMILES TotalScore HrLikelihood BcLikelihood MaLikelihood FlLikelihood BeLikelihood): 2
279.314391	120953.259347	279.268232265647	278.260955810547	C19H34O	1	165.26	46.16	True	True	False	0		1062	3	O1C(C)(C)CCC2C1(C)CCC3C(C)(C)CCCC23(C)	3.48934972343801	1	0.1822499781847	0.653034210205078	1	0.654065535048233
425.295532	165939.661196	425.289777675803	424.282501220703	C24H40O6	1	13.53	5.75	True	True	False	0		0	0	O=C(OCC(OC(=O)C)C2(OC3(C)(CCC1C(C)(C)CCCC1(C)C3(C(O)C2)))(C))C	4.99339944124222	1	1	0.993399441242218	1	1

NAME: UNPD3378
ID: NIYAENRGXVJXGA
IsSpectrumSearch: False
INCHIKEY: NIYAENRGXVJXGA-CJVPPBHWNA-N
SMILES: O=C(OCC=C1COC(C)(CCCC(C)C(O)CC=C(C)C)C(OC(=O)C)CC1)C
RESOURCES: UNPD=UNPD3378
SubstructureInChIKeys: VNWKTOKETHGBQD;XLYOFNOQVPJJNP;VGGSQFUCUMXWEO;WSFSSNUMVMOOMR;OTMSDBZUPAUEDD;OKKJLVBELUTLKV;QQONPFPTGQHPMA;IKHGUXGNUITLKF;ATUOYWHBWRKTHZ;LCGLNKUTAGEVQW;LFQSCWFLJHTTHZ;IAQRGUVFOMOMEM;VQTUBCCKSQIDNK;VXNZUUAINFGPBY;XXROGKLTLUQVRX;IJDNQMDRQITEOD;NNPPMTNAJDCUHE;QTBSBXVTEAMEQO;TZIHFWKZFHZASV;BDERNNFJNOPAEC;KFZMGEQAYNKOFK;XOBKSJJDNFUZPF;LYCAIKOWRPUZTN;BKOOMYPCSUNDGP;QMMOXUPEWRXHJS;YWAKXRMUMFPDSH;ZSPTYLOMNJNZNG;OFBQJSOFQDEBGM;QWTDNUCVQCZILF;KXKVLQRXCPHEJC;WBJINCZRORDGAQ;BTANRVKWQNVYAZ;LRHPLDYGYMQRHN;VNKYTQGIUYNRMY;ZXEKIIBDNHEJCQ;XNWFRZJHXBZDAG;VIBDJEWPNNCFQO;BEQGRRJLJLVQAQ;LIKMAJRDDDTEIG;RYPKRALMXUUNKS;FSUXYWPILZJGCC;NEJDKFPXHQRVMV;AFABGHUZZDYHJO;PFEOZHBOMNWTJB;VLKZOEOYAKHREP;XEKOWRVHYACXOJ;AMQJEAYHLZJPGS;AQIXEPGDORPWBJ;FVNIMHIOIXPIQT;JYVLIDXNZAXMDK;MXLMTQWGSQIYOW;BMRWNKZVCUKKSR;YTTFFPATQICAQN;ZNQVEEAIQZEUHB;ZGEGCLOFRBLKSE;IMNFDUFMRHMDMM;VLJXXKKOSFGPHI;ZSIAUFGUXNUGDI;WCVRQHFDJLLWFE;XLMFDCKSFJWJTP;KWKAKUADMBZCLK;JVSWJIKNEAIKJW;TVMXDCGIABBOFY;CETWDUZRCINIHU;IICQZTQZQSBHBY
SubstructureOntologies: CHEMONTID:0002500;NonID:H2O;CHEMONTID:0004476;CHEMONTID:0001831;CHEMONTID:0000286;CHEMONTID:0002230;CHEMONTID:0001167;CHEMONTID:0004622;CHEMONTID:0004620;CHEMONTID:0001205;CHEMONTID:0001238;CHEMONTID:0001661;CHEMONTID:0002467;CHEMONTID:0003416;CHEMONTID:0002286;CHEMONTID:0001334
Ontology: Monocyclic monoterpenoids
OntologyID: CHEMONTID:0001563
RETENTIONTIME: -1
RETENTIONINDEX: -1
TotalBondEnergy: 28270
TotalScore: 5.7442
TotalHrRulesScore: 1
TotalBondCleavageScore: 0.5911
TotalMassAccuracyScore: 0.8232
TotalFragmentLinkageScore: 1
TotalBondDissociationEnergyScore: 0.827
DatabaseScore: 0.2238
SubstructureAssignmentScore: 0
RtSimilarityScore: -1
RiSimilarityScore: 0
Num Fragment VS2 (M/Z Intensity MatchedExactMass SaturatedExactMass Formula RearrangedHydrogen PPM MassDiff_mDa IsEvenElectronRule IsHrRule IsSolventAdductFragment AssignedAdductMass AdductString BondDissociationEnergy TreeDepth SMILES TotalScore HrLikelihood BcLikelihood MaLikelihood FlLikelihood BeLikelihood): 2
279.314391	120953.259347	279.268232265647	278.260955810547	C19H34O	1	165.26	46.16	True	True	False	0		1062	3	O1CC(=C)CCCC1(C)CCCC(C)CCC=C(C)C	3.48934972343801	1	0.1822499781847	0.653034210205078	1	0.654065535048233
425.295532	165939.661196	425.289777675803	424.282501220703	C24H40O6	1	13.53	5.75	True	True	False	0		0	0	O=C(OCC=C1COC(C)(CCCC(C)C(O)CC=C(C)C)C(OC(=O)C)CC1)C	4.99339944124222	1	1	0.993399441242218	1	1

NAME: UNPD19162
ID: TYSUYXNPZGYIGQ
IsSpectrumSearch: False
INCHIKEY: TYSUYXNPZGYIGQ-ISNVXWOANA-N
SMILES: O=C(O)CC(O)C(C)C2CCC3C4C(O)CC1CC(O)CCC1(C)C4(CC(O)C23(C))
RESOURCES: UNPD=UNPD19162
SubstructureInChIKeys: VNWKTOKETHGBQD;XLYOFNOQVPJJNP;WSFSSNUMVMOOMR;OTMSDBZUPAUEDD;OKKJLVBELUTLKV;IKHGUXGNUITLKF;ATUOYWHBWRKTHZ;BDAGIHXWWSANSR;LFQSCWFLJHTTHZ;NBBJYMSMWIIQGU;IJDNQMDRQITEOD;NNPPMTNAJDCUHE;QTBSBXVTEAMEQO;BDERNNFJNOPAEC;KFZMGEQAYNKOFK;RGSFGYAAUTVSQA;ZTQSAGDEMFDKMZ;OFBQJSOFQDEBGM;QWTDNUCVQCZILF;AKXKFZDCRYJKTF;XBDQKXXYIPTUBI;BTANRVKWQNVYAZ;LRHPLDYGYMQRHN;ZXEKIIBDNHEJCQ;YPFDHNVEDLHUCE;GDOPTJXRTPNYNR;XDTMQSROBMDMFD;HGBOYTHUEUWSSQ;AFABGHUZZDYHJO;HNRMPXKDFBEGFZ;PFEOZHBOMNWTJB;VLKZOEOYAKHREP;FERIUCNNQQJTOY;PIAOXUVIBAKVSP;AMQJEAYHLZJPGS;AQIXEPGDORPWBJ;JYVLIDXNZAXMDK;MXLMTQWGSQIYOW;PHTQWCKDNZKARW;ALRHLSYJTWAHJZ;JVTAAEKCZFNVCJ;PUPZLCDOIYMWBV;QWHNJUXXYKPLQM;UAEPNZWRGJTJPN;HPXRVTGHNJAIIH;JARKCYVAAOWBJS;BZHMBWZPUJHVEE;IMNFDUFMRHMDMM;VLJXXKKOSFGPHI;CNRGMQRNYAIBTN;ZSIAUFGUXNUGDI;SJZRECIVHVDYJC;KVZJLSYJROEPSQ;LETYIFNDQBJGPJ;QEGNUYASOUJEHD;SGVUHPSBDNVHKL;FXHGMKSSBGDXIY;MQWCXKGKQLNYQG;JVSWJIKNEAIKJW;TVMXDCGIABBOFY;CETWDUZRCINIHU;OVOVDHYEOQJKMD;PHOJOSOUIAQEDH;PYOLJOJPIPCRDP;XARGIVYWQPXRTC;NUJGJRNETVAIRJ;ZBAXJUPCYVIBSP;MHPUGCYGQWGLJL;GGWBGCSGJCRVIQ;HIVFIUIKABOGIO;YLZKVXHQMPWDBJ;SOUITUXPBGREAE;KGBMCONWCCBLAE;IRXJZDLOCNJAHE;OTBOAOSTJYUVHP;HZNDJPAXRXLIOU;RBTVCRWROCDIOQ;WJXVLZCOWIIKOS
SubstructureOntologies: CHEMONTID:0002500;NonID:H2O;CHEMONTID:0001831;CHEMONTID:0000286;CHEMONTID:0002230;CHEMONTID:0001205;CHEMONTID:0002434;CHEMONTID:0004620;CHEMONTID:0001661;CHEMONTID:0001016;CHEMONTID:0000333;CHEMONTID:0001713;CHEMONTID:0001359;CHEMONTID:0002647;CHEMONTID:0002229;CHEMONTID:0001334;CHEMONTID:0000341;CHEMONTID:0003086;CHEMONTID:0004149;CHEMONTID:0001401;CHEMONTID:0003569;CHEMONTID:0001468
Ontology: Tetrahydroxy bile acids, alcohols and derivatives
OntologyID: CHEMONTID:0001110
RETENTIONTIME: -1
RETENTIONINDEX: -1
TotalBondEnergy: 28561
TotalScore: 5.6859
TotalHrRulesScore: 1
TotalBondCleavageScore: 0.582
TotalMassAccuracyScore: 0.8232
TotalFragmentLinkageScore: 1
TotalBondDissociationEnergyScore: 0.7367
DatabaseScore: 0.2238
SubstructureAssignmentScore: 0
RtSimilarityScore: -1
RiSimilarityScore: 0
Num Fragment VS2 (M/Z Intensity MatchedExactMass SaturatedExactMass Formula RearrangedHydrogen PPM MassDiff_mDa IsEvenElectronRule IsHrRule IsSolventAdductFragment AssignedAdductMass AdductString BondDissociationEnergy TreeDepth SMILES TotalScore HrLikelihood BcLikelihood MaLikelihood FlLikelihood BeLikelihood): 2
279.314391	120953.259347	279.268232265647	278.260955810547	C19H34O	1	165.26	46.16	True	True	False	0		1396	3	OC1CC(CC2CCC(CC)C12(C))C3(C)(CCCCC3)	3.29035966525342	1	0.164024978876114	0.653034210205078	1	0.473300476172228
425.295532	165939.661196	425.289777675803	424.282501220703	C24H40O6	1	13.53	5.75	True	True	False	0		0	0	O=C(O)CC(O)C(C)C2CCC3C4C(O)CC1CC(O)CCC1(C)C4(CC(O)C23(C))	4.99339944124222	1	1	0.993399441242218	1	1

NAME: UNPD147973
ID: FBFXIJVFPQRQJE
IsSpectrumSearch: False
INCHIKEY: FBFXIJVFPQRQJE-QINVSXPYNA-N
SMILES: O=C(C1=C(O)C=C(O)C=C1(O))CCCCCCCCCCC(O)CC(O)CCCC
RESOURCES: UNPD=UNPD147973
SubstructureInChIKeys: VNWKTOKETHGBQD;XLYOFNOQVPJJNP;WSFSSNUMVMOOMR;OTMSDBZUPAUEDD;OKKJLVBELUTLKV;IKHGUXGNUITLKF;ATUOYWHBWRKTHZ;LFQSCWFLJHTTHZ;CSCPPACGZOOCGX;NBBJYMSMWIIQGU;IJDNQMDRQITEOD;BDERNNFJNOPAEC;KFZMGEQAYNKOFK;ZTQSAGDEMFDKMZ;OFBQJSOFQDEBGM;BTANRVKWQNVYAZ;LRHPLDYGYMQRHN;YPFDHNVEDLHUCE;UHOVQNZJYSORNB;HGBOYTHUEUWSSQ;VLKZOEOYAKHREP;AMQJEAYHLZJPGS;AQIXEPGDORPWBJ;JYVLIDXNZAXMDK;PUPZLCDOIYMWBV;YXFVVABEGXRONW;ISWSIDIOOBJBQZ;JARKCYVAAOWBJS;IMNFDUFMRHMDMM;ZSIAUFGUXNUGDI;HUMNYLRZRPPJDN;YNQLUTRBYVCPMQ;IWDCLRJOBJJRNH;GHMLBKRAJCXXBS;KWKAKUADMBZCLK;CATSNJVOTSVZJV;FXHGMKSSBGDXIY;TVMXDCGIABBOFY;CETWDUZRCINIHU;KWOLFJPFCHCOCG;ODLMAHJVESYWTB;SMQUZDBALVYZAC;HMNKTRSOROOSPP;HXDOZKJGKXYMEW;OIPPWFOQEKKFEE;ZBCATMYQYDCTIZ;QCDYQQDYXPDABM;NUJGJRNETVAIRJ;JECYUBVRTQDVAT;MPWGZBWDLMDIHO;IUNJCFABHJZSKB;HFLGBNBLMBSXEM;VGMJYYDKPUPTID;BPHYZRNTQNPLFI;GYHFUZHODSMOHU;MQSXUKPGWMJYBT;SULYEHHGGXARJS;BTQAJGSMXCDDAJ;KSMVZQYAVGTKIV;XLEYFDVVXLMULC;KMPQYAYAQWNLME;NGBPDDMTRGHYFM;NAMFFBYYOKLDOM;HRMIBYZWBMSUHC;PTFIPECGHSYQNR
SubstructureOntologies: CHEMONTID:0002500;NonID:H2O;CHEMONTID:0001831;CHEMONTID:0000286;CHEMONTID:0002230;CHEMONTID:0000118;CHEMONTID:0002434;CHEMONTID:0001661;CHEMONTID:0002279;CHEMONTID:0001091;CHEMONTID:0004647;CHEMONTID:0002229;CHEMONTID:0001334;CHEMONTID:0000321;CHEMONTID:0001275;CHEMONTID:0000137;CHEMONTID:0004476;CHEMONTID:0004298;CHEMONTID:0002811;CHEMONTID:0003978;CHEMONTID:0004646;CHEMONTID:0000135;CHEMONTID:0000382;CHEMONTID:0002519;CHEMONTID:0000298
Ontology: Long-chain fatty alcohols
OntologyID: CHEMONTID:0002951
RETENTIONTIME: -1
RETENTIONINDEX: -1
TotalBondEnergy: 28291
TotalScore: 5.1765
TotalHrRulesScore: 0.5
TotalBondCleavageScore: 0.5
TotalMassAccuracyScore: 0.4967
TotalFragmentLinkageScore: 0.5
TotalBondDissociationEnergyScore: 0.5
DatabaseScore: 0.2238
SubstructureAssignmentScore: 0
RtSimilarityScore: -1
RiSimilarityScore: 0
Num Fragment VS2 (M/Z Intensity MatchedExactMass SaturatedExactMass Formula RearrangedHydrogen PPM MassDiff_mDa IsEvenElectronRule IsHrRule IsSolventAdductFragment AssignedAdductMass AdductString BondDissociationEnergy TreeDepth SMILES TotalScore HrLikelihood BcLikelihood MaLikelihood FlLikelihood BeLikelihood): 1
425.295532	165939.661196	425.289777675803	424.282501220703	C24H40O6	1	13.53	5.75	True	True	False	0		0	0	O=C(C1=C(O)C=C(O)C=C1(O))CCCCCCCCCCC(O)CC(O)CCCC	4.99339944124222	1	1	0.993399441242218	1	1

NAME: UNPD75303
ID: JDESYVAHKZVDPZ
IsSpectrumSearch: False
INCHIKEY: JDESYVAHKZVDPZ-MPQZOSAVNA-N
SMILES: O=C(OC3(C)(CCC(O)C(O)(C)CC2OC3(C1C2(C(=C)C(O)CC1(C(C)C)))))CCC
RESOURCES: UNPD=UNPD75303
SubstructureInChIKeys: VNWKTOKETHGBQD;XLYOFNOQVPJJNP;VGGSQFUCUMXWEO;WSFSSNUMVMOOMR;OTMSDBZUPAUEDD;OKKJLVBELUTLKV;IKHGUXGNUITLKF;ATUOYWHBWRKTHZ;LCGLNKUTAGEVQW;LFQSCWFLJHTTHZ;VQTUBCCKSQIDNK;VXNZUUAINFGPBY;NBBJYMSMWIIQGU;XXROGKLTLUQVRX;IJDNQMDRQITEOD;NNPPMTNAJDCUHE;QTBSBXVTEAMEQO;TZIHFWKZFHZASV;BDERNNFJNOPAEC;KFZMGEQAYNKOFK;XOBKSJJDNFUZPF;LYCAIKOWRPUZTN;YWAKXRMUMFPDSH;MKUWVMRNQOOSAT;ZSPTYLOMNJNZNG;ZTQSAGDEMFDKMZ;OFBQJSOFQDEBGM;QWTDNUCVQCZILF;KXKVLQRXCPHEJC;WBJINCZRORDGAQ;XBDQKXXYIPTUBI;BTANRVKWQNVYAZ;LRHPLDYGYMQRHN;VNKYTQGIUYNRMY;ZXEKIIBDNHEJCQ;DNIAPMSPPWPWGF;XNWFRZJHXBZDAG;YPFDHNVEDLHUCE;VIBDJEWPNNCFQO;LDTAOIUHUHHCMU;LIKMAJRDDDTEIG;XDTMQSROBMDMFD;AFABGHUZZDYHJO;PFEOZHBOMNWTJB;VLKZOEOYAKHREP;FERIUCNNQQJTOY;XEKOWRVHYACXOJ;AMQJEAYHLZJPGS;AQIXEPGDORPWBJ;FVNIMHIOIXPIQT;JYVLIDXNZAXMDK;MXLMTQWGSQIYOW;PHTQWCKDNZKARW;BMRWNKZVCUKKSR;JDFDHBSESGTDAL;PUPZLCDOIYMWBV;YTTFFPATQICAQN;ZNQVEEAIQZEUHB;ADHCYQWFCLQBFG;UAEPNZWRGJTJPN;ZGEGCLOFRBLKSE;BVOSSZSHBZQJOI;HPXRVTGHNJAIIH;BZHMBWZPUJHVEE;IMNFDUFMRHMDMM;VLJXXKKOSFGPHI;ZSIAUFGUXNUGDI;WCVRQHFDJLLWFE;XLMFDCKSFJWJTP;ARXKVVRQIIOZGF;QJXCDRBHYIAFTH;KVZJLSYJROEPSQ;KWKAKUADMBZCLK;SGVUHPSBDNVHKL;YXLCVBVDFKWWRW;MQWCXKGKQLNYQG;PZKFYTOLVRCMOA;JVSWJIKNEAIKJW;TVMXDCGIABBOFY;CETWDUZRCINIHU;OVOVDHYEOQJKMD;XARGIVYWQPXRTC;VSMOENVRRABVKN;ZBAXJUPCYVIBSP;ZDAWZDFBPUUDAY;SOUITUXPBGREAE;NXCPHYJTOJDSLE;IRXJZDLOCNJAHE
SubstructureOntologies: CHEMONTID:0002500;NonID:H2O;CHEMONTID:0004476;CHEMONTID:0001831;CHEMONTID:0000286;CHEMONTID:0002230;CHEMONTID:0001167;CHEMONTID:0004622;CHEMONTID:0002434;CHEMONTID:0004620;CHEMONTID:0001205;CHEMONTID:0001238;CHEMONTID:0001661;CHEMONTID:0002467;CHEMONTID:0003416;CHEMONTID:0002286;CHEMONTID:0001016;CHEMONTID:0000333;CHEMONTID:0002647;CHEMONTID:0001334
Ontology: Eunicellane and asbestinane diterpenoids
OntologyID: CHEMONTID:0002916
RETENTIONTIME: -1
RETENTIONINDEX: -1
TotalBondEnergy: 28399
TotalScore: 5.1765
TotalHrRulesScore: 0.5
TotalBondCleavageScore: 0.5
TotalMassAccuracyScore: 0.4967
TotalFragmentLinkageScore: 0.5
TotalBondDissociationEnergyScore: 0.5
DatabaseScore: 0.2238
SubstructureAssignmentScore: 0
RtSimilarityScore: -1
RiSimilarityScore: 0
Num Fragment VS2 (M/Z Intensity MatchedExactMass SaturatedExactMass Formula RearrangedHydrogen PPM MassDiff_mDa IsEvenElectronRule IsHrRule IsSolventAdductFragment AssignedAdductMass AdductString BondDissociationEnergy TreeDepth SMILES TotalScore HrLikelihood BcLikelihood MaLikelihood FlLikelihood BeLikelihood): 1
425.295532	165939.661196	425.289777675803	424.282501220703	C24H40O6	1	13.53	5.75	True	True	False	0		0	0	O=C(OC3(C)(CCC(O)C(O)(C)CC2OC3(C1C2(C(=C)C(O)CC1(C(C)C)))))CCC	4.99339944124222	1	1	0.993399441242218	1	1

NAME: UNPD204035
ID: PQYFROFSCDOVOT
IsSpectrumSearch: False
INCHIKEY: PQYFROFSCDOVOT-GLIFNRCFNA-N
SMILES: O=C(OC3(C)(CCC(O)C(O)(C)C(O)C2OC3(C1C2(C(=C)CCC1(C(C)C)))))CCC
RESOURCES: UNPD=UNPD204035;UNPD53771
SubstructureInChIKeys: VNWKTOKETHGBQD;XLYOFNOQVPJJNP;VGGSQFUCUMXWEO;WSFSSNUMVMOOMR;OTMSDBZUPAUEDD;OKKJLVBELUTLKV;IKHGUXGNUITLKF;ATUOYWHBWRKTHZ;LCGLNKUTAGEVQW;LFQSCWFLJHTTHZ;VQTUBCCKSQIDNK;VXNZUUAINFGPBY;NBBJYMSMWIIQGU;IJDNQMDRQITEOD;NNPPMTNAJDCUHE;QTBSBXVTEAMEQO;TZIHFWKZFHZASV;BDERNNFJNOPAEC;KFZMGEQAYNKOFK;XOBKSJJDNFUZPF;LYCAIKOWRPUZTN;YWAKXRMUMFPDSH;ZSPTYLOMNJNZNG;ZTQSAGDEMFDKMZ;OFBQJSOFQDEBGM;QWTDNUCVQCZILF;KXKVLQRXCPHEJC;WBJINCZRORDGAQ;XBDQKXXYIPTUBI;BTANRVKWQNVYAZ;LRHPLDYGYMQRHN;VNKYTQGIUYNRMY;ZXEKIIBDNHEJCQ;DNIAPMSPPWPWGF;XNWFRZJHXBZDAG;YPFDHNVEDLHUCE;VIBDJEWPNNCFQO;LDTAOIUHUHHCMU;LIKMAJRDDDTEIG;XDTMQSROBMDMFD;AFABGHUZZDYHJO;PFEOZHBOMNWTJB;VLKZOEOYAKHREP;FERIUCNNQQJTOY;XEKOWRVHYACXOJ;AMQJEAYHLZJPGS;AQIXEPGDORPWBJ;FVNIMHIOIXPIQT;JYVLIDXNZAXMDK;MXLMTQWGSQIYOW;PHTQWCKDNZKARW;BMRWNKZVCUKKSR;JDFDHBSESGTDAL;PUPZLCDOIYMWBV;QWGRWMMWNDWRQN;YTTFFPATQICAQN;ZNQVEEAIQZEUHB;PEDCQBHIVMGVHV;ADHCYQWFCLQBFG;UAEPNZWRGJTJPN;ZGEGCLOFRBLKSE;BZHMBWZPUJHVEE;IMNFDUFMRHMDMM;VLJXXKKOSFGPHI;ZSIAUFGUXNUGDI;WCVRQHFDJLLWFE;XLMFDCKSFJWJTP;ARXKVVRQIIOZGF;MTHSVFCYNBDYFN;YAXKTBLXMTYWDQ;MQVRLONNONYDJP;QJXCDRBHYIAFTH;KVZJLSYJROEPSQ;KWKAKUADMBZCLK;SGVUHPSBDNVHKL;YXLCVBVDFKWWRW;JVSWJIKNEAIKJW;TVMXDCGIABBOFY;CETWDUZRCINIHU;OVOVDHYEOQJKMD;AALKGALVYCZETF;GZXFYIDYTCWDDN;LOSWWGJGSSQDKH;UNXHWFMMPAWVPI;XARGIVYWQPXRTC;FJGNTEKSQVNVTJ;ZDAWZDFBPUUDAY;JJMZVBNCCUWEDF;NXCPHYJTOJDSLE;IRXJZDLOCNJAHE
SubstructureOntologies: CHEMONTID:0002500;NonID:H2O;CHEMONTID:0004476;CHEMONTID:0001831;CHEMONTID:0000286;CHEMONTID:0002230;CHEMONTID:0001167;CHEMONTID:0004622;CHEMONTID:0002434;CHEMONTID:0004620;CHEMONTID:0001205;CHEMONTID:0001238;CHEMONTID:0001661;CHEMONTID:0002467;CHEMONTID:0003416;CHEMONTID:0002286;CHEMONTID:0001016;CHEMONTID:0000333;CHEMONTID:0002210;CHEMONTID:0001334;CHEMONTID:0003263
Ontology: Eunicellane and asbestinane diterpenoids
OntologyID: CHEMONTID:0002916
RETENTIONTIME: -1
RETENTIONINDEX: -1
TotalBondEnergy: 28399
TotalScore: 5.1765
TotalHrRulesScore: 0.5
TotalBondCleavageScore: 0.5
TotalMassAccuracyScore: 0.4967
TotalFragmentLinkageScore: 0.5
TotalBondDissociationEnergyScore: 0.5
DatabaseScore: 0.2238
SubstructureAssignmentScore: 0
RtSimilarityScore: -1
RiSimilarityScore: 0
Num Fragment VS2 (M/Z Intensity MatchedExactMass SaturatedExactMass Formula RearrangedHydrogen PPM MassDiff_mDa IsEvenElectronRule IsHrRule IsSolventAdductFragment AssignedAdductMass AdductString BondDissociationEnergy TreeDepth SMILES TotalScore HrLikelihood BcLikelihood MaLikelihood FlLikelihood BeLikelihood): 1
425.295532	165939.661196	425.289777675803	424.282501220703	C24H40O6	1	13.53	5.75	True	True	False	0		0	0	O=C(OC3(C)(CCC(O)C(O)(C)C(O)C2OC3(C1C2(C(=C)CCC1(C(C)C)))))CCC	4.99339944124222	1	1	0.993399441242218	1	1

NAME: UNPD105213
ID: YCGYYZXBHVNOIX
IsSpectrumSearch: False
INCHIKEY: YCGYYZXBHVNOIX-ZAMQTKKONA-N
SMILES: O=C(OC3CC(C)C1(OC2(CC1)(CC(OC)OC2(OC)))C4(C)(CCCC(C)(C)C34))C
RESOURCES: UNPD=UNPD105213;UNPD155244;UNPD192904;UNPD48185;UNPD53772
SubstructureInChIKeys: VNWKTOKETHGBQD;WSFSSNUMVMOOMR;OTMSDBZUPAUEDD;IKHGUXGNUITLKF;ATUOYWHBWRKTHZ;LCGLNKUTAGEVQW;CKFGINPQOCXMAZ;IJDNQMDRQITEOD;NNPPMTNAJDCUHE;QTBSBXVTEAMEQO;TZIHFWKZFHZASV;BDERNNFJNOPAEC;XOBKSJJDNFUZPF;LYCAIKOWRPUZTN;OFBQJSOFQDEBGM;QWTDNUCVQCZILF;KXKVLQRXCPHEJC;WBJINCZRORDGAQ;LRHPLDYGYMQRHN;VNKYTQGIUYNRMY;ZXEKIIBDNHEJCQ;RRLWYLINGKISHN;XNWFRZJHXBZDAG;YPFDHNVEDLHUCE;VIBDJEWPNNCFQO;XDTMQSROBMDMFD;AFABGHUZZDYHJO;HNRMPXKDFBEGFZ;PFEOZHBOMNWTJB;VLKZOEOYAKHREP;XEKOWRVHYACXOJ;AMQJEAYHLZJPGS;AQIXEPGDORPWBJ;FVNIMHIOIXPIQT;JYVLIDXNZAXMDK;MXLMTQWGSQIYOW;PHTQWCKDNZKARW;BMRWNKZVCUKKSR;CHCLGECDSSWNCP;JDFDHBSESGTDAL;PUPZLCDOIYMWBV;YTTFFPATQICAQN;ZNQVEEAIQZEUHB;UAEPNZWRGJTJPN;HPXRVTGHNJAIIH;BZHMBWZPUJHVEE;IMNFDUFMRHMDMM;VLJXXKKOSFGPHI;KSTOUTVBGBEWOS;ZSIAUFGUXNUGDI;QONBKISCDWCHKF;WCVRQHFDJLLWFE;ARXKVVRQIIOZGF;KVZJLSYJROEPSQ;QEGNUYASOUJEHD;SGVUHPSBDNVHKL;MQWCXKGKQLNYQG;JVSWJIKNEAIKJW;TVMXDCGIABBOFY;CETWDUZRCINIHU;OVOVDHYEOQJKMD;VVDIZWFSGJERMA;XIRBXKMCQNAYAT;PYOLJOJPIPCRDP;XARGIVYWQPXRTC;ZBAXJUPCYVIBSP;MKMRBXQLEMYZOY;ZDAWZDFBPUUDAY;BUOAKQCLRBVIOX;HIVFIUIKABOGIO;YLZKVXHQMPWDBJ;SOUITUXPBGREAE;VTXRDCQMLXABHJ;IRXJZDLOCNJAHE;XBENKLBOLWZLNQ;OTBOAOSTJYUVHP;HZNDJPAXRXLIOU
SubstructureOntologies: CHEMONTID:0002500;CHEMONTID:0001831;CHEMONTID:0002230;CHEMONTID:0001167;CHEMONTID:0001605;CHEMONTID:0004620;CHEMONTID:0001205;CHEMONTID:0001238;CHEMONTID:0000286;CHEMONTID:0002467;CHEMONTID:0003416;CHEMONTID:0001092;CHEMONTID:0002286;CHEMONTID:0001016;CHEMONTID:0001661;CHEMONTID:0001656;CHEMONTID:0002647;CHEMONTID:0002648;CHEMONTID:0001334;CHEMONTID:0001967;CHEMONTID:0001497;CHEMONTID:0004149;CHEMONTID:0001401
Ontology: Diterpenoids
OntologyID: CHEMONTID:0001551
RETENTIONTIME: -1
RETENTIONINDEX: -1
TotalBondEnergy: 28381
TotalScore: 5.1765
TotalHrRulesScore: 0.5
TotalBondCleavageScore: 0.5
TotalMassAccuracyScore: 0.4967
TotalFragmentLinkageScore: 0.5
TotalBondDissociationEnergyScore: 0.5
DatabaseScore: 0.2238
SubstructureAssignmentScore: 0
RtSimilarityScore: -1
RiSimilarityScore: 0
Num Fragment VS2 (M/Z Intensity MatchedExactMass SaturatedExactMass Formula RearrangedHydrogen PPM MassDiff_mDa IsEvenElectronRule IsHrRule IsSolventAdductFragment AssignedAdductMass AdductString BondDissociationEnergy TreeDepth SMILES TotalScore HrLikelihood BcLikelihood MaLikelihood FlLikelihood BeLikelihood): 1
425.295532	165939.661196	425.289777675803	424.282501220703	C24H40O6	1	13.53	5.75	True	True	False	0		0	0	O=C(OC3CC(C)C1(OC2(CC1)(CC(OC)OC2(OC)))C4(C)(CCCC(C)(C)C34))C	4.99339944124222	1	1	0.993399441242218	1	1

NAME: UNPD133759
ID: YMPUYXOKIAXWFK
IsSpectrumSearch: False
INCHIKEY: YMPUYXOKIAXWFK-DAAXQLBGNA-N
SMILES: O=C(OC3(C)(CCC(O)C(O)(C)CC2OC3(C1C2(C(=C)CC(O)C1(C(C)C)))))CCC
RESOURCES: UNPD=UNPD133759
SubstructureInChIKeys: VNWKTOKETHGBQD;XLYOFNOQVPJJNP;VGGSQFUCUMXWEO;WSFSSNUMVMOOMR;OTMSDBZUPAUEDD;OKKJLVBELUTLKV;IKHGUXGNUITLKF;ATUOYWHBWRKTHZ;LCGLNKUTAGEVQW;LFQSCWFLJHTTHZ;VQTUBCCKSQIDNK;VXNZUUAINFGPBY;NBBJYMSMWIIQGU;IJDNQMDRQITEOD;NNPPMTNAJDCUHE;QTBSBXVTEAMEQO;TZIHFWKZFHZASV;BDERNNFJNOPAEC;KFZMGEQAYNKOFK;XOBKSJJDNFUZPF;LYCAIKOWRPUZTN;YWAKXRMUMFPDSH;ZSPTYLOMNJNZNG;ZTQSAGDEMFDKMZ;OFBQJSOFQDEBGM;QWTDNUCVQCZILF;KXKVLQRXCPHEJC;WBJINCZRORDGAQ;XBDQKXXYIPTUBI;BTANRVKWQNVYAZ;LRHPLDYGYMQRHN;VNKYTQGIUYNRMY;ZXEKIIBDNHEJCQ;DNIAPMSPPWPWGF;XNWFRZJHXBZDAG;YPFDHNVEDLHUCE;VIBDJEWPNNCFQO;LDTAOIUHUHHCMU;LIKMAJRDDDTEIG;XDTMQSROBMDMFD;AFABGHUZZDYHJO;PFEOZHBOMNWTJB;VLKZOEOYAKHREP;FERIUCNNQQJTOY;XEKOWRVHYACXOJ;AMQJEAYHLZJPGS;AQIXEPGDORPWBJ;FVNIMHIOIXPIQT;JYVLIDXNZAXMDK;MXLMTQWGSQIYOW;PHTQWCKDNZKARW;BMRWNKZVCUKKSR;JDFDHBSESGTDAL;PUPZLCDOIYMWBV;YTTFFPATQICAQN;ZNQVEEAIQZEUHB;ADHCYQWFCLQBFG;UAEPNZWRGJTJPN;ZGEGCLOFRBLKSE;HPXRVTGHNJAIIH;BZHMBWZPUJHVEE;IMNFDUFMRHMDMM;VLJXXKKOSFGPHI;ZSIAUFGUXNUGDI;WCVRQHFDJLLWFE;XLMFDCKSFJWJTP;ARXKVVRQIIOZGF;QJXCDRBHYIAFTH;KVZJLSYJROEPSQ;KWKAKUADMBZCLK;SGVUHPSBDNVHKL;YXLCVBVDFKWWRW;MQWCXKGKQLNYQG;JVSWJIKNEAIKJW;TVMXDCGIABBOFY;CETWDUZRCINIHU;OVOVDHYEOQJKMD;XARGIVYWQPXRTC;ZBAXJUPCYVIBSP;ZDAWZDFBPUUDAY;SOUITUXPBGREAE;NXCPHYJTOJDSLE;IRXJZDLOCNJAHE
SubstructureOntologies: CHEMONTID:0002500;NonID:H2O;CHEMONTID:0004476;CHEMONTID:0001831;CHEMONTID:0000286;CHEMONTID:0002230;CHEMONTID:0001167;CHEMONTID:0004622;CHEMONTID:0002434;CHEMONTID:0004620;CHEMONTID:0001205;CHEMONTID:0001238;CHEMONTID:0001661;CHEMONTID:0002467;CHEMONTID:0003416;CHEMONTID:0002286;CHEMONTID:0001016;CHEMONTID:0000333;CHEMONTID:0002647;CHEMONTID:0001334
Ontology: Eunicellane and asbestinane diterpenoids
OntologyID: CHEMONTID:0002916
RETENTIONTIME: -1
RETENTIONINDEX: -1
TotalBondEnergy: 28399
TotalScore: 5.1765
TotalHrRulesScore: 0.5
TotalBondCleavageScore: 0.5
TotalMassAccuracyScore: 0.4967
TotalFragmentLinkageScore: 0.5
TotalBondDissociationEnergyScore: 0.5
DatabaseScore: 0.2238
SubstructureAssignmentScore: 0
RtSimilarityScore: -1
RiSimilarityScore: 0
Num Fragment VS2 (M/Z Intensity MatchedExactMass SaturatedExactMass Formula RearrangedHydrogen PPM MassDiff_mDa IsEvenElectronRule IsHrRule IsSolventAdductFragment AssignedAdductMass AdductString BondDissociationEnergy TreeDepth SMILES TotalScore HrLikelihood BcLikelihood MaLikelihood FlLikelihood BeLikelihood): 1
425.295532	165939.661196	425.289777675803	424.282501220703	C24H40O6	1	13.53	5.75	True	True	False	0		0	0	O=C(OC3(C)(CCC(O)C(O)(C)CC2OC3(C1C2(C(=C)CC(O)C1(C(C)C)))))CCC	4.99339944124222	1	1	0.993399441242218	1	1

