NAME: Norselic acid C;(+)-Norselic acid C
ID: JHPMFVKZPIBTMK
IsSpectrumSearch: False
INCHIKEY: JHPMFVKZPIBTMK-NFDLGSPRNA-N
SMILES: O=C1C=CC4(C(=C1)CCC2C4(CCC3(C(=O)O)(C(CCC23)C(C)CCC(=C)C(C)C)))(C)
RESOURCES: KNApSAcK=C00048025,LipidMAPS=LMST01031090,UNPD=UNPD68266
SubstructureInChIKeys: VNWKTOKETHGBQD;XLYOFNOQVPJJNP;VGGSQFUCUMXWEO;WSFSSNUMVMOOMR;OTMSDBZUPAUEDD;IKHGUXGNUITLKF;ATUOYWHBWRKTHZ;BDAGIHXWWSANSR;LFQSCWFLJHTTHZ;HGINCPLSRVDWNT;IAQRGUVFOMOMEM;VQTUBCCKSQIDNK;VXNZUUAINFGPBY;CSCPPACGZOOCGX;NBBJYMSMWIIQGU;IJDNQMDRQITEOD;NNPPMTNAJDCUHE;QTBSBXVTEAMEQO;BDERNNFJNOPAEC;MLUCVPSAIODCQM;BKOOMYPCSUNDGP;QMMOXUPEWRXHJS;RGSFGYAAUTVSQA;YWAKXRMUMFPDSH;ZTQSAGDEMFDKMZ;OFBQJSOFQDEBGM;QWTDNUCVQCZILF;XBDQKXXYIPTUBI;LRHPLDYGYMQRHN;ZXEKIIBDNHEJCQ;PRBHEGAFLDMLAL;BEQGRRJLJLVQAQ;GDOPTJXRTPNYNR;LDTAOIUHUHHCMU;LIKMAJRDDDTEIG;RYPKRALMXUUNKS;XDTMQSROBMDMFD;ZQDPJFUHLCOCRG;HGBOYTHUEUWSSQ;AFABGHUZZDYHJO;HNRMPXKDFBEGFZ;PFEOZHBOMNWTJB;VLKZOEOYAKHREP;FERIUCNNQQJTOY;KQNPFQTWMSNSAP;AMQJEAYHLZJPGS;PHTQWCKDNZKARW;FMAMSYPJXSEYSW;ADHCYQWFCLQBFG;QWHNJUXXYKPLQM;UAEPNZWRGJTJPN;WZHKDGJSXCTSCK;ZGEGCLOFRBLKSE;JARKCYVAAOWBJS;BZHMBWZPUJHVEE;IMNFDUFMRHMDMM;VLJXXKKOSFGPHI;WLAMNBDJUVNPJU;ZSIAUFGUXNUGDI;GDDAJHJRAKOILH;QJXCDRBHYIAFTH;KVZJLSYJROEPSQ;KWKAKUADMBZCLK;LETYIFNDQBJGPJ;QEGNUYASOUJEHD;SGVUHPSBDNVHKL;YXLCVBVDFKWWRW;FXHGMKSSBGDXIY;JVSWJIKNEAIKJW;TVMXDCGIABBOFY;OVOVDHYEOQJKMD;ILIUIABCBOXIRX;NMFOAHIHPAPYJJ;NUHCEMOQRZEGAQ;IICQZTQZQSBHBY;KPADFPAILITQBG;PYOLJOJPIPCRDP;XARGIVYWQPXRTC;NUJGJRNETVAIRJ;VWLITJGXNSANSN;MHPUGCYGQWGLJL;NZQMQVJXSRMTCJ;CTIZSKHLELUAOT;GGWBGCSGJCRVIQ;NYFHUVYMLLAQHH;BUOAKQCLRBVIOX;HIVFIUIKABOGIO;YLZKVXHQMPWDBJ;KGBMCONWCCBLAE;VTXRDCQMLXABHJ;NXCPHYJTOJDSLE;IRXJZDLOCNJAHE;UNWNSYMIUBZKCZ;XBENKLBOLWZLNQ;OTBOAOSTJYUVHP;HZNDJPAXRXLIOU
SubstructureOntologies: CHEMONTID:0002500;NonID:H2O;CHEMONTID:0004476;CHEMONTID:0001831;CHEMONTID:0002230;CHEMONTID:0001205;CHEMONTID:0000286;CHEMONTID:0002436;CHEMONTID:0004622;CHEMONTID:0000118;CHEMONTID:0002434;CHEMONTID:0004620;CHEMONTID:0001016;CHEMONTID:0001019;CHEMONTID:0000333;CHEMONTID:0002229;CHEMONTID:0003544;CHEMONTID:0001334;CHEMONTID:0003086;CHEMONTID:0003487;CHEMONTID:0004149;CHEMONTID:0001401
Ontology: Ergosterols and derivatives
OntologyID: CHEMONTID:0001403
RETENTIONTIME: -1
RETENTIONINDEX: -1
TotalBondEnergy: 29838
TotalScore: 6.2477
TotalHrRulesScore: 1
TotalBondCleavageScore: 0.5114
TotalMassAccuracyScore: 0.8176
TotalFragmentLinkageScore: 1
TotalBondDissociationEnergyScore: 0.7989
DatabaseScore: 0.5714
SubstructureAssignmentScore: 0
RtSimilarityScore: -1
RiSimilarityScore: 0
Num Fragment VS2 (M/Z Intensity MatchedExactMass SaturatedExactMass Formula RearrangedHydrogen PPM MassDiff_mDa IsEvenElectronRule IsHrRule IsSolventAdductFragment AssignedAdductMass AdductString BondDissociationEnergy TreeDepth SMILES TotalScore HrLikelihood BcLikelihood MaLikelihood FlLikelihood BeLikelihood): 2
279.314391	120953.259347	279.268232265647	278.260955810547	C19H34O	1	165.26	46.16	True	True	False	0		1441	2	OCC12(CCCCC2(CCC1(C(C)CCC(=C)C(C)C)))	3.27353637427799	1	0.0227812472730875	0.653034210205078	1	0.59772091679982
425.295532	165939.661196	425.305036464866	424.297760009766	C28H40O3	1	22.35	9.5	True	True	False	0		0	0	O=C1C=CC4(C(=C1)CCC2C4(CCC3(C(=O)O)(C(CCC23)C(C)CCC(=C)C(C)C)))(C)	4.98209524154663	1	1	0.982095241546631	1	1

NAME: 9alpha,11alpha-dihydroxyergosta-4,6,8(14),22-tetraen-3-one
ID: GBAGTCNHJJTJIL
IsSpectrumSearch: False
INCHIKEY: GBAGTCNHJJTJIL-ODDNYOBTNA-N
SMILES: O=C4C=C3C=CC2=C1CCC(C(C=CC(C)C(C)C)C)C1(C)CC(O)C2(O)C3(C)CC4
RESOURCES: ChEBI=CHEBI:68054,UNPD=UNPD201467
SubstructureInChIKeys: VNWKTOKETHGBQD;XLYOFNOQVPJJNP;VGGSQFUCUMXWEO;WSFSSNUMVMOOMR;OTMSDBZUPAUEDD;OKKJLVBELUTLKV;IKHGUXGNUITLKF;ATUOYWHBWRKTHZ;LFQSCWFLJHTTHZ;HGINCPLSRVDWNT;IAQRGUVFOMOMEM;VQTUBCCKSQIDNK;VXNZUUAINFGPBY;CSCPPACGZOOCGX;NBBJYMSMWIIQGU;XXROGKLTLUQVRX;IJDNQMDRQITEOD;NNPPMTNAJDCUHE;BDERNNFJNOPAEC;KFZMGEQAYNKOFK;LYCAIKOWRPUZTN;MLUCVPSAIODCQM;BKOOMYPCSUNDGP;QMMOXUPEWRXHJS;RGSFGYAAUTVSQA;YWAKXRMUMFPDSH;MKUWVMRNQOOSAT;ZSPTYLOMNJNZNG;ZTQSAGDEMFDKMZ;OFBQJSOFQDEBGM;QWTDNUCVQCZILF;BTANRVKWQNVYAZ;LRHPLDYGYMQRHN;ZXEKIIBDNHEJCQ;DNIAPMSPPWPWGF;VIBDJEWPNNCFQO;BEQGRRJLJLVQAQ;GDOPTJXRTPNYNR;LDTAOIUHUHHCMU;LIKMAJRDDDTEIG;RYPKRALMXUUNKS;ZQDPJFUHLCOCRG;FSUXYWPILZJGCC;GJYMQFMQRRNLCY;HGBOYTHUEUWSSQ;NEJDKFPXHQRVMV;AFABGHUZZDYHJO;HNRMPXKDFBEGFZ;PFEOZHBOMNWTJB;VLKZOEOYAKHREP;AMQJEAYHLZJPGS;AQIXEPGDORPWBJ;JYVLIDXNZAXMDK;MXLMTQWGSQIYOW;PHTQWCKDNZKARW;BMRWNKZVCUKKSR;FWFSEYBSWVRWGL;USLRUYZDOLMIRJ;ADHCYQWFCLQBFG;QWHNJUXXYKPLQM;WZHKDGJSXCTSCK;ZGEGCLOFRBLKSE;BVOSSZSHBZQJOI;JARKCYVAAOWBJS;UFLHIIWVXFIJGU;BZHMBWZPUJHVEE;IMNFDUFMRHMDMM;VLJXXKKOSFGPHI;ZSIAUFGUXNUGDI;WCVRQHFDJLLWFE;XLMFDCKSFJWJTP;RKSNPTXBQXBXDJ;KWKAKUADMBZCLK;LETYIFNDQBJGPJ;YXLCVBVDFKWWRW;CATSNJVOTSVZJV;FXHGMKSSBGDXIY;PZKFYTOLVRCMOA;JVSWJIKNEAIKJW;TVMXDCGIABBOFY;CETWDUZRCINIHU;NDFYWJZFESRLBQ;IICQZTQZQSBHBY;KPADFPAILITQBG;LZHHQGKEJNRBAZ;NUJGJRNETVAIRJ;OHEFFKYYKJVVOX;VSMOENVRRABVKN;KABCBIJVOXYNHG;BQOAKIRTXKZTKD;ZIWXVGHUDKNNSH
SubstructureOntologies: CHEMONTID:0002500;NonID:H2O;CHEMONTID:0004476;CHEMONTID:0001831;CHEMONTID:0000286;CHEMONTID:0002230;CHEMONTID:0002436;CHEMONTID:0004622;CHEMONTID:0000118;CHEMONTID:0002434;CHEMONTID:0004620;CHEMONTID:0001661;CHEMONTID:0002467;CHEMONTID:0001016;CHEMONTID:0002286;CHEMONTID:0004325;CHEMONTID:0002229;CHEMONTID:0001334
Ontology: Ergosterols and derivatives
OntologyID: CHEMONTID:0001403
RETENTIONTIME: -1
RETENTIONINDEX: -1
TotalBondEnergy: 29751
TotalScore: 6.1707
TotalHrRulesScore: 1
TotalBondCleavageScore: 0.541
TotalMassAccuracyScore: 0.8176
TotalFragmentLinkageScore: 1
TotalBondDissociationEnergyScore: 0.761
DatabaseScore: 0.5476
SubstructureAssignmentScore: 0
RtSimilarityScore: -1
RiSimilarityScore: 0
Num Fragment VS2 (M/Z Intensity MatchedExactMass SaturatedExactMass Formula RearrangedHydrogen PPM MassDiff_mDa IsEvenElectronRule IsHrRule IsSolventAdductFragment AssignedAdductMass AdductString BondDissociationEnergy TreeDepth SMILES TotalScore HrLikelihood BcLikelihood MaLikelihood FlLikelihood BeLikelihood): 2
279.314391	120953.259347	279.268232265647	278.260955810547	C19H34O	1	165.26	46.16	True	True	False	0		1640	2	OCC(=C1CCC(C(C=CC(C)C(C)C)C)C1(C)C)C	3.25697065389272	1	0.0820124894380569	0.653034210205078	1	0.521923954249583
425.295532	165939.661196	425.305036464866	424.297760009766	C28H40O3	1	22.35	9.5	True	True	False	0		0	0	O=C4C=C3C=CC2=C1CCC(C(C=CC(C)C(C)C)C)C1(C)CC(O)C2(O)C3(C)CC4	4.98209524154663	1	1	0.982095241546631	1	1

NAME: Dankasterone A;(+)-Dankasterone A
ID: MHVQURVXZWOWCF
IsSpectrumSearch: False
INCHIKEY: MHVQURVXZWOWCF-ZALYXLLZNA-N
SMILES: O=C2C=C1C(=O)CC34(C(=O)CCC(C(C=CC(C)C(C)C)C)C4(C)(CCC3(C1(C)CC2)))
RESOURCES: KNApSAcK=C00038923,UNPD=UNPD149588
SubstructureInChIKeys: VNWKTOKETHGBQD;VGGSQFUCUMXWEO;WSFSSNUMVMOOMR;OTMSDBZUPAUEDD;IKHGUXGNUITLKF;ATUOYWHBWRKTHZ;HGINCPLSRVDWNT;IAQRGUVFOMOMEM;VQTUBCCKSQIDNK;VXNZUUAINFGPBY;CSCPPACGZOOCGX;NBBJYMSMWIIQGU;IJDNQMDRQITEOD;NNPPMTNAJDCUHE;MLUCVPSAIODCQM;BKOOMYPCSUNDGP;QMMOXUPEWRXHJS;RGSFGYAAUTVSQA;YWAKXRMUMFPDSH;ZTQSAGDEMFDKMZ;OFBQJSOFQDEBGM;QWTDNUCVQCZILF;BEQGRRJLJLVQAQ;GDOPTJXRTPNYNR;LDTAOIUHUHHCMU;LIKMAJRDDDTEIG;RYPKRALMXUUNKS;XDTMQSROBMDMFD;ZQDPJFUHLCOCRG;HGBOYTHUEUWSSQ;AFABGHUZZDYHJO;HNRMPXKDFBEGFZ;PFEOZHBOMNWTJB;VLKZOEOYAKHREP;FWFSEYBSWVRWGL;USLRUYZDOLMIRJ;ADHCYQWFCLQBFG;QWHNJUXXYKPLQM;UAEPNZWRGJTJPN;WZHKDGJSXCTSCK;ZGEGCLOFRBLKSE;JARKCYVAAOWBJS;BZHMBWZPUJHVEE;IMNFDUFMRHMDMM;VLJXXKKOSFGPHI;QJXCDRBHYIAFTH;UDOAKURRCZMWOJ;KVZJLSYJROEPSQ;KWKAKUADMBZCLK;LETYIFNDQBJGPJ;QEGNUYASOUJEHD;SGVUHPSBDNVHKL;YXLCVBVDFKWWRW;CATSNJVOTSVZJV;FXHGMKSSBGDXIY;JVSWJIKNEAIKJW;TVMXDCGIABBOFY;NDFYWJZFESRLBQ;ILIUIABCBOXIRX;NUHCEMOQRZEGAQ;ZUSUVEKHEZURSD;IICQZTQZQSBHBY;KPADFPAILITQBG;PYOLJOJPIPCRDP;XARGIVYWQPXRTC;LEBVLOLOVGHEFE;NUJGJRNETVAIRJ;VWLITJGXNSANSN;KABCBIJVOXYNHG;GGWBGCSGJCRVIQ;NYFHUVYMLLAQHH;BUOAKQCLRBVIOX;HIVFIUIKABOGIO;YLZKVXHQMPWDBJ;FOCKPZOFYCTNIA;GCLZXEJWFDSXJZ;KGBMCONWCCBLAE;VTXRDCQMLXABHJ;OHERZLWVBJCXOF;NXCPHYJTOJDSLE;IRXJZDLOCNJAHE;QPEHZWXCQFKJQO;UNWNSYMIUBZKCZ;OTBOAOSTJYUVHP;GZURMVKYRIAPGE
SubstructureOntologies: CHEMONTID:0002500;CHEMONTID:0004476;CHEMONTID:0001831;CHEMONTID:0002230;CHEMONTID:0002436;CHEMONTID:0004622;CHEMONTID:0000118;CHEMONTID:0002434;CHEMONTID:0004620;CHEMONTID:0001016;CHEMONTID:0004325;CHEMONTID:0002229;CHEMONTID:0004149;CHEMONTID:0001401;CHEMONTID:0001292
Ontology: Sesquiterpenoids
OntologyID: CHEMONTID:0001550
RETENTIONTIME: -1
RETENTIONINDEX: -1
TotalBondEnergy: 29925
TotalScore: 6.1503
TotalHrRulesScore: 1
TotalBondCleavageScore: 0.582
TotalMassAccuracyScore: 0.8176
TotalFragmentLinkageScore: 1
TotalBondDissociationEnergyScore: 0.7147
DatabaseScore: 0.5476
SubstructureAssignmentScore: 0
RtSimilarityScore: -1
RiSimilarityScore: 0
Num Fragment VS2 (M/Z Intensity MatchedExactMass SaturatedExactMass Formula RearrangedHydrogen PPM MassDiff_mDa IsEvenElectronRule IsHrRule IsSolventAdductFragment AssignedAdductMass AdductString BondDissociationEnergy TreeDepth SMILES TotalScore HrLikelihood BcLikelihood MaLikelihood FlLikelihood BeLikelihood): 2
279.314391	120953.259347	279.268232265647	278.260955810547	C19H34O	1	165.26	46.16	True	True	False	0		1384	2	O=CC1(C)(CCCC1(C)(C(C)C(C=CC(C)C(C)C)C))	3.24652762208182	1	0.164024978876114	0.653034210205078	1	0.429468433000633
425.295532	165939.661196	425.305036464866	424.297760009766	C28H40O3	1	22.35	9.5	True	True	False	0		0	0	O=C2C=C1C(=O)CC34(C(=O)CCC(C(C=CC(C)C(C)C)C)C4(C)(CCC3(C1(C)CC2)))	4.98209524154663	1	1	0.982095241546631	1	1

NAME: Minabeolide-3
ID: NGVZICUXTBJFIV
IsSpectrumSearch: False
INCHIKEY: NGVZICUXTBJFIV-WHHXXWSQNA-N
SMILES: O=C1OC(CC(=C1C)C)C(C)C3CCC4C5CCC2=CC(=O)CCC2(C)C5(CCC34(C))
RESOURCES: LipidMAPS=LMST01160004,UNPD=UNPD124717;UNPD99976
SubstructureInChIKeys: VNWKTOKETHGBQD;VGGSQFUCUMXWEO;WSFSSNUMVMOOMR;OTMSDBZUPAUEDD;QQONPFPTGQHPMA;IKHGUXGNUITLKF;ATUOYWHBWRKTHZ;LCGLNKUTAGEVQW;HGINCPLSRVDWNT;IAQRGUVFOMOMEM;VQTUBCCKSQIDNK;VXNZUUAINFGPBY;CSCPPACGZOOCGX;NBBJYMSMWIIQGU;XXROGKLTLUQVRX;IJDNQMDRQITEOD;NNPPMTNAJDCUHE;QTBSBXVTEAMEQO;TZIHFWKZFHZASV;BDERNNFJNOPAEC;XOBKSJJDNFUZPF;MLUCVPSAIODCQM;BKOOMYPCSUNDGP;QMMOXUPEWRXHJS;RGSFGYAAUTVSQA;YWAKXRMUMFPDSH;NIXOWILDQLNWCW;ZSPTYLOMNJNZNG;ZTQSAGDEMFDKMZ;OFBQJSOFQDEBGM;QWTDNUCVQCZILF;KXKVLQRXCPHEJC;WBJINCZRORDGAQ;XBDQKXXYIPTUBI;LRHPLDYGYMQRHN;VNKYTQGIUYNRMY;ZXEKIIBDNHEJCQ;BEQGRRJLJLVQAQ;GDOPTJXRTPNYNR;LDTAOIUHUHHCMU;LIKMAJRDDDTEIG;RYPKRALMXUUNKS;XDTMQSROBMDMFD;ZQDPJFUHLCOCRG;BAPJBEWLBFYGME;CERQOIWHTDAKMF;FSUXYWPILZJGCC;HGBOYTHUEUWSSQ;NEJDKFPXHQRVMV;AFABGHUZZDYHJO;HNRMPXKDFBEGFZ;PFEOZHBOMNWTJB;VLKZOEOYAKHREP;XEKOWRVHYACXOJ;AMQJEAYHLZJPGS;AQIXEPGDORPWBJ;FVNIMHIOIXPIQT;JYVLIDXNZAXMDK;MXLMTQWGSQIYOW;PHTQWCKDNZKARW;FWFSEYBSWVRWGL;USLRUYZDOLMIRJ;ADHCYQWFCLQBFG;QWHNJUXXYKPLQM;UAEPNZWRGJTJPN;WZHKDGJSXCTSCK;ZGEGCLOFRBLKSE;JARKCYVAAOWBJS;BZHMBWZPUJHVEE;IMNFDUFMRHMDMM;VLJXXKKOSFGPHI;ZSIAUFGUXNUGDI;QJXCDRBHYIAFTH;KVZJLSYJROEPSQ;KWKAKUADMBZCLK;LETYIFNDQBJGPJ;QEGNUYASOUJEHD;SGVUHPSBDNVHKL;YXLCVBVDFKWWRW;SUPCQIBBMFXVTL;CATSNJVOTSVZJV;FXHGMKSSBGDXIY;JVSWJIKNEAIKJW;TVMXDCGIABBOFY;CETWDUZRCINIHU;OVOVDHYEOQJKMD;NDFYWJZFESRLBQ;ILIUIABCBOXIRX;NUHCEMOQRZEGAQ;IICQZTQZQSBHBY;KPADFPAILITQBG;PYOLJOJPIPCRDP;XARGIVYWQPXRTC;NUJGJRNETVAIRJ;KABCBIJVOXYNHG;GGWBGCSGJCRVIQ;NYFHUVYMLLAQHH;BUOAKQCLRBVIOX;HIVFIUIKABOGIO;YLZKVXHQMPWDBJ;FOCKPZOFYCTNIA;GCLZXEJWFDSXJZ;KGBMCONWCCBLAE;VTXRDCQMLXABHJ;OHERZLWVBJCXOF;NXCPHYJTOJDSLE;IRXJZDLOCNJAHE;UNWNSYMIUBZKCZ;XBENKLBOLWZLNQ;OTBOAOSTJYUVHP
SubstructureOntologies: CHEMONTID:0002500;CHEMONTID:0004476;CHEMONTID:0001831;CHEMONTID:0002230;CHEMONTID:0001167;CHEMONTID:0002436;CHEMONTID:0004622;CHEMONTID:0000118;CHEMONTID:0002434;CHEMONTID:0000286;CHEMONTID:0004620;CHEMONTID:0001205;CHEMONTID:0001238;CHEMONTID:0001016;CHEMONTID:0004451;CHEMONTID:0003416;CHEMONTID:0004452;CHEMONTID:0001661;CHEMONTID:0004325;CHEMONTID:0002229;CHEMONTID:0001334;CHEMONTID:0003626;CHEMONTID:0004149;CHEMONTID:0001401
Ontology: Withanolides and derivatives
OntologyID: CHEMONTID:0001560
RETENTIONTIME: -1
RETENTIONINDEX: -1
TotalBondEnergy: 29892
TotalScore: 6.1477
TotalHrRulesScore: 1
TotalBondCleavageScore: 0.664
TotalMassAccuracyScore: 0.8176
TotalFragmentLinkageScore: 1
TotalBondDissociationEnergyScore: 0.6831
DatabaseScore: 0.5476
SubstructureAssignmentScore: 0
RtSimilarityScore: -1
RiSimilarityScore: 0
Num Fragment VS2 (M/Z Intensity MatchedExactMass SaturatedExactMass Formula RearrangedHydrogen PPM MassDiff_mDa IsEvenElectronRule IsHrRule IsSolventAdductFragment AssignedAdductMass AdductString BondDissociationEnergy TreeDepth SMILES TotalScore HrLikelihood BcLikelihood MaLikelihood FlLikelihood BeLikelihood): 2
279.314391	120953.259347	279.268232265647	278.260955810547	C19H34O	1	165.26	46.16	True	True	False	0		1652	2	OCC(C)C1CCC2C3CCCC(C)(C)C3(CCC12(C))	3.34737900515381	1	0.328049957752228	0.653034210205078	1	0.366294837196504
425.295532	165939.661196	425.305036464866	424.297760009766	C28H40O3	1	22.35	9.5	True	True	False	0		0	0	O=C1OC(CC(=C1C)C)C(C)C3CCC4C5CCC2=CC(=O)CCC2(C)C5(CCC34(C))	4.98209524154663	1	1	0.982095241546631	1	1

NAME: Gymnasterone B;(-)-Gymnasterone B
ID: NMGBSMCZPMYTKL
IsSpectrumSearch: False
INCHIKEY: NMGBSMCZPMYTKL-ZQGYHFTENA-N
SMILES: O=C4C=C1C(CCC3(C)(C(CC2OC123)C(C=CC(C)C(C)C)C))C5(C)(CCC(=O)CC45)
RESOURCES: KNApSAcK=C00039312,UNPD=UNPD99670
SubstructureInChIKeys: VNWKTOKETHGBQD;VGGSQFUCUMXWEO;WSFSSNUMVMOOMR;OTMSDBZUPAUEDD;IKHGUXGNUITLKF;ATUOYWHBWRKTHZ;LCGLNKUTAGEVQW;HGINCPLSRVDWNT;IAQRGUVFOMOMEM;VQTUBCCKSQIDNK;VXNZUUAINFGPBY;CSCPPACGZOOCGX;NBBJYMSMWIIQGU;XXROGKLTLUQVRX;IJDNQMDRQITEOD;NNPPMTNAJDCUHE;BDERNNFJNOPAEC;XOBKSJJDNFUZPF;MLUCVPSAIODCQM;BKOOMYPCSUNDGP;QMMOXUPEWRXHJS;RGSFGYAAUTVSQA;YWAKXRMUMFPDSH;ZSPTYLOMNJNZNG;ZTQSAGDEMFDKMZ;OFBQJSOFQDEBGM;QWTDNUCVQCZILF;LRHPLDYGYMQRHN;VNKYTQGIUYNRMY;ZXEKIIBDNHEJCQ;BEQGRRJLJLVQAQ;GDOPTJXRTPNYNR;LDTAOIUHUHHCMU;LIKMAJRDDDTEIG;RYPKRALMXUUNKS;XDTMQSROBMDMFD;ZQDPJFUHLCOCRG;FSUXYWPILZJGCC;GJYMQFMQRRNLCY;HGBOYTHUEUWSSQ;NEJDKFPXHQRVMV;AFABGHUZZDYHJO;HNRMPXKDFBEGFZ;PFEOZHBOMNWTJB;VLKZOEOYAKHREP;AMQJEAYHLZJPGS;AQIXEPGDORPWBJ;FVNIMHIOIXPIQT;JYVLIDXNZAXMDK;MXLMTQWGSQIYOW;PHTQWCKDNZKARW;BMRWNKZVCUKKSR;FWFSEYBSWVRWGL;USLRUYZDOLMIRJ;ADHCYQWFCLQBFG;QWHNJUXXYKPLQM;UAEPNZWRGJTJPN;WZHKDGJSXCTSCK;ZGEGCLOFRBLKSE;BVOSSZSHBZQJOI;JARKCYVAAOWBJS;UFLHIIWVXFIJGU;BZHMBWZPUJHVEE;IMNFDUFMRHMDMM;VLJXXKKOSFGPHI;ZSIAUFGUXNUGDI;WCVRQHFDJLLWFE;XLMFDCKSFJWJTP;QJXCDRBHYIAFTH;UDOAKURRCZMWOJ;KVZJLSYJROEPSQ;KWKAKUADMBZCLK;LETYIFNDQBJGPJ;QEGNUYASOUJEHD;SGVUHPSBDNVHKL;YXLCVBVDFKWWRW;CATSNJVOTSVZJV;FXHGMKSSBGDXIY;PZKFYTOLVRCMOA;JVSWJIKNEAIKJW;TVMXDCGIABBOFY;CETWDUZRCINIHU;OVOVDHYEOQJKMD;NDFYWJZFESRLBQ;NUHCEMOQRZEGAQ;ZUSUVEKHEZURSD;IICQZTQZQSBHBY;KPADFPAILITQBG;PYOLJOJPIPCRDP;XARGIVYWQPXRTC;LEBVLOLOVGHEFE;NUJGJRNETVAIRJ;VSMOENVRRABVKN;VWLITJGXNSANSN;KABCBIJVOXYNHG;GGWBGCSGJCRVIQ;NYFHUVYMLLAQHH;HIVFIUIKABOGIO;YLZKVXHQMPWDBJ;ZIWXVGHUDKNNSH;FOCKPZOFYCTNIA;NXCPHYJTOJDSLE;IRXJZDLOCNJAHE;UNWNSYMIUBZKCZ;OTBOAOSTJYUVHP;CALZPZVTQZEUQP;DTGDZMYNKLTSKC;HCXVJBMSMIARIN
SubstructureOntologies: CHEMONTID:0002500;CHEMONTID:0004476;CHEMONTID:0001831;CHEMONTID:0002230;CHEMONTID:0001167;CHEMONTID:0002436;CHEMONTID:0004622;CHEMONTID:0000118;CHEMONTID:0002434;CHEMONTID:0000286;CHEMONTID:0004620;CHEMONTID:0001016;CHEMONTID:0001661;CHEMONTID:0002467;CHEMONTID:0004325;CHEMONTID:0002229;CHEMONTID:0001334;CHEMONTID:0004149;CHEMONTID:0001401;CHEMONTID:0002938;NonID:Cholesteryl ester-lipid body;CHEMONTID:0002031
Ontology: Ergostane steroids
OntologyID: CHEMONTID:0003567
RETENTIONTIME: -1
RETENTIONINDEX: -1
TotalBondEnergy: 29892
TotalScore: 5.6547
TotalHrRulesScore: 0.5
TotalBondCleavageScore: 0.5
TotalMassAccuracyScore: 0.491
TotalFragmentLinkageScore: 0.5
TotalBondDissociationEnergyScore: 0.5
DatabaseScore: 0.5476
SubstructureAssignmentScore: 0
RtSimilarityScore: -1
RiSimilarityScore: 0
Num Fragment VS2 (M/Z Intensity MatchedExactMass SaturatedExactMass Formula RearrangedHydrogen PPM MassDiff_mDa IsEvenElectronRule IsHrRule IsSolventAdductFragment AssignedAdductMass AdductString BondDissociationEnergy TreeDepth SMILES TotalScore HrLikelihood BcLikelihood MaLikelihood FlLikelihood BeLikelihood): 1
425.295532	165939.661196	425.305036464866	424.297760009766	C28H40O3	1	22.35	9.5	True	True	False	0		0	0	O=C4C=C1C(CCC3(C)(C(CC2OC123)C(C=CC(C)C(C)C)C))C5(C)(CCC(=O)CC45)	4.98209524154663	1	1	0.982095241546631	1	1

NAME: Herbarulide;(+)-Herbarulide
ID: ZBDCBYOOVMXUHB
IsSpectrumSearch: False
INCHIKEY: ZBDCBYOOVMXUHB-FUXLRIGBNA-N
SMILES: O=C2OC1=CC(=O)CCC1(C)C3C(=C2)C4CCC(C(C=CC(C)C(C)C)C)C4(C)(CC3)
RESOURCES: KNApSAcK=C00049176,UNPD=UNPD113494
SubstructureInChIKeys: VNWKTOKETHGBQD;VGGSQFUCUMXWEO;WSFSSNUMVMOOMR;OTMSDBZUPAUEDD;IKHGUXGNUITLKF;IMROMDMJAWUWLK;ATUOYWHBWRKTHZ;LCGLNKUTAGEVQW;HGINCPLSRVDWNT;IAQRGUVFOMOMEM;VQTUBCCKSQIDNK;VXNZUUAINFGPBY;CSCPPACGZOOCGX;NBBJYMSMWIIQGU;XJRBAMWJDBPFIM;XXROGKLTLUQVRX;IJDNQMDRQITEOD;NNPPMTNAJDCUHE;QTBSBXVTEAMEQO;TZIHFWKZFHZASV;BDERNNFJNOPAEC;XOBKSJJDNFUZPF;MLUCVPSAIODCQM;BKOOMYPCSUNDGP;QMMOXUPEWRXHJS;RGSFGYAAUTVSQA;YWAKXRMUMFPDSH;GMSHJLUJOABYOM;NIXOWILDQLNWCW;ZTQSAGDEMFDKMZ;OFBQJSOFQDEBGM;QWTDNUCVQCZILF;KXKVLQRXCPHEJC;WBJINCZRORDGAQ;LRHPLDYGYMQRHN;VNKYTQGIUYNRMY;ZXEKIIBDNHEJCQ;BEQGRRJLJLVQAQ;GDOPTJXRTPNYNR;LDTAOIUHUHHCMU;LIKMAJRDDDTEIG;RYPKRALMXUUNKS;XDTMQSROBMDMFD;ZQDPJFUHLCOCRG;BAPJBEWLBFYGME;XJQSLJZYZFSHAI;HGBOYTHUEUWSSQ;AFABGHUZZDYHJO;HNRMPXKDFBEGFZ;PFEOZHBOMNWTJB;VLKZOEOYAKHREP;XEKOWRVHYACXOJ;AMQJEAYHLZJPGS;PHTQWCKDNZKARW;FWFSEYBSWVRWGL;USLRUYZDOLMIRJ;ADHCYQWFCLQBFG;QWHNJUXXYKPLQM;WZHKDGJSXCTSCK;ZGEGCLOFRBLKSE;JARKCYVAAOWBJS;BZHMBWZPUJHVEE;IMNFDUFMRHMDMM;VLJXXKKOSFGPHI;ZSIAUFGUXNUGDI;RKSNPTXBQXBXDJ;QJXCDRBHYIAFTH;KVZJLSYJROEPSQ;KWKAKUADMBZCLK;LETYIFNDQBJGPJ;QEGNUYASOUJEHD;YXLCVBVDFKWWRW;CATSNJVOTSVZJV;FXHGMKSSBGDXIY;JVSWJIKNEAIKJW;TVMXDCGIABBOFY;NDFYWJZFESRLBQ;NUHCEMOQRZEGAQ;IICQZTQZQSBHBY;KPADFPAILITQBG;NUJGJRNETVAIRJ;KABCBIJVOXYNHG;GGWBGCSGJCRVIQ;NYFHUVYMLLAQHH;HIVFIUIKABOGIO;FOCKPZOFYCTNIA;NXCPHYJTOJDSLE;IRXJZDLOCNJAHE;OTBOAOSTJYUVHP
SubstructureOntologies: CHEMONTID:0002500;CHEMONTID:0004476;CHEMONTID:0001831;CHEMONTID:0002230;CHEMONTID:0000132;CHEMONTID:0001167;CHEMONTID:0002436;CHEMONTID:0004622;CHEMONTID:0000118;CHEMONTID:0002434;CHEMONTID:0000323;CHEMONTID:0000286;CHEMONTID:0004620;CHEMONTID:0001205;CHEMONTID:0001238;CHEMONTID:0001016;CHEMONTID:0004451;CHEMONTID:0003416;CHEMONTID:0004452;CHEMONTID:0004325;CHEMONTID:0002229;CHEMONTID:0001334;CHEMONTID:0004149;CHEMONTID:0001401
Ontology: Terpene lactones
OntologyID: CHEMONTID:0001283
RETENTIONTIME: -1
RETENTIONINDEX: -1
TotalBondEnergy: 29802
TotalScore: 5.6547
TotalHrRulesScore: 0.5
TotalBondCleavageScore: 0.5
TotalMassAccuracyScore: 0.491
TotalFragmentLinkageScore: 0.5
TotalBondDissociationEnergyScore: 0.5
DatabaseScore: 0.5476
SubstructureAssignmentScore: 0
RtSimilarityScore: -1
RiSimilarityScore: 0
Num Fragment VS2 (M/Z Intensity MatchedExactMass SaturatedExactMass Formula RearrangedHydrogen PPM MassDiff_mDa IsEvenElectronRule IsHrRule IsSolventAdductFragment AssignedAdductMass AdductString BondDissociationEnergy TreeDepth SMILES TotalScore HrLikelihood BcLikelihood MaLikelihood FlLikelihood BeLikelihood): 1
425.295532	165939.661196	425.305036464866	424.297760009766	C28H40O3	1	22.35	9.5	True	True	False	0		0	0	O=C2OC1=CC(=O)CCC1(C)C3C(=C2)C4CCC(C(C=CC(C)C(C)C)C)C4(C)(CC3)	4.98209524154663	1	1	0.982095241546631	1	1

NAME: 9(11)-dehydroaxinysterol
ID: UUHVMJGTJKDDFG
IsSpectrumSearch: False
INCHIKEY: UUHVMJGTJKDDFG-ZIXLLVHHNA-N
SMILES: OC2CCC3(C4=CCC5(C)(C(CCC5(C14(OOC3(C=C1)(C2))))C(C=CC(C(=C)C)C)C))(C)
RESOURCES: ChEBI=CHEBI:65733,UNPD=UNPD125183
SubstructureInChIKeys: VNWKTOKETHGBQD;XLYOFNOQVPJJNP;VGGSQFUCUMXWEO;OTMSDBZUPAUEDD;OKKJLVBELUTLKV;QQONPFPTGQHPMA;ATUOYWHBWRKTHZ;LFQSCWFLJHTTHZ;IAQRGUVFOMOMEM;VQTUBCCKSQIDNK;VXNZUUAINFGPBY;XXROGKLTLUQVRX;IJDNQMDRQITEOD;NNPPMTNAJDCUHE;BDERNNFJNOPAEC;KFZMGEQAYNKOFK;BKOOMYPCSUNDGP;QMMOXUPEWRXHJS;RGSFGYAAUTVSQA;YWAKXRMUMFPDSH;ZSPTYLOMNJNZNG;OFBQJSOFQDEBGM;QWTDNUCVQCZILF;BTANRVKWQNVYAZ;LRHPLDYGYMQRHN;ZXEKIIBDNHEJCQ;YPFDHNVEDLHUCE;PRBHEGAFLDMLAL;BEQGRRJLJLVQAQ;GDOPTJXRTPNYNR;LDTAOIUHUHHCMU;LIKMAJRDDDTEIG;RYPKRALMXUUNKS;XDTMQSROBMDMFD;ZQDPJFUHLCOCRG;FSUXYWPILZJGCC;GJYMQFMQRRNLCY;NEJDKFPXHQRVMV;AFABGHUZZDYHJO;HNRMPXKDFBEGFZ;PFEOZHBOMNWTJB;VLKZOEOYAKHREP;AMQJEAYHLZJPGS;AQIXEPGDORPWBJ;JYVLIDXNZAXMDK;MXLMTQWGSQIYOW;PHTQWCKDNZKARW;PUPZLCDOIYMWBV;FMAMSYPJXSEYSW;ADHCYQWFCLQBFG;QWHNJUXXYKPLQM;UAEPNZWRGJTJPN;WZHKDGJSXCTSCK;ZGEGCLOFRBLKSE;BVOSSZSHBZQJOI;HPXRVTGHNJAIIH;UFLHIIWVXFIJGU;BZHMBWZPUJHVEE;IMNFDUFMRHMDMM;VLJXXKKOSFGPHI;ZSIAUFGUXNUGDI;GDDAJHJRAKOILH;KVZJLSYJROEPSQ;KWKAKUADMBZCLK;LETYIFNDQBJGPJ;QEGNUYASOUJEHD;SGVUHPSBDNVHKL;YXLCVBVDFKWWRW;MQWCXKGKQLNYQG;PZKFYTOLVRCMOA;JVSWJIKNEAIKJW;TVMXDCGIABBOFY;CETWDUZRCINIHU;OVOVDHYEOQJKMD;NMFOAHIHPAPYJJ;IICQZTQZQSBHBY;KPADFPAILITQBG;PYOLJOJPIPCRDP;XARGIVYWQPXRTC;LZHHQGKEJNRBAZ;VSMOENVRRABVKN;ZBAXJUPCYVIBSP;HIVFIUIKABOGIO;YLZKVXHQMPWDBJ;SOUITUXPBGREAE;ZIWXVGHUDKNNSH
SubstructureOntologies: CHEMONTID:0002500;NonID:H2O;CHEMONTID:0004476;CHEMONTID:0000286;CHEMONTID:0004622;CHEMONTID:0004620;CHEMONTID:0001661;CHEMONTID:0001016;CHEMONTID:0001019;CHEMONTID:0002647;CHEMONTID:0001334
Ontology: Ergostane steroids
OntologyID: CHEMONTID:0003567
RETENTIONTIME: -1
RETENTIONINDEX: -1
TotalBondEnergy: 29454
TotalScore: 5.6547
TotalHrRulesScore: 0.5
TotalBondCleavageScore: 0.5
TotalMassAccuracyScore: 0.491
TotalFragmentLinkageScore: 0.5
TotalBondDissociationEnergyScore: 0.5
DatabaseScore: 0.5476
SubstructureAssignmentScore: 0
RtSimilarityScore: -1
RiSimilarityScore: 0
Num Fragment VS2 (M/Z Intensity MatchedExactMass SaturatedExactMass Formula RearrangedHydrogen PPM MassDiff_mDa IsEvenElectronRule IsHrRule IsSolventAdductFragment AssignedAdductMass AdductString BondDissociationEnergy TreeDepth SMILES TotalScore HrLikelihood BcLikelihood MaLikelihood FlLikelihood BeLikelihood): 1
425.295532	165939.661196	425.305036464866	424.297760009766	C28H40O3	1	22.35	9.5	True	True	False	0		0	0	OC2CCC3(C4=CCC5(C)(C(CCC5(C14(OOC3(C=C1)(C2))))C(C=CC(C(=C)C)C)C))(C)	4.98209524154663	1	1	0.982095241546631	1	1

NAME: (22E,24E,26E)-1alpha,26b-dihydroxy-22,23,24,25,26,26a-hexadehydro-26a,26b-dihomo-27-norvitamin D3 / (22E,24E,26E)-1alpha,26b-dihydroxy-22,23,24,25,26,26a-hexadehydro-26a,26b-dihomo-27-norcholecalciferol
ID: DHSBJCJEENJGKO
IsSpectrumSearch: False
INCHIKEY: DHSBJCJEENJGKO-TVDKWOKXNA-N
SMILES: OCC=CC=CC=CC(C)C3CCC2C(=CC=C1C(=C)C(O)CC(O)C1)CCCC23(C)
RESOURCES: LipidMAPS=LMST03020312
SubstructureInChIKeys: VNWKTOKETHGBQD;XLYOFNOQVPJJNP;VGGSQFUCUMXWEO;OTMSDBZUPAUEDD;OKKJLVBELUTLKV;ATUOYWHBWRKTHZ;LFQSCWFLJHTTHZ;IAQRGUVFOMOMEM;VQTUBCCKSQIDNK;VXNZUUAINFGPBY;XXROGKLTLUQVRX;IJDNQMDRQITEOD;NNPPMTNAJDCUHE;BDERNNFJNOPAEC;KFZMGEQAYNKOFK;BKOOMYPCSUNDGP;QMMOXUPEWRXHJS;RGSFGYAAUTVSQA;YWAKXRMUMFPDSH;MKUWVMRNQOOSAT;ZSPTYLOMNJNZNG;OFBQJSOFQDEBGM;QWTDNUCVQCZILF;BTANRVKWQNVYAZ;LRHPLDYGYMQRHN;YPFDHNVEDLHUCE;ACZNIBVNGPLHAC;BEQGRRJLJLVQAQ;GDOPTJXRTPNYNR;LDTAOIUHUHHCMU;LIKMAJRDDDTEIG;RYPKRALMXUUNKS;XDTMQSROBMDMFD;FSUXYWPILZJGCC;AFABGHUZZDYHJO;HNRMPXKDFBEGFZ;PFEOZHBOMNWTJB;VLKZOEOYAKHREP;AMQJEAYHLZJPGS;AQIXEPGDORPWBJ;JYVLIDXNZAXMDK;PUPZLCDOIYMWBV;ADHCYQWFCLQBFG;QWHNJUXXYKPLQM;ZGEGCLOFRBLKSE;BVOSSZSHBZQJOI;HPXRVTGHNJAIIH;BZHMBWZPUJHVEE;IMNFDUFMRHMDMM;VLJXXKKOSFGPHI;ZSIAUFGUXNUGDI;YGDXNKVVWAQSEN;QJXCDRBHYIAFTH;KVZJLSYJROEPSQ;KWKAKUADMBZCLK;LETYIFNDQBJGPJ;QEGNUYASOUJEHD;YXLCVBVDFKWWRW;PZKFYTOLVRCMOA;JVSWJIKNEAIKJW;TVMXDCGIABBOFY;NUHCEMOQRZEGAQ;IICQZTQZQSBHBY;GGWBGCSGJCRVIQ;NYFHUVYMLLAQHH;HIVFIUIKABOGIO;NXCPHYJTOJDSLE;IRXJZDLOCNJAHE
SubstructureOntologies: CHEMONTID:0002500;NonID:H2O;CHEMONTID:0004476;CHEMONTID:0000286;CHEMONTID:0004622;CHEMONTID:0004620;CHEMONTID:0001661;CHEMONTID:0001016;CHEMONTID:0002647;CHEMONTID:0001334;CHEMONTID:0004149
Ontology: Vitamin D and derivatives
OntologyID: CHEMONTID:0001460
RETENTIONTIME: -1
RETENTIONINDEX: -1
TotalBondEnergy: 29574
TotalScore: 5.5951
TotalHrRulesScore: 0.5
TotalBondCleavageScore: 0.5
TotalMassAccuracyScore: 0.491
TotalFragmentLinkageScore: 0.5
TotalBondDissociationEnergyScore: 0.5
DatabaseScore: 0.5238
SubstructureAssignmentScore: 0
RtSimilarityScore: -1
RiSimilarityScore: 0
Num Fragment VS2 (M/Z Intensity MatchedExactMass SaturatedExactMass Formula RearrangedHydrogen PPM MassDiff_mDa IsEvenElectronRule IsHrRule IsSolventAdductFragment AssignedAdductMass AdductString BondDissociationEnergy TreeDepth SMILES TotalScore HrLikelihood BcLikelihood MaLikelihood FlLikelihood BeLikelihood): 1
425.295532	165939.661196	425.305036464866	424.297760009766	C28H40O3	1	22.35	9.5	True	True	False	0		0	0	OCC=CC=CC=CC(C)C3CCC2C(=CC=C1C(=C)C(O)CC(O)C1)CCCC23(C)	4.98209524154663	1	1	0.982095241546631	1	1

NAME: UNPD171695
ID: VVUPQSRSJMZZQI
IsSpectrumSearch: False
INCHIKEY: VVUPQSRSJMZZQI-MXRAUUQCNA-N
SMILES: O=CC2=C(O)C=C(C=1OC(C)(CCC=C(C)CCC=C(C)CCC=C(C)C)CCC=12)C
RESOURCES: UNPD=UNPD171695
SubstructureInChIKeys: VNWKTOKETHGBQD;XLYOFNOQVPJJNP;VGGSQFUCUMXWEO;WSFSSNUMVMOOMR;OTMSDBZUPAUEDD;QQONPFPTGQHPMA;IKHGUXGNUITLKF;ATUOYWHBWRKTHZ;LCGLNKUTAGEVQW;IAQRGUVFOMOMEM;VQTUBCCKSQIDNK;VXNZUUAINFGPBY;IJDNQMDRQITEOD;NNPPMTNAJDCUHE;BDERNNFJNOPAEC;XOBKSJJDNFUZPF;BKOOMYPCSUNDGP;QMMOXUPEWRXHJS;YWAKXRMUMFPDSH;OFBQJSOFQDEBGM;QWTDNUCVQCZILF;LRHPLDYGYMQRHN;VNKYTQGIUYNRMY;UHOVQNZJYSORNB;BEQGRRJLJLVQAQ;LIKMAJRDDDTEIG;RYPKRALMXUUNKS;ZQDPJFUHLCOCRG;AFABGHUZZDYHJO;PFEOZHBOMNWTJB;VLKZOEOYAKHREP;AQIXEPGDORPWBJ;FVNIMHIOIXPIQT;JYVLIDXNZAXMDK;YXFVVABEGXRONW;ISWSIDIOOBJBQZ;WZHKDGJSXCTSCK;ZGEGCLOFRBLKSE;IMNFDUFMRHMDMM;VLJXXKKOSFGPHI;HUMNYLRZRPPJDN;YNQLUTRBYVCPMQ;IWDCLRJOBJJRNH;RDOXTESZEPMUJZ;GHMLBKRAJCXXBS;KWKAKUADMBZCLK;TVMXDCGIABBOFY;ODLMAHJVESYWTB;SMQUZDBALVYZAC;CHLICZRVGGXEOD;DLRJIFUOBPOJNS;HMNKTRSOROOSPP;HXDOZKJGKXYMEW;LHGVFZTZFXWLCP;OIPPWFOQEKKFEE;ZBCATMYQYDCTIZ;IICQZTQZQSBHBY;KPADFPAILITQBG;LZHHQGKEJNRBAZ;OHEFFKYYKJVVOX;DWLZULQNIPIABE;HDNRAPAFJLXKBV;MPWGZBWDLMDIHO;IUNJCFABHJZSKB;HFLGBNBLMBSXEM;NOTCZLKDULMKBR;PETRWTHZSKVLRE;VGMJYYDKPUPTID;MQSXUKPGWMJYBT;DZJPDDVDKXHRLF;SULYEHHGGXARJS;CAWZFQGJUGEKFU;MWOMNLDJNQWJMK
SubstructureOntologies: CHEMONTID:0002500;NonID:H2O;CHEMONTID:0004476;CHEMONTID:0001831;CHEMONTID:0002230;CHEMONTID:0001167;CHEMONTID:0004622;CHEMONTID:0004620;CHEMONTID:0000286;CHEMONTID:0002279;CHEMONTID:0001661;CHEMONTID:0001091;CHEMONTID:0004647;CHEMONTID:0000321;CHEMONTID:0001275;CHEMONTID:0000138;CHEMONTID:0000137;CHEMONTID:0002811;CHEMONTID:0003978;CHEMONTID:0002341;CHEMONTID:0004646;CHEMONTID:0000190;CHEMONTID:0000135;CHEMONTID:0001334;CHEMONTID:0004298
Ontology: Tocotrienols
OntologyID: CHEMONTID:0002092
RETENTIONTIME: -1
RETENTIONINDEX: -1
TotalBondEnergy: 29535
TotalScore: 5.4554
TotalHrRulesScore: 1
TotalBondCleavageScore: 0.6012
TotalMassAccuracyScore: 0.8176
TotalFragmentLinkageScore: 1
TotalBondDissociationEnergyScore: 0.8917
DatabaseScore: 0.2238
SubstructureAssignmentScore: 0
RtSimilarityScore: -1
RiSimilarityScore: 0
Num Fragment VS2 (M/Z Intensity MatchedExactMass SaturatedExactMass Formula RearrangedHydrogen PPM MassDiff_mDa IsEvenElectronRule IsHrRule IsSolventAdductFragment AssignedAdductMass AdductString BondDissociationEnergy TreeDepth SMILES TotalScore HrLikelihood BcLikelihood MaLikelihood FlLikelihood BeLikelihood): 2
279.314391	120953.259347	279.268232265647	278.260955810547	C19H34O	1	165.26	46.16	True	True	False	0		704	1	OC(C)(C)CCC=C(C)CCC=C(C)CCC=C(C)C	3.63900300068711	1	0.202499985694885	0.653034210205078	1	0.783468804787148
425.295532	165939.661196	425.305036464866	424.297760009766	C28H40O3	1	22.35	9.5	True	True	False	0		0	0	O=CC2=C(O)C=C(C=1OC(C)(CCC=C(C)CCC=C(C)CCC=C(C)C)CCC=12)C	4.98209524154663	1	1	0.982095241546631	1	1

NAME: UNPD69563
ID: YZVVWGKWMXQUIQ
IsSpectrumSearch: False
INCHIKEY: YZVVWGKWMXQUIQ-MXRAUUQCNA-N
SMILES: O=CC=2C(O)=CC1=C(OC(C)(CCC=C(C)CCC=C(C)CCC=C(C)C)CC1)C=2C
RESOURCES: UNPD=UNPD69563
SubstructureInChIKeys: VNWKTOKETHGBQD;XLYOFNOQVPJJNP;VGGSQFUCUMXWEO;WSFSSNUMVMOOMR;OTMSDBZUPAUEDD;QQONPFPTGQHPMA;IKHGUXGNUITLKF;ATUOYWHBWRKTHZ;LCGLNKUTAGEVQW;IAQRGUVFOMOMEM;VQTUBCCKSQIDNK;VXNZUUAINFGPBY;IJDNQMDRQITEOD;NNPPMTNAJDCUHE;BDERNNFJNOPAEC;XOBKSJJDNFUZPF;BKOOMYPCSUNDGP;QMMOXUPEWRXHJS;YWAKXRMUMFPDSH;OFBQJSOFQDEBGM;QWTDNUCVQCZILF;LRHPLDYGYMQRHN;VNKYTQGIUYNRMY;UHOVQNZJYSORNB;BEQGRRJLJLVQAQ;LIKMAJRDDDTEIG;RYPKRALMXUUNKS;ZQDPJFUHLCOCRG;AFABGHUZZDYHJO;PFEOZHBOMNWTJB;VLKZOEOYAKHREP;AQIXEPGDORPWBJ;FVNIMHIOIXPIQT;JYVLIDXNZAXMDK;YXFVVABEGXRONW;ISWSIDIOOBJBQZ;WZHKDGJSXCTSCK;ZGEGCLOFRBLKSE;IMNFDUFMRHMDMM;VLJXXKKOSFGPHI;HUMNYLRZRPPJDN;YNQLUTRBYVCPMQ;IWDCLRJOBJJRNH;RDOXTESZEPMUJZ;GHMLBKRAJCXXBS;KWKAKUADMBZCLK;TVMXDCGIABBOFY;ODLMAHJVESYWTB;SMQUZDBALVYZAC;CHLICZRVGGXEOD;DLRJIFUOBPOJNS;HMNKTRSOROOSPP;HXDOZKJGKXYMEW;LHGVFZTZFXWLCP;OIPPWFOQEKKFEE;ZBCATMYQYDCTIZ;IICQZTQZQSBHBY;KPADFPAILITQBG;LZHHQGKEJNRBAZ;OHEFFKYYKJVVOX;DWLZULQNIPIABE;HDNRAPAFJLXKBV;MPWGZBWDLMDIHO;IUNJCFABHJZSKB;HFLGBNBLMBSXEM;NOTCZLKDULMKBR;PETRWTHZSKVLRE;VGMJYYDKPUPTID;MQSXUKPGWMJYBT;DZJPDDVDKXHRLF;SULYEHHGGXARJS;CAWZFQGJUGEKFU;MWOMNLDJNQWJMK
SubstructureOntologies: CHEMONTID:0002500;NonID:H2O;CHEMONTID:0004476;CHEMONTID:0001831;CHEMONTID:0002230;CHEMONTID:0001167;CHEMONTID:0004622;CHEMONTID:0004620;CHEMONTID:0000286;CHEMONTID:0002279;CHEMONTID:0001661;CHEMONTID:0001091;CHEMONTID:0004647;CHEMONTID:0000321;CHEMONTID:0001275;CHEMONTID:0000138;CHEMONTID:0000137;CHEMONTID:0002811;CHEMONTID:0003978;CHEMONTID:0002341;CHEMONTID:0004646;CHEMONTID:0000190;CHEMONTID:0000135;CHEMONTID:0001334;CHEMONTID:0004298
Ontology: Tocotrienols
OntologyID: CHEMONTID:0002092
RETENTIONTIME: -1
RETENTIONINDEX: -1
TotalBondEnergy: 29535
TotalScore: 5.4554
TotalHrRulesScore: 1
TotalBondCleavageScore: 0.6012
TotalMassAccuracyScore: 0.8176
TotalFragmentLinkageScore: 1
TotalBondDissociationEnergyScore: 0.8917
DatabaseScore: 0.2238
SubstructureAssignmentScore: 0
RtSimilarityScore: -1
RiSimilarityScore: 0
Num Fragment VS2 (M/Z Intensity MatchedExactMass SaturatedExactMass Formula RearrangedHydrogen PPM MassDiff_mDa IsEvenElectronRule IsHrRule IsSolventAdductFragment AssignedAdductMass AdductString BondDissociationEnergy TreeDepth SMILES TotalScore HrLikelihood BcLikelihood MaLikelihood FlLikelihood BeLikelihood): 2
279.314391	120953.259347	279.268232265647	278.260955810547	C19H34O	1	165.26	46.16	True	True	False	0		704	1	OC(C)(C)CCC=C(C)CCC=C(C)CCC=C(C)C	3.63900300068711	1	0.202499985694885	0.653034210205078	1	0.783468804787148
425.295532	165939.661196	425.305036464866	424.297760009766	C28H40O3	1	22.35	9.5	True	True	False	0		0	0	O=CC=2C(O)=CC1=C(OC(C)(CCC=C(C)CCC=C(C)CCC=C(C)C)CC1)C=2C	4.98209524154663	1	1	0.982095241546631	1	1

NAME: UNPD176146
ID: KCDGWQPAHUYVSS
IsSpectrumSearch: False
INCHIKEY: KCDGWQPAHUYVSS-HKKYUBRBNA-N
SMILES: O=C1C=C(C(=O)C(=C1)CC=C(C)CCC=C(C)CC(OC)C=C(C)CCC=C(C)C)C
RESOURCES: UNPD=UNPD176146
SubstructureInChIKeys: VNWKTOKETHGBQD;VGGSQFUCUMXWEO;WSFSSNUMVMOOMR;OTMSDBZUPAUEDD;QQONPFPTGQHPMA;ATUOYWHBWRKTHZ;LCGLNKUTAGEVQW;IAQRGUVFOMOMEM;VQTUBCCKSQIDNK;VXNZUUAINFGPBY;XXROGKLTLUQVRX;IJDNQMDRQITEOD;BDERNNFJNOPAEC;XOBKSJJDNFUZPF;BKOOMYPCSUNDGP;QMMOXUPEWRXHJS;YWAKXRMUMFPDSH;ZSPTYLOMNJNZNG;OFBQJSOFQDEBGM;LRHPLDYGYMQRHN;VNKYTQGIUYNRMY;UHOVQNZJYSORNB;BEQGRRJLJLVQAQ;LIKMAJRDDDTEIG;RYPKRALMXUUNKS;ZQDPJFUHLCOCRG;FSUXYWPILZJGCC;GJYMQFMQRRNLCY;FVNIMHIOIXPIQT;JYVLIDXNZAXMDK;YXFVVABEGXRONW;WZHKDGJSXCTSCK;BVOSSZSHBZQJOI;UFLHIIWVXFIJGU;YNQLUTRBYVCPMQ;IWDCLRJOBJJRNH;GHMLBKRAJCXXBS;HMNKTRSOROOSPP;HXDOZKJGKXYMEW;OIPPWFOQEKKFEE;ZBCATMYQYDCTIZ;KPADFPAILITQBG;HFLGBNBLMBSXEM;VGMJYYDKPUPTID
SubstructureOntologies: CHEMONTID:0002500;CHEMONTID:0004476;CHEMONTID:0001831;CHEMONTID:0001167;CHEMONTID:0004622;CHEMONTID:0000286;CHEMONTID:0002279;CHEMONTID:0001661;CHEMONTID:0001091;CHEMONTID:0001334;CHEMONTID:0001275;CHEMONTID:0000137;CHEMONTID:0004647;CHEMONTID:0004646;CHEMONTID:0000135
Ontology: Diterpenoids
OntologyID: CHEMONTID:0001551
RETENTIONTIME: -1
RETENTIONINDEX: -1
TotalBondEnergy: 29532
TotalScore: 5.4429
TotalHrRulesScore: 1
TotalBondCleavageScore: 0.5562
TotalMassAccuracyScore: 0.8176
TotalFragmentLinkageScore: 1
TotalBondDissociationEnergyScore: 0.8867
DatabaseScore: 0.2238
SubstructureAssignmentScore: 0
RtSimilarityScore: -1
RiSimilarityScore: 0
Num Fragment VS2 (M/Z Intensity MatchedExactMass SaturatedExactMass Formula RearrangedHydrogen PPM MassDiff_mDa IsEvenElectronRule IsHrRule IsSolventAdductFragment AssignedAdductMass AdductString BondDissociationEnergy TreeDepth SMILES TotalScore HrLikelihood BcLikelihood MaLikelihood FlLikelihood BeLikelihood): 2
279.314391	120953.259347	279.268232265647	278.260955810547	C19H34O	1	165.26	46.16	True	True	False	0		602	1	O(C)C(C=C(C)CCC=C(C)C)CC(=CCCCC)C	3.53892339846138	1	0.112499997019768	0.653034210205078	1	0.773389191236531
425.295532	165939.661196	425.305036464866	424.297760009766	C28H40O3	1	22.35	9.5	True	True	False	0		0	0	O=C1C=C(C(=O)C(=C1)CC=C(C)CCC=C(C)CC(OC)C=C(C)CCC=C(C)C)C	4.98209524154663	1	1	0.982095241546631	1	1

NAME: UNPD117616
ID: XRHIGWQFMLXJDO
IsSpectrumSearch: False
INCHIKEY: XRHIGWQFMLXJDO-QCNQSXDUNA-N
SMILES: O=C1C=C(C(=O)C(=C1)CC=C(C)CCC=C(C)CC=CC(OC)(C)CCC=C(C)C)C
RESOURCES: UNPD=UNPD117616
SubstructureInChIKeys: VNWKTOKETHGBQD;VGGSQFUCUMXWEO;WSFSSNUMVMOOMR;OTMSDBZUPAUEDD;QQONPFPTGQHPMA;ATUOYWHBWRKTHZ;LCGLNKUTAGEVQW;IAQRGUVFOMOMEM;VQTUBCCKSQIDNK;VXNZUUAINFGPBY;XXROGKLTLUQVRX;IJDNQMDRQITEOD;NNPPMTNAJDCUHE;BDERNNFJNOPAEC;XOBKSJJDNFUZPF;BKOOMYPCSUNDGP;QMMOXUPEWRXHJS;YWAKXRMUMFPDSH;OFBQJSOFQDEBGM;QWTDNUCVQCZILF;LRHPLDYGYMQRHN;VNKYTQGIUYNRMY;UHOVQNZJYSORNB;PRBHEGAFLDMLAL;BEQGRRJLJLVQAQ;LDTAOIUHUHHCMU;LIKMAJRDDDTEIG;RYPKRALMXUUNKS;ZQDPJFUHLCOCRG;GJYMQFMQRRNLCY;AFABGHUZZDYHJO;FVNIMHIOIXPIQT;JYVLIDXNZAXMDK;YXFVVABEGXRONW;FMAMSYPJXSEYSW;WZHKDGJSXCTSCK;BVOSSZSHBZQJOI;YNQLUTRBYVCPMQ;IWDCLRJOBJJRNH;GHMLBKRAJCXXBS;GDDAJHJRAKOILH;HMNKTRSOROOSPP;HXDOZKJGKXYMEW;OIPPWFOQEKKFEE;ZBCATMYQYDCTIZ;NMFOAHIHPAPYJJ;KPADFPAILITQBG;OHEFFKYYKJVVOX;HFLGBNBLMBSXEM;VGMJYYDKPUPTID
SubstructureOntologies: CHEMONTID:0002500;CHEMONTID:0004476;CHEMONTID:0001831;CHEMONTID:0001167;CHEMONTID:0004622;CHEMONTID:0000286;CHEMONTID:0004620;CHEMONTID:0002279;CHEMONTID:0001019;CHEMONTID:0001661;CHEMONTID:0001091;CHEMONTID:0001275;CHEMONTID:0000137;CHEMONTID:0004647;CHEMONTID:0004646;CHEMONTID:0000135;CHEMONTID:0001334
Ontology: Diterpenoids
OntologyID: CHEMONTID:0001551
RETENTIONTIME: -1
RETENTIONINDEX: -1
TotalBondEnergy: 29532
TotalScore: 5.4429
TotalHrRulesScore: 1
TotalBondCleavageScore: 0.5562
TotalMassAccuracyScore: 0.8176
TotalFragmentLinkageScore: 1
TotalBondDissociationEnergyScore: 0.8867
DatabaseScore: 0.2238
SubstructureAssignmentScore: 0
RtSimilarityScore: -1
RiSimilarityScore: 0
Num Fragment VS2 (M/Z Intensity MatchedExactMass SaturatedExactMass Formula RearrangedHydrogen PPM MassDiff_mDa IsEvenElectronRule IsHrRule IsSolventAdductFragment AssignedAdductMass AdductString BondDissociationEnergy TreeDepth SMILES TotalScore HrLikelihood BcLikelihood MaLikelihood FlLikelihood BeLikelihood): 2
279.314391	120953.259347	279.268232265647	278.260955810547	C19H34O	1	165.26	46.16	True	True	False	0		602	1	O(C)C(C=CCC(=CCCCC)C)(C)CCC=C(C)C	3.53892339846138	1	0.112499997019768	0.653034210205078	1	0.773389191236531
425.295532	165939.661196	425.305036464866	424.297760009766	C28H40O3	1	22.35	9.5	True	True	False	0		0	0	O=C1C=C(C(=O)C(=C1)CC=C(C)CCC=C(C)CC=CC(OC)(C)CCC=C(C)C)C	4.98209524154663	1	1	0.982095241546631	1	1

NAME: UNPD30364
ID: NACRYBSGHPQZTL
IsSpectrumSearch: False
INCHIKEY: NACRYBSGHPQZTL-XTGIUZSRNA-N
SMILES: O=C1C=CC3(C(=C1)CCC2C4CCC(C(C=CC(C)C)C)C4(C)(C(OC(=O)C)CC23))(C)
RESOURCES: UNPD=UNPD30364
SubstructureInChIKeys: VNWKTOKETHGBQD;VGGSQFUCUMXWEO;WSFSSNUMVMOOMR;OTMSDBZUPAUEDD;IKHGUXGNUITLKF;ATUOYWHBWRKTHZ;LCGLNKUTAGEVQW;HGINCPLSRVDWNT;IAQRGUVFOMOMEM;VQTUBCCKSQIDNK;VXNZUUAINFGPBY;CSCPPACGZOOCGX;IJDNQMDRQITEOD;NNPPMTNAJDCUHE;QTBSBXVTEAMEQO;TZIHFWKZFHZASV;BDERNNFJNOPAEC;XOBKSJJDNFUZPF;MLUCVPSAIODCQM;BKOOMYPCSUNDGP;QMMOXUPEWRXHJS;RGSFGYAAUTVSQA;YWAKXRMUMFPDSH;OFBQJSOFQDEBGM;QWTDNUCVQCZILF;KXKVLQRXCPHEJC;WBJINCZRORDGAQ;LRHPLDYGYMQRHN;VNKYTQGIUYNRMY;ZXEKIIBDNHEJCQ;PRBHEGAFLDMLAL;BEQGRRJLJLVQAQ;GDOPTJXRTPNYNR;LDTAOIUHUHHCMU;LIKMAJRDDDTEIG;RYPKRALMXUUNKS;XDTMQSROBMDMFD;ZQDPJFUHLCOCRG;AFABGHUZZDYHJO;HNRMPXKDFBEGFZ;PFEOZHBOMNWTJB;VLKZOEOYAKHREP;XEKOWRVHYACXOJ;AMQJEAYHLZJPGS;AQIXEPGDORPWBJ;FVNIMHIOIXPIQT;JYVLIDXNZAXMDK;MXLMTQWGSQIYOW;PHTQWCKDNZKARW;FMAMSYPJXSEYSW;ADHCYQWFCLQBFG;QWHNJUXXYKPLQM;UAEPNZWRGJTJPN;WZHKDGJSXCTSCK;ZGEGCLOFRBLKSE;HPXRVTGHNJAIIH;BZHMBWZPUJHVEE;IMNFDUFMRHMDMM;VLJXXKKOSFGPHI;ZSIAUFGUXNUGDI;GDDAJHJRAKOILH;QJXCDRBHYIAFTH;KVZJLSYJROEPSQ;KWKAKUADMBZCLK;LETYIFNDQBJGPJ;QEGNUYASOUJEHD;SGVUHPSBDNVHKL;YXLCVBVDFKWWRW;MQWCXKGKQLNYQG;JVSWJIKNEAIKJW;TVMXDCGIABBOFY;CETWDUZRCINIHU;OVOVDHYEOQJKMD;ILIUIABCBOXIRX;NMFOAHIHPAPYJJ;NUHCEMOQRZEGAQ;IICQZTQZQSBHBY;KPADFPAILITQBG;PYOLJOJPIPCRDP;XARGIVYWQPXRTC;ZBAXJUPCYVIBSP;CTIZSKHLELUAOT;GGWBGCSGJCRVIQ;NYFHUVYMLLAQHH;BUOAKQCLRBVIOX;HIVFIUIKABOGIO;YLZKVXHQMPWDBJ;SOUITUXPBGREAE;KGBMCONWCCBLAE;VTXRDCQMLXABHJ;NXCPHYJTOJDSLE;IRXJZDLOCNJAHE;UNWNSYMIUBZKCZ;XBENKLBOLWZLNQ;OTBOAOSTJYUVHP
SubstructureOntologies: CHEMONTID:0002500;CHEMONTID:0004476;CHEMONTID:0001831;CHEMONTID:0002230;CHEMONTID:0001167;CHEMONTID:0002436;CHEMONTID:0004622;CHEMONTID:0000118;CHEMONTID:0004620;CHEMONTID:0001205;CHEMONTID:0001238;CHEMONTID:0000286;CHEMONTID:0001016;CHEMONTID:0003416;CHEMONTID:0001019;CHEMONTID:0001661;CHEMONTID:0002647;CHEMONTID:0001334;CHEMONTID:0003487;CHEMONTID:0004149;CHEMONTID:0001401
Ontology: Gluco/mineralocorticoids, progestogins and derivatives
OntologyID: CHEMONTID:0001468
RETENTIONTIME: -1
RETENTIONINDEX: -1
TotalBondEnergy: 29802
TotalScore: 5.4067
TotalHrRulesScore: 1
TotalBondCleavageScore: 0.5228
TotalMassAccuracyScore: 0.8176
TotalFragmentLinkageScore: 1
TotalBondDissociationEnergyScore: 0.84
DatabaseScore: 0.2238
SubstructureAssignmentScore: 0
RtSimilarityScore: -1
RiSimilarityScore: 0
Num Fragment VS2 (M/Z Intensity MatchedExactMass SaturatedExactMass Formula RearrangedHydrogen PPM MassDiff_mDa IsEvenElectronRule IsHrRule IsSolventAdductFragment AssignedAdductMass AdductString BondDissociationEnergy TreeDepth SMILES TotalScore HrLikelihood BcLikelihood MaLikelihood FlLikelihood BeLikelihood): 2
279.314391	120953.259347	279.268232265647	278.260955810547	C19H34O	1	165.26	46.16	True	True	False	0		1050	2	OC1CCC(CC)C2CCC(C(C=CC(C)C)C)C12(C)	3.37857140383781	1	0.045562494546175	0.653034210205078	1	0.679974699086554
425.295532	165939.661196	425.305036464866	424.297760009766	C28H40O3	1	22.35	9.5	True	True	False	0		0	0	O=C1C=CC3(C(=C1)CCC2C4CCC(C(C=CC(C)C)C)C4(C)(C(OC(=O)C)CC23))(C)	4.98209524154663	1	1	0.982095241546631	1	1

NAME: UNPD202268
ID: DJVSRKXHTYPLOV
IsSpectrumSearch: False
INCHIKEY: DJVSRKXHTYPLOV-YHSLYXOHNA-N
SMILES: O=C3C=C2C(=O)CC15(OC45(CCC(C(C=CC(C)C(C)C)C)C4(C)(CCC1C2(C)CC3)))
RESOURCES: UNPD=UNPD202268
SubstructureInChIKeys: VNWKTOKETHGBQD;VGGSQFUCUMXWEO;WSFSSNUMVMOOMR;OTMSDBZUPAUEDD;IKHGUXGNUITLKF;ATUOYWHBWRKTHZ;LCGLNKUTAGEVQW;HGINCPLSRVDWNT;IAQRGUVFOMOMEM;VQTUBCCKSQIDNK;VXNZUUAINFGPBY;CSCPPACGZOOCGX;NBBJYMSMWIIQGU;IJDNQMDRQITEOD;NNPPMTNAJDCUHE;BDERNNFJNOPAEC;XOBKSJJDNFUZPF;MLUCVPSAIODCQM;BKOOMYPCSUNDGP;QMMOXUPEWRXHJS;RGSFGYAAUTVSQA;YWAKXRMUMFPDSH;ZTQSAGDEMFDKMZ;OFBQJSOFQDEBGM;QWTDNUCVQCZILF;AKXKFZDCRYJKTF;LRHPLDYGYMQRHN;VNKYTQGIUYNRMY;ZXEKIIBDNHEJCQ;BEQGRRJLJLVQAQ;GDOPTJXRTPNYNR;LDTAOIUHUHHCMU;LIKMAJRDDDTEIG;RYPKRALMXUUNKS;XDTMQSROBMDMFD;ZQDPJFUHLCOCRG;HGBOYTHUEUWSSQ;AFABGHUZZDYHJO;HNRMPXKDFBEGFZ;PFEOZHBOMNWTJB;VLKZOEOYAKHREP;AMQJEAYHLZJPGS;AQIXEPGDORPWBJ;FVNIMHIOIXPIQT;JYVLIDXNZAXMDK;MXLMTQWGSQIYOW;PHTQWCKDNZKARW;BMRWNKZVCUKKSR;FWFSEYBSWVRWGL;USLRUYZDOLMIRJ;ADHCYQWFCLQBFG;QWHNJUXXYKPLQM;UAEPNZWRGJTJPN;WZHKDGJSXCTSCK;ZGEGCLOFRBLKSE;JARKCYVAAOWBJS;BZHMBWZPUJHVEE;IMNFDUFMRHMDMM;VLJXXKKOSFGPHI;ZSIAUFGUXNUGDI;WCVRQHFDJLLWFE;XLMFDCKSFJWJTP;QJXCDRBHYIAFTH;KVZJLSYJROEPSQ;KWKAKUADMBZCLK;LETYIFNDQBJGPJ;QEGNUYASOUJEHD;SGVUHPSBDNVHKL;YXLCVBVDFKWWRW;CATSNJVOTSVZJV;FXHGMKSSBGDXIY;JVSWJIKNEAIKJW;TVMXDCGIABBOFY;CETWDUZRCINIHU;OVOVDHYEOQJKMD;NDFYWJZFESRLBQ;ILIUIABCBOXIRX;NUHCEMOQRZEGAQ;IICQZTQZQSBHBY;KPADFPAILITQBG;PYOLJOJPIPCRDP;XARGIVYWQPXRTC;LZHHQGKEJNRBAZ;NUJGJRNETVAIRJ;VWLITJGXNSANSN;KABCBIJVOXYNHG;GGWBGCSGJCRVIQ;NYFHUVYMLLAQHH;BUOAKQCLRBVIOX;HIVFIUIKABOGIO;YLZKVXHQMPWDBJ;BQOAKIRTXKZTKD;FOCKPZOFYCTNIA;GCLZXEJWFDSXJZ;KGBMCONWCCBLAE;VTXRDCQMLXABHJ;NXCPHYJTOJDSLE;IRXJZDLOCNJAHE;UNWNSYMIUBZKCZ;XBENKLBOLWZLNQ;OTBOAOSTJYUVHP
SubstructureOntologies: CHEMONTID:0002500;CHEMONTID:0004476;CHEMONTID:0001831;CHEMONTID:0002230;CHEMONTID:0001167;CHEMONTID:0002436;CHEMONTID:0004622;CHEMONTID:0000118;CHEMONTID:0002434;CHEMONTID:0004620;CHEMONTID:0000286;CHEMONTID:0001016;CHEMONTID:0001661;CHEMONTID:0002467;CHEMONTID:0004325;CHEMONTID:0002229;CHEMONTID:0001334;CHEMONTID:0004149;CHEMONTID:0001401
Ontology: Ergostane steroids
OntologyID: CHEMONTID:0003567
RETENTIONTIME: -1
RETENTIONINDEX: -1
TotalBondEnergy: 29892
TotalScore: 5.3921
TotalHrRulesScore: 1
TotalBondCleavageScore: 0.828
TotalMassAccuracyScore: 0.8176
TotalFragmentLinkageScore: 1
TotalBondDissociationEnergyScore: 0.7147
DatabaseScore: 0.2238
SubstructureAssignmentScore: 0
RtSimilarityScore: -1
RiSimilarityScore: 0
Num Fragment VS2 (M/Z Intensity MatchedExactMass SaturatedExactMass Formula RearrangedHydrogen PPM MassDiff_mDa IsEvenElectronRule IsHrRule IsSolventAdductFragment AssignedAdductMass AdductString BondDissociationEnergy TreeDepth SMILES TotalScore HrLikelihood BcLikelihood MaLikelihood FlLikelihood BeLikelihood): 2
279.314391	120953.259347	279.268232265647	278.260955810547	C19H34O	1	165.26	46.16	True	True	False	0		1384	2	O1C2C1(C)CCCC2(C)C(C)C(C=CC(C)C(C)C)C	3.73860255871017	1	0.656099915504456	0.653034210205078	1	0.429468433000633
425.295532	165939.661196	425.305036464866	424.297760009766	C28H40O3	1	22.35	9.5	True	True	False	0		0	0	O=C3C=C2C(=O)CC15(OC45(CCC(C(C=CC(C)C(C)C)C)C4(C)(CCC1C2(C)CC3)))	4.98209524154663	1	1	0.982095241546631	1	1

NAME: UNPD179217
ID: DDLHISCCNYFWOT
IsSpectrumSearch: False
INCHIKEY: DDLHISCCNYFWOT-GFPOZXEMNA-N
SMILES: O=C4C(O)=C(C)C5CCC2(C)(C(CC=C1C3CC(C)(C)CCC3(C(=O)CC12(C)))C5(C)(C4))
RESOURCES: UNPD=UNPD179217
SubstructureInChIKeys: VNWKTOKETHGBQD;XLYOFNOQVPJJNP;VGGSQFUCUMXWEO;WSFSSNUMVMOOMR;OTMSDBZUPAUEDD;QQONPFPTGQHPMA;IKHGUXGNUITLKF;IMROMDMJAWUWLK;ATUOYWHBWRKTHZ;LFQSCWFLJHTTHZ;HGINCPLSRVDWNT;IAQRGUVFOMOMEM;VQTUBCCKSQIDNK;VXNZUUAINFGPBY;CSCPPACGZOOCGX;NBBJYMSMWIIQGU;IJDNQMDRQITEOD;NNPPMTNAJDCUHE;WGCNASOHLSPBMP;BDERNNFJNOPAEC;MLUCVPSAIODCQM;BKOOMYPCSUNDGP;QMMOXUPEWRXHJS;YWAKXRMUMFPDSH;QRFGDGZPNFSNCE;ZTQSAGDEMFDKMZ;OFBQJSOFQDEBGM;QWTDNUCVQCZILF;LRHPLDYGYMQRHN;BEQGRRJLJLVQAQ;LDTAOIUHUHHCMU;LIKMAJRDDDTEIG;RYPKRALMXUUNKS;XDTMQSROBMDMFD;ZQDPJFUHLCOCRG;HGBOYTHUEUWSSQ;AFABGHUZZDYHJO;HNRMPXKDFBEGFZ;PFEOZHBOMNWTJB;VLKZOEOYAKHREP;AMQJEAYHLZJPGS;FWFSEYBSWVRWGL;USLRUYZDOLMIRJ;ADHCYQWFCLQBFG;UAEPNZWRGJTJPN;WZHKDGJSXCTSCK;ZGEGCLOFRBLKSE;JARKCYVAAOWBJS;BZHMBWZPUJHVEE;IMNFDUFMRHMDMM;VLJXXKKOSFGPHI;ZSIAUFGUXNUGDI;RKSNPTXBQXBXDJ;QJXCDRBHYIAFTH;KVZJLSYJROEPSQ;KWKAKUADMBZCLK;QEGNUYASOUJEHD;SGVUHPSBDNVHKL;YXLCVBVDFKWWRW;CATSNJVOTSVZJV;FXHGMKSSBGDXIY;JVSWJIKNEAIKJW;TVMXDCGIABBOFY;NDFYWJZFESRLBQ;ILIUIABCBOXIRX;NUHCEMOQRZEGAQ;NBFKNCBRFJKDDR;IICQZTQZQSBHBY;KPADFPAILITQBG;PYOLJOJPIPCRDP;XARGIVYWQPXRTC;LEBVLOLOVGHEFE;NUJGJRNETVAIRJ;VWLITJGXNSANSN;KABCBIJVOXYNHG;NYFHUVYMLLAQHH;RXFZCBZCGBDPDT;BUOAKQCLRBVIOX;HIVFIUIKABOGIO;YLZKVXHQMPWDBJ;FOCKPZOFYCTNIA;GCLZXEJWFDSXJZ;VTXRDCQMLXABHJ;NXCPHYJTOJDSLE;IRXJZDLOCNJAHE;UNWNSYMIUBZKCZ;OTBOAOSTJYUVHP
SubstructureOntologies: CHEMONTID:0002500;NonID:H2O;CHEMONTID:0004476;CHEMONTID:0001831;CHEMONTID:0002230;CHEMONTID:0000132;CHEMONTID:0000286;CHEMONTID:0002436;CHEMONTID:0004622;CHEMONTID:0000118;CHEMONTID:0002434;CHEMONTID:0004620;CHEMONTID:0001016;CHEMONTID:0004325;CHEMONTID:0002229;CHEMONTID:0001334;CHEMONTID:0004149;CHEMONTID:0001401
Ontology: Triterpenoids
OntologyID: CHEMONTID:0001553
RETENTIONTIME: -1
RETENTIONINDEX: -1
TotalBondEnergy: 29928
TotalScore: 5.3527
TotalHrRulesScore: 1
TotalBondCleavageScore: 0.5006
TotalMassAccuracyScore: 0.8176
TotalFragmentLinkageScore: 1
TotalBondDissociationEnergyScore: 0.761
DatabaseScore: 0.2238
SubstructureAssignmentScore: 0
RtSimilarityScore: -1
RiSimilarityScore: 0
Num Fragment VS2 (M/Z Intensity MatchedExactMass SaturatedExactMass Formula RearrangedHydrogen PPM MassDiff_mDa IsEvenElectronRule IsHrRule IsSolventAdductFragment AssignedAdductMass AdductString BondDissociationEnergy TreeDepth SMILES TotalScore HrLikelihood BcLikelihood MaLikelihood FlLikelihood BeLikelihood): 2
279.314391	120953.259347	279.268232265647	278.260955810547	C19H34O	1	165.26	46.16	True	True	False	0		1640	2	O=C1CC(C)(CC2CC(C)(C)CCC12)C(C)(CC)CC	3.17623960960213	1	0.00128144514746964	0.653034210205078	1	0.521923954249583
425.295532	165939.661196	425.305036464866	424.297760009766	C28H40O3	1	22.35	9.5	True	True	False	0		0	0	O=C4C(O)=C(C)C5CCC2(C)(C(CC=C1C3CC(C)(C)CCC3(C(=O)CC12(C)))C5(C)(C4))	4.98209524154663	1	1	0.982095241546631	1	1

NAME: UNPD74422
ID: UNYDIALNDIIQRC
IsSpectrumSearch: False
INCHIKEY: UNYDIALNDIIQRC-ROMJNYOUNA-N
SMILES: O=C(OC)C(=CCCC(C)C2CCC3C4CCC1=CC(=O)C=CC1(C)C4(CCC23(C)))C
RESOURCES: UNPD=UNPD74422
SubstructureInChIKeys: VNWKTOKETHGBQD;VGGSQFUCUMXWEO;WSFSSNUMVMOOMR;OTMSDBZUPAUEDD;QQONPFPTGQHPMA;IKHGUXGNUITLKF;ATUOYWHBWRKTHZ;LCGLNKUTAGEVQW;HGINCPLSRVDWNT;IAQRGUVFOMOMEM;VQTUBCCKSQIDNK;VXNZUUAINFGPBY;CSCPPACGZOOCGX;NBBJYMSMWIIQGU;XXROGKLTLUQVRX;IJDNQMDRQITEOD;NNPPMTNAJDCUHE;QTBSBXVTEAMEQO;TZIHFWKZFHZASV;BDERNNFJNOPAEC;XOBKSJJDNFUZPF;MLUCVPSAIODCQM;BKOOMYPCSUNDGP;QMMOXUPEWRXHJS;RGSFGYAAUTVSQA;YWAKXRMUMFPDSH;NIXOWILDQLNWCW;OFBQJSOFQDEBGM;QWTDNUCVQCZILF;KXKVLQRXCPHEJC;XBDQKXXYIPTUBI;VNKYTQGIUYNRMY;PRBHEGAFLDMLAL;BEQGRRJLJLVQAQ;GDOPTJXRTPNYNR;LDTAOIUHUHHCMU;LIKMAJRDDDTEIG;RYPKRALMXUUNKS;XDTMQSROBMDMFD;ZQDPJFUHLCOCRG;BAPJBEWLBFYGME;CERQOIWHTDAKMF;NEJDKFPXHQRVMV;AFABGHUZZDYHJO;HNRMPXKDFBEGFZ;PFEOZHBOMNWTJB;VLKZOEOYAKHREP;FMAMSYPJXSEYSW;ADHCYQWFCLQBFG;QWHNJUXXYKPLQM;UAEPNZWRGJTJPN;WZHKDGJSXCTSCK;ZGEGCLOFRBLKSE;BZHMBWZPUJHVEE;IMNFDUFMRHMDMM;VLJXXKKOSFGPHI;GDDAJHJRAKOILH;QJXCDRBHYIAFTH;KVZJLSYJROEPSQ;KWKAKUADMBZCLK;LETYIFNDQBJGPJ;QEGNUYASOUJEHD;SGVUHPSBDNVHKL;YXLCVBVDFKWWRW;JVSWJIKNEAIKJW;TVMXDCGIABBOFY;ILIUIABCBOXIRX;NMFOAHIHPAPYJJ;NUHCEMOQRZEGAQ;IICQZTQZQSBHBY;KPADFPAILITQBG;PYOLJOJPIPCRDP;XARGIVYWQPXRTC;CTIZSKHLELUAOT;GGWBGCSGJCRVIQ;NYFHUVYMLLAQHH;BUOAKQCLRBVIOX;HIVFIUIKABOGIO;YLZKVXHQMPWDBJ;KGBMCONWCCBLAE;VTXRDCQMLXABHJ;NXCPHYJTOJDSLE;IRXJZDLOCNJAHE;UNWNSYMIUBZKCZ;XBENKLBOLWZLNQ;OTBOAOSTJYUVHP
SubstructureOntologies: CHEMONTID:0002500;CHEMONTID:0004476;CHEMONTID:0001831;CHEMONTID:0002230;CHEMONTID:0001167;CHEMONTID:0002436;CHEMONTID:0004622;CHEMONTID:0000118;CHEMONTID:0002434;CHEMONTID:0000286;CHEMONTID:0004620;CHEMONTID:0001205;CHEMONTID:0001238;CHEMONTID:0001016;CHEMONTID:0004451;CHEMONTID:0003416;CHEMONTID:0001019;CHEMONTID:0004452;CHEMONTID:0003487;CHEMONTID:0004149;CHEMONTID:0001401
Ontology: Bile acids, alcohols and derivatives
OntologyID: CHEMONTID:0001445
RETENTIONTIME: -1
RETENTIONINDEX: -1
TotalBondEnergy: 29802
TotalScore: 5.3519
TotalHrRulesScore: 1
TotalBondCleavageScore: 0.5114
TotalMassAccuracyScore: 0.8176
TotalFragmentLinkageScore: 1
TotalBondDissociationEnergyScore: 0.756
DatabaseScore: 0.2238
SubstructureAssignmentScore: 0
RtSimilarityScore: -1
RiSimilarityScore: 0
Num Fragment VS2 (M/Z Intensity MatchedExactMass SaturatedExactMass Formula RearrangedHydrogen PPM MassDiff_mDa IsEvenElectronRule IsHrRule IsSolventAdductFragment AssignedAdductMass AdductString BondDissociationEnergy TreeDepth SMILES TotalScore HrLikelihood BcLikelihood MaLikelihood FlLikelihood BeLikelihood): 2
279.314391	120953.259347	279.268232265647	278.260955810547	C19H34O	1	165.26	46.16	True	True	False	0		1441	2	O(C)CC(=CCCC(C)C2CCC1CCCCC12(C))C	3.18783184226464	1	0.0227812472730875	0.653034210205078	1	0.512016384786474
425.295532	165939.661196	425.305036464866	424.297760009766	C28H40O3	1	22.35	9.5	True	True	False	0		0	0	O=C(OC)C(=CCCC(C)C2CCC3C4CCC1=CC(=O)C=CC1(C)C4(CCC23(C)))C	4.98209524154663	1	1	0.982095241546631	1	1

NAME: UNPD154059
ID: PFOJFEVLTKXQKE
IsSpectrumSearch: False
INCHIKEY: PFOJFEVLTKXQKE-QMDKTVMONA-N
SMILES: O=C(O)C35(CCC(=C)CC5(C2=CCC1C4(C)(CCC(O)C(=C)C4(CCC1(C)C2(C)CC3))))
RESOURCES: UNPD=UNPD154059
SubstructureInChIKeys: VNWKTOKETHGBQD;XLYOFNOQVPJJNP;VGGSQFUCUMXWEO;WSFSSNUMVMOOMR;OTMSDBZUPAUEDD;OKKJLVBELUTLKV;IKHGUXGNUITLKF;ATUOYWHBWRKTHZ;BDAGIHXWWSANSR;LFQSCWFLJHTTHZ;IAQRGUVFOMOMEM;VQTUBCCKSQIDNK;VXNZUUAINFGPBY;NBBJYMSMWIIQGU;XXROGKLTLUQVRX;IJDNQMDRQITEOD;NNPPMTNAJDCUHE;QTBSBXVTEAMEQO;BDERNNFJNOPAEC;KFZMGEQAYNKOFK;BKOOMYPCSUNDGP;QMMOXUPEWRXHJS;YWAKXRMUMFPDSH;MKUWVMRNQOOSAT;ZTQSAGDEMFDKMZ;OFBQJSOFQDEBGM;QWTDNUCVQCZILF;XBDQKXXYIPTUBI;BTANRVKWQNVYAZ;LRHPLDYGYMQRHN;ZXEKIIBDNHEJCQ;BEQGRRJLJLVQAQ;LDTAOIUHUHHCMU;LIKMAJRDDDTEIG;RYPKRALMXUUNKS;XDTMQSROBMDMFD;ZQDPJFUHLCOCRG;HGBOYTHUEUWSSQ;AFABGHUZZDYHJO;HNRMPXKDFBEGFZ;PFEOZHBOMNWTJB;VLKZOEOYAKHREP;FERIUCNNQQJTOY;KQNPFQTWMSNSAP;AMQJEAYHLZJPGS;AQIXEPGDORPWBJ;JYVLIDXNZAXMDK;PHTQWCKDNZKARW;USLRUYZDOLMIRJ;ADHCYQWFCLQBFG;UAEPNZWRGJTJPN;WZHKDGJSXCTSCK;ZGEGCLOFRBLKSE;BVOSSZSHBZQJOI;HPXRVTGHNJAIIH;JARKCYVAAOWBJS;BZHMBWZPUJHVEE;IMNFDUFMRHMDMM;VLJXXKKOSFGPHI;WLAMNBDJUVNPJU;ZSIAUFGUXNUGDI;QJXCDRBHYIAFTH;KVZJLSYJROEPSQ;KWKAKUADMBZCLK;QEGNUYASOUJEHD;SGVUHPSBDNVHKL;YXLCVBVDFKWWRW;FXHGMKSSBGDXIY;MQWCXKGKQLNYQG;PZKFYTOLVRCMOA;JVSWJIKNEAIKJW;TVMXDCGIABBOFY;CETWDUZRCINIHU;ILIUIABCBOXIRX;NUHCEMOQRZEGAQ;IICQZTQZQSBHBY;KPADFPAILITQBG;PYOLJOJPIPCRDP;XARGIVYWQPXRTC;NUJGJRNETVAIRJ;VSMOENVRRABVKN;VWLITJGXNSANSN;ZBAXJUPCYVIBSP;MHPUGCYGQWGLJL;NZQMQVJXSRMTCJ;NYFHUVYMLLAQHH;BUOAKQCLRBVIOX;HIVFIUIKABOGIO;YLZKVXHQMPWDBJ;BQOAKIRTXKZTKD;SOUITUXPBGREAE;VTXRDCQMLXABHJ;NXCPHYJTOJDSLE;IRXJZDLOCNJAHE;UNWNSYMIUBZKCZ;OTBOAOSTJYUVHP;GZURMVKYRIAPGE
SubstructureOntologies: CHEMONTID:0002500;NonID:H2O;CHEMONTID:0004476;CHEMONTID:0001831;CHEMONTID:0000286;CHEMONTID:0002230;CHEMONTID:0001205;CHEMONTID:0004622;CHEMONTID:0002434;CHEMONTID:0004620;CHEMONTID:0001661;CHEMONTID:0001016;CHEMONTID:0000333;CHEMONTID:0002229;CHEMONTID:0002647;CHEMONTID:0003544;CHEMONTID:0001334;CHEMONTID:0003086;CHEMONTID:0001401;CHEMONTID:0001292
Ontology: Cyclic alcohols and derivatives
OntologyID: CHEMONTID:0001292
RETENTIONTIME: -1
RETENTIONINDEX: -1
TotalBondEnergy: 29841
TotalScore: 5.3305
TotalHrRulesScore: 1
TotalBondCleavageScore: 0.5026
TotalMassAccuracyScore: 0.8176
TotalFragmentLinkageScore: 1
TotalBondDissociationEnergyScore: 0.7247
DatabaseScore: 0.2238
SubstructureAssignmentScore: 0
RtSimilarityScore: -1
RiSimilarityScore: 0
Num Fragment VS2 (M/Z Intensity MatchedExactMass SaturatedExactMass Formula RearrangedHydrogen PPM MassDiff_mDa IsEvenElectronRule IsHrRule IsSolventAdductFragment AssignedAdductMass AdductString BondDissociationEnergy TreeDepth SMILES TotalScore HrLikelihood BcLikelihood MaLikelihood FlLikelihood BeLikelihood): 2
279.314391	120953.259347	279.268232265647	278.260955810547	C19H34O	1	165.26	46.16	True	True	False	0		1640	2	OC1C(=C)C2CCC(C)(C(C)C2(C)(CC1))C(C)(C)CC	3.10754453883757	1	0.00512578058987856	0.653034210205078	1	0.449384548042614
425.295532	165939.661196	425.305036464866	424.297760009766	C28H40O3	1	22.35	9.5	True	True	False	0		0	0	O=C(O)C35(CCC(=C)CC5(C2=CCC1C4(C)(CCC(O)C(=C)C4(CCC1(C)C2(C)CC3))))	4.98209524154663	1	1	0.982095241546631	1	1

NAME: UNPD201792
ID: FNLOAPUFYUFXNF
IsSpectrumSearch: False
INCHIKEY: FNLOAPUFYUFXNF-QODBUOSGSA-N
SMILES: O=C(O)C(=CCCC(=CCCC(=CCC=1C=C(C=C(C=1(O))C)C)C)C)CCC=C(C)C
RESOURCES: UNPD=UNPD201792
SubstructureInChIKeys: VNWKTOKETHGBQD;XLYOFNOQVPJJNP;VGGSQFUCUMXWEO;WSFSSNUMVMOOMR;OTMSDBZUPAUEDD;QQONPFPTGQHPMA;IKHGUXGNUITLKF;ATUOYWHBWRKTHZ;BDAGIHXWWSANSR;LFQSCWFLJHTTHZ;HGINCPLSRVDWNT;IAQRGUVFOMOMEM;VQTUBCCKSQIDNK;VXNZUUAINFGPBY;NBBJYMSMWIIQGU;XXROGKLTLUQVRX;IJDNQMDRQITEOD;QTBSBXVTEAMEQO;BDERNNFJNOPAEC;MLUCVPSAIODCQM;BKOOMYPCSUNDGP;QMMOXUPEWRXHJS;YWAKXRMUMFPDSH;NIXOWILDQLNWCW;ZTQSAGDEMFDKMZ;OFBQJSOFQDEBGM;XBDQKXXYIPTUBI;LRHPLDYGYMQRHN;UHOVQNZJYSORNB;BEQGRRJLJLVQAQ;LIKMAJRDDDTEIG;RYPKRALMXUUNKS;ZQDPJFUHLCOCRG;CERQOIWHTDAKMF;HGBOYTHUEUWSSQ;NEJDKFPXHQRVMV;FERIUCNNQQJTOY;AMQJEAYHLZJPGS;YXFVVABEGXRONW;ISWSIDIOOBJBQZ;USLRUYZDOLMIRJ;WZHKDGJSXCTSCK;NQPDZGIKBAWPEJ;YNQLUTRBYVCPMQ;IWDCLRJOBJJRNH;UDOAKURRCZMWOJ;HMNKTRSOROOSPP;HXDOZKJGKXYMEW;KPADFPAILITQBG;KPSZWAJWFMFMFF
SubstructureOntologies: CHEMONTID:0002500;NonID:H2O;CHEMONTID:0004476;CHEMONTID:0001831;CHEMONTID:0002230;CHEMONTID:0001205;CHEMONTID:0000286;CHEMONTID:0002436;CHEMONTID:0004622;CHEMONTID:0002434;CHEMONTID:0004451;CHEMONTID:0002279;CHEMONTID:0000333;CHEMONTID:0001091;CHEMONTID:0004647;CHEMONTID:0002229;CHEMONTID:0001275;CHEMONTID:0004646;CHEMONTID:0003086
Ontology: Diterpenoids
OntologyID: CHEMONTID:0001551
RETENTIONTIME: -1
RETENTIONINDEX: -1
TotalBondEnergy: 29481
TotalScore: 4.8451
TotalHrRulesScore: 0.5
TotalBondCleavageScore: 0.5
TotalMassAccuracyScore: 0.491
TotalFragmentLinkageScore: 0.5
TotalBondDissociationEnergyScore: 0.5
DatabaseScore: 0.2238
SubstructureAssignmentScore: 0
RtSimilarityScore: -1
RiSimilarityScore: 0
Num Fragment VS2 (M/Z Intensity MatchedExactMass SaturatedExactMass Formula RearrangedHydrogen PPM MassDiff_mDa IsEvenElectronRule IsHrRule IsSolventAdductFragment AssignedAdductMass AdductString BondDissociationEnergy TreeDepth SMILES TotalScore HrLikelihood BcLikelihood MaLikelihood FlLikelihood BeLikelihood): 1
425.295532	165939.661196	425.305036464866	424.297760009766	C28H40O3	1	22.35	9.5	True	True	False	0		0	0	O=C(O)C(=CCCC(=CCCC(=CCC=1C=C(C=C(C=1(O))C)C)C)C)CCC=C(C)C	4.98209524154663	1	1	0.982095241546631	1	1

NAME: UNPD130438
ID: FTUGJEDDHXBMPK
IsSpectrumSearch: False
INCHIKEY: FTUGJEDDHXBMPK-DKKPLQGMNA-N
SMILES: O=C(OC1(CC=C(C)CC1)C(C)C)C2=CC(=C(OC)C(=C2)CC=C(C)C)CC=C(C)C
RESOURCES: UNPD=UNPD130438
SubstructureInChIKeys: VNWKTOKETHGBQD;VGGSQFUCUMXWEO;WSFSSNUMVMOOMR;OTMSDBZUPAUEDD;QQONPFPTGQHPMA;IKHGUXGNUITLKF;ATUOYWHBWRKTHZ;LCGLNKUTAGEVQW;IAQRGUVFOMOMEM;VQTUBCCKSQIDNK;VXNZUUAINFGPBY;IJDNQMDRQITEOD;NNPPMTNAJDCUHE;QTBSBXVTEAMEQO;TZIHFWKZFHZASV;BDERNNFJNOPAEC;XOBKSJJDNFUZPF;BKOOMYPCSUNDGP;QMMOXUPEWRXHJS;YWAKXRMUMFPDSH;ZSPTYLOMNJNZNG;OFBQJSOFQDEBGM;QWTDNUCVQCZILF;KXKVLQRXCPHEJC;WBJINCZRORDGAQ;LRHPLDYGYMQRHN;VNKYTQGIUYNRMY;ZXEKIIBDNHEJCQ;UHOVQNZJYSORNB;BEQGRRJLJLVQAQ;LIKMAJRDDDTEIG;RYPKRALMXUUNKS;ZQDPJFUHLCOCRG;FSUXYWPILZJGCC;AFABGHUZZDYHJO;PFEOZHBOMNWTJB;VLKZOEOYAKHREP;XEKOWRVHYACXOJ;AMQJEAYHLZJPGS;AQIXEPGDORPWBJ;FVNIMHIOIXPIQT;JYVLIDXNZAXMDK;MXLMTQWGSQIYOW;YXFVVABEGXRONW;ISWSIDIOOBJBQZ;WZHKDGJSXCTSCK;ZGEGCLOFRBLKSE;UFLHIIWVXFIJGU;IMNFDUFMRHMDMM;VLJXXKKOSFGPHI;HUMNYLRZRPPJDN;YNQLUTRBYVCPMQ;IWDCLRJOBJJRNH;RDOXTESZEPMUJZ;WVDDGKGOMKODPV;KWKAKUADMBZCLK;JVSWJIKNEAIKJW;SMQUZDBALVYZAC;WPYMKLBDIGXBTP;CHLICZRVGGXEOD;HMNKTRSOROOSPP;HXDOZKJGKXYMEW;BVJSUAQZOZWCKN;KPADFPAILITQBG;LZHHQGKEJNRBAZ;QPJVMBTYPHYUOC;DWLZULQNIPIABE;HDNRAPAFJLXKBV;IIGNZLVHOZEOPV;NOTCZLKDULMKBR
SubstructureOntologies: CHEMONTID:0002500;CHEMONTID:0004476;CHEMONTID:0001831;CHEMONTID:0002230;CHEMONTID:0001167;CHEMONTID:0004622;CHEMONTID:0004620;CHEMONTID:0001205;CHEMONTID:0001238;CHEMONTID:0000286;CHEMONTID:0003416;CHEMONTID:0002279;CHEMONTID:0001661;CHEMONTID:0001091;CHEMONTID:0004647;CHEMONTID:0001334;CHEMONTID:0000321;CHEMONTID:0001275;CHEMONTID:0000138;CHEMONTID:0000033;CHEMONTID:0003978;CHEMONTID:0002565;CHEMONTID:0004646;CHEMONTID:0001350;CHEMONTID:0000190
Ontology: P-methoxybenzoic acids and derivatives
OntologyID: CHEMONTID:0002346
RETENTIONTIME: -1
RETENTIONINDEX: -1
TotalBondEnergy: 29499
TotalScore: 4.8451
TotalHrRulesScore: 0.5
TotalBondCleavageScore: 0.5
TotalMassAccuracyScore: 0.491
TotalFragmentLinkageScore: 0.5
TotalBondDissociationEnergyScore: 0.5
DatabaseScore: 0.2238
SubstructureAssignmentScore: 0
RtSimilarityScore: -1
RiSimilarityScore: 0
Num Fragment VS2 (M/Z Intensity MatchedExactMass SaturatedExactMass Formula RearrangedHydrogen PPM MassDiff_mDa IsEvenElectronRule IsHrRule IsSolventAdductFragment AssignedAdductMass AdductString BondDissociationEnergy TreeDepth SMILES TotalScore HrLikelihood BcLikelihood MaLikelihood FlLikelihood BeLikelihood): 1
425.295532	165939.661196	425.305036464866	424.297760009766	C28H40O3	1	22.35	9.5	True	True	False	0		0	0	O=C(OC1(CC=C(C)CC1)C(C)C)C2=CC(=C(OC)C(=C2)CC=C(C)C)CC=C(C)C	4.98209524154663	1	1	0.982095241546631	1	1

NAME: UNPD198045
ID: HSRKDEUTHACTMM
IsSpectrumSearch: False
INCHIKEY: HSRKDEUTHACTMM-VYGUVQDUNA-N
SMILES: O=C2C=C1CC(O)CCC1(C3=C2C4C(=O)CC(C(C=CC(C)C(C)C)C)C4(C)(CC3))C
RESOURCES: UNPD=UNPD198045
SubstructureInChIKeys: VNWKTOKETHGBQD;XLYOFNOQVPJJNP;VGGSQFUCUMXWEO;WSFSSNUMVMOOMR;OTMSDBZUPAUEDD;OKKJLVBELUTLKV;IKHGUXGNUITLKF;ATUOYWHBWRKTHZ;LFQSCWFLJHTTHZ;HGINCPLSRVDWNT;IAQRGUVFOMOMEM;VQTUBCCKSQIDNK;VXNZUUAINFGPBY;CSCPPACGZOOCGX;NBBJYMSMWIIQGU;IJDNQMDRQITEOD;NNPPMTNAJDCUHE;BDERNNFJNOPAEC;KFZMGEQAYNKOFK;MLUCVPSAIODCQM;BKOOMYPCSUNDGP;QMMOXUPEWRXHJS;RGSFGYAAUTVSQA;YWAKXRMUMFPDSH;ZSPTYLOMNJNZNG;ZTQSAGDEMFDKMZ;OFBQJSOFQDEBGM;QWTDNUCVQCZILF;BTANRVKWQNVYAZ;LRHPLDYGYMQRHN;PRBHEGAFLDMLAL;BEQGRRJLJLVQAQ;GDOPTJXRTPNYNR;LDTAOIUHUHHCMU;LIKMAJRDDDTEIG;RYPKRALMXUUNKS;XDTMQSROBMDMFD;ZQDPJFUHLCOCRG;FSUXYWPILZJGCC;HGBOYTHUEUWSSQ;AFABGHUZZDYHJO;HNRMPXKDFBEGFZ;PFEOZHBOMNWTJB;VLKZOEOYAKHREP;AMQJEAYHLZJPGS;AQIXEPGDORPWBJ;JYVLIDXNZAXMDK;FMAMSYPJXSEYSW;USLRUYZDOLMIRJ;ADHCYQWFCLQBFG;QWHNJUXXYKPLQM;UAEPNZWRGJTJPN;WZHKDGJSXCTSCK;ZGEGCLOFRBLKSE;HPXRVTGHNJAIIH;JARKCYVAAOWBJS;UFLHIIWVXFIJGU;BZHMBWZPUJHVEE;IMNFDUFMRHMDMM;VLJXXKKOSFGPHI;ZSIAUFGUXNUGDI;JORKABJLEXAPFV;GDDAJHJRAKOILH;QJXCDRBHYIAFTH;UDOAKURRCZMWOJ;KVZJLSYJROEPSQ;KWKAKUADMBZCLK;LETYIFNDQBJGPJ;QEGNUYASOUJEHD;SGVUHPSBDNVHKL;YXLCVBVDFKWWRW;CATSNJVOTSVZJV;FXHGMKSSBGDXIY;MQWCXKGKQLNYQG;JVSWJIKNEAIKJW;TVMXDCGIABBOFY;CETWDUZRCINIHU;ILIUIABCBOXIRX;NMFOAHIHPAPYJJ;NUHCEMOQRZEGAQ;ZUSUVEKHEZURSD;IICQZTQZQSBHBY;KPADFPAILITQBG;XARGIVYWQPXRTC;LEBVLOLOVGHEFE;NUJGJRNETVAIRJ;VWLITJGXNSANSN;ZBAXJUPCYVIBSP;CTIZSKHLELUAOT;NYFHUVYMLLAQHH;HIVFIUIKABOGIO;SOUITUXPBGREAE;GCLZXEJWFDSXJZ;NUQYJMDNHVQOME
SubstructureOntologies: CHEMONTID:0002500;NonID:H2O;CHEMONTID:0004476;CHEMONTID:0001831;CHEMONTID:0000286;CHEMONTID:0002230;CHEMONTID:0002436;CHEMONTID:0004622;CHEMONTID:0000118;CHEMONTID:0002434;CHEMONTID:0004620;CHEMONTID:0001661;CHEMONTID:0001016;CHEMONTID:0001019;CHEMONTID:0002229;CHEMONTID:0002647;CHEMONTID:0001334;CHEMONTID:0003487;CHEMONTID:0004149;NonID:Cholesteryl ester-lipid fragment
Ontology: Ergosterols and derivatives
OntologyID: CHEMONTID:0001403
RETENTIONTIME: -1
RETENTIONINDEX: -1
TotalBondEnergy: 29838
TotalScore: 4.8451
TotalHrRulesScore: 0.5
TotalBondCleavageScore: 0.5
TotalMassAccuracyScore: 0.491
TotalFragmentLinkageScore: 0.5
TotalBondDissociationEnergyScore: 0.5
DatabaseScore: 0.2238
SubstructureAssignmentScore: 0
RtSimilarityScore: -1
RiSimilarityScore: 0
Num Fragment VS2 (M/Z Intensity MatchedExactMass SaturatedExactMass Formula RearrangedHydrogen PPM MassDiff_mDa IsEvenElectronRule IsHrRule IsSolventAdductFragment AssignedAdductMass AdductString BondDissociationEnergy TreeDepth SMILES TotalScore HrLikelihood BcLikelihood MaLikelihood FlLikelihood BeLikelihood): 1
425.295532	165939.661196	425.305036464866	424.297760009766	C28H40O3	1	22.35	9.5	True	True	False	0		0	0	O=C2C=C1CC(O)CCC1(C3=C2C4C(=O)CC(C(C=CC(C)C(C)C)C)C4(C)(CC3))C	4.98209524154663	1	1	0.982095241546631	1	1

NAME: UNPD199505
ID: KWRMKPPRYRRMKO
IsSpectrumSearch: False
INCHIKEY: KWRMKPPRYRRMKO-QMCSRMPWSA-N
SMILES: O=C(O)CC=1C=CC(O)=C(C=1)CC=C(C)CCC=C(C)CCC=C(C)CCC=C(C)C
RESOURCES: UNPD=UNPD199505;UNPD28244;UNPD218303
SubstructureInChIKeys: VNWKTOKETHGBQD;XLYOFNOQVPJJNP;VGGSQFUCUMXWEO;WSFSSNUMVMOOMR;OTMSDBZUPAUEDD;QQONPFPTGQHPMA;IKHGUXGNUITLKF;ATUOYWHBWRKTHZ;BDAGIHXWWSANSR;LFQSCWFLJHTTHZ;IAQRGUVFOMOMEM;VQTUBCCKSQIDNK;VXNZUUAINFGPBY;NBBJYMSMWIIQGU;IJDNQMDRQITEOD;QTBSBXVTEAMEQO;BDERNNFJNOPAEC;BKOOMYPCSUNDGP;QMMOXUPEWRXHJS;YWAKXRMUMFPDSH;OFBQJSOFQDEBGM;XBDQKXXYIPTUBI;UHOVQNZJYSORNB;BEQGRRJLJLVQAQ;LIKMAJRDDDTEIG;RYPKRALMXUUNKS;ZQDPJFUHLCOCRG;YXFVVABEGXRONW;ISWSIDIOOBJBQZ;WZHKDGJSXCTSCK;YNQLUTRBYVCPMQ;IWDCLRJOBJJRNH;HMNKTRSOROOSPP;HXDOZKJGKXYMEW;WRMNZCZEMHIOCP;KPADFPAILITQBG;YCCILVSKPBXVIP
SubstructureOntologies: CHEMONTID:0002500;NonID:H2O;CHEMONTID:0004476;CHEMONTID:0001831;CHEMONTID:0002230;CHEMONTID:0001205;CHEMONTID:0000286;CHEMONTID:0004622;CHEMONTID:0002434;CHEMONTID:0002279;CHEMONTID:0001091;CHEMONTID:0004647;CHEMONTID:0001275;CHEMONTID:0004646;CHEMONTID:0003698
Ontology: Diterpenoids
OntologyID: CHEMONTID:0001551
RETENTIONTIME: -1
RETENTIONINDEX: -1
TotalBondEnergy: 29481
TotalScore: 4.8451
TotalHrRulesScore: 0.5
TotalBondCleavageScore: 0.5
TotalMassAccuracyScore: 0.491
TotalFragmentLinkageScore: 0.5
TotalBondDissociationEnergyScore: 0.5
DatabaseScore: 0.2238
SubstructureAssignmentScore: 0
RtSimilarityScore: -1
RiSimilarityScore: 0
Num Fragment VS2 (M/Z Intensity MatchedExactMass SaturatedExactMass Formula RearrangedHydrogen PPM MassDiff_mDa IsEvenElectronRule IsHrRule IsSolventAdductFragment AssignedAdductMass AdductString BondDissociationEnergy TreeDepth SMILES TotalScore HrLikelihood BcLikelihood MaLikelihood FlLikelihood BeLikelihood): 1
425.295532	165939.661196	425.305036464866	424.297760009766	C28H40O3	1	22.35	9.5	True	True	False	0		0	0	O=C(O)CC=1C=CC(O)=C(C=1)CC=C(C)CCC=C(C)CCC=C(C)CCC=C(C)C	4.98209524154663	1	1	0.982095241546631	1	1

NAME: UNPD15384
ID: LLZRFIAZMYTVEN
IsSpectrumSearch: False
INCHIKEY: LLZRFIAZMYTVEN-PVNBJRETNA-N
SMILES: O=C(OC)C=1C=CC(OCC=C(C)C)=C(C=1)CC3(C)(C(C)CCC2(C(=C)CCCC23)(C))
RESOURCES: UNPD=UNPD15384
SubstructureInChIKeys: VNWKTOKETHGBQD;VGGSQFUCUMXWEO;WSFSSNUMVMOOMR;OTMSDBZUPAUEDD;QQONPFPTGQHPMA;IKHGUXGNUITLKF;ATUOYWHBWRKTHZ;LCGLNKUTAGEVQW;IAQRGUVFOMOMEM;VQTUBCCKSQIDNK;VXNZUUAINFGPBY;XXROGKLTLUQVRX;IJDNQMDRQITEOD;NNPPMTNAJDCUHE;QTBSBXVTEAMEQO;TZIHFWKZFHZASV;XOBKSJJDNFUZPF;BKOOMYPCSUNDGP;YWAKXRMUMFPDSH;OFBQJSOFQDEBGM;QWTDNUCVQCZILF;KXKVLQRXCPHEJC;UHOVQNZJYSORNB;LDTAOIUHUHHCMU;LIKMAJRDDDTEIG;XDTMQSROBMDMFD;AFABGHUZZDYHJO;HNRMPXKDFBEGFZ;PFEOZHBOMNWTJB;VLKZOEOYAKHREP;YXFVVABEGXRONW;ISWSIDIOOBJBQZ;ADHCYQWFCLQBFG;UAEPNZWRGJTJPN;ZGEGCLOFRBLKSE;BZHMBWZPUJHVEE;IMNFDUFMRHMDMM;VLJXXKKOSFGPHI;HUMNYLRZRPPJDN;YNQLUTRBYVCPMQ;IWDCLRJOBJJRNH;RDOXTESZEPMUJZ;WVDDGKGOMKODPV;QJXCDRBHYIAFTH;KVZJLSYJROEPSQ;KWKAKUADMBZCLK;QEGNUYASOUJEHD;SGVUHPSBDNVHKL;YXLCVBVDFKWWRW;JVSWJIKNEAIKJW;TVMXDCGIABBOFY;ODLMAHJVESYWTB;SMQUZDBALVYZAC;WPYMKLBDIGXBTP;CHLICZRVGGXEOD;DLRJIFUOBPOJNS;HMNKTRSOROOSPP;HXDOZKJGKXYMEW;BVJSUAQZOZWCKN;ILIUIABCBOXIRX;PYOLJOJPIPCRDP;XARGIVYWQPXRTC;QPJVMBTYPHYUOC;DWLZULQNIPIABE;HDNRAPAFJLXKBV;MPWGZBWDLMDIHO;IIGNZLVHOZEOPV;NOTCZLKDULMKBR;NYFHUVYMLLAQHH;BUOAKQCLRBVIOX;HIVFIUIKABOGIO;YLZKVXHQMPWDBJ;MQSXUKPGWMJYBT;VTXRDCQMLXABHJ;NXCPHYJTOJDSLE;IRXJZDLOCNJAHE;UNWNSYMIUBZKCZ;ZBTPMRFIHVRWEM;HRMIBYZWBMSUHC;DBFVUHASLXHZCE
SubstructureOntologies: CHEMONTID:0002500;CHEMONTID:0004476;CHEMONTID:0001831;CHEMONTID:0002230;CHEMONTID:0001167;CHEMONTID:0004622;CHEMONTID:0000286;CHEMONTID:0004620;CHEMONTID:0001205;CHEMONTID:0001238;CHEMONTID:0003416;CHEMONTID:0002279;CHEMONTID:0001016;CHEMONTID:0001091;CHEMONTID:0004647;CHEMONTID:0000321;CHEMONTID:0001275;CHEMONTID:0000138;CHEMONTID:0000033;CHEMONTID:0002811;CHEMONTID:0003978;CHEMONTID:0002565;CHEMONTID:0002341;CHEMONTID:0004646;CHEMONTID:0001350;CHEMONTID:0000190;CHEMONTID:0002345
Ontology: Benzoic acid esters
OntologyID: CHEMONTID:0001350
RETENTIONTIME: -1
RETENTIONINDEX: -1
TotalBondEnergy: 29589
TotalScore: 4.8451
TotalHrRulesScore: 0.5
TotalBondCleavageScore: 0.5
TotalMassAccuracyScore: 0.491
TotalFragmentLinkageScore: 0.5
TotalBondDissociationEnergyScore: 0.5
DatabaseScore: 0.2238
SubstructureAssignmentScore: 0
RtSimilarityScore: -1
RiSimilarityScore: 0
Num Fragment VS2 (M/Z Intensity MatchedExactMass SaturatedExactMass Formula RearrangedHydrogen PPM MassDiff_mDa IsEvenElectronRule IsHrRule IsSolventAdductFragment AssignedAdductMass AdductString BondDissociationEnergy TreeDepth SMILES TotalScore HrLikelihood BcLikelihood MaLikelihood FlLikelihood BeLikelihood): 1
425.295532	165939.661196	425.305036464866	424.297760009766	C28H40O3	1	22.35	9.5	True	True	False	0		0	0	O=C(OC)C=1C=CC(OCC=C(C)C)=C(C=1)CC3(C)(C(C)CCC2(C(=C)CCCC23)(C))	4.98209524154663	1	1	0.982095241546631	1	1

NAME: UNPD85250
ID: OIYMSAOAFKGCMV
IsSpectrumSearch: False
INCHIKEY: OIYMSAOAFKGCMV-LBMCAISMNA-N
SMILES: O=C(OC4CC1C(C=CCC1(C)(C))(C)C5CCC3(C)(C(C2=COC=C2)CCC3C45(C)))C
RESOURCES: UNPD=UNPD85250
SubstructureInChIKeys: VNWKTOKETHGBQD;VGGSQFUCUMXWEO;WSFSSNUMVMOOMR;OTMSDBZUPAUEDD;IKHGUXGNUITLKF;ATUOYWHBWRKTHZ;LCGLNKUTAGEVQW;IAQRGUVFOMOMEM;VXNZUUAINFGPBY;IJDNQMDRQITEOD;NNPPMTNAJDCUHE;QTBSBXVTEAMEQO;TZIHFWKZFHZASV;BDERNNFJNOPAEC;XOBKSJJDNFUZPF;QMMOXUPEWRXHJS;RGSFGYAAUTVSQA;YWAKXRMUMFPDSH;OFBQJSOFQDEBGM;QWTDNUCVQCZILF;KXKVLQRXCPHEJC;WBJINCZRORDGAQ;LRHPLDYGYMQRHN;VNKYTQGIUYNRMY;ZXEKIIBDNHEJCQ;GDOPTJXRTPNYNR;LDTAOIUHUHHCMU;LIKMAJRDDDTEIG;RYPKRALMXUUNKS;XDTMQSROBMDMFD;ZQDPJFUHLCOCRG;AFABGHUZZDYHJO;HNRMPXKDFBEGFZ;PFEOZHBOMNWTJB;VLKZOEOYAKHREP;XEKOWRVHYACXOJ;AMQJEAYHLZJPGS;AQIXEPGDORPWBJ;FVNIMHIOIXPIQT;JYVLIDXNZAXMDK;MXLMTQWGSQIYOW;PHTQWCKDNZKARW;QWHNJUXXYKPLQM;UAEPNZWRGJTJPN;WZHKDGJSXCTSCK;ZGEGCLOFRBLKSE;HPXRVTGHNJAIIH;BZHMBWZPUJHVEE;IMNFDUFMRHMDMM;VLJXXKKOSFGPHI;ZSIAUFGUXNUGDI;KVZJLSYJROEPSQ;KWKAKUADMBZCLK;LETYIFNDQBJGPJ;QEGNUYASOUJEHD;SGVUHPSBDNVHKL;MQWCXKGKQLNYQG;JVSWJIKNEAIKJW;TVMXDCGIABBOFY;CETWDUZRCINIHU;OVOVDHYEOQJKMD;IICQZTQZQSBHBY;KPADFPAILITQBG;PYOLJOJPIPCRDP;XARGIVYWQPXRTC;ZBAXJUPCYVIBSP;GGWBGCSGJCRVIQ;BUOAKQCLRBVIOX;HIVFIUIKABOGIO;YLZKVXHQMPWDBJ;SOUITUXPBGREAE;GCLZXEJWFDSXJZ;KGBMCONWCCBLAE;VTXRDCQMLXABHJ;IRXJZDLOCNJAHE;XBENKLBOLWZLNQ;OTBOAOSTJYUVHP;GZURMVKYRIAPGE;HZNDJPAXRXLIOU
SubstructureOntologies: CHEMONTID:0002500;CHEMONTID:0004476;CHEMONTID:0001831;CHEMONTID:0002230;CHEMONTID:0001167;CHEMONTID:0004620;CHEMONTID:0001205;CHEMONTID:0001238;CHEMONTID:0000286;CHEMONTID:0001016;CHEMONTID:0003416;CHEMONTID:0001661;CHEMONTID:0002647;CHEMONTID:0001334;CHEMONTID:0004149;CHEMONTID:0001401;CHEMONTID:0001292
Ontology: Limonoids
OntologyID: CHEMONTID:0002380
RETENTIONTIME: -1
RETENTIONINDEX: -1
TotalBondEnergy: 29769
TotalScore: 4.8451
TotalHrRulesScore: 0.5
TotalBondCleavageScore: 0.5
TotalMassAccuracyScore: 0.491
TotalFragmentLinkageScore: 0.5
TotalBondDissociationEnergyScore: 0.5
DatabaseScore: 0.2238
SubstructureAssignmentScore: 0
RtSimilarityScore: -1
RiSimilarityScore: 0
Num Fragment VS2 (M/Z Intensity MatchedExactMass SaturatedExactMass Formula RearrangedHydrogen PPM MassDiff_mDa IsEvenElectronRule IsHrRule IsSolventAdductFragment AssignedAdductMass AdductString BondDissociationEnergy TreeDepth SMILES TotalScore HrLikelihood BcLikelihood MaLikelihood FlLikelihood BeLikelihood): 1
425.295532	165939.661196	425.305036464866	424.297760009766	C28H40O3	1	22.35	9.5	True	True	False	0		0	0	O=C(OC4CC1C(C=CCC1(C)(C))(C)C5CCC3(C)(C(C2=COC=C2)CCC3C45(C)))C	4.98209524154663	1	1	0.982095241546631	1	1

NAME: UNPD28246
ID: UEDRNSGNDIOZJT
IsSpectrumSearch: False
INCHIKEY: UEDRNSGNDIOZJT-CTXABYMZSA-N
SMILES: O=C(OC)C=1C=CC(O)=C(C=1)CC=C(C)CCC=C(C)CCC=C(C)CCC=C(C)C
RESOURCES: UNPD=UNPD28246;UNPD211901
SubstructureInChIKeys: VNWKTOKETHGBQD;XLYOFNOQVPJJNP;VGGSQFUCUMXWEO;WSFSSNUMVMOOMR;OTMSDBZUPAUEDD;QQONPFPTGQHPMA;IKHGUXGNUITLKF;ATUOYWHBWRKTHZ;LCGLNKUTAGEVQW;IAQRGUVFOMOMEM;VQTUBCCKSQIDNK;VXNZUUAINFGPBY;IJDNQMDRQITEOD;QTBSBXVTEAMEQO;TZIHFWKZFHZASV;XOBKSJJDNFUZPF;BKOOMYPCSUNDGP;QMMOXUPEWRXHJS;YWAKXRMUMFPDSH;OFBQJSOFQDEBGM;KXKVLQRXCPHEJC;UHOVQNZJYSORNB;BEQGRRJLJLVQAQ;LIKMAJRDDDTEIG;RYPKRALMXUUNKS;ZQDPJFUHLCOCRG;YXFVVABEGXRONW;ISWSIDIOOBJBQZ;WZHKDGJSXCTSCK;HUMNYLRZRPPJDN;YNQLUTRBYVCPMQ;IWDCLRJOBJJRNH;WVDDGKGOMKODPV;SMQUZDBALVYZAC;WPYMKLBDIGXBTP;HMNKTRSOROOSPP;HXDOZKJGKXYMEW;BVJSUAQZOZWCKN;KPADFPAILITQBG;QPJVMBTYPHYUOC
SubstructureOntologies: CHEMONTID:0002500;NonID:H2O;CHEMONTID:0004476;CHEMONTID:0001831;CHEMONTID:0002230;CHEMONTID:0001167;CHEMONTID:0004622;CHEMONTID:0001205;CHEMONTID:0001238;CHEMONTID:0003416;CHEMONTID:0002279;CHEMONTID:0001091;CHEMONTID:0004647;CHEMONTID:0000321;CHEMONTID:0001275;CHEMONTID:0000033;CHEMONTID:0003978;CHEMONTID:0002565;CHEMONTID:0004646;CHEMONTID:0001350
Ontology: Diterpenoids
OntologyID: CHEMONTID:0001551
RETENTIONTIME: -1
RETENTIONINDEX: -1
TotalBondEnergy: 29445
TotalScore: 4.8451
TotalHrRulesScore: 0.5
TotalBondCleavageScore: 0.5
TotalMassAccuracyScore: 0.491
TotalFragmentLinkageScore: 0.5
TotalBondDissociationEnergyScore: 0.5
DatabaseScore: 0.2238
SubstructureAssignmentScore: 0
RtSimilarityScore: -1
RiSimilarityScore: 0
Num Fragment VS2 (M/Z Intensity MatchedExactMass SaturatedExactMass Formula RearrangedHydrogen PPM MassDiff_mDa IsEvenElectronRule IsHrRule IsSolventAdductFragment AssignedAdductMass AdductString BondDissociationEnergy TreeDepth SMILES TotalScore HrLikelihood BcLikelihood MaLikelihood FlLikelihood BeLikelihood): 1
425.295532	165939.661196	425.305036464866	424.297760009766	C28H40O3	1	22.35	9.5	True	True	False	0		0	0	O=C(OC)C=1C=CC(O)=C(C=1)CC=C(C)CCC=C(C)CCC=C(C)CCC=C(C)C	4.98209524154663	1	1	0.982095241546631	1	1

NAME: UNPD198049
ID: UHHQPKKABSPLSY
IsSpectrumSearch: False
INCHIKEY: UHHQPKKABSPLSY-XPTCPRMDNA-N
SMILES: O=C2C=C1CC(O)CCC1(C)C4C2=C3C(=O)CC(C(C=CC(C)C(C)C)C)C3(C)CC4
RESOURCES: UNPD=UNPD198049
SubstructureInChIKeys: VNWKTOKETHGBQD;XLYOFNOQVPJJNP;VGGSQFUCUMXWEO;WSFSSNUMVMOOMR;OTMSDBZUPAUEDD;OKKJLVBELUTLKV;IKHGUXGNUITLKF;ATUOYWHBWRKTHZ;LFQSCWFLJHTTHZ;HGINCPLSRVDWNT;IAQRGUVFOMOMEM;VQTUBCCKSQIDNK;VXNZUUAINFGPBY;CSCPPACGZOOCGX;NBBJYMSMWIIQGU;IJDNQMDRQITEOD;NNPPMTNAJDCUHE;BDERNNFJNOPAEC;KFZMGEQAYNKOFK;MLUCVPSAIODCQM;BKOOMYPCSUNDGP;QMMOXUPEWRXHJS;RGSFGYAAUTVSQA;YWAKXRMUMFPDSH;ZSPTYLOMNJNZNG;ZTQSAGDEMFDKMZ;OFBQJSOFQDEBGM;QWTDNUCVQCZILF;BTANRVKWQNVYAZ;LRHPLDYGYMQRHN;PRBHEGAFLDMLAL;BEQGRRJLJLVQAQ;GDOPTJXRTPNYNR;LDTAOIUHUHHCMU;LIKMAJRDDDTEIG;RYPKRALMXUUNKS;XDTMQSROBMDMFD;ZQDPJFUHLCOCRG;FSUXYWPILZJGCC;HGBOYTHUEUWSSQ;AFABGHUZZDYHJO;HNRMPXKDFBEGFZ;PFEOZHBOMNWTJB;VLKZOEOYAKHREP;AMQJEAYHLZJPGS;AQIXEPGDORPWBJ;JYVLIDXNZAXMDK;FWFSEYBSWVRWGL;FMAMSYPJXSEYSW;USLRUYZDOLMIRJ;ADHCYQWFCLQBFG;QWHNJUXXYKPLQM;UAEPNZWRGJTJPN;WZHKDGJSXCTSCK;ZGEGCLOFRBLKSE;HPXRVTGHNJAIIH;JARKCYVAAOWBJS;UFLHIIWVXFIJGU;BZHMBWZPUJHVEE;IMNFDUFMRHMDMM;VLJXXKKOSFGPHI;ZSIAUFGUXNUGDI;GDDAJHJRAKOILH;QJXCDRBHYIAFTH;UDOAKURRCZMWOJ;KVZJLSYJROEPSQ;KWKAKUADMBZCLK;LETYIFNDQBJGPJ;QEGNUYASOUJEHD;SGVUHPSBDNVHKL;YXLCVBVDFKWWRW;CATSNJVOTSVZJV;FXHGMKSSBGDXIY;MQWCXKGKQLNYQG;JVSWJIKNEAIKJW;TVMXDCGIABBOFY;CETWDUZRCINIHU;NDFYWJZFESRLBQ;ILIUIABCBOXIRX;NMFOAHIHPAPYJJ;NUHCEMOQRZEGAQ;ZUSUVEKHEZURSD;IICQZTQZQSBHBY;KPADFPAILITQBG;XARGIVYWQPXRTC;LEBVLOLOVGHEFE;NUJGJRNETVAIRJ;VWLITJGXNSANSN;ZBAXJUPCYVIBSP;KABCBIJVOXYNHG;NYFHUVYMLLAQHH;HIVFIUIKABOGIO;SOUITUXPBGREAE;FOCKPZOFYCTNIA;GCLZXEJWFDSXJZ;OHERZLWVBJCXOF;XWASVAMCARPLHN;NUQYJMDNHVQOME
SubstructureOntologies: CHEMONTID:0002500;NonID:H2O;CHEMONTID:0004476;CHEMONTID:0001831;CHEMONTID:0000286;CHEMONTID:0002230;CHEMONTID:0002436;CHEMONTID:0004622;CHEMONTID:0000118;CHEMONTID:0002434;CHEMONTID:0004620;CHEMONTID:0001661;CHEMONTID:0001016;CHEMONTID:0001019;CHEMONTID:0004325;CHEMONTID:0002229;CHEMONTID:0002647;CHEMONTID:0001334;CHEMONTID:0004149;NonID:Cholesteryl ester-lipid fragment
Ontology: Ergosterols and derivatives
OntologyID: CHEMONTID:0001403
RETENTIONTIME: -1
RETENTIONINDEX: -1
TotalBondEnergy: 29838
TotalScore: 4.8451
TotalHrRulesScore: 0.5
TotalBondCleavageScore: 0.5
TotalMassAccuracyScore: 0.491
TotalFragmentLinkageScore: 0.5
TotalBondDissociationEnergyScore: 0.5
DatabaseScore: 0.2238
SubstructureAssignmentScore: 0
RtSimilarityScore: -1
RiSimilarityScore: 0
Num Fragment VS2 (M/Z Intensity MatchedExactMass SaturatedExactMass Formula RearrangedHydrogen PPM MassDiff_mDa IsEvenElectronRule IsHrRule IsSolventAdductFragment AssignedAdductMass AdductString BondDissociationEnergy TreeDepth SMILES TotalScore HrLikelihood BcLikelihood MaLikelihood FlLikelihood BeLikelihood): 1
425.295532	165939.661196	425.305036464866	424.297760009766	C28H40O3	1	22.35	9.5	True	True	False	0		0	0	O=C2C=C1CC(O)CCC1(C)C4C2=C3C(=O)CC(C(C=CC(C)C(C)C)C)C3(C)CC4	4.98209524154663	1	1	0.982095241546631	1	1

