NAME: epolamine
ID: XBRDBODLCHKXHI
IsSpectrumSearch: False
INCHIKEY: XBRDBODLCHKXHI-UHFFFAOYSA-N
SMILES: OCCN1CCCC1
RESOURCES: ChEBI=CHEBI:48293;CHEBI:48312,STOFF=STOFF_6445
SubstructureInChIKeys: XLYOFNOQVPJJNP;OTMSDBZUPAUEDD;OKKJLVBELUTLKV;ATUOYWHBWRKTHZ;ROSDSFDQCJNGOL;LFQSCWFLJHTTHZ;IJDNQMDRQITEOD;GETQZCLCWQTVFV;LIWAQLJGPBVORC;HZAXFHJVJLSVMW;RWRDLPDLKQPQOW;DAZXVJBJRMWXJP;GVWISOJSERXQBM;HPNMFZURTQLUMO;HQABUPZFAYXKJW;BEBCJVAWIBVWNZ;AVFZOVWCLRSYKC;GNVRJGIVDSQCOP;QCOGKXLOEWLIDC;ZUHZZVMEUAUWHY;UEEJHVSXFDXPFK;DJEQZVQFEPKLOY;SMBYUOXUISCLCF;ZMANZCXQSJIPKH;BFSVOASYOCHEOV
SubstructureOntologies: NonID:H2O;CHEMONTID:0002500;CHEMONTID:0000286;CHEMONTID:0002228;CHEMONTID:0002239;CHEMONTID:0001897;CHEMONTID:0000218;CHEMONTID:0000469;CHEMONTID:0002484;CHEMONTID:0003449
Ontology: N-alkylpyrrolidines
OntologyID: CHEMONTID:0003449
RETENTIONTIME: -1
RETENTIONINDEX: -1
TotalBondEnergy: 8048
TotalScore: 6.6986
TotalHrRulesScore: 1
TotalBondCleavageScore: 1
TotalMassAccuracyScore: 0.9869
TotalFragmentLinkageScore: 1
TotalBondDissociationEnergyScore: 1
DatabaseScore: 0.5476
SubstructureAssignmentScore: 0.1
RtSimilarityScore: -1
RiSimilarityScore: 0
Num Fragment VS2 (M/Z Intensity MatchedExactMass SaturatedExactMass Formula RearrangedHydrogen PPM MassDiff_mDa IsEvenElectronRule IsHrRule IsSolventAdductFragment AssignedAdductMass AdductString BondDissociationEnergy TreeDepth SMILES TotalScore HrLikelihood BcLikelihood MaLikelihood FlLikelihood BeLikelihood): 1
116.115128	143650.808846	116.106992641623	115.099716186523	C6H13NO	1	70.06	8.14	True	True	False	0		0	0	OCCN1CCCC1	4.98685038089752	1	1	0.986850380897522	1	1

NAME: 2,6-dimethylmorpholine
ID: HNVIQLPOGUDBSU
IsSpectrumSearch: False
INCHIKEY: HNVIQLPOGUDBSU-UHFFFAOYNA-N
SMILES: O1C(C)CNCC1C
RESOURCES: STOFF=STOFF_5559;STOFF_5894
SubstructureInChIKeys: VNWKTOKETHGBQD;ATUOYWHBWRKTHZ;ROSDSFDQCJNGOL;LCGLNKUTAGEVQW;LIWAQLJGPBVORC;XOBKSJJDNFUZPF;HZAXFHJVJLSVMW;GVWISOJSERXQBM;HPNMFZURTQLUMO;BEBCJVAWIBVWNZ;YNAVUWVOSKDBBP
SubstructureOntologies: CHEMONTID:0002500;CHEMONTID:0002228;CHEMONTID:0001167;CHEMONTID:0001897;CHEMONTID:0002484;CHEMONTID:0000392
Ontology: Morpholines
OntologyID: CHEMONTID:0000392
RETENTIONTIME: -1
RETENTIONINDEX: -1
TotalBondEnergy: 8028
TotalScore: 6.6946
TotalHrRulesScore: 1
TotalBondCleavageScore: 1
TotalMassAccuracyScore: 0.9869
TotalFragmentLinkageScore: 1
TotalBondDissociationEnergyScore: 1
DatabaseScore: 0.5238
SubstructureAssignmentScore: 0.1667
RtSimilarityScore: -1
RiSimilarityScore: 0
Num Fragment VS2 (M/Z Intensity MatchedExactMass SaturatedExactMass Formula RearrangedHydrogen PPM MassDiff_mDa IsEvenElectronRule IsHrRule IsSolventAdductFragment AssignedAdductMass AdductString BondDissociationEnergy TreeDepth SMILES TotalScore HrLikelihood BcLikelihood MaLikelihood FlLikelihood BeLikelihood): 1
116.115128	143650.808846	116.106992641623	115.099716186523	C6H13NO	1	70.06	8.14	True	True	False	0		0	0	O1C(C)CNCC1C	4.98685038089752	1	1	0.986850380897522	1	1

NAME: N-(2-Methylpropyl)acetamide
ID: VDQMVRFHUYAKJL
IsSpectrumSearch: False
INCHIKEY: VDQMVRFHUYAKJL-UHFFFAOYSA-N
SMILES: O=C(NCC(C)C)C
RESOURCES: HMDB=HMDB0034203,FooDB=FDB012501,UNPD=UNPD95475
SubstructureInChIKeys: VNWKTOKETHGBQD;WSFSSNUMVMOOMR;IKHGUXGNUITLKF;ATUOYWHBWRKTHZ;ROSDSFDQCJNGOL;NNPPMTNAJDCUHE;ATHHXGZTWNVVOU;LIWAQLJGPBVORC;GVWISOJSERXQBM;HPNMFZURTQLUMO;KDSNLYIMUZNERS;SUUDTPGCUKBECW
SubstructureOntologies: CHEMONTID:0002500;CHEMONTID:0001831;CHEMONTID:0002230;CHEMONTID:0002228;CHEMONTID:0004620;CHEMONTID:0002484;CHEMONTID:0000469;CHEMONTID:0001663
Ontology: Acetamides
OntologyID: CHEMONTID:0003922
RETENTIONTIME: -1
RETENTIONINDEX: -1
TotalBondEnergy: 8061
TotalScore: 6.6748
TotalHrRulesScore: 1
TotalBondCleavageScore: 1
TotalMassAccuracyScore: 0.9869
TotalFragmentLinkageScore: 1
TotalBondDissociationEnergyScore: 1
DatabaseScore: 0.5714
SubstructureAssignmentScore: 0
RtSimilarityScore: -1
RiSimilarityScore: 0
Num Fragment VS2 (M/Z Intensity MatchedExactMass SaturatedExactMass Formula RearrangedHydrogen PPM MassDiff_mDa IsEvenElectronRule IsHrRule IsSolventAdductFragment AssignedAdductMass AdductString BondDissociationEnergy TreeDepth SMILES TotalScore HrLikelihood BcLikelihood MaLikelihood FlLikelihood BeLikelihood): 1
116.115128	143650.808846	116.106992641623	115.099716186523	C6H13NO	1	70.06	8.14	True	True	False	0		0	0	O=C(NCC(C)C)C	4.98685038089752	1	1	0.986850380897522	1	1

NAME: (S)-2-(methoxymethyl)pyrrolidine
ID: CHPRFKYDQRKRRK
IsSpectrumSearch: False
INCHIKEY: CHPRFKYDQRKRRK-LURJTMIESA-N
SMILES: O(C)CC1NCCC1
RESOURCES: ChEBI=CHEBI:131426
SubstructureInChIKeys: VNWKTOKETHGBQD;OTMSDBZUPAUEDD;ATUOYWHBWRKTHZ;ROSDSFDQCJNGOL;LCGLNKUTAGEVQW;IJDNQMDRQITEOD;JJWLVOIRVHMVIS;LIWAQLJGPBVORC;BDERNNFJNOPAEC;XOBKSJJDNFUZPF;HZAXFHJVJLSVMW;RWRDLPDLKQPQOW;OFBQJSOFQDEBGM;GVWISOJSERXQBM;HPNMFZURTQLUMO;HQABUPZFAYXKJW;XHFGWHUWQXTGAT;BEBCJVAWIBVWNZ;LRHPLDYGYMQRHN;VNKYTQGIUYNRMY;DPBLXKKOBLCELK;AMQJEAYHLZJPGS;VLSTXUUYLIALPB
SubstructureOntologies: CHEMONTID:0002500;CHEMONTID:0002228;CHEMONTID:0001167;CHEMONTID:0000469;CHEMONTID:0000286;CHEMONTID:0001897;CHEMONTID:0000218;CHEMONTID:0002484
Ontology: Pyrrolidines
OntologyID: CHEMONTID:0000218
RETENTIONTIME: -1
RETENTIONINDEX: -1
TotalBondEnergy: 8028
TotalScore: 6.6599
TotalHrRulesScore: 1
TotalBondCleavageScore: 1
TotalMassAccuracyScore: 0.9869
TotalFragmentLinkageScore: 1
TotalBondDissociationEnergyScore: 1
DatabaseScore: 0.5238
SubstructureAssignmentScore: 0.125
RtSimilarityScore: -1
RiSimilarityScore: 0
Num Fragment VS2 (M/Z Intensity MatchedExactMass SaturatedExactMass Formula RearrangedHydrogen PPM MassDiff_mDa IsEvenElectronRule IsHrRule IsSolventAdductFragment AssignedAdductMass AdductString BondDissociationEnergy TreeDepth SMILES TotalScore HrLikelihood BcLikelihood MaLikelihood FlLikelihood BeLikelihood): 1
116.115128	143650.808846	116.106992641623	115.099716186523	C6H13NO	1	70.06	8.14	True	True	False	0		0	0	O(C)CC1NCCC1	4.98685038089752	1	1	0.986850380897522	1	1

NAME: N-(3-Methylbutyl)acetamide
ID: GYLDXXLJMRTVSS
IsSpectrumSearch: False
INCHIKEY: GYLDXXLJMRTVSS-UHFFFAOYSA-N
SMILES: O=C(NCCCC)C
RESOURCES: HMDB=HMDB0031651,FooDB=FDB008311
SubstructureInChIKeys: VNWKTOKETHGBQD;WSFSSNUMVMOOMR;OTMSDBZUPAUEDD;IKHGUXGNUITLKF;ATUOYWHBWRKTHZ;ROSDSFDQCJNGOL;IJDNQMDRQITEOD;ATHHXGZTWNVVOU;LIWAQLJGPBVORC;GVWISOJSERXQBM;HPNMFZURTQLUMO;HQABUPZFAYXKJW;SUUDTPGCUKBECW;QCOGKXLOEWLIDC
SubstructureOntologies: CHEMONTID:0002500;CHEMONTID:0001831;CHEMONTID:0002230;CHEMONTID:0002228;CHEMONTID:0002484;CHEMONTID:0000469;CHEMONTID:0001663
Ontology: Acetamides
OntologyID: CHEMONTID:0003922
RETENTIONTIME: -1
RETENTIONINDEX: -1
TotalBondEnergy: 8061
TotalScore: 6.6152
TotalHrRulesScore: 1
TotalBondCleavageScore: 1
TotalMassAccuracyScore: 0.9869
TotalFragmentLinkageScore: 1
TotalBondDissociationEnergyScore: 1
DatabaseScore: 0.5476
SubstructureAssignmentScore: 0
RtSimilarityScore: -1
RiSimilarityScore: 0
Num Fragment VS2 (M/Z Intensity MatchedExactMass SaturatedExactMass Formula RearrangedHydrogen PPM MassDiff_mDa IsEvenElectronRule IsHrRule IsSolventAdductFragment AssignedAdductMass AdductString BondDissociationEnergy TreeDepth SMILES TotalScore HrLikelihood BcLikelihood MaLikelihood FlLikelihood BeLikelihood): 1
116.115128	143650.808846	116.106992641623	115.099716186523	C6H13NO	1	70.06	8.14	True	True	False	0		0	0	O=C(NCCCC)C	4.98685038089752	1	1	0.986850380897522	1	1

NAME: 1-Amino-1-Carbonyl Pentane
ID: TZJGKUCHNFFHGN
IsSpectrumSearch: False
INCHIKEY: TZJGKUCHNFFHGN-ZCFIWIBFSA-N
SMILES: O=CC(N)CCCC
RESOURCES: DrugBank=DB03241
SubstructureInChIKeys: VNWKTOKETHGBQD;QGZKDVFQNNGYKY;WSFSSNUMVMOOMR;OTMSDBZUPAUEDD;BAVYZALUXZFZLV;IKHGUXGNUITLKF;ATUOYWHBWRKTHZ;QUSNBJAOOMFDIB;NBBJYMSMWIIQGU;IJDNQMDRQITEOD;LYIIBVSRGJSHAV;JJWLVOIRVHMVIS;WGYKZJWCGVVSQN;ZTQSAGDEMFDKMZ;OFBQJSOFQDEBGM;QPMCUNAXNMSGTK;HQABUPZFAYXKJW;HGBOYTHUEUWSSQ;VLKZOEOYAKHREP;FGEPRNXUNITOCW;DPBLXKKOBLCELK;JARKCYVAAOWBJS
SubstructureOntologies: CHEMONTID:0002500;NonID:NH2;CHEMONTID:0001831;CHEMONTID:0000469;CHEMONTID:0002230;CHEMONTID:0002434;CHEMONTID:0002229
Ontology: Monoalkylamines
OntologyID: CHEMONTID:0000469
RETENTIONTIME: -1
RETENTIONINDEX: -1
TotalBondEnergy: 8077
TotalScore: 6.5557
TotalHrRulesScore: 1
TotalBondCleavageScore: 1
TotalMassAccuracyScore: 0.9869
TotalFragmentLinkageScore: 1
TotalBondDissociationEnergyScore: 1
DatabaseScore: 0.5238
SubstructureAssignmentScore: 0
RtSimilarityScore: -1
RiSimilarityScore: 0
Num Fragment VS2 (M/Z Intensity MatchedExactMass SaturatedExactMass Formula RearrangedHydrogen PPM MassDiff_mDa IsEvenElectronRule IsHrRule IsSolventAdductFragment AssignedAdductMass AdductString BondDissociationEnergy TreeDepth SMILES TotalScore HrLikelihood BcLikelihood MaLikelihood FlLikelihood BeLikelihood): 1
116.115128	143650.808846	116.106992641623	115.099716186523	C6H13NO	1	70.06	8.14	True	True	False	0		0	0	O=CC(N)CCCC	4.98685038089752	1	1	0.986850380897522	1	1

NAME: trans-4-aminocyclohexan-1-ol
ID: IMLXLGZJLAOKJN
IsSpectrumSearch: False
INCHIKEY: IMLXLGZJLAOKJN-UHFFFAOYSA-N
SMILES: OC1CCC(N)CC1
RESOURCES: STOFF=STOFF_6033
SubstructureInChIKeys: QGZKDVFQNNGYKY;XLYOFNOQVPJJNP;OTMSDBZUPAUEDD;BAVYZALUXZFZLV;OKKJLVBELUTLKV;ATUOYWHBWRKTHZ;QUSNBJAOOMFDIB;LFQSCWFLJHTTHZ;IJDNQMDRQITEOD;JJWLVOIRVHMVIS;WGYKZJWCGVVSQN;BDERNNFJNOPAEC;KFZMGEQAYNKOFK;OFBQJSOFQDEBGM;HQABUPZFAYXKJW;BTANRVKWQNVYAZ;LRHPLDYGYMQRHN;XDTMQSROBMDMFD;VLKZOEOYAKHREP;DPBLXKKOBLCELK;AMQJEAYHLZJPGS;AQIXEPGDORPWBJ;JYVLIDXNZAXMDK;HPXRVTGHNJAIIH;ZSIAUFGUXNUGDI
SubstructureOntologies: NonID:NH2;NonID:H2O;CHEMONTID:0002500;CHEMONTID:0000469;CHEMONTID:0000286;CHEMONTID:0001661;CHEMONTID:0001016;CHEMONTID:0002647;CHEMONTID:0001334
Ontology: Cyclohexanols
OntologyID: CHEMONTID:0002647
RETENTIONTIME: -1
RETENTIONINDEX: -1
TotalBondEnergy: 8080
TotalScore: 6.5557
TotalHrRulesScore: 1
TotalBondCleavageScore: 1
TotalMassAccuracyScore: 0.9869
TotalFragmentLinkageScore: 1
TotalBondDissociationEnergyScore: 1
DatabaseScore: 0.5238
SubstructureAssignmentScore: 0
RtSimilarityScore: -1
RiSimilarityScore: 0
Num Fragment VS2 (M/Z Intensity MatchedExactMass SaturatedExactMass Formula RearrangedHydrogen PPM MassDiff_mDa IsEvenElectronRule IsHrRule IsSolventAdductFragment AssignedAdductMass AdductString BondDissociationEnergy TreeDepth SMILES TotalScore HrLikelihood BcLikelihood MaLikelihood FlLikelihood BeLikelihood): 1
116.115128	143650.808846	116.106992641623	115.099716186523	C6H13NO	1	70.06	8.14	True	True	False	0		0	0	OC1CCC(N)CC1	4.98685038089752	1	1	0.986850380897522	1	1

NAME: UNPD58183
ID: HVCNXQOWACZAFN
IsSpectrumSearch: False
INCHIKEY: HVCNXQOWACZAFN-UHFFFAOYSA-N
SMILES: O1CCN(CC)CC1
RESOURCES: UNPD=UNPD58183
SubstructureInChIKeys: VNWKTOKETHGBQD;OTMSDBZUPAUEDD;ROSDSFDQCJNGOL;LCGLNKUTAGEVQW;GETQZCLCWQTVFV;LIWAQLJGPBVORC;XOBKSJJDNFUZPF;HZAXFHJVJLSVMW;DAZXVJBJRMWXJP;HPNMFZURTQLUMO;BEBCJVAWIBVWNZ;YNAVUWVOSKDBBP;GNVRJGIVDSQCOP;UEEJHVSXFDXPFK;ZMANZCXQSJIPKH;BFSVOASYOCHEOV;KBUULMSISDOTQC
SubstructureOntologies: CHEMONTID:0002500;CHEMONTID:0002228;CHEMONTID:0001167;CHEMONTID:0002239;CHEMONTID:0001897;CHEMONTID:0002484;CHEMONTID:0000392;CHEMONTID:0001238
Ontology: Morpholines
OntologyID: CHEMONTID:0000392
RETENTIONTIME: -1
RETENTIONINDEX: -1
TotalBondEnergy: 8012
TotalScore: 5.9099
TotalHrRulesScore: 1
TotalBondCleavageScore: 1
TotalMassAccuracyScore: 0.9869
TotalFragmentLinkageScore: 1
TotalBondDissociationEnergyScore: 1
DatabaseScore: 0.2238
SubstructureAssignmentScore: 0.125
RtSimilarityScore: -1
RiSimilarityScore: 0
Num Fragment VS2 (M/Z Intensity MatchedExactMass SaturatedExactMass Formula RearrangedHydrogen PPM MassDiff_mDa IsEvenElectronRule IsHrRule IsSolventAdductFragment AssignedAdductMass AdductString BondDissociationEnergy TreeDepth SMILES TotalScore HrLikelihood BcLikelihood MaLikelihood FlLikelihood BeLikelihood): 1
116.115128	143650.808846	116.106992641623	115.099716186523	C6H13NO	1	70.06	8.14	True	True	False	0		0	0	O1CCN(CC)CC1	4.98685038089752	1	1	0.986850380897522	1	1

NAME: UNPD195892
ID: ACMPWZQOUILVFB
IsSpectrumSearch: False
INCHIKEY: ACMPWZQOUILVFB-UHFFFAOYSA-N
SMILES: O=C(N)CCC(C)C
RESOURCES: UNPD=UNPD195892
SubstructureInChIKeys: VNWKTOKETHGBQD;QGZKDVFQNNGYKY;WSFSSNUMVMOOMR;OTMSDBZUPAUEDD;IKHGUXGNUITLKF;ATUOYWHBWRKTHZ;QUSNBJAOOMFDIB;NBBJYMSMWIIQGU;IJDNQMDRQITEOD;NNPPMTNAJDCUHE;WGYKZJWCGVVSQN;ZTQSAGDEMFDKMZ;OFBQJSOFQDEBGM;QWTDNUCVQCZILF;HQABUPZFAYXKJW;HGBOYTHUEUWSSQ;AFABGHUZZDYHJO;DPBLXKKOBLCELK
SubstructureOntologies: CHEMONTID:0002500;NonID:NH2;CHEMONTID:0001831;CHEMONTID:0002230;CHEMONTID:0000469;CHEMONTID:0002434;CHEMONTID:0004620
Ontology: Fatty amides
OntologyID: CHEMONTID:0000331
RETENTIONTIME: -1
RETENTIONINDEX: -1
TotalBondEnergy: 8077
TotalScore: 5.8057
TotalHrRulesScore: 1
TotalBondCleavageScore: 1
TotalMassAccuracyScore: 0.9869
TotalFragmentLinkageScore: 1
TotalBondDissociationEnergyScore: 1
DatabaseScore: 0.2238
SubstructureAssignmentScore: 0
RtSimilarityScore: -1
RiSimilarityScore: 0
Num Fragment VS2 (M/Z Intensity MatchedExactMass SaturatedExactMass Formula RearrangedHydrogen PPM MassDiff_mDa IsEvenElectronRule IsHrRule IsSolventAdductFragment AssignedAdductMass AdductString BondDissociationEnergy TreeDepth SMILES TotalScore HrLikelihood BcLikelihood MaLikelihood FlLikelihood BeLikelihood): 1
116.115128	143650.808846	116.106992641623	115.099716186523	C6H13NO	1	70.06	8.14	True	True	False	0		0	0	O=C(N)CCC(C)C	4.98685038089752	1	1	0.986850380897522	1	1

NAME: UNPD66236
ID: CQTRUFMMCCOKTA
IsSpectrumSearch: False
INCHIKEY: CQTRUFMMCCOKTA-UHFFFAOYSA-N
SMILES: O=C(C)CC(N)(C)C
RESOURCES: UNPD=UNPD66236
SubstructureInChIKeys: VNWKTOKETHGBQD;QGZKDVFQNNGYKY;WSFSSNUMVMOOMR;BAVYZALUXZFZLV;IKHGUXGNUITLKF;ATUOYWHBWRKTHZ;QUSNBJAOOMFDIB;CSCPPACGZOOCGX;NBBJYMSMWIIQGU;IJDNQMDRQITEOD;NNPPMTNAJDCUHE;JJWLVOIRVHMVIS;WGYKZJWCGVVSQN;ZTQSAGDEMFDKMZ;OFBQJSOFQDEBGM;QWTDNUCVQCZILF;HQABUPZFAYXKJW;AFABGHUZZDYHJO
SubstructureOntologies: CHEMONTID:0002500;NonID:NH2;CHEMONTID:0001831;CHEMONTID:0000469;CHEMONTID:0002230;CHEMONTID:0000118;CHEMONTID:0002434;CHEMONTID:0004620
Ontology: Beta-amino ketones
OntologyID: CHEMONTID:0000280
RETENTIONTIME: -1
RETENTIONINDEX: -1
TotalBondEnergy: 8077
TotalScore: 5.8057
TotalHrRulesScore: 1
TotalBondCleavageScore: 1
TotalMassAccuracyScore: 0.9869
TotalFragmentLinkageScore: 1
TotalBondDissociationEnergyScore: 1
DatabaseScore: 0.2238
SubstructureAssignmentScore: 0
RtSimilarityScore: -1
RiSimilarityScore: 0
Num Fragment VS2 (M/Z Intensity MatchedExactMass SaturatedExactMass Formula RearrangedHydrogen PPM MassDiff_mDa IsEvenElectronRule IsHrRule IsSolventAdductFragment AssignedAdductMass AdductString BondDissociationEnergy TreeDepth SMILES TotalScore HrLikelihood BcLikelihood MaLikelihood FlLikelihood BeLikelihood): 1
116.115128	143650.808846	116.106992641623	115.099716186523	C6H13NO	1	70.06	8.14	True	True	False	0		0	0	O=C(C)CC(N)(C)C	4.98685038089752	1	1	0.986850380897522	1	1

NAME: UNPD138482
ID: NTLKAXQBFYZMAH
IsSpectrumSearch: False
INCHIKEY: NTLKAXQBFYZMAH-MLHKIVSYNA-N
SMILES: O=C(N)C(C)CCC
RESOURCES: UNPD=UNPD138482;UNPD50741
SubstructureInChIKeys: VNWKTOKETHGBQD;QGZKDVFQNNGYKY;WSFSSNUMVMOOMR;OTMSDBZUPAUEDD;IKHGUXGNUITLKF;ATUOYWHBWRKTHZ;QUSNBJAOOMFDIB;NBBJYMSMWIIQGU;IJDNQMDRQITEOD;NNPPMTNAJDCUHE;WGYKZJWCGVVSQN;ZTQSAGDEMFDKMZ;OFBQJSOFQDEBGM;QWTDNUCVQCZILF;HQABUPZFAYXKJW;KDSNLYIMUZNERS;HGBOYTHUEUWSSQ;AFABGHUZZDYHJO;DPBLXKKOBLCELK;VJROPLWGFCORRM
SubstructureOntologies: CHEMONTID:0002500;NonID:NH2;CHEMONTID:0001831;CHEMONTID:0002230;CHEMONTID:0000469;CHEMONTID:0002434;CHEMONTID:0004620
Ontology: Fatty amides
OntologyID: CHEMONTID:0000331
RETENTIONTIME: -1
RETENTIONINDEX: -1
TotalBondEnergy: 8077
TotalScore: 5.8057
TotalHrRulesScore: 1
TotalBondCleavageScore: 1
TotalMassAccuracyScore: 0.9869
TotalFragmentLinkageScore: 1
TotalBondDissociationEnergyScore: 1
DatabaseScore: 0.2238
SubstructureAssignmentScore: 0
RtSimilarityScore: -1
RiSimilarityScore: 0
Num Fragment VS2 (M/Z Intensity MatchedExactMass SaturatedExactMass Formula RearrangedHydrogen PPM MassDiff_mDa IsEvenElectronRule IsHrRule IsSolventAdductFragment AssignedAdductMass AdductString BondDissociationEnergy TreeDepth SMILES TotalScore HrLikelihood BcLikelihood MaLikelihood FlLikelihood BeLikelihood): 1
116.115128	143650.808846	116.106992641623	115.099716186523	C6H13NO	1	70.06	8.14	True	True	False	0		0	0	O=C(N)C(C)CCC	4.98685038089752	1	1	0.986850380897522	1	1

NAME: UNPD19435
ID: QVEMWYGBLHQEAK
IsSpectrumSearch: False
INCHIKEY: QVEMWYGBLHQEAK-UHFFFAOYSA-N
SMILES: O=C(N)C(CC)CC
RESOURCES: UNPD=UNPD19435
SubstructureInChIKeys: VNWKTOKETHGBQD;QGZKDVFQNNGYKY;WSFSSNUMVMOOMR;OTMSDBZUPAUEDD;IKHGUXGNUITLKF;ATUOYWHBWRKTHZ;QUSNBJAOOMFDIB;NBBJYMSMWIIQGU;IJDNQMDRQITEOD;NNPPMTNAJDCUHE;WGYKZJWCGVVSQN;ZTQSAGDEMFDKMZ;OFBQJSOFQDEBGM;QWTDNUCVQCZILF;HQABUPZFAYXKJW;KDSNLYIMUZNERS;PFEOZHBOMNWTJB;VJROPLWGFCORRM
SubstructureOntologies: CHEMONTID:0002500;NonID:NH2;CHEMONTID:0001831;CHEMONTID:0002230;CHEMONTID:0000469;CHEMONTID:0002434;CHEMONTID:0004620
Ontology: Fatty amides
OntologyID: CHEMONTID:0000331
RETENTIONTIME: -1
RETENTIONINDEX: -1
TotalBondEnergy: 8077
TotalScore: 5.8057
TotalHrRulesScore: 1
TotalBondCleavageScore: 1
TotalMassAccuracyScore: 0.9869
TotalFragmentLinkageScore: 1
TotalBondDissociationEnergyScore: 1
DatabaseScore: 0.2238
SubstructureAssignmentScore: 0
RtSimilarityScore: -1
RiSimilarityScore: 0
Num Fragment VS2 (M/Z Intensity MatchedExactMass SaturatedExactMass Formula RearrangedHydrogen PPM MassDiff_mDa IsEvenElectronRule IsHrRule IsSolventAdductFragment AssignedAdductMass AdductString BondDissociationEnergy TreeDepth SMILES TotalScore HrLikelihood BcLikelihood MaLikelihood FlLikelihood BeLikelihood): 1
116.115128	143650.808846	116.106992641623	115.099716186523	C6H13NO	1	70.06	8.14	True	True	False	0		0	0	O=C(N)C(CC)CC	4.98685038089752	1	1	0.986850380897522	1	1

NAME: UNPD44155
ID: SIMLCFANWCDGAF
IsSpectrumSearch: False
INCHIKEY: SIMLCFANWCDGAF-MLHKIVSYNA-N
SMILES: O=C(N)CC(C)CC
RESOURCES: UNPD=UNPD44155
SubstructureInChIKeys: VNWKTOKETHGBQD;QGZKDVFQNNGYKY;WSFSSNUMVMOOMR;OTMSDBZUPAUEDD;IKHGUXGNUITLKF;ATUOYWHBWRKTHZ;QUSNBJAOOMFDIB;NBBJYMSMWIIQGU;IJDNQMDRQITEOD;NNPPMTNAJDCUHE;WGYKZJWCGVVSQN;ZTQSAGDEMFDKMZ;OFBQJSOFQDEBGM;QWTDNUCVQCZILF;HQABUPZFAYXKJW;HGBOYTHUEUWSSQ;PFEOZHBOMNWTJB;BMFVGAAISNGQNM;DPBLXKKOBLCELK
SubstructureOntologies: CHEMONTID:0002500;NonID:NH2;CHEMONTID:0001831;CHEMONTID:0002230;CHEMONTID:0000469;CHEMONTID:0002434;CHEMONTID:0004620
Ontology: Carboximidic acids
OntologyID: CHEMONTID:0002484
RETENTIONTIME: -1
RETENTIONINDEX: -1
TotalBondEnergy: 8077
TotalScore: 5.8057
TotalHrRulesScore: 1
TotalBondCleavageScore: 1
TotalMassAccuracyScore: 0.9869
TotalFragmentLinkageScore: 1
TotalBondDissociationEnergyScore: 1
DatabaseScore: 0.2238
SubstructureAssignmentScore: 0
RtSimilarityScore: -1
RiSimilarityScore: 0
Num Fragment VS2 (M/Z Intensity MatchedExactMass SaturatedExactMass Formula RearrangedHydrogen PPM MassDiff_mDa IsEvenElectronRule IsHrRule IsSolventAdductFragment AssignedAdductMass AdductString BondDissociationEnergy TreeDepth SMILES TotalScore HrLikelihood BcLikelihood MaLikelihood FlLikelihood BeLikelihood): 1
116.115128	143650.808846	116.106992641623	115.099716186523	C6H13NO	1	70.06	8.14	True	True	False	0		0	0	O=C(N)CC(C)CC	4.98685038089752	1	1	0.986850380897522	1	1

NAME: UNPD162962
ID: SJCBWLJRMCOJEC
IsSpectrumSearch: False
INCHIKEY: SJCBWLJRMCOJEC-UHFFFAOYSA-N
SMILES: O=C(N(C)C(C)C)C
RESOURCES: UNPD=UNPD162962
SubstructureInChIKeys: VNWKTOKETHGBQD;WSFSSNUMVMOOMR;IKHGUXGNUITLKF;ATUOYWHBWRKTHZ;ROSDSFDQCJNGOL;ATHHXGZTWNVVOU;GETQZCLCWQTVFV;JJWLVOIRVHMVIS;LIWAQLJGPBVORC;DAZXVJBJRMWXJP;HPNMFZURTQLUMO;XHFGWHUWQXTGAT;GNVRJGIVDSQCOP
SubstructureOntologies: CHEMONTID:0002500;CHEMONTID:0001831;CHEMONTID:0002230;CHEMONTID:0002228;CHEMONTID:0002484;CHEMONTID:0002239;CHEMONTID:0000469
Ontology: Tertiary carboxylic acid amides
OntologyID: CHEMONTID:0001664
RETENTIONTIME: -1
RETENTIONINDEX: -1
TotalBondEnergy: 8045
TotalScore: 5.8057
TotalHrRulesScore: 1
TotalBondCleavageScore: 1
TotalMassAccuracyScore: 0.9869
TotalFragmentLinkageScore: 1
TotalBondDissociationEnergyScore: 1
DatabaseScore: 0.2238
SubstructureAssignmentScore: 0
RtSimilarityScore: -1
RiSimilarityScore: 0
Num Fragment VS2 (M/Z Intensity MatchedExactMass SaturatedExactMass Formula RearrangedHydrogen PPM MassDiff_mDa IsEvenElectronRule IsHrRule IsSolventAdductFragment AssignedAdductMass AdductString BondDissociationEnergy TreeDepth SMILES TotalScore HrLikelihood BcLikelihood MaLikelihood FlLikelihood BeLikelihood): 1
116.115128	143650.808846	116.106992641623	115.099716186523	C6H13NO	1	70.06	8.14	True	True	False	0		0	0	O=C(N(C)C(C)C)C	4.98685038089752	1	1	0.986850380897522	1	1

NAME: UNPD175725
ID: VTGXVUQXDHXADV
IsSpectrumSearch: False
INCHIKEY: VTGXVUQXDHXADV-UHFFFAOYSA-N
SMILES: [O-][N+]1(C)(CCCCC1)
RESOURCES: UNPD=UNPD175725
SubstructureInChIKeys: VNWKTOKETHGBQD;XLYOFNOQVPJJNP;OTMSDBZUPAUEDD;ATUOYWHBWRKTHZ;ROSDSFDQCJNGOL;IJDNQMDRQITEOD;INXJOSXEHHMQQF;GETQZCLCWQTVFV;LIWAQLJGPBVORC;OFBQJSOFQDEBGM;DAZXVJBJRMWXJP;GVWISOJSERXQBM;HPNMFZURTQLUMO;HQABUPZFAYXKJW;NQRYJNQNLNOLGT;DPBLXKKOBLCELK;GNVRJGIVDSQCOP;QCOGKXLOEWLIDC;ZUHZZVMEUAUWHY;PAMIQIKDUOTOBW;DJEQZVQFEPKLOY;SMBYUOXUISCLCF
SubstructureOntologies: CHEMONTID:0002500;NonID:H2O;CHEMONTID:0002228;CHEMONTID:0000278;CHEMONTID:0002239;CHEMONTID:0000469;CHEMONTID:0000195
Ontology: Piperidines
OntologyID: CHEMONTID:0000195
RETENTIONTIME: -1
RETENTIONINDEX: -1
TotalBondEnergy: 7843
TotalScore: 5.8057
TotalHrRulesScore: 1
TotalBondCleavageScore: 1
TotalMassAccuracyScore: 0.9869
TotalFragmentLinkageScore: 1
TotalBondDissociationEnergyScore: 1
DatabaseScore: 0.2238
SubstructureAssignmentScore: 0
RtSimilarityScore: -1
RiSimilarityScore: 0
Num Fragment VS2 (M/Z Intensity MatchedExactMass SaturatedExactMass Formula RearrangedHydrogen PPM MassDiff_mDa IsEvenElectronRule IsHrRule IsSolventAdductFragment AssignedAdductMass AdductString BondDissociationEnergy TreeDepth SMILES TotalScore HrLikelihood BcLikelihood MaLikelihood FlLikelihood BeLikelihood): 1
116.115128	143650.808846	116.106992641623	115.099716186523	C6H13NO	1	70.06	8.14	True	True	False	0		0	0	[O-][N+]1(C)(CCCCC1)	4.98685038089752	1	1	0.986850380897522	1	1

